This is the start of the log file generated at 09_16_15h17m31s

15 VELO-type subdetectors added at z-locations: [20, 50, 80, 110, 140, 170, 200, 230, 260, 290, 450, 600, 650, 700, 750]
4 TT-type subdetectors added at z-locations: [2330, 2370, 2600, 2640]
24 OT-type subdetectors added at z-locations: [7860, 7870, 7910, 7920, 7980, 7990, 8030, 8040, 8540, 8550, 8590, 8600, 8660, 8670, 8710, 8720, 9230, 9240, 9280, 9290, 9350, 9360, 9400, 9410]
The detector is built.
Particle 0:
eta 0.6584789484624085, phi 0.7853981633974483,
p 5.9961699850299395, q -1.60217662e-19,
brem = False
input State:
[[ 0.1 ]
 [ 0.1 ]
 [ 1.  ]
 [ 1.  ]
 [-0.05]]

Simulating particle
Particle track 0 is saved
Initiating Kalman filtering for particle: 0
Particle 0:
eta 0.22702050144501146, phi -1.3398766851213615,
p 3.3732608728817133, q -1.60217662e-19,
brem = False
output State:
[[ 8.95428591]
 [ 0.10280932]
 [-4.25135444]
 [ 0.99955138]
 [-0.08887795]]
Data added to list for particle: 0
data saved to data/toy_output/226