This is the start of the log file generated at 09_17_18h04m46s

15 VELO-type subdetectors added at z-locations: [20, 50, 80, 110, 140, 170, 200, 230, 260, 290, 450, 600, 650, 700, 750]
4 TT-type subdetectors added at z-locations: [2330, 2370, 2600, 2640]
24 OT-type subdetectors added at z-locations: [7860, 7870, 7910, 7920, 7980, 7990, 8030, 8040, 8540, 8550, 8590, 8600, 8660, 8670, 8710, 8720, 9230, 9240, 9280, 9290, 9350, 9360, 9400, 9410]
The detector is built.
Generating 970 particles...
Particle 0:
eta 2.3367551768275003, phi -0.7359605764307706,
p 3.0, q 1.60217662e-19,
brem = False
input State:
[[ 0.001     ]
 [-0.001     ]
 [-0.13097292]
 [ 0.14460809]
 [ 0.09993617]]

Simulating particle
Particle track 0 is saved
Initiating Kalman filtering for particle: 0
z = 0
F[0,2]: 
O(h): 0.001
O(h^2): 4.699337823306244e-16
O(h^3) (currently not in use): 4.330463867797569e-27
F[0,3]: O(h^2): -2.0455594435397104e-16
O(h^3) (currently not in use): -1.2905969517662357e-28
F[0,4]: O(h^2): -1.3788703538696603e-14
O(h^3) (currently not in use): 7.881282155082204e-26
F[2,2]: 
O(h^0): 1
O(h^1): 9.39867564661249e-13
O(h^2): 1.2991391603392708e-23
F[2,3] 
O(h^1): -4.091118887079422e-13
O(h^2): -3.871790855298708e-25
F[2,4] 
O(h^1): -2.757740707739321e-11
O(h^2): -2.6098961062293886e-23
z = 0
F[0,2]: 
O(h): 0.001
O(h^2): 4.227255731903284e-15
O(h^3) (currently not in use): 3.504113217502994e-25
F[0,3]: O(h^2): -1.8400683686302304e-15
O(h^3) (currently not in use): -1.0443218037228882e-26
F[0,4]: O(h^2): -1.2403529658421252e-13
O(h^3) (currently not in use): 6.377354900873991e-24
F[2,2]: 
O(h^0): 1
O(h^1): 8.454511463806566e-12
O(h^2): 1.0512339652508978e-21
F[2,3] 
O(h^1): -3.680136737260461e-12
O(h^2): -3.1329654111686635e-23
F[2,4] 
O(h^1): -2.4807059316842506e-10
O(h^2): -2.111868779374008e-21
z = 0
F[0,2]: 
O(h): 0.001
O(h^2): 1.1736409513121434e-14
O(h^3) (currently not in use): 2.7010436051918293e-24
F[0,3]: O(h^2): -5.1087034391242356e-15
O(h^3) (currently not in use): -8.049850435380076e-26
F[0,4]: O(h^2): -3.443673925614554e-13
O(h^3) (currently not in use): 4.915798264231874e-23
F[2,2]: 
O(h^0): 1
O(h^1): 2.3472819026242873e-11
O(h^2): 8.103130815575489e-21
F[2,3] 
O(h^1): -1.0217406878248472e-11
O(h^2): -2.414955130614023e-22
F[2,4] 
O(h^1): -6.887347851229108e-10
O(h^2): -1.6278725343764002e-20
z = 0
F[0,2]: 
O(h): 0.001
O(h^2): 2.299166632720471e-14
O(h^3) (currently not in use): 1.0365779846752237e-23
F[0,3]: O(h^2): -1.0007967474488937e-14
O(h^3) (currently not in use): -3.089286576282848e-25
F[0,4]: O(h^2): -6.746168974593669e-13
O(h^3) (currently not in use): 1.8865331338522012e-22
F[2,2]: 
O(h^0): 1
O(h^1): 4.5983332654409424e-11
O(h^2): 3.109733954025671e-20
F[2,3] 
O(h^1): -2.0015934948977873e-11
O(h^2): -9.267859728848541e-22
F[2,4] 
O(h^1): -1.3492337949187338e-09
O(h^2): -6.247277274133716e-20
z = 0
F[0,2]: 
O(h): 0.001
O(h^2): 3.798729741223572e-14
O(h^3) (currently not in use): 2.829683592169506e-23
F[0,3]: O(h^2): -1.653536679357211e-14
O(h^3) (currently not in use): -8.433232893858995e-25
F[0,4]: O(h^2): -1.1146157173052225e-12
O(h^3) (currently not in use): 5.149918223777664e-22
F[2,2]: 
O(h^0): 1
O(h^1): 7.597459482447143e-11
O(h^2): 8.489050776508518e-20
F[2,3] 
O(h^1): -3.307073358714423e-11
O(h^2): -2.5299698681576986e-21
F[2,4] 
O(h^1): -2.2292314346104447e-09
O(h^2): -1.7054016488182204e-19
z = 0
F[0,2]: 
O(h): 0.001
O(h^2): 5.6717574059778464e-14
O(h^3) (currently not in use): 6.308068090469711e-23
F[0,3]: O(h^2): -2.4688407715504165e-14
O(h^3) (currently not in use): -1.8799772411151887e-24
F[0,4]: O(h^2): -1.6641957581819131e-12
O(h^3) (currently not in use): 1.1480447811467932e-21
F[2,2]: 
O(h^0): 1
O(h^1): 1.1343514811955695e-10
O(h^2): 1.8924204271409139e-19
F[2,3] 
O(h^1): -4.937681543100834e-11
O(h^2): -5.639931723345568e-21
F[2,4] 
O(h^1): -3.328391516363827e-09
O(h^2): -3.80176419580635e-19
z = 0
F[0,2]: 
O(h): 0.001
O(h^2): 7.91767676314077e-14
O(h^3) (currently not in use): 1.2292963980928857e-22
F[0,3]: O(h^2): -3.4464596559785586e-14
O(h^3) (currently not in use): -3.663640327827235e-24
F[0,4]: O(h^2): -2.323188926245137e-12
O(h^3) (currently not in use): 2.237273430192413e-21
F[2,2]: 
O(h^0): 1
O(h^1): 1.5835353526281542e-10
O(h^2): 3.687889194278655e-19
F[2,3] 
O(h^1): -6.892919311957116e-11
O(h^2): -1.09909209834817e-20
F[2,4] 
O(h^1): -4.646377852490275e-09
O(h^2): -7.408758107400535e-19
z = 0
F[0,2]: 
O(h): 0.001
O(h^2): 1.0535914957514838e-13
O(h^3) (currently not in use): 2.176735092134215e-22
F[0,3]: O(h^2): -4.5861439646373674e-14
O(h^3) (currently not in use): -6.4872674685069395e-24
F[0,4]: O(h^2): -3.0914271277404884e-12
O(h^3) (currently not in use): 3.961576386028892e-21
F[2,2]: 
O(h^0): 1
O(h^1): 2.107182991502968e-10
O(h^2): 6.530205276402644e-19
F[2,3] 
O(h^1): -9.172287929274734e-11
O(h^2): -1.9461802405520815e-20
F[2,4] 
O(h^1): -6.182854255480978e-09
O(h^2): -1.3118808387845599e-18
z = 0
F[0,2]: 
O(h): 0.001
O(h^2): 1.3525899144182646e-13
O(h^3) (currently not in use): 3.587511857745311e-22
F[0,3]: O(h^2): -5.88764432957691e-14
O(h^3) (currently not in use): -1.0691769204202183e-23
F[0,4]: O(h^2): -3.9687422690204685e-12
O(h^3) (currently not in use): 6.529137282593012e-21
F[2,2]: 
O(h^0): 1
O(h^1): 2.7051798288365296e-10
O(h^2): 1.0762535573235932e-18
F[2,3] 
O(h^1): -1.1775288659153821e-10
O(h^2): -3.2075307612606554e-20
F[2,4] 
O(h^1): -7.937484538040939e-09
O(h^2): -2.1621317795046464e-18
z = 0
F[0,2]: 
O(h): 0.001
O(h^2): 1.6887056490133017e-13
O(h^3) (currently not in use): 5.592023076374063e-22
F[0,3]: O(h^2): -7.350711382910174e-14
O(h^3) (currently not in use): -1.666576260448793e-23
F[0,4]: O(h^2): -4.9549662565613934e-12
O(h^3) (currently not in use): 1.0177272647040804e-20
F[2,2]: 
O(h^0): 1
O(h^1): 3.377411298026603e-10
O(h^2): 1.6776069229122183e-18
F[2,3] 
O(h^1): -1.4701422765820344e-10
O(h^2): -4.9997287813463766e-20
F[2,4] 
O(h^1): -9.909932513122786e-09
O(h^2): -3.3702163114615715e-18
z = 0
F[0,2]: 
O(h): 0.001
O(h^2): 2.061881417587827e-13
O(h^3) (currently not in use): 8.336589087381601e-22
F[0,3]: O(h^2): -8.975095756821628e-14
O(h^3) (currently not in use): -2.4845322563033933e-23
F[0,4]: O(h^2): -6.0499309969802076e-12
O(h^3) (currently not in use): 1.517228000995343e-20
F[2,2]: 
O(h^0): 1
O(h^1): 4.1237628351756534e-10
O(h^2): 2.50097672621448e-18
F[2,3] 
O(h^1): -1.7950191513643256e-10
O(h^2): -7.453596768910179e-20
F[2,4] 
O(h^1): -1.2099861993960417e-08
O(h^2): -5.024319222103805e-18
z = 0
F[0,2]: 
O(h): 0.001
O(h^2): 2.47205993970626e-13
O(h^3) (currently not in use): 1.198337086007536e-21
F[0,3]: O(h^2): -1.0760548083575702e-13
O(h^3) (currently not in use): -3.5713733482995987e-23
F[0,4]: O(h^2): -7.253468397051209e-12
O(h^3) (currently not in use): 2.180928624997257e-20
F[2,2]: 
O(h^0): 1
O(h^1): 4.94411987941252e-10
O(h^2): 3.595011258022608e-18
F[2,3] 
O(h^1): -2.1521096167151404e-10
O(h^2): -1.0714120044898796e-19
F[2,4] 
O(h^1): -1.4506936794102419e-08
O(h^2): -7.222172192744107e-18
z = 0
F[0,2]: 
O(h): 0.001
O(h^2): 2.9191839366061614e-13
O(h^3) (currently not in use): 1.6710286794767707e-21
F[0,3]: O(h^2): -1.2706818995525272e-13
O(h^3) (currently not in use): -4.980124135294254e-23
F[0,4]: O(h^2): -8.56541036372271e-12
O(h^3) (currently not in use): 3.041209617288574e-20
F[2,2]: 
O(h^0): 1
O(h^1): 5.838367873212322e-10
O(h^2): 5.0130860384303125e-18
F[2,3] 
O(h^1): -2.5413637991050543e-10
O(h^2): -1.4940372405882764e-19
F[2,4] 
O(h^1): -1.713082072744542e-08
O(h^2): -1.0071003662544496e-17
z = 0
F[0,2]: 
O(h): 0.001
O(h^2): 3.403196131357289e-13
O(h^3) (currently not in use): 2.2710929652891546e-21
F[0,3]: O(h^2): -1.4813659125120017e-13
O(h^3) (currently not in use): -6.7684806214019e-23
F[0,4]: O(h^2): -9.985588804133516e-12
O(h^3) (currently not in use): 4.1333041325181063e-20
F[2,2]: 
O(h^0): 1
O(h^1): 6.806392262714579e-10
O(h^2): 6.813278895867464e-18
F[2,3] 
O(h^1): -2.962731825024004e-10
O(h^2): -2.0305441864205701e-19
F[2,4] 
O(h^1): -1.9971177608267036e-08
O(h^2): -1.3687488771654429e-17
z = 0
F[0,2]: 
O(h): 0.001
O(h^2): 3.9240392490198013e-13
O(h^3) (currently not in use): 3.0194483616204687e-21
F[0,3]: O(h^2): -1.708081910491485e-13
O(h^3) (currently not in use): -8.998785501904592e-23
F[0,4]: O(h^2): -1.1513835625629453e-11
O(h^3) (currently not in use): 5.495282904209205e-20
F[2,2]: 
O(h^0): 1
O(h^1): 7.848078498039605e-10
O(h^2): 9.058345084861405e-18
F[2,3] 
O(h^1): -3.416163820982971e-10
O(h^2): -2.699635650571377e-19
F[2,4] 
O(h^1): -2.302767125125891e-08
O(h^2): -1.819769938364617e-17
z = 0
F[0,2]: 
O(h): 0.001
O(h^2): 4.481656016801535e-13
O(h^3) (currently not in use): 3.9385641475113255e-21
F[0,3]: O(h^2): -1.950804956757815e-13
O(h^3) (currently not in use): -1.1738003488423502e-22
F[0,4]: O(h^2): -1.3149982735779666e-11
O(h^3) (currently not in use): 7.168039173015084e-20
F[2,2]: 
O(h^0): 1
O(h^1): 8.963312033603069e-10
O(h^2): 1.1815692442533974e-17
F[2,3] 
O(h^1): -3.90160991351563e-10
O(h^2): -3.5214010465270493e-19
F[2,4] 
O(h^1): -2.629996547155933e-08
O(h^2): -2.3737054187388923e-17
z = 0
F[0,2]: 
O(h): 0.001
O(h^2): 5.075989164214434e-13
O(h^3) (currently not in use): 5.052452194614539e-21
F[0,3]: O(h^2): -2.2095101145900104e-13
O(h^3) (currently not in use): -1.505769667342039e-22
F[0,4]: O(h^2): -1.4893862042392916e-11
O(h^3) (currently not in use): 9.195273638427027e-20
F[2,2]: 
O(h^0): 1
O(h^1): 1.0151978328428872e-09
O(h^2): 1.5157356583843616e-17
F[2,3] 
O(h^1): -4.4190202291800213e-10
O(h^2): -4.517309002026116e-19
F[2,4] 
O(h^1): -2.9787724084785834e-08
O(h^2): -3.0450268878502454e-17
z = 0
F[0,2]: 
O(h): 0.001
O(h^2): 5.706981423230099e-13
O(h^3) (currently not in use): 6.386658711860473e-21
F[0,3]: O(h^2): -2.4841724472800874e-13
O(h^3) (currently not in use): -1.9033999934095574e-22
F[0,4]: O(h^2): -1.6745305453533735e-11
O(h^3) (currently not in use): 1.162347943393725e-19
F[2,2]: 
O(h^0): 1
O(h^1): 1.14139628464602e-09
O(h^2): 1.9159976135581418e-17
F[2,3] 
O(h^1): -4.968344894560175e-10
O(h^2): -5.710199980228672e-19
F[2,4] 
O(h^1): -3.3490610907067466e-08
O(h^2): -3.849130642052824e-17
z = 0
F[0,2]: 
O(h): 0.001
O(h^2): 6.374575528434426e-13
O(h^3) (currently not in use): 7.96825600304341e-21
F[0,3]: O(h^2): -2.77476701813388e-13
O(h^3) (currently not in use): -2.3747596375748845e-22
F[0,4]: O(h^2): -1.8704144877538523e-11
O(h^3) (currently not in use): 1.4501927125658475e-19
F[2,2]: 
O(h^0): 1
O(h^1): 1.2749151056868854e-09
O(h^2): 2.3904768009130233e-17
F[2,3] 
O(h^1): -5.54953403626776e-10
O(h^2): -7.124278912724655e-19
F[2,4] 
O(h^1): -3.7408289755077055e-08
O(h^2): -4.802332738595541e-17
z = 0
F[0,2]: 
O(h): 0.001
O(h^2): 7.078714217181416e-13
O(h^3) (currently not in use): 9.825834237331862e-21
F[0,3]: O(h^2): -3.0812688904718524e-13
O(h^3) (currently not in use): -2.928369281466846e-22
F[0,4]: O(h^2): -2.0770212223031554e-11
O(h^3) (currently not in use): 1.7882649734401877e-19
F[2,2]: 
O(h^0): 1
O(h^1): 1.415742843436283e-09
O(h^2): 2.947750271199558e-17
F[2,3] 
O(h^1): -6.162537780943704e-10
O(h^2): -8.785107844400535e-19
F[2,4] 
O(h^1): -4.154042444606311e-08
O(h^2): -5.921864037723627e-17
z = 0
F[0,2]: 
O(h): 0.001
O(h^2): 7.81934022974606e-13
O(h^3) (currently not in use): 1.1989493232705655e-20
F[0,3]: O(h^2): -3.4036531276299034e-13
O(h^3) (currently not in use): -3.5731995300612605e-22
F[0,4]: O(h^2): -2.294333939894085e-11
O(h^3) (currently not in use): 2.1820427781215376e-19
F[2,2]: 
O(h^0): 1
O(h^1): 1.563868045949212e-09
O(h^2): 3.596847969811696e-17
F[2,3] 
O(h^1): -6.807306255259807e-10
O(h^2): -1.0719598590183782e-18
F[2,4] 
O(h^1): -4.5886678797881706e-08
O(h^2): -7.225865252792497e-17
z = 0
F[0,2]: 
O(h): 0.001
O(h^2): 8.596396309476406e-13
O(h^3) (currently not in use): 1.449083425232284e-20
F[0,3]: O(h^2): -3.7418947929601774e-13
O(h^3) (currently not in use): -4.3186684678947345e-22
F[0,4]: O(h^2): -2.5223358314513967e-11
O(h^3) (currently not in use): 2.637277435638399e-19
F[2,2]: 
O(h^0): 1
O(h^1): 1.7192792618952816e-09
O(h^2): 4.347250275696854e-17
F[2,3] 
O(h^1): -7.483789585920357e-10
O(h^2): -1.2956005403684207e-18
F[2,4] 
O(h^1): -5.044671662902794e-08
O(h^2): -8.733382008407092e-17
z = 0
F[0,2]: 
O(h): 0.001
O(h^2): 9.409825202944675e-13
O(h^3) (currently not in use): 1.736295181381903e-20
F[0,3]: O(h^2): -4.095968949831856e-13
O(h^3) (currently not in use): -5.1746392192503475e-22
F[0,4]: O(h^2): -2.7610100879333803e-11
O(h^3) (currently not in use): 3.1599920211894184e-19
F[2,2]: 
O(h^0): 1
O(h^1): 1.8819650405889345e-09
O(h^2): 5.20888554414571e-17
F[2,3] 
O(h^1): -8.191937899663714e-10
O(h^2): -1.5523917657751045e-18
F[2,4] 
O(h^1): -5.5220201758667613e-08
O(h^2): -1.0464359906599704e-16
z = 0
F[0,2]: 
O(h): 0.001
O(h^2): 1.0259569660097601e-12
O(h^3) (currently not in use): 2.0640425511542187e-20
F[0,3]: O(h^2): -4.4658506616319584e-13
O(h^3) (currently not in use): -6.151417512321483e-22
F[0,4]: O(h^2): -3.010339900333416e-11
O(h^3) (currently not in use): 3.7564798877363804e-19
F[2,2]: 
O(h^0): 1
O(h^1): 2.0519139320195202e-09
O(h^2): 6.192127653462658e-17
F[2,3] 
O(h^1): -8.931701323263919e-10
O(h^2): -1.8454252536964453e-18
F[2,4] 
O(h^1): -6.020679800666832e-08
O(h^2): -1.243963960105918e-16
z = 0
F[0,2]: 
O(h): 0.001
O(h^2): 1.114557243440582e-12
O(h^3) (currently not in use): 2.4359311851725408e-20
F[0,3]: O(h^2): -4.851514991766126e-13
O(h^3) (currently not in use): -7.259749247359856e-22
F[0,4]: O(h^2): -3.270308459681528e-11
O(h^3) (currently not in use): 4.433303179943932e-19
F[2,2]: 
O(h^0): 1
O(h^1): 2.2291144868811642e-09
O(h^2): 7.307793555517623e-17
F[2,3] 
O(h^1): -9.703029983532252e-10
O(h^2): -2.1779247742079572e-18
F[2,4] 
O(h^1): -6.540616919363057e-08
O(h^2): -1.4680951879424e-16
z = 0
F[0,2]: 
O(h): 0.001
O(h^2): 1.2067776283012428e-12
O(h^3) (currently not in use): 2.8557136100600573e-20
F[0,3]: O(h^2): -5.252937003659407e-13
O(h^3) (currently not in use): -8.510818068813865e-22
F[0,4]: O(h^2): -3.5408989570459314e-11
O(h^3) (currently not in use): 5.197291350466239e-19
F[2,2]: 
O(h^0): 1
O(h^1): 2.4135552566024856e-09
O(h^2): 8.567140830180174e-17
F[2,3] 
O(h^1): -1.0505874007318813e-09
O(h^2): -2.5532454206441595e-18
F[2,4] 
O(h^1): -7.081797914091863e-08
O(h^2): -1.7210912753651968e-16
z = 0
F[0,2]: 
O(h): 0.001
O(h^2): 1.302612396688068e-12
O(h^3) (currently not in use): 3.3272884145455586e-20
F[0,3]: O(h^2): -5.670091760757044e-13
O(h^3) (currently not in use): -9.916242941463188e-22
F[0,4]: O(h^2): -3.8220945835345675e-11
O(h^3) (currently not in use): 6.055539678580697e-19
F[2,2]: 
O(h^0): 1
O(h^1): 2.6052247933761363e-09
O(h^2): 9.981865243636672e-17
F[2,3] 
O(h^1): -1.1340183521514088e-09
O(h^2): -2.974872882438955e-18
F[2,4] 
O(h^1): -7.644189167069136e-08
O(h^2): -2.0053018558478667e-16
z = 0
F[0,2]: 
O(h): 0.001
O(h^2): 1.4020558250940795e-12
O(h^3) (currently not in use): 3.854699436863761e-20
F[0,3]: O(h^2): -6.102954326525246e-13
O(h^3) (currently not in use): -1.1488075730555473e-21
F[0,4]: O(h^2): -4.1138785302966334e-11
O(h^3) (currently not in use): 7.015407791168934e-19
F[2,2]: 
O(h^0): 1
O(h^1): 2.8041116501881595e-09
O(h^2): 1.1564098310591288e-16
F[2,3] 
O(h^1): -1.2205908653050494e-09
O(h^2): -3.4464227191666432e-18
F[2,4] 
O(h^1): -8.227757060593269e-08
O(h^2): -2.3231641057976953e-16
z = 0
F[0,2]: 
O(h): 0.001
O(h^2): 1.5051021904235917e-12
O(h^3) (currently not in use): 4.442134953450532e-20
F[0,3]: O(h^2): -6.551499764451958e-13
O(h^3) (currently not in use): -1.323879878595103e-21
F[0,4]: O(h^2): -4.416233988524096e-11
O(h^3) (currently not in use): 8.084518186045163e-19
F[2,2]: 
O(h^0): 1
O(h^1): 3.0102043808471838e-09
O(h^2): 1.33264048603516e-16
F[2,3] 
O(h^1): -1.3102999528903917e-09
O(h^2): -3.97163963578531e-18
F[2,4] 
O(h^1): -8.832467977048191e-08
O(h^2): -2.677202256022941e-16
z = 0
F[0,2]: 
O(h): 0.001
O(h^2): 1.6117457700067188e-12
O(h^3) (currently not in use): 5.0939268689332177e-20
F[0,3]: O(h^2): -7.01570313804762e-13
O(h^3) (currently not in use): -1.5181322530281104e-21
F[0,4]: O(h^2): -4.729144149453197e-11
O(h^3) (currently not in use): 9.270754757632158e-19
F[2,2]: 
O(h^0): 1
O(h^1): 3.2234915400134378e-09
O(h^2): 1.5281780606799651e-16
F[2,3] 
O(h^1): -1.4031406276095242e-09
O(h^2): -4.55439675908433e-18
F[2,4] 
O(h^1): -9.458288298906394e-08
O(h^2): -3.070027104012573e-16
z = 0
F[0,2]: 
O(h): 0.001
O(h^2): 1.7219808416138022e-12
O(h^3) (currently not in use): 5.814549907416393e-20
F[0,3]: O(h^2): -7.495539510845957e-13
O(h^3) (currently not in use): -1.7328983051125523e-21
F[0,4]: O(h^2): -5.052592204365963e-11
O(h^3) (currently not in use): 1.058226132498497e-18
F[2,2]: 
O(h^0): 1
O(h^1): 3.4439616832276044e-09
O(h^2): 1.744364972224918e-16
F[2,3] 
O(h^1): -1.4991079021691914e-09
O(h^2): -5.1986949153376566e-18
F[2,4] 
O(h^1): -1.0105184408731928e-07
O(h^2): -3.504335527029662e-16
z = 0
F[0,2]: 
O(h): 0.001
O(h^2): 1.8358016834697443e-12
O(h^3) (currently not in use): 6.608620805063249e-20
F[0,3]: O(h^2): -7.990983946404707e-13
O(h^3) (currently not in use): -1.9695539697215253e-21
F[0,4]: O(h^2): -5.3865613445916975e-11
O(h^3) (currently not in use): 1.2027440162162506e-18
F[2,2]: 
O(h^0): 1
O(h^1): 3.6716033669394896e-09
O(h^2): 1.9825862415189758e-16
F[2,3] 
O(h^1): -1.5981967892809417e-09
O(h^2): -5.908661909164578e-18
F[2,4] 
O(h^1): -1.0773122689183396e-07
O(h^2): -3.9829099960195797e-16
z = 0
F[0,2]: 
O(h): 0.001
O(h^2): 1.953202574268257e-12
O(h^3) (currently not in use): 7.480897503972846e-20
F[0,3]: O(h^2): -8.50201150830638e-13
O(h^3) (currently not in use): -2.2295172678665164e-21
F[0,4]: O(h^2): -5.7310347615084415e-11
O(h^3) (currently not in use): 1.3614950530947156e-18
F[2,2]: 
O(h^0): 1
O(h^1): 3.906405148536514e-09
O(h^2): 2.2442692511918534e-16
F[2,3] 
O(h^1): -1.700402301661276e-09
O(h^2): -6.688551803599546e-18
F[2,4] 
O(h^1): -1.1462069523016884e-07
O(h^2): -4.508618090334116e-16
z = 0
F[0,2]: 
O(h): 0.001
O(h^2): 2.074177793186033e-12
O(h^3) (currently not in use): 8.436278347353517e-20
F[0,3]: O(h^2): -9.028597260159029e-13
O(h^3) (currently not in use): -2.5142480671242782e-21
F[0,4]: O(h^2): -6.085995646544477e-11
O(h^3) (currently not in use): 1.535370721591269e-18
F[2,2]: 
O(h^0): 1
O(h^1): 4.1483555863720664e-09
O(h^2): 2.530883504206055e-16
F[2,3] 
O(h^1): -1.8057194520318057e-09
O(h^2): -7.542744201372832e-18
F[2,4] 
O(h^1): -1.2171991293088956e-07
O(h^2): -5.084412013272712e-16
z = 0
F[0,2]: 
O(h): 0.001
O(h^2): 2.198721619896821e-12
O(h^3) (currently not in use): 9.479801275992644e-20
F[0,3]: O(h^2): -9.570716265596955e-13
O(h^3) (currently not in use): -2.825247842467802e-21
F[0,4]: O(h^2): -6.451427191179766e-11
O(h^3) (currently not in use): 1.7252879061840394e-18
F[2,2]: 
O(h^0): 1
O(h^1): 4.397443239793642e-09
O(h^2): 2.8439403827977943e-16
F[2,3] 
O(h^1): -1.9141432531193915e-09
O(h^2): -8.475743527403408e-18
F[2,4] 
O(h^1): -1.2902854382359533e-07
O(h^2): -5.7133281084418e-16
z = 0
F[0,2]: 
O(h): 0.001
O(h^2): 2.3268283345854234e-12
O(h^3) (currently not in use): 1.0616643026023078e-19
F[0,3]: O(h^2): -1.0128343588281496e-12
O(h^3) (currently not in use): -3.1640594375019426e-21
F[0,4]: O(h^2): -6.827312586947422e-11
O(h^3) (currently not in use): 1.9321887513483868e-18
F[2,2]: 
O(h^0): 1
O(h^1): 4.653656669170847e-09
O(h^2): 3.184992907806923e-16
F[2,3] 
O(h^1): -2.0256687176562993e-09
O(h^2): -9.492178312505828e-18
F[2,4] 
O(h^1): -1.3654625173894841e-07
O(h^2): -6.398486376933444e-16
z = 0
F[0,2]: 
O(h): 0.001
O(h^2): 2.458492217961598e-12
O(h^3) (currently not in use): 1.1852118327986277e-19
F[0,3]: O(h^2): -1.0701454291901709e-12
O(h^3) (currently not in use): -3.532266826104172e-21
F[0,4]: O(h^2): -7.213635025435144e-11
O(h^3) (currently not in use): 2.1570405157682294e-18
F[2,2]: 
O(h^0): 1
O(h^1): 4.916984435923197e-09
O(h^2): 3.555635498395883e-16
F[2,3] 
O(h^1): -2.140290858380342e-09
O(h^2): -1.0596800478312514e-17
F[2,4] 
O(h^1): -1.4427270050870288e-07
O(h^2): -7.143089995324267e-16
z = 0
F[0,2]: 
O(h): 0.001
O(h^2): 2.5937075512738946e-12
O(h^3) (currently not in use): 1.3191679107192743e-19
F[0,3]: O(h^2): -1.1290023440175144e-12
O(h^3) (currently not in use): -3.9314948744710476e-21
F[0,4]: O(h^2): -7.610377698286675e-11
O(h^3) (currently not in use): 2.4008354267822703e-18
F[2,2]: 
O(h^0): 1
O(h^1): 5.187415102547789e-09
O(h^2): 3.9575037321578236e-16
F[2,3] 
O(h^1): -2.2580046880350294e-09
O(h^2): -1.1794484623413145e-17
F[2,4] 
O(h^1): -1.522075539657335e-07
O(h^2): -7.950424834495828e-16
z = 0
F[0,2]: 
O(h): 0.001
O(h^2): 2.7324686163233806e-12
O(h^3) (currently not in use): 1.464091368537951e-19
F[0,3]: O(h^2): -1.1894026096848546e-12
O(h^3) (currently not in use): -4.3634091035707956e-21
F[0,4]: O(h^2): -8.017523797203198e-11
O(h^3) (currently not in use): 2.6645905350650953e-18
F[2,2]: 
O(h^0): 1
O(h^1): 5.464937232646763e-09
O(h^2): 4.392274105613854e-16
F[2,3] 
O(h^1): -2.37880521936971e-09
O(h^2): -1.3090227310712386e-17
F[2,4] 
O(h^1): -1.6035047594406402e-07
O(h^2): -8.823858979277317e-16
z = 0
F[0,2]: 
O(h): 0.001
O(h^2): 2.8747696954772992e-12
O(h^3) (currently not in use): 1.6205545983665335e-19
F[0,3]: O(h^2): -1.251343732569859e-12
O(h^3) (currently not in use): -4.829715452002593e-21
F[0,4]: O(h^2): -8.435056513944792e-11
O(h^3) (currently not in use): 2.949347569543205e-18
F[2,2]: 
O(h^0): 1
O(h^1): 5.749539390954597e-09
O(h^2): 4.8616637950996e-16
F[2,3] 
O(h^1): -2.502687465139718e-09
O(h^2): -1.448914635600778e-17
F[2,4] 
O(h^1): -1.6870113027889589e-07
O(h^2): -9.766842248911805e-16
z = 0
F[0,2]: 
O(h): 0.001
O(h^2): 3.0206050716826398e-12
O(h^3) (currently not in use): 1.7891434726803573e-19
F[0,3]: O(h^2): -1.3148232190532577e-12
O(h^3) (currently not in use): -5.3321600392630144e-21
F[0,4]: O(h^2): -8.862959040331816e-11
O(h^3) (currently not in use): 3.2561727925459448e-18
F[2,2]: 
O(h^0): 1
O(h^1): 6.041210143365281e-09
O(h^2): 5.367430418041073e-16
F[2,3] 
O(h^1): -2.6296464381065163e-09
O(h^2): -1.5996480117789047e-17
F[2,4] 
O(h^1): -1.7725918080663634e-07
O(h^2): -1.0782905718346904e-15
z = 0
F[0,2]: 
O(h): 0.001
O(h^2): 3.169969028479625e-12
O(h^3) (currently not in use): 1.970457264873299e-19
F[0,3]: O(h^2): -1.3798385755189182e-12
O(h^3) (currently not in use): -5.872528929420077e-21
F[0,4]: O(h^2): -9.301214568246325e-11
O(h^3) (currently not in use): 3.586156855191386e-18
F[2,2]: 
O(h^0): 1
O(h^1): 6.339938056959249e-09
O(h^2): 5.911371794619896e-16
F[2,3] 
O(h^1): -2.7596771510378367e-09
O(h^2): -1.761758678826023e-17
F[2,4] 
O(h^1): -1.8602429136492649e-07
O(h^2): -1.1875661240350888e-15
z = 0
F[0,2]: 
O(h): 0.001
O(h^2): 3.3228558500151024e-12
O(h^3) (currently not in use): 2.1651085699426777e-19
F[0,3]: O(h^2): -1.446387308353913e-12
O(h^3) (currently not in use): -6.452647895195415e-21
F[0,4]: O(h^2): -9.749806289633447e-11
O(h^3) (currently not in use): 3.94041465300715e-18
F[2,2]: 
O(h^0): 1
O(h^1): 6.645711700030204e-09
O(h^2): 6.495325709828034e-16
F[2,3] 
O(h^1): -2.8927746167078257e-09
O(h^2): -1.9357943685586243e-17
F[2,4] 
O(h^1): -1.9499612579266895e-07
O(h^2): -1.304880096845523e-15
z = 0
F[0,2]: 
O(h): 0.001
O(h^2): 3.4792598210558616e-12
O(h^3) (currently not in use): 2.3737232253039984e-19
F[0,3]: O(h^2): -1.5144669239485904e-12
O(h^3) (currently not in use): -7.074382182455039e-21
F[0,4]: O(h^2): -1.0208717396502805e-10
O(h^3) (currently not in use): 4.320085181786197e-18
F[2,2]: 
O(h^0): 1
O(h^1): 6.958519642111723e-09
O(h^2): 7.121169675911994e-16
F[2,3] 
O(h^1): -3.028933847897181e-09
O(h^2): -2.1223146547365112e-17
F[2,4] 
O(h^1): -2.041743479300561e-07
O(h^2): -1.4306096880724575e-15
z = 0
F[0,2]: 
O(h): 0.001
O(h^2): 3.639175227001872e-12
O(h^3) (currently not in use): 2.5969402317355464e-19
F[0,3]: O(h^2): -1.584074928696647e-12
O(h^3) (currently not in use): -7.739636275109093e-21
F[0,4]: O(h^2): -1.0677931080929851e-10
O(h^3) (currently not in use): 4.726331393677591e-18
F[2,2]: 
O(h^0): 1
O(h^1): 7.278350454003744e-09
O(h^2): 7.790820695206639e-16
F[2,3] 
O(h^1): -3.168149857393294e-09
O(h^2): -2.3218908825327278e-17
F[2,4] 
O(h^1): -2.1355862161859704e-07
O(h^2): -1.5651400304355021e-15
z = 0
F[0,2]: 
O(h): 0.001
O(h^2): 3.802596353899425e-12
O(h^3) (currently not in use): 2.835411674452868e-19
F[0,3]: O(h^2): -1.6552088289951942e-12
O(h^3) (currently not in use): -8.450353660421143e-21
F[0,4]: O(h^2): -1.115743053505726e-10
O(h^3) (currently not in use): 5.160340053512246e-18
F[2,2]: 
O(h^0): 1
O(h^1): 7.605192707798852e-09
O(h^2): 8.506235023358605e-16
F[2,3] 
O(h^1): -3.310417657990389e-09
O(h^2): -2.535106098126343e-17
F[2,4] 
O(h^1): -2.2314861070114523e-07
O(h^2): -1.7088641441101718e-15
z = 0
F[0,2]: 
O(h): 0.001
O(h^2): 3.969517488454198e-12
O(h^3) (currently not in use): 3.08980264431315e-19
F[0,3]: O(h^2): -1.7278661312448297e-12
O(h^3) (currently not in use): -9.208516594727341e-21
F[0,4]: O(h^2): -1.1647198951096274e-10
O(h^3) (currently not in use): 5.623321595363691e-18
F[2,2]: 
O(h^0): 1
O(h^1): 7.939034976908397e-09
O(h^2): 9.26940793293945e-16
F[2,3] 
O(h^1): -3.45573226248966e-09
O(h^2): -2.762554978418202e-17
F[2,4] 
O(h^1): -2.329439790219255e-07
O(h^2): -1.8621828893536595e-15
z = 0
F[0,2]: 
O(h): 0.001
O(h^2): 4.139932918044226e-12
O(h^3) (currently not in use): 3.360791159149508e-19
F[0,3]: O(h^2): -1.8020443418497027e-12
O(h^3) (currently not in use): -1.0016145869565973e-20
F[0,4]: O(h^2): -1.2147219521328056e-10
O(h^3) (currently not in use): 6.1165099793438115e-18
F[2,2]: 
O(h^0): 1
O(h^1): 8.279865836088453e-09
O(h^2): 1.0082373477448524e-15
F[2,3] 
O(h^1): -3.6040886836994065e-09
O(h^2): -3.004843760869792e-17
F[2,4] 
O(h^1): -2.4294439042656115e-07
O(h^2): -2.0255049192137263e-15
z = 0
F[0,2]: 
O(h): 0.001
O(h^2): 4.313836930732816e-12
O(h^3) (currently not in use): 3.649068085235236e-19
F[0,3]: O(h^2): -1.8777409672175873e-12
O(h^3) (currently not in use): -1.0875300578217844e-20
F[0,4]: O(h^2): -1.2657475438105047e-10
O(h^3) (currently not in use): 6.6411625486336734e-18
F[2,2]: 
O(h^0): 1
O(h^1): 8.627673861465632e-09
O(h^2): 1.0947204255705708e-15
F[2,3] 
O(h^1): -3.755481934435174e-09
O(h^2): -3.262590173465353e-17
F[2,4] 
O(h^1): -2.5314950876210093e-07
O(h^2): -2.19924663232079e-15
z = 0
F[0,2]: 
O(h): 0.001
O(h^2): 4.491223815281335e-12
O(h^3) (currently not in use): 3.9553370588779886e-19
F[0,3]: O(h^2): -1.9549535137599438e-12
O(h^3) (currently not in use): -1.1788077882657782e-20
F[0,4]: O(h^2): -1.317794989385227e-10
O(h^3) (currently not in use): 7.198559886749323e-18
F[2,2]: 
O(h^0): 1
O(h^1): 8.982447630562672e-09
O(h^2): 1.1866011176633967e-15
F[2,3] 
O(h^1): -3.909907027519888e-09
O(h^2): -3.536423364797335e-17
F[2,4] 
O(h^1): -2.635589978770454e-07
O(h^2): -2.3838321257632868e-15
Data added to list for particle: 0
data saved to data/toy_output/277