This is the start of the log file generated at 09_24_15h42m02s

15 VELO-type subdetectors added at z-locations: [20, 50, 80, 110, 140, 170, 200, 230, 260, 290, 450, 600, 650, 700, 750]
4 TT-type subdetectors added at z-locations: [2330, 2370, 2600, 2640]
24 OT-type subdetectors added at z-locations: [7860, 7870, 7910, 7920, 7980, 7990, 8030, 8040, 8540, 8550, 8590, 8600, 8660, 8670, 8710, 8720, 9230, 9240, 9280, 9290, 9350, 9360, 9400, 9410]
The detector is built.
Generating 10 particles...
Particle 0:
eta 3.239543843129114, phi -1.142185362038435,
p 3.0, q 1.60217662e-19,
brem = False
input State:
[[-0.001     ]
 [-0.001     ]
 [-0.07138466]
 [ 0.03261857]
 [ 0.09993617]]

Simulating particle
Particle track 0 is saved
Initiating Kalman filtering for particle: 0
z = 0
F[0,2]: 
O(h): 0.001
O(h^2): 2.3379832273640527e-16
O(h^3): 3.916392794897269e-27
F[0,3]: O(h^2): -4.522881106880208e-17
O(h^3): -1.4104205226224748e-29
F[0,4]: O(h^2): -1.3470331398324416e-14
O(h^3): 7.481204713368313e-26
F[2,2]: 
O(h^0): 1
O(h^1): 4.675966454728107e-13
O(h^2): 1.1749178384691807e-23
F[2,3] 
O(h^1): -9.045762213760418e-14
O(h^2): -4.231261567867425e-26
F[2,4] 
O(h^1): -2.6940662796648834e-11
O(h^2): -1.260181158984367e-23
z = 1000
F[0,2]: 
O(h): 0.001
O(h^2): 6.247244566351842e-10
O(h^3): 1.3907886926278652e-14
F[0,3]: O(h^2): -8.455035888250831e-11
O(h^3): -7.045235526304532e-17
F[0,4]: O(h^2): -2.5263955716189795e-08
O(h^3): 2.622989458475143e-13
F[2,2]: 
O(h^0): 1
O(h^1): 1.2494489132703686e-06
O(h^2): 4.1723660778835956e-11
F[2,3] 
O(h^1): -1.6910071776501666e-07
O(h^2): -2.11357065789136e-13
F[2,4] 
O(h^1): -5.05279114323796e-05
O(h^2): -6.315426239432818e-11
z = 2000
F[0,2]: 
O(h): 0.001
O(h^2): 9.414326636230608e-10
O(h^3): 2.7426227086964484e-14
F[0,3]: O(h^2): -1.184421032379301e-10
O(h^3): -1.4872595720117122e-16
F[0,4]: O(h^2): -3.542650869099993e-08
O(h^3): 5.152449487579584e-13
F[2,2]: 
O(h^0): 1
O(h^1): 1.8828653272461214e-06
O(h^2): 8.227868126089346e-11
F[2,3] 
O(h^1): -2.3688420647586017e-07
O(h^2): -4.4617787160351366e-13
F[2,4] 
O(h^1): -7.085301738199986e-05
O(h^2): -1.3345359305500595e-10
z = 3000
F[0,2]: 
O(h): 0.001
O(h^2): 5.739334216760632e-09
O(h^3): 7.919839933496256e-13
F[0,3]: O(h^2): -6.362072829990458e-10
O(h^3): -4.870266551289439e-15
F[0,4]: O(h^2): -1.89769313381621e-07
O(h^3): 1.475203385678536e-11
F[2,2]: 
O(h^0): 1
O(h^1): 1.1478668433521264e-05
O(h^2): 2.375951980048877e-09
F[2,3] 
O(h^1): -1.2724145659980916e-06
O(h^2): -1.4610799653868316e-11
F[2,4] 
O(h^1): -0.000379538626763242
O(h^2): -4.358141587441046e-09
z = 4000
F[0,2]: 
O(h): 0.001
O(h^2): 2.3887088293988208e-08
O(h^3): 5.09491670171187e-12
F[0,3]: O(h^2): -1.5460729306472192e-09
O(h^3): -4.9258702510543145e-14
F[0,4]: O(h^2): -4.6971973020736227e-07
O(h^3): 8.873350673524945e-11
F[2,2]: 
O(h^0): 1
O(h^1): 4.777417658797642e-05
O(h^2): 1.528475010513561e-08
F[2,3] 
O(h^1): -3.0921458612944386e-06
O(h^2): -1.4777610753162946e-10
F[2,4] 
O(h^1): -0.0009394394604147245
O(h^2): -4.4896558231436876e-08
z = 4697
F[0,2]: 
O(h): 0.001
O(h^2): 4.3188341690756145e-08
O(h^3): 8.380652782247247e-12
F[0,3]: O(h^2): -1.8385463762031664e-09
O(h^3): -1.0590723049580112e-13
F[0,4]: O(h^2): -5.788218429186382e-07
O(h^3): 1.3002369550221503e-10
F[2,2]: 
O(h^0): 1
O(h^1): 8.637668338151228e-05
O(h^2): 2.5141958346741732e-08
F[2,3] 
O(h^1): -3.6770927524063334e-06
O(h^2): -3.177216914874033e-10
F[2,4] 
O(h^1): -0.0011576436858372764
O(h^2): -1.0002698728859455e-07
z = 5000
F[0,2]: 
O(h): 0.001
O(h^2): 5.0712755817802684e-08
O(h^3): 9.164210544161845e-12
F[0,3]: O(h^2): -1.838342085895383e-09
O(h^3): -1.2434396323230773e-13
F[0,4]: O(h^2): -5.922831602197531e-07
O(h^3): 1.3302973478810196e-10
F[2,2]: 
O(h^0): 1
O(h^1): 0.0001014255116356054
O(h^2): 2.7492631632485532e-08
F[2,3] 
O(h^1): -3.676684171790767e-06
O(h^2): -3.730318896969231e-10
F[2,4] 
O(h^1): -0.0011845663204395063
O(h^2): -1.201846534372457e-07
z = 6000
F[0,2]: 
O(h): 0.001
O(h^2): 6.8674605252507e-08
O(h^3): 9.96409701665252e-12
F[0,3]: O(h^2): -1.5910748196245083e-09
O(h^3): -1.4573123327040786e-13
F[0,4]: O(h^2): -5.742950995654299e-07
O(h^3): 1.1162791156944563e-10
F[2,2]: 
O(h^0): 1
O(h^1): 0.00013734921050501402
O(h^2): 2.989229104995755e-08
F[2,3] 
O(h^1): -3.1821496392490164e-06
O(h^2): -4.371936998112235e-10
F[2,4] 
O(h^1): -0.0011485901991308601
O(h^2): -1.578041436302282e-07
z = 7000
F[0,2]: 
O(h): 0.001
O(h^2): 6.028580322054488e-08
O(h^3): 5.94292782456459e-12
F[0,3]: O(h^2): -1.0103602782640225e-09
O(h^3): -8.123424186429484e-14
F[0,4]: O(h^2): -4.2502408530686063e-07
O(h^3): 5.245449538977431e-11
F[2,2]: 
O(h^0): 1
O(h^1): 0.00012057160644108976
O(h^2): 1.782878347369377e-08
F[2,3] 
O(h^1): -2.0207205565280454e-06
O(h^2): -2.4370272559288453e-10
F[2,4] 
O(h^1): -0.0008500481706137213
O(h^2): -1.0251741904370243e-07
z = 8000
F[0,2]: 
O(h): 0.001
O(h^2): 1.4504429974675027e-08
O(h^3): 3.864565608036908e-13
F[0,3]: O(h^2): -2.8550599808925626e-10
O(h^3): -5.52297520564927e-15
F[0,4]: O(h^2): -1.8666454232157745e-07
O(h^3): 6.523153687878368e-12
F[2,2]: 
O(h^0): 1
O(h^1): 2.9008859949350062e-05
O(h^2): 1.1593696824110724e-09
F[2,3] 
O(h^1): -5.710119961785124e-07
O(h^2): -1.656892561694781e-11
F[2,4] 
O(h^1): -0.0003733290846431549
O(h^2): -1.0832805397247483e-08
z = 9000
F[0,2]: 
O(h): 0.001
O(h^2): 7.46643649807233e-09
O(h^3): 9.922403904513779e-14
F[0,3]: O(h^2): -1.4066752578910826e-10
O(h^3): -1.4007525581390206e-15
F[0,4]: O(h^2): -9.614663464085102e-08
O(h^3): 1.6601715707338583e-12
F[2,2]: 
O(h^0): 1
O(h^1): 1.4932872996144662e-05
O(h^2): 2.9767211713541336e-10
F[2,3] 
O(h^1): -2.8133505157821656e-07
O(h^2): -4.2022576744170624e-12
F[2,4] 
O(h^1): -0.00019229326928170206
O(h^2): -2.8722544952885878e-09
Particle 0:
eta 3.0146755589043424, phi -1.2324731111007061,
p 5.22792375185584, q 1.60217662e-19,
brem = False
output State:
[[ 0.02341241]
 [-0.00105528]
 [-0.09278447]
 [ 0.03264634]
 [ 0.05734753]]
Data added to pickle list for particle: 0
Particle 1:
eta 4.182601072256868, phi 1.1972970734401538,
p 12.999999999999998, q -1.60217662e-19,
brem = False
input State:
[[-0.001     ]
 [-0.001     ]
 [ 0.02842016]
 [ 0.0111377 ]
 [-0.02306219]]

Simulating particle
Particle track 1 is saved
Initiating Kalman filtering for particle: 1
z = 0
F[0,2]: 
O(h): 0.001
O(h^2): 2.5918683413998974e-17
O(h^3): 1.9195995656228847e-28
F[0,3]: O(h^2): 3.4119732183505823e-18
O(h^3): 1.179165877723503e-31
F[0,4]: O(h^2): -1.3416292630309822e-14
O(h^3): -1.6593454359620467e-26
F[2,2]: 
O(h^0): 1
O(h^1): 5.1837366827997946e-14
O(h^2): 5.758798696868653e-25
F[2,3] 
O(h^1): 6.823946436701165e-15
O(h^2): 3.5374976331705085e-28
F[2,4] 
O(h^1): -2.683258526061965e-11
O(h^2): -1.3909869857825887e-24
z = 1000
F[0,2]: 
O(h): 0.001
O(h^2): 5.0290044075309813e-11
O(h^3): 6.688949736418219e-16
F[0,3]: O(h^2): 6.3654400483517506e-12
O(h^3): 4.268416451936835e-19
F[0,4]: O(h^2): -2.5041785184349552e-08
O(h^3): -5.780628179453097e-14
F[2,2]: 
O(h^0): 1
O(h^1): 1.0058008815061964e-07
O(h^2): 2.006684920925466e-12
F[2,3] 
O(h^1): 1.2730880096703501e-08
O(h^2): 1.2805249355810501e-15
F[2,4] 
O(h^1): -5.0083570368699104e-05
O(h^2): -5.037614071681808e-12
z = 2000
F[0,2]: 
O(h): 0.001
O(h^2): 7.361157369260488e-11
O(h^3): 1.3119137641231205e-15
F[0,3]: O(h^2): 8.912867469497333e-12
O(h^3): 8.748223834243945e-19
F[0,4]: O(h^2): -3.506616609653375e-08
O(h^3): -1.1334100207032944e-13
F[2,2]: 
O(h^0): 1
O(h^1): 1.4722314738520975e-07
O(h^2): 3.935741292369362e-12
F[2,3] 
O(h^1): 1.7825734938994664e-08
O(h^2): 2.6244671502731833e-15
F[2,4] 
O(h^1): -7.01323321930675e-05
O(h^2): -1.032552108749872e-11
z = 3000
F[0,2]: 
O(h): 0.001
O(h^2): 4.4475288794990874e-10
O(h^3): 3.7451608082996935e-14
F[0,3]: O(h^2): 4.7675393320292786e-11
O(h^3): 2.827284127557981e-17
F[0,4]: O(h^2): -1.872852049553253e-07
O(h^3): -3.2322547504272012e-12
F[2,2]: 
O(h^0): 1
O(h^1): 8.895057758998175e-07
O(h^2): 1.1235482424899082e-10
F[2,3] 
O(h^1): 9.535078664058558e-08
O(h^2): 8.481852382673944e-14
F[2,4] 
O(h^1): -0.0003745704099106506
O(h^2): -3.33196089483284e-10
z = 4000
F[0,2]: 
O(h): 0.001
O(h^2): 1.5255949433648216e-09
O(h^3): 2.1871074229242257e-13
F[0,3]: O(h^2): 1.1486543077433938e-10
O(h^3): 2.336603153223237e-16
F[0,4]: O(h^2): -4.517770295722044e-07
O(h^3): -1.878543492182923e-11
F[2,2]: 
O(h^0): 1
O(h^1): 3.051189886729644e-06
O(h^2): 6.561322268772678e-10
F[2,3] 
O(h^1): 2.2973086154867883e-07
O(h^2): 7.009809459669711e-13
F[2,4] 
O(h^1): -0.0009035540591444089
O(h^2): -2.757026961208412e-09
z = 4697
F[0,2]: 
O(h): 0.001
O(h^2): 2.382705407845772e-09
O(h^3): 3.0177773979657257e-13
F[0,3]: O(h^2): 1.3430544320681114e-10
O(h^3): 4.266977021930061e-16
F[0,4]: O(h^2): -5.292254826018997e-07
O(h^3): -2.5730132709122907e-11
F[2,2]: 
O(h^0): 1
O(h^1): 4.765410815691544e-06
O(h^2): 9.053332193897175e-10
F[2,3] 
O(h^1): 2.6861088641362223e-07
O(h^2): 1.280093106579018e-12
F[2,4] 
O(h^1): -0.0010584509652037993
O(h^2): -5.0441581214356125e-09
z = 5000
F[0,2]: 
O(h): 0.001
O(h^2): 2.625905981484524e-09
O(h^3): 2.9660328788972753e-13
F[0,3]: O(h^2): 1.3281353863175355e-10
O(h^3): 4.650266492365746e-16
F[0,4]: O(h^2): -5.238851394313404e-07
O(h^3): -2.518755648029926e-11
F[2,2]: 
O(h^0): 1
O(h^1): 5.251811962969049e-06
O(h^2): 8.898098636691824e-10
F[2,3] 
O(h^1): 2.6562707726350704e-07
O(h^2): 1.3950799477097236e-12
F[2,4] 
O(h^1): -0.001047770278862681
O(h^2): -5.502915293524445e-09
z = 6000
F[0,2]: 
O(h): 0.001
O(h^2): 2.8289472797344756e-09
O(h^3): 2.0279040654876558e-13
F[0,3]: O(h^2): 1.0879882545615148e-10
O(h^3): 4.1039807473305985e-16
F[0,4]: O(h^2): -4.308102290307636e-07
O(h^3): -1.696749075073514e-11
F[2,2]: 
O(h^0): 1
O(h^1): 5.657894559468952e-06
O(h^2): 6.083712196462967e-10
F[2,3] 
O(h^1): 2.1759765091230297e-07
O(h^2): 1.2311942241991792e-12
F[2,4] 
O(h^1): -0.0008616204580615272
O(h^2): -4.875154336315608e-09
z = 7000
F[0,2]: 
O(h): 0.001
O(h^2): 1.9518273706451657e-09
O(h^3): 7.153185701928618e-14
F[0,3]: O(h^2): 6.409754829965015e-11
O(h^3): 1.668165046139226e-16
F[0,4]: O(h^2): -2.546637270158931e-07
O(h^3): -5.909023808240387e-12
F[2,2]: 
O(h^0): 1
O(h^1): 3.903654741290331e-06
O(h^2): 2.1459557105785851e-10
F[2,3] 
O(h^1): 1.2819509659930032e-07
O(h^2): 5.004495138417677e-13
F[2,4] 
O(h^1): -0.0005093274540317863
O(h^2): -1.9883184577113064e-09
z = 8000
F[0,2]: 
O(h): 0.001
O(h^2): 1.0426831003275622e-09
O(h^3): 1.7909206372242557e-14
F[0,3]: O(h^2): 3.215954405427586e-11
O(h^3): 4.4711437230105216e-17
F[0,4]: O(h^2): -1.2768527971173312e-07
O(h^3): -1.4759084126293825e-12
F[2,2]: 
O(h^0): 1
O(h^1): 2.0853662006551247e-06
O(h^2): 5.3727619116727663e-11
F[2,3] 
O(h^1): 6.431908810855172e-08
O(h^2): 1.3413431169031564e-13
F[2,4] 
O(h^1): -0.0002553705594234663
O(h^2): -5.325628086708397e-10
z = 9000
F[0,2]: 
O(h): 0.001
O(h^2): 5.382329936943115e-10
O(h^3): 4.479449853888143e-15
F[0,3]: O(h^2): 1.590312481325073e-11
O(h^3): 1.1413237820556967e-17
F[0,4]: O(h^2): -6.393770428052034e-08
O(h^3): -3.68740731098134e-13
F[2,2]: 
O(h^0): 1
O(h^1): 1.0764659873886231e-06
O(h^2): 1.3438349561664424e-11
F[2,3] 
O(h^1): 3.1806249626501464e-08
O(h^2): 3.423971346167089e-14
F[2,4] 
O(h^1): -0.0001278754085610407
O(h^2): -1.3765902611403653e-10
Particle 1:
eta 4.191712995984216, phi 1.1972127300234443,
p 13.118531564272615, q -1.60217662e-19,
brem = False
output State:
[[-0.00052062]
 [-0.00088722]
 [ 0.02816132]
 [ 0.011039  ]
 [-0.02285382]]
Data added to pickle list for particle: 1
Particle 2:
eta 3.5441407385340775, phi -0.1827952585912364,
p 23.0, q 1.60217662e-19,
brem = False
input State:
[[-0.001     ]
 [ 0.001     ]
 [-0.01051322]
 [ 0.05687159]
 [ 0.01303515]]

Simulating particle
Particle track 2 is saved
Initiating Kalman filtering for particle: 2
z = 0
F[0,2]: 
O(h): 0.001
O(h^2): 5.510654954984107e-18
O(h^3): 6.075374816439391e-29
F[0,3]: O(h^2): -9.883585378775298e-18
O(h^3): -7.269825255273161e-32
F[0,4]: O(h^2): -1.3423699349212467e-14
O(h^3): 9.355844859798006e-27
F[2,2]: 
O(h^0): 1
O(h^1): 1.1021309909968214e-14
O(h^2): 1.8226124449318183e-25
F[2,3] 
O(h^1): -1.9767170757550598e-14
O(h^2): -2.180947576581949e-28
F[2,4] 
O(h^1): -2.684739869842494e-11
O(h^2): -2.9621218861831015e-25
z = 1000
F[0,2]: 
O(h): 0.001
O(h^2): 1.082950337519905e-11
O(h^3): 2.1163249151546488e-16
F[0,3]: O(h^2): -1.8407830339890868e-11
O(h^3): -2.660819561404826e-19
F[0,4]: O(h^2): -2.5053529263053933e-08
O(h^3): 3.2589013819233215e-14
F[2,2]: 
O(h^0): 1
O(h^1): 2.1659006750398106e-08
O(h^2): 6.348974745463944e-13
F[2,3] 
O(h^1): -3.681566067978174e-08
O(h^2): -7.982458684214476e-16
F[2,4] 
O(h^1): -5.0107058526107876e-05
O(h^2): -1.0864331023450316e-12
z = 2000
F[0,2]: 
O(h): 0.001
O(h^2): 1.6176675209345777e-11
O(h^3): 4.149260983655376e-16
F[0,3]: O(h^2): -2.577379324935995e-11
O(h^3): -5.56508598857262e-19
F[0,4]: O(h^2): -3.5079390279809464e-08
O(h^3): 6.388958324609312e-14
F[2,2]: 
O(h^0): 1
O(h^1): 3.235335041869155e-08
O(h^2): 1.2447782950966126e-12
F[2,3] 
O(h^1): -5.1547586498719897e-08
O(h^2): -1.6695257965717863e-15
F[2,4] 
O(h^1): -7.015878055961894e-05
O(h^2): -2.2723060759248487e-12
z = 3000
F[0,2]: 
O(h): 0.001
O(h^2): 1.0113719565117959e-10
O(h^3): 1.1830544331402375e-14
F[0,3]: O(h^2): -1.3786067473712723e-10
O(h^3): -1.861046753376102e-17
F[0,4]: O(h^2): -1.8729898624134395e-07
O(h^3): 1.821268166987839e-12
F[2,2]: 
O(h^0): 1
O(h^1): 2.0227439130235915e-07
O(h^2): 3.549163299420712e-11
F[2,3] 
O(h^1): -2.7572134947425444e-07
O(h^2): -5.5831402601283067e-14
F[2,4] 
O(h^1): -0.0003745979724826879
O(h^2): -7.585314033601226e-11
z = 4000
F[0,2]: 
O(h): 0.001
O(h^2): 3.8707919807743976e-10
O(h^3): 6.87120640871205e-14
F[0,3]: O(h^2): -3.3199888695369265e-10
O(h^3): -1.7153087381724168e-16
F[0,4]: O(h^2): -4.511894200470899e-07
O(h^3): 1.0565576371652576e-11
F[2,2]: 
O(h^0): 1
O(h^1): 7.741583961548795e-07
O(h^2): 2.0613619226136152e-10
F[2,3] 
O(h^1): -6.639977739073853e-07
O(h^2): -5.145926214517251e-13
F[2,4] 
O(h^1): -0.00090237884009418
O(h^2): -6.993359181523399e-10
z = 4697
F[0,2]: 
O(h): 0.001
O(h^2): 6.404954573945445e-10
O(h^3): 9.40369161910845e-14
F[0,3]: O(h^2): -3.879191175631099e-10
O(h^3): -3.3163690159393943e-16
F[0,4]: O(h^2): -5.274425927326496e-07
O(h^3): 1.443156249785116e-11
F[2,2]: 
O(h^0): 1
O(h^1): 1.2809909147890889e-06
O(h^2): 2.8211074857325345e-10
F[2,3] 
O(h^1): -7.758382351262198e-07
O(h^2): -9.94910704781818e-13
F[2,4] 
O(h^1): -0.0010548851854652991
O(h^2): -1.352751792600729e-09
z = 5000
F[0,2]: 
O(h): 0.001
O(h^2): 7.174484170741515e-10
O(h^3): 9.201679121190763e-14
F[0,3]: O(h^2): -3.834660365025259e-10
O(h^3): -3.672172460445182e-16
F[0,4]: O(h^2): -5.215318378718036e-07
O(h^3): 1.4106014194400982e-11
F[2,2]: 
O(h^0): 1
O(h^1): 1.4348968341483027e-06
O(h^2): 2.7605037363572286e-10
F[2,3] 
O(h^1): -7.669320730050517e-07
O(h^2): -1.1016517381335544e-12
F[2,4] 
O(h^1): -0.001043063675743607
O(h^2): -1.4982981567904122e-09
z = 6000
F[0,2]: 
O(h): 0.001
O(h^2): 7.969289586198945e-10
O(h^3): 6.190033283260013e-14
F[0,3]: O(h^2): -3.1369278846839465e-10
O(h^3): -3.336791994156332e-16
F[0,4]: O(h^2): -4.270861790773527e-07
O(h^3): 9.4496377753268e-12
F[2,2]: 
O(h^0): 1
O(h^1): 1.5938579172397893e-06
O(h^2): 1.8570099849780038e-10
F[2,3] 
O(h^1): -6.273855769367893e-07
O(h^2): -1.0010375982468993e-12
F[2,4] 
O(h^1): -0.0008541723581547055
O(h^2): -1.3628917803161835e-09
z = 7000
F[0,2]: 
O(h): 0.001
O(h^2): 5.561724211558159e-10
O(h^3): 2.153176458776001e-14
F[0,3]: O(h^2): -1.8458390962673094e-10
O(h^3): -1.3702753530543832e-16
F[0,4]: O(h^2): -2.515420631204688e-07
O(h^3): 3.2749016223533446e-12
F[2,2]: 
O(h^0): 1
O(h^1): 1.1123448423116318e-06
O(h^2): 6.459529376328004e-11
F[2,3] 
O(h^1): -3.6916781925346195e-07
O(h^2): -4.1108260591631496e-13
F[2,4] 
O(h^1): -0.0005030841262409376
O(h^2): -5.602035790347878e-10
z = 8000
F[0,2]: 
O(h): 0.001
O(h^2): 3.024740655188775e-10
O(h^3): 5.43072239018218e-15
F[0,3]: O(h^2): -9.248970472654782e-11
O(h^3): -3.734091962726775e-17
F[0,4]: O(h^2): -1.2587550102630836e-07
O(h^3): 8.218796300338801e-13
F[2,2]: 
O(h^0): 1
O(h^1): 6.04948131037755e-07
O(h^2): 1.6292167170546544e-11
F[2,3] 
O(h^1): -1.8497940945309564e-07
O(h^2): -1.1202275888180328e-13
F[2,4] 
O(h^1): -0.00025175100205261674
O(h^2): -1.5245935687962968e-10
z = 9000
F[0,2]: 
O(h): 0.001
O(h^2): 1.5754563132584576e-10
O(h^3): 1.365428467102883e-15
F[0,3]: O(h^2): -4.6270009302223514e-11
O(h^3): -9.72988799788708e-18
F[0,4]: O(h^2): -6.296539281439816e-08
O(h^3): 2.0599031467505506e-13
F[2,2]: 
O(h^0): 1
O(h^1): 3.1509126265169156e-07
O(h^2): 4.0962854013086485e-12
F[2,3] 
O(h^1): -9.254001860444703e-08
O(h^2): -2.9189663993661235e-14
F[2,4] 
O(h^1): -0.0001259307856287963
O(h^2): -3.972202917609638e-11
Particle 2:
eta 3.544858708987295, phi -0.17679750796769855,
p 22.81326378063821, q 1.60217662e-19,
brem = False
output State:
[[-0.00134732]
 [ 0.00094689]
 [-0.01016461]
 [ 0.05689269]
 [ 0.01314185]]
Data added to pickle list for particle: 2
Particle 3:
eta 4.473517808577073, phi 2.83840091068802,
p 33.0, q -1.60217662e-19,
brem = False
input State:
[[ 0.001     ]
 [-0.001     ]
 [ 0.00681248]
 [-0.02177647]
 [-0.00908511]]

Simulating particle
Particle track 3 is saved
Initiating Kalman filtering for particle: 3
z = 0
F[0,2]: 
O(h): 0.001
O(h^2): 2.5157297168395294e-18
O(h^3): 2.9132099961095747e-29
F[0,3]: O(h^2): -2.6259619596104906e-18
O(h^3): -8.809671831663997e-33
F[0,4]: O(h^2): -1.3403925958408916e-14
O(h^3): -6.470092356188744e-27
F[2,2]: 
O(h^0): 1
O(h^1): 5.0314594336790595e-15
O(h^2): 8.739629988328727e-26
F[2,3] 
O(h^1): -5.2519239192209806e-15
O(h^2): -2.6429015494992e-29
F[2,4] 
O(h^1): -2.6807851916817835e-11
O(h^2): -1.3490392179978919e-25
z = 1000
F[0,2]: 
O(h): 0.001
O(h^2): 4.808814867620911e-12
O(h^3): 1.0147569703963026e-16
F[0,3]: O(h^2): -4.908413379082676e-12
O(h^3): -3.147652049392259e-20
F[0,4]: O(h^2): -2.5016446532796727e-08
O(h^3): -2.253702771411576e-14
F[2,2]: 
O(h^0): 1
O(h^1): 9.617629735241825e-09
O(h^2): 3.044270911188908e-13
F[2,3] 
O(h^1): -9.816826758165354e-09
O(h^2): -9.442956148176777e-17
F[2,4] 
O(h^1): -5.0032893065593467e-05
O(h^2): -4.812740683152423e-13
z = 2000
F[0,2]: 
O(h): 0.001
O(h^2): 7.218249216563995e-12
O(h^3): 1.989416843625558e-16
F[0,3]: O(h^2): -6.872500746583613e-12
O(h^3): -6.615370874035906e-20
F[0,4]: O(h^2): -3.50269698754397e-08
O(h^3): -4.418219114937571e-14
F[2,2]: 
O(h^0): 1
O(h^1): 1.4436498433127994e-08
O(h^2): 5.968250530876675e-13
F[2,3] 
O(h^1): -1.3745001493167229e-08
O(h^2): -1.9846112622107717e-16
F[2,4] 
O(h^1): -7.00539397508794e-05
O(h^2): -1.0114937991163057e-12
z = 3000
F[0,2]: 
O(h): 0.001
O(h^2): 4.630301283571093e-11
O(h^3): 5.671314262635619e-15
F[0,3]: O(h^2): -3.6372338487561836e-11
O(h^3): -2.2458813527976887e-18
F[0,4]: O(h^2): -1.8700983459015293e-07
O(h^3): -1.2593894616263176e-12
F[2,2]: 
O(h^0): 1
O(h^1): 9.260602567142185e-08
O(h^2): 1.701394278790686e-11
F[2,3] 
O(h^1): -7.274467697512366e-08
O(h^2): -6.737644058393068e-15
F[2,4] 
O(h^1): -0.00037401966918030585
O(h^2): -3.464186668443922e-11
z = 4000
F[0,2]: 
O(h): 0.001
O(h^2): 1.8015235563475076e-10
O(h^3): 3.290793299753068e-14
F[0,3]: O(h^2): -8.75856233747636e-11
O(h^3): -2.104161626433101e-17
F[0,4]: O(h^2): -4.503859304792144e-07
O(h^3): -7.303684386836037e-12
F[2,2]: 
O(h^0): 1
O(h^1): 3.603047112695016e-07
O(h^2): 9.872379899259205e-11
F[2,3] 
O(h^1): -1.7517124674952722e-07
O(h^2): -6.312484879299305e-14
F[2,4] 
O(h^1): -0.0009007718609584289
O(h^2): -3.246028590599001e-10
z = 4697
F[0,2]: 
O(h): 0.001
O(h^2): 3.004093789265737e-10
O(h^3): 4.4966473902573716e-14
F[0,3]: O(h^2): -1.0232465046217675e-10
O(h^3): -4.099209054775963e-17
F[0,4]: O(h^2): -5.262971883698195e-07
O(h^3): -9.970929161573899e-12
F[2,2]: 
O(h^0): 1
O(h^1): 6.008187578531474e-07
O(h^2): 1.3489942170772117e-10
F[2,3] 
O(h^1): -2.0464930092435345e-07
O(h^2): -1.229762716432789e-13
F[2,4] 
O(h^1): -0.0010525943767396388
O(h^2): -6.325168540495986e-10
z = 5000
F[0,2]: 
O(h): 0.001
O(h^2): 3.371837700417278e-10
O(h^3): 4.396185324871317e-14
F[0,3]: O(h^2): -1.0114251551090942e-10
O(h^3): -4.547856097572031e-17
F[0,4]: O(h^2): -5.202842506231946e-07
O(h^3): -9.743134892914455e-12
F[2,2]: 
O(h^0): 1
O(h^1): 6.743675400834556e-07
O(h^2): 1.3188555974613948e-10
F[2,3] 
O(h^1): -2.0228503102181885e-07
O(h^2): -1.3643568292716092e-13
F[2,4] 
O(h^1): -0.0010405685012463892
O(h^2): -7.018347990599968e-10
z = 6000
F[0,2]: 
O(h): 0.001
O(h^2): 3.758326599143868e-10
O(h^3): 2.9475061287656877e-14
F[0,3]: O(h^2): -8.271584261088103e-11
O(h^3): -4.145619933886242e-17
F[0,4]: O(h^2): -4.257062993563968e-07
O(h^3): -6.5196301528165825e-12
F[2,2]: 
O(h^0): 1
O(h^1): 7.516653198287737e-07
O(h^2): 8.842518386297063e-11
F[2,3] 
O(h^1): -1.6543168522176208e-07
O(h^2): -1.2436859801658725e-13
F[2,4] 
O(h^1): -0.0008514125987127936
O(h^2): -6.400768455790349e-10
z = 7000
F[0,2]: 
O(h): 0.001
O(h^2): 2.6255567468186317e-10
O(h^3): 1.0222641675130231e-14
F[0,3]: O(h^2): -4.8659665826908325e-11
O(h^3): -1.703714304428333e-17
F[0,4]: O(h^2): -2.5054225066352943e-07
O(h^3): -2.2572215737758232e-12
F[2,2]: 
O(h^0): 1
O(h^1): 5.251113493637264e-07
O(h^2): 3.0667925025390697e-11
F[2,3] 
O(h^1): -9.731933165381664e-08
O(h^2): -5.1111429132850005e-14
F[2,4] 
O(h^1): -0.000501084501327059
O(h^2): -2.6316605903389436e-10
z = 8000
F[0,2]: 
O(h): 0.001
O(h^2): 1.4264912214651818e-10
O(h^3): 2.5622819077741958e-15
F[0,3]: O(h^2): -2.4222103721178413e-11
O(h^3): -4.607724487859562e-18
F[0,4]: O(h^2): -1.2531897839864993e-07
O(h^3): -5.648724979229348e-13
F[2,2]: 
O(h^0): 1
O(h^1): 2.852982442930364e-07
O(h^2): 7.686845723322588e-12
F[2,3] 
O(h^1): -4.844420744235684e-08
O(h^2): -1.3823173463578688e-14
F[2,4] 
O(h^1): -0.00025063795679729987
O(h^2): -7.151756910232284e-11
z = 9000
F[0,2]: 
O(h): 0.001
O(h^2): 7.418082088610117e-11
O(h^3): 6.417487211769778e-16
F[0,3]: O(h^2): -1.2217727577896274e-11
O(h^3): -1.2086170285208275e-18
F[0,4]: O(h^2): -6.267217250059071e-08
O(h^3): -1.4132637327891777e-13
F[2,2]: 
O(h^0): 1
O(h^1): 1.4836164177220233e-07
O(h^2): 1.925246163530933e-12
F[2,3] 
O(h^1): -2.4435455155792546e-08
O(h^2): -3.6258510855624824e-15
F[2,4] 
O(h^1): -0.0001253443450011814
O(h^2): -1.8599200485279907e-11
Particle 3:
eta 4.473846947899898, phi 2.8338868941256883,
p 33.2703353613746, q -1.60217662e-19,
brem = False
output State:
[[ 0.00087729]
 [-0.0010325 ]
 [ 0.00690844]
 [-0.02173834]
 [-0.00901129]]
Data added to pickle list for particle: 3
Particle 4:
eta 2.8706843941925215, phi 2.4597756668167747,
p 43.0, q 1.60217662e-19,
brem = False
input State:
[[ 0.001     ]
 [ 0.001     ]
 [ 0.07164499]
 [-0.08826851]
 [ 0.00697229]]

Simulating particle
Particle track 4 is saved
Initiating Kalman filtering for particle: 4
z = 0
F[0,2]: 
O(h): 0.001
O(h^2): -2.0347615571031882e-17
O(h^3): 1.8348458034334602e-29
F[0,3]: O(h^2): 8.292264626570173e-18
O(h^3): -2.255499385897411e-31
F[0,4]: O(h^2): -1.3556178879935086e-14
O(h^3): 5.1281048156052765e-27
F[2,2]: 
O(h^0): 1
O(h^1): -4.0695231142063764e-14
O(h^2): 5.504537410300381e-26
F[2,3] 
O(h^1): 1.6584529253140345e-14
O(h^2): -6.766498157692234e-28
F[2,4] 
O(h^1): -2.7112357759870177e-11
O(h^2): 1.1061858677605586e-24
z = 1000
F[0,2]: 
O(h): 0.001
O(h^2): -3.790687439856575e-11
O(h^3): 6.390200082765907e-17
F[0,3]: O(h^2): 1.542605094984471e-11
O(h^3): -7.81666632844686e-19
F[0,4]: O(h^2): -2.529916408069812e-08
O(h^3): 1.7860872100357e-14
F[2,2]: 
O(h^0): 1
O(h^1): -7.58137487971315e-08
O(h^2): 1.9170600248297725e-13
F[2,3] 
O(h^1): 3.0852101899689425e-08
O(h^2): -2.344999898534059e-15
F[2,4] 
O(h^1): -5.059832816139625e-05
O(h^2): 3.8458667999427826e-12
z = 2000
F[0,2]: 
O(h): 0.001
O(h^2): -5.276804598643387e-11
O(h^3): 1.252299938306129e-16
F[0,3]: O(h^2): 2.1598018706924182e-11
O(h^3): -1.5234697179348295e-18
F[0,4]: O(h^2): -3.541930016697651e-08
O(h^3): 3.5010298365699536e-14
F[2,2]: 
O(h^0): 1
O(h^1): -1.0553609197286774e-07
O(h^2): 3.756899814918386e-13
F[2,3] 
O(h^1): 4.319603741384836e-08
O(h^2): -4.570409153804487e-15
F[2,4] 
O(h^1): -7.083860033395303e-05
O(h^2): 7.495164065794628e-12
z = 3000
F[0,2]: 
O(h): 0.001
O(h^2): -2.75628320547716e-10
O(h^3): 3.565245967491565e-15
F[0,3]: O(h^2): 1.1601164721874445e-10
O(h^3): -4.2745305658775714e-17
F[0,4]: O(h^2): -1.8904598127034742e-07
O(h^3): 9.975695231767527e-13
F[2,2]: 
O(h^0): 1
O(h^1): -5.512566410954321e-07
O(h^2): 1.0695737902474693e-11
F[2,3] 
O(h^1): 2.320232944374889e-07
O(h^2): -1.282359169763271e-13
F[2,4] 
O(h^1): -0.0003780919625406948
O(h^2): 2.0896595591977433e-10
z = 4000
F[0,2]: 
O(h): 0.001
O(h^2): -6.203992658974927e-10
O(h^3): 2.0596560077370956e-14
F[0,3]: O(h^2): 2.792546117175267e-10
O(h^3): -2.31598266963417e-16
F[0,4]: O(h^2): -4.5478220264503554e-07
O(h^3): 5.776702458122603e-12
F[2,2]: 
O(h^0): 1
O(h^1): -1.2407985317949854e-06
O(h^2): 6.178968023211286e-11
F[2,3] 
O(h^1): 5.585092234350535e-07
O(h^2): -6.947948008902509e-13
F[2,4] 
O(h^1): -0.0009095644052900712
O(h^2): 1.131513309634469e-09
z = 4697
F[0,2]: 
O(h): 0.001
O(h^2): -6.682827961451937e-10
O(h^3): 2.8000641630186815e-14
F[0,3]: O(h^2): 3.261067360554298e-10
O(h^3): -2.913294807892378e-16
F[0,4]: O(h^2): -5.307499621970909e-07
O(h^3): 7.872779009484732e-12
F[2,2]: 
O(h^0): 1
O(h^1): -1.3365655922903874e-06
O(h^2): 8.400192489056044e-11
F[2,3] 
O(h^1): 6.522134721108596e-07
O(h^2): -8.739884423677134e-13
F[2,4] 
O(h^1): -0.0010614999243941817
O(h^2): 1.4224463387610377e-09
z = 5000
F[0,2]: 
O(h): 0.001
O(h^2): -6.353558978541538e-10
O(h^3): 2.7310383286164096e-14
F[0,3]: O(h^2): 3.222747098025115e-10
O(h^3): -2.737209111616203e-16
F[0,4]: O(h^2): -5.243730904921816e-07
O(h^3): 7.686804756847279e-12
F[2,2]: 
O(h^0): 1
O(h^1): -1.2707117957083075e-06
O(h^2): 8.193114985849226e-11
F[2,3] 
O(h^1): 6.445494196050231e-07
O(h^2): -8.211627334848605e-13
F[2,4] 
O(h^1): -0.0010487461809843633
O(h^2): 1.3361136547708975e-09
z = 6000
F[0,2]: 
O(h): 0.001
O(h^2): -4.571903493299766e-10
O(h^3): 1.817559873045654e-14
F[0,3]: O(h^2): 2.633959932385675e-10
O(h^3): -1.6097993440639212e-16
F[0,4]: O(h^2): -4.2825165059264756e-07
O(h^3): 5.1308577814820936e-12
F[2,2]: 
O(h^0): 1
O(h^1): -9.14380698659953e-07
O(h^2): 5.4526796191369595e-11
F[2,3] 
O(h^1): 5.267919864771351e-07
O(h^2): -4.829398032191762e-13
F[2,4] 
O(h^1): -0.000856503301185295
O(h^2): 7.85204684864649e-10
z = 7000
F[0,2]: 
O(h): 0.001
O(h^2): -2.432427427296182e-10
O(h^3): 6.26969850705659e-15
F[0,3]: O(h^2): 1.548785441166397e-10
O(h^3): -5.0361331487856866e-17
F[0,4]: O(h^2): -2.516971559343125e-07
O(h^3): 1.7731804010705282e-12
F[2,2]: 
O(h^0): 1
O(h^1): -4.864854854592364e-07
O(h^2): 1.880909552116977e-11
F[2,3] 
O(h^1): 3.0975708823327945e-07
O(h^2): -1.5108399446357064e-13
F[2,4] 
O(h^1): -0.000503394311868625
O(h^2): 2.455305344621366e-10
z = 8000
F[0,2]: 
O(h): 0.001
O(h^2): -1.1585901631810279e-10
O(h^3): 1.5872265081158126e-15
F[0,3]: O(h^2): 7.773175579578626e-11
O(h^3): -1.203892430085206e-17
F[0,4]: O(h^2): -1.258009247693514e-07
O(h^3): 4.4616335551058107e-13
F[2,2]: 
O(h^0): 1
O(h^1): -2.317180326362056e-07
O(h^2): 4.761679524347439e-12
F[2,3] 
O(h^1): 1.5546351159157252e-07
O(h^2): -3.611677290255618e-14
F[2,4] 
O(h^1): -0.0002516018495387028
O(h^2): 5.845131612313996e-11
z = 9000
F[0,2]: 
O(h): 0.001
O(h^2): -5.637276763035239e-11
O(h^3): 3.9910422083928243e-16
F[0,3]: O(h^2): 3.9005089448471064e-11
O(h^3): -2.939348368380973e-18
F[0,4]: O(h^2): -6.288909194698289e-08
O(h^3): 1.118741525048446e-13
F[2,2]: 
O(h^0): 1
O(h^1): -1.1274553526070479e-07
O(h^2): 1.197312662517847e-12
F[2,3] 
O(h^1): 7.801017889694212e-08
O(h^2): -8.818045105142918e-15
F[2,4] 
O(h^1): -0.00012577818389396576
O(h^2): 1.4217602298863928e-11
Particle 4:
eta 2.866921756817227, phi 2.4567398341526974,
p 42.043177428197424, q 1.60217662e-19,
brem = False
output State:
[[ 0.00040382]
 [ 0.00103199]
 [ 0.07218547]
 [-0.08838468]
 [ 0.00713097]]
Data added to pickle list for particle: 4
Particle 5:
eta 4.851977035880344, phi -1.2112609380800208,
p 53.0, q -1.60217662e-19,
brem = False
input State:
[[-0.001     ]
 [ 0.001     ]
 [-0.01462762]
 [ 0.00549812]
 [-0.00565676]]

Simulating particle
Particle track 5 is saved
Initiating Kalman filtering for particle: 5
z = 0
F[0,2]: 
O(h): 0.001
O(h^2): -3.4389873715150596e-18
O(h^3): 1.1812279591040239e-29
F[0,3]: O(h^2): 4.3358850195335767e-19
O(h^3): -1.9881616247967196e-33
F[0,4]: O(h^2): -1.3404470678697977e-14
O(h^3): -4.1183174219335975e-27
F[2,2]: 
O(h^0): 1
O(h^1): -6.877974743030121e-15
O(h^2): 3.543683877312072e-26
F[2,3] 
O(h^1): 8.671770039067156e-16
O(h^2): -5.964484874390158e-30
F[2,4] 
O(h^1): -2.6808941357395955e-11
O(h^2): 1.843931798286039e-25
z = 1000
F[0,2]: 
O(h): 0.001
O(h^2): -6.829432958417245e-12
O(h^3): 4.115231525497113e-17
F[0,3]: O(h^2): 8.065111239822285e-13
O(h^3): -7.344095670415064e-21
F[0,4]: O(h^2): -2.5018458200157558e-08
O(h^3): -1.434594106450719e-14
F[2,2]: 
O(h^0): 1
O(h^1): -1.365886591683449e-08
O(h^2): 1.2345694576491336e-13
F[2,3] 
O(h^1): 1.6130222479644568e-09
O(h^2): -2.2032287011245192e-17
F[2,4] 
O(h^1): -5.003691640031512e-05
O(h^2): 6.834547413593497e-13
z = 2000
F[0,2]: 
O(h): 0.001
O(h^2): -9.36546504013763e-12
O(h^3): 8.066991374461431e-17
F[0,3]: O(h^2): 1.1292241404368689e-12
O(h^3): -1.4101094358531252e-20
F[0,4]: O(h^2): -3.502884976400784e-08
O(h^3): -2.812316332751542e-14
F[2,2]: 
O(h^0): 1
O(h^1): -1.8730930080275263e-08
O(h^2): 2.4200974123384295e-13
F[2,3] 
O(h^1): 2.258448280873738e-09
O(h^2): -4.230328307559376e-17
F[2,4] 
O(h^1): -7.005769952801568e-05
O(h^2): 1.3122597138296948e-12
z = 3000
F[0,2]: 
O(h): 0.001
O(h^2): -4.226585835982608e-11
O(h^3): 2.298372260308728e-15
F[0,3]: O(h^2): 5.969206699282305e-12
O(h^3): -3.363950057396109e-19
F[0,4]: O(h^2): -1.8699397538849616e-07
O(h^3): -8.014845982865009e-13
F[2,2]: 
O(h^0): 1
O(h^1): -8.453171671965217e-08
O(h^2): 6.8951167809261864e-12
F[2,3] 
O(h^1): 1.1938413398564612e-08
O(h^2): -1.0091850172188329e-15
F[2,4] 
O(h^1): -0.00037398795077699234
O(h^2): 3.161417048850844e-11
z = 4000
F[0,2]: 
O(h): 0.001
O(h^2): -7.39704107433157e-11
O(h^3): 1.331902407644066e-14
F[0,3]: O(h^2): 1.4372459827031648e-11
O(h^3): -1.4175303380602118e-18
F[0,4]: O(h^2): -4.5020124742870573e-07
O(h^3): -4.646102078820832e-12
F[2,2]: 
O(h^0): 1
O(h^1): -1.4794082148663141e-07
O(h^2): 3.995707222932199e-11
F[2,3] 
O(h^1): 2.8744919654063302e-08
O(h^2): -4.252591014180637e-15
F[2,4] 
O(h^1): -0.0009004024948574116
O(h^2): 1.3320766260117872e-10
z = 4697
F[0,2]: 
O(h): 0.001
O(h^2): -5.0037603685987275e-11
O(h^3): 1.8168131752658386e-14
F[0,3]: O(h^2): 1.678865578782286e-11
O(h^3): -1.1200970594858625e-18
F[0,4]: O(h^2): -5.25853966395293e-07
O(h^3): -6.339164617739516e-12
F[2,2]: 
O(h^0): 1
O(h^1): -1.0007520737197454e-07
O(h^2): 5.4504395257975154e-11
F[2,3] 
O(h^1): 3.357731157564572e-08
O(h^2): -3.360291178457587e-15
F[2,4] 
O(h^1): -0.001051707932790586
O(h^2): 1.0525097820617008e-10
z = 5000
F[0,2]: 
O(h): 0.001
O(h^2): -3.3199869608164293e-11
O(h^3): 1.774668292425746e-14
F[0,3]: O(h^2): 1.6593486695299075e-11
O(h^3): -7.345430578947562e-19
F[0,4]: O(h^2): -5.197321387324899e-07
O(h^3): -6.1925308042250396e-12
F[2,2]: 
O(h^0): 1
O(h^1): -6.639973921632858e-08
O(h^2): 5.324004877277238e-11
F[2,3] 
O(h^1): 3.3186973390598145e-08
O(h^2): -2.2036291736842676e-15
F[2,4] 
O(h^1): -0.00103946427746498
O(h^2): 6.90208709262229e-11
tx changes sign at z = 5648
F[0,2]: 
O(h): 0.001
O(h^2): -3.839468852192282e-14
O(h^3): 1.4590980838348925e-14
F[0,3]: O(h^2): 1.5046527591038575e-11
O(h^3): -7.702836218061868e-22
F[0,4]: O(h^2): -4.712726246243016e-07
O(h^3): -5.091660639916669e-12
F[2,2]: 
O(h^0): 1
O(h^1): -7.678937704384565e-11
O(h^2): 4.377294251504677e-11
F[2,3] 
O(h^1): 3.009305518207715e-08
O(h^2): -2.31085086541856e-18
F[2,4] 
O(h^1): -0.0009425452492486032
O(h^2): 7.237821124322103e-14
z = 6000
F[0,2]: 
O(h): 0.001
O(h^2): 1.3212125401915509e-11
O(h^3): 1.1862739389442824e-14
F[0,3]: O(h^2): 1.3566973812618326e-11
O(h^3): 2.3900055145342764e-19
F[0,4]: O(h^2): -4.2493287741806205e-07
O(h^3): -4.139560859921417e-12
F[2,2]: 
O(h^0): 1
O(h^1): 2.6424250803831024e-08
O(h^2): 3.5588218168328465e-11
F[2,3] 
O(h^1): 2.7133947625236655e-08
O(h^2): 7.170016543602828e-16
F[2,4] 
O(h^1): -0.0008498657548361242
O(h^2): -2.2457298164565796e-11
z = 7000
F[0,2]: 
O(h): 0.001
O(h^2): 2.445260321297176e-11
O(h^3): 4.104223795282584e-15
F[0,3]: O(h^2): 7.979476611909439e-12
O(h^3): 2.6016132507425595e-19
F[0,4]: O(h^2): -2.4993345655570206e-07
O(h^3): -1.4320222055267819e-12
F[2,2]: 
O(h^0): 1
O(h^1): 4.8905206425943514e-08
O(h^2): 1.231267138584775e-11
F[2,3] 
O(h^1): 1.595895322381888e-08
O(h^2): 7.804839752227679e-16
F[2,4] 
O(h^1): -0.0004998669131114043
O(h^2): -2.4446347448731037e-11
z = 8000
F[0,2]: 
O(h): 0.001
O(h^2): 1.633498330350467e-11
O(h^3): 1.022908633983393e-15
F[0,3]: O(h^2): 4.041476716362225e-12
O(h^3): 8.802421018981383e-20
F[0,4]: O(h^2): -1.2496894417605976e-07
O(h^3): -3.574395203961534e-13
F[2,2]: 
O(h^0): 1
O(h^1): 3.266996660700934e-08
O(h^2): 3.0687259019501785e-12
F[2,3] 
O(h^1): 8.082953432724448e-09
O(h^2): 2.6407263056944145e-16
F[2,4] 
O(h^1): -0.00024993788835211956
O(h^2): -8.16554941278054e-12
z = 9000
F[0,2]: 
O(h): 0.001
O(h^2): 9.266260322741829e-12
O(h^3): 2.5570896420795087e-16
F[0,3]: O(h^2): 2.0199844625631232e-12
O(h^3): 2.495720141909626e-20
F[0,4]: O(h^2): -6.248503270274946e-08
O(h^3): -8.935378193324666e-14
F[2,2]: 
O(h^0): 1
O(h^1): 1.8532520645483655e-08
O(h^2): 7.671268926238525e-13
F[2,3] 
O(h^1): 4.039968925126246e-09
O(h^2): 7.487160425728877e-17
F[2,4] 
O(h^1): -0.00012497006540549893
O(h^2): -2.3160349632529963e-12
Particle 5:
eta 4.842234574752171, phi -1.2053490127102715,
p 52.42903488214042, q -1.60217662e-19,
brem = False
output State:
[[-0.00089868]
 [ 0.00092387]
 [-0.01473776]
 [ 0.00563918]
 [-0.00571837]]
Data added to pickle list for particle: 5
Particle 6:
eta 2.7984896668045636, phi 1.1156162928340005,
p 62.99999999999999, q 1.60217662e-19,
brem = False
input State:
[[0.001     ]
 [0.001     ]
 [0.10980939]
 [0.05374729]
 [0.00475887]]

Simulating particle
Particle track 6 is saved
Initiating Kalman filtering for particle: 6
z = 0
F[0,2]: 
O(h): 0.001
O(h^2): -2.1117560500779497e-17
O(h^3): 8.709515217002066e-30
F[0,3]: O(h^2): -3.424006729673002e-18
O(h^3): 9.649987969586728e-32
F[0,4]: O(h^2): -1.3662816934288085e-14
O(h^3): 3.502297760693563e-27
F[2,2]: 
O(h^0): 1
O(h^1): -4.2235121001559e-14
O(h^2): 2.612854565100619e-26
F[2,3] 
O(h^1): -6.848013459346004e-15
O(h^2): 2.8949963908760184e-28
F[2,4] 
O(h^1): -2.7325633868576175e-11
O(h^2): 1.1551906534290372e-24
z = 1000
F[0,2]: 
O(h): 0.001
O(h^2): -3.935272892356952e-11
O(h^3): 3.033072150842102e-17
F[0,3]: O(h^2): -6.37675107758617e-12
O(h^3): 3.3490452609384513e-19
F[0,4]: O(h^2): -2.5497998322523346e-08
O(h^3): 1.2198327679324124e-14
F[2,2]: 
O(h^0): 1
O(h^1): -7.870545784713906e-08
O(h^2): 9.099216452526305e-14
F[2,3] 
O(h^1): -1.275350215517234e-08
O(h^2): 1.0047135782815354e-15
F[2,4] 
O(h^1): -5.0995996645046706e-05
O(h^2): 4.017435340025291e-12
z = 2000
F[0,2]: 
O(h): 0.001
O(h^2): -5.495412380390723e-11
O(h^3): 5.943901296707157e-17
F[0,3]: O(h^2): -8.928078251912349e-12
O(h^3): 6.547944651945668e-19
F[0,4]: O(h^2): -3.5697497318786635e-08
O(h^3): 2.3910605635986516e-14
F[2,2]: 
O(h^0): 1
O(h^1): -1.0990824760781449e-07
O(h^2): 1.783170389012147e-13
F[2,3] 
O(h^1): -1.7856156503824698e-08
O(h^2): 1.9643833955837002e-15
F[2,4] 
O(h^1): -7.139499463757329e-05
O(h^2): 7.85427378863957e-12
z = 3000
F[0,2]: 
O(h): 0.001
O(h^2): -2.908185882266379e-10
O(h^3): 1.6922699637110934e-15
F[0,3]: O(h^2): -4.7967208434401725e-11
O(h^3): 1.8617385016602056e-17
F[0,4]: O(h^2): -1.905282213526223e-07
O(h^3): 6.812764205408186e-13
F[2,2]: 
O(h^0): 1
O(h^1): -5.816371764532757e-07
O(h^2): 5.076809891133281e-12
F[2,3] 
O(h^1): -9.593441686880346e-08
O(h^2): 5.5852155049806166e-14
F[2,4] 
O(h^1): -0.0003810564427052446
O(h^2): 2.2184763524238183e-10
z = 4000
F[0,2]: 
O(h): 0.001
O(h^2): -6.797727551271298e-10
O(h^3): 9.773908999027037e-15
F[0,3]: O(h^2): -1.1546012303286998e-10
O(h^3): 1.0474857372299581e-16
F[0,4]: O(h^2): -4.583099592672436e-07
O(h^3): 3.944679602661355e-12
F[2,2]: 
O(h^0): 1
O(h^1): -1.3595455102542598e-06
O(h^2): 2.93217269970811e-11
F[2,3] 
O(h^1): -2.3092024606574e-07
O(h^2): 3.142457211689873e-13
F[2,4] 
O(h^1): -0.0009166199185344872
O(h^2): 1.24737389746123e-09
z = 4697
F[0,2]: 
O(h): 0.001
O(h^2): -7.673789796095034e-10
O(h^3): 1.3281776915802918e-14
F[0,3]: O(h^2): -1.3482591566191677e-10
O(h^3): 1.3808163536626106e-16
F[0,4]: O(h^2): -5.347972442748753e-07
O(h^3): 5.375066669334401e-12
F[2,2]: 
O(h^0): 1
O(h^1): -1.5347579592190067e-06
O(h^2): 3.9845330747408745e-11
F[2,3] 
O(h^1): -2.696518313238335e-07
O(h^2): 4.1424490609878313e-13
F[2,4] 
O(h^1): -0.0010695944885497505
O(h^2): 1.6431339119702302e-09
z = 5000
F[0,2]: 
O(h): 0.001
O(h^2): -7.465655041047911e-10
O(h^3): 1.2951177856192186e-14
F[0,3]: O(h^2): -1.3323850984238797e-10
O(h^3): 1.3275486992819894e-16
F[0,4]: O(h^2): -5.283337468724511e-07
O(h^3): 5.247589181465766e-12
F[2,2]: 
O(h^0): 1
O(h^1): -1.4931310082095822e-06
O(h^2): 3.885353356857655e-11
F[2,3] 
O(h^1): -2.664770196847759e-07
O(h^2): 3.982646097845968e-13
F[2,4] 
O(h^1): -0.0010566674937449025
O(h^2): 1.5792478749807334e-09
z = 6000
F[0,2]: 
O(h): 0.001
O(h^2): -5.809669036715706e-10
O(h^3): 8.611107478153793e-15
F[0,3]: O(h^2): -1.0888672141482567e-10
O(h^3): 8.442663378266457e-17
F[0,4]: O(h^2): -4.3137093515042244e-07
O(h^3): 3.5014559377383952e-12
F[2,2]: 
O(h^0): 1
O(h^1): -1.1619338073431413e-06
O(h^2): 2.583332243446137e-11
F[2,3] 
O(h^1): -2.1777344282965134e-07
O(h^2): 2.5327990134799365e-13
F[2,4] 
O(h^1): -0.0008627418703008449
O(h^2): 1.0034059844914623e-09
z = 7000
F[0,2]: 
O(h): 0.001
O(h^2): -3.2958220891752176e-10
O(h^3): 2.9679030052981013e-15
F[0,3]: O(h^2): -6.402122918400297e-11
O(h^3): 2.8160553490306217e-17
F[0,4]: O(h^2): -2.5347171131246184e-07
O(h^3): 1.2096985102350817e-12
F[2,2]: 
O(h^0): 1
O(h^1): -6.591644178350435e-07
O(h^2): 8.903709015894305e-12
F[2,3] 
O(h^1): -1.2804245836800595e-07
O(h^2): 8.448166047091867e-14
F[2,4] 
O(h^1): -0.0005069434226249236
O(h^2): 3.3447828676542757e-10
z = 8000
F[0,2]: 
O(h): 0.001
O(h^2): -1.6268240611706827e-10
O(h^3): 7.488453711727368e-16
F[0,3]: O(h^2): -3.218317293633078e-11
O(h^3): 6.987519336659592e-18
F[0,4]: O(h^2): -1.266759697064569e-07
O(h^3): 3.038991545217396e-13
F[2,2]: 
O(h^0): 1
O(h^1): -3.253648122341366e-07
O(h^2): 2.2465361135182105e-12
F[2,3] 
O(h^1): -6.436634587266156e-08
O(h^2): 2.0962558009978775e-14
F[2,4] 
O(h^1): -0.00025335193941291385
O(h^2): 8.251058305205958e-11
z = 9000
F[0,2]: 
O(h): 0.001
O(h^2): -8.068928848971881e-11
O(h^3): 1.8775869149181617e-16
F[0,3]: O(h^2): -1.608376109602597e-11
O(h^3): 1.732029186261128e-18
F[0,4]: O(h^2): -6.332143563232003e-08
O(h^3): 7.609519163817763e-14
F[2,2]: 
O(h^0): 1
O(h^1): -1.6137857697943765e-07
O(h^2): 5.632760744754483e-13
F[2,3] 
O(h^1): -3.216752219205194e-08
O(h^2): 5.1960875587833825e-15
F[2,4] 
O(h^1): -0.00012664287126464008
O(h^2): 2.045688952534225e-11
Particle 6:
eta 2.7961650255410655, phi 1.1179081931335058,
p 62.347878328395396, q 1.60217662e-19,
brem = False
output State:
[[0.00059011]
 [0.00108843]
 [0.11019005]
 [0.05362091]
 [0.00480864]]
Data added to pickle list for particle: 6
Particle 7:
eta 4.553316026219652, phi -2.275267330992531,
p 73.0, q -1.60217662e-19,
brem = False
input State:
[[ 0.001     ]
 [-0.001     ]
 [-0.01605192]
 [-0.0136435 ]
 [-0.00410697]]

Simulating particle
Particle track 7 is saved
Initiating Kalman filtering for particle: 7
z = 0
F[0,2]: 
O(h): 0.001
O(h^2): -2.5372575401656938e-18
O(h^3): 5.744601028777203e-30
F[0,3]: O(h^2): -7.373036463511318e-19
O(h^3): 2.494463203740865e-33
F[0,4]: O(h^2): -1.3406062653183556e-14
O(h^3): -2.872140016391979e-27
F[2,2]: 
O(h^0): 1
O(h^1): -5.074515080331388e-15
O(h^2): 1.7233803086331614e-26
F[2,3] 
O(h^1): -1.4746072927022637e-15
O(h^2): 7.483389611222597e-30
F[2,4] 
O(h^1): -2.6812125306367117e-11
O(h^2): 1.360671284927507e-25
z = 1000
F[0,2]: 
O(h): 0.001
O(h^2): -4.092371180338433e-12
O(h^3): 2.0002219295201218e-17
F[0,3]: O(h^2): -1.376507109202632e-12
O(h^3): 7.511378833324976e-21
F[0,4]: O(h^2): -2.501796125071945e-08
O(h^3): -1.0003083220704901e-14
F[2,2]: 
O(h^0): 1
O(h^1): -8.184742360676868e-09
O(h^2): 6.000665788560367e-14
F[2,3] 
O(h^1): -2.7530142184052644e-09
O(h^2): 2.253413649997493e-17
F[2,4] 
O(h^1): -5.0035922501438904e-05
O(h^2): 4.0955702299377397e-13
z = 2000
F[0,2]: 
O(h): 0.001
O(h^2): -5.634277401832941e-12
O(h^3): 3.921084297559025e-17
F[0,3]: O(h^2): -1.9272992000472693e-12
O(h^3): 1.4479499709613055e-20
F[0,4]: O(h^2): -3.502836948453171e-08
O(h^3): -1.96097732275739e-14
F[2,2]: 
O(h^0): 1
O(h^1): -1.1268554803665886e-08
O(h^2): 1.1763252892677073e-13
F[2,3] 
O(h^1): -3.854598400094539e-09
O(h^2): 4.343849912883916e-17
F[2,4] 
O(h^1): -7.005673896906341e-05
O(h^2): 7.894881071403797e-13
z = 3000
F[0,2]: 
O(h): 0.001
O(h^2): -3.366131909493791e-11
O(h^3): 1.1179396030572512e-15
F[0,3]: O(h^2): -9.960348395605523e-12
O(h^3): 4.470644317632266e-19
F[0,4]: O(h^2): -1.8702245194121228e-07
O(h^3): -5.589889436252484e-13
F[2,2]: 
O(h^0): 1
O(h^1): -6.732263818987583e-08
O(h^2): 3.353818809171754e-12
F[2,3] 
O(h^1): -1.992069679121105e-08
O(h^2): 1.34119329528968e-15
F[2,4] 
O(h^1): -0.00037404490388242455
O(h^2): 2.5183181215112633e-11
z = 4000
F[0,2]: 
O(h): 0.001
O(h^2): -6.752790300600572e-11
O(h^3): 6.478928287676032e-15
F[0,3]: O(h^2): -2.3982350374179386e-11
O(h^3): 2.1594316752784947e-18
F[0,4]: O(h^2): -4.502783017290223e-07
O(h^3): -3.240467799808305e-12
F[2,2]: 
O(h^0): 1
O(h^1): -1.3505580601201143e-07
O(h^2): 1.9436784863028095e-11
F[2,3] 
O(h^1): -4.7964700748358774e-08
O(h^2): 6.478295025835484e-15
F[2,4] 
O(h^1): -0.0009005566034580448
O(h^2): 1.2163260217703277e-10
z = 4697
F[0,2]: 
O(h): 0.001
O(h^2): -6.118854100483389e-11
O(h^3): 8.83765045517091e-15
F[0,3]: O(h^2): -2.8014069878185085e-11
O(h^3): 2.2856554712615775e-18
F[0,4]: O(h^2): -5.259426796472777e-07
O(h^3): -4.421295827894732e-12
F[2,2]: 
O(h^0): 1
O(h^1): -1.223770820096678e-07
O(h^2): 2.6512951365512725e-11
F[2,3] 
O(h^1): -5.6028139756370165e-08
O(h^2): 6.856966413784732e-15
F[2,4] 
O(h^1): -0.0010518853592945553
O(h^2): 1.2873428622114109e-10
z = 5000
F[0,2]: 
O(h): 0.001
O(h^2): -5.256934711741122e-11
O(h^3): 8.63232164399532e-15
F[0,3]: O(h^2): -2.768831887983197e-11
O(h^3): 1.9408574275380835e-18
F[0,4]: O(h^2): -5.198149894538722e-07
O(h^3): -4.318971522874056e-12
F[2,2]: 
O(h^0): 1
O(h^1): -1.0513869423482244e-07
O(h^2): 2.589696493198596e-11
F[2,3] 
O(h^1): -5.537663775966394e-08
O(h^2): 5.822572282614252e-15
F[2,4] 
O(h^1): -0.0010396299789077442
O(h^2): 1.0931181350580806e-10
z = 6000
F[0,2]: 
O(h): 0.001
O(h^2): -2.3351181795150895e-11
O(h^3): 5.768888897351515e-15
F[0,3]: O(h^2): -2.2637752926402662e-11
O(h^3): 7.048661332131417e-19
F[0,4]: O(h^2): -4.2497535393881115e-07
O(h^3): -2.8869018418516494e-12
F[2,2]: 
O(h^0): 1
O(h^1): -4.67023635903018e-08
O(h^2): 1.730666669205454e-11
F[2,3] 
O(h^1): -4.5275505852805324e-08
O(h^2): 2.1145983996394247e-15
F[2,4] 
O(h^1): -0.0008499507078776223
O(h^2): 3.9697058548470174e-11
z = 7000
F[0,2]: 
O(h): 0.001
O(h^2): -5.621696154190464e-12
O(h^3): 1.995339523913605e-15
F[0,3]: O(h^2): -1.3314185864417469e-11
O(h^3): 9.980365551807103e-20
F[0,4]: O(h^2): -2.4994096947829806e-07
O(h^3): -9.985895672522074e-13
F[2,2]: 
O(h^0): 1
O(h^1): -1.124339230838093e-08
O(h^2): 5.986018571740818e-12
F[2,3] 
O(h^1): -2.6628371728834943e-08
O(h^2): 2.9941096655421316e-16
F[2,4] 
O(h^1): -0.0004998819389565962
O(h^2): 5.620701709820134e-12
z = 8000
F[0,2]: 
O(h): 0.001
O(h^2): -3.313504566063669e-13
O(h^3): 5.011572676917922e-16
F[0,3]: O(h^2): -6.8369850578075214e-12
O(h^3): 3.02077203338039e-21
F[0,4]: O(h^2): -1.2496774739459087e-07
O(h^3): -2.502245394338571e-13
F[2,2]: 
O(h^0): 1
O(h^1): -6.627009132127338e-10
O(h^2): 1.503471803075377e-12
F[2,3] 
O(h^1): -1.3673970115615043e-08
O(h^2): 9.062316100141174e-18
F[2,4] 
O(h^1): -0.00024993549478918175
O(h^2): 1.6564278254771325e-13
tx changes sign at z = 8244
F[0,2]: 
O(h): 0.001
O(h^2): -9.067999997835777e-16
O(h^3): 3.5673154132751806e-16
F[0,3]: O(h^2): -5.776851734813501e-12
O(h^3): 6.9850345811631e-24
F[0,4]: O(h^2): -1.0544114645235444e-07
O(h^3): -1.781254062965424e-13
F[2,2]: 
O(h^0): 1
O(h^1): -1.8135999995671556e-12
O(h^2): 1.0701946239825543e-12
F[2,3] 
O(h^1): -1.1553703469627003e-08
O(h^2): 2.0955103743489298e-20
F[2,4] 
O(h^1): -0.0002108822929047089
O(h^2): 3.824799846300482e-16
z = 9000
F[0,2]: 
O(h): 0.001
O(h^2): 3.9604278409476014e-13
O(h^3): 1.2546052565370867e-16
F[0,3]: O(h^2): -3.471098421671797e-12
O(h^3): -1.833055357288575e-21
F[0,4]: O(h^2): -6.24830674359131e-08
O(h^3): -6.259801835961345e-14
F[2,2]: 
O(h^0): 1
O(h^1): 7.920855681895202e-10
O(h^2): 3.763815769611258e-13
F[2,3] 
O(h^1): -6.942196843343593e-09
O(h^2): -5.499166071865723e-18
F[2,4] 
O(h^1): -0.0001249661348718262
O(h^2): -9.899021081176366e-14
Particle 7:
eta 4.557064261574191, phi -2.2853589451536456,
p 74.78258152149118, q -1.60217662e-19,
brem = False
output State:
[[ 0.00067669]
 [-0.00087504]
 [-0.01585387]
 [-0.01375313]
 [-0.00400907]]
Data added to pickle list for particle: 7
Particle 8:
eta 4.540267413979492, phi 2.3571518861525806,
p 83.0, q 1.60217662e-19,
brem = False
input State:
[[ 0.001     ]
 [ 0.001     ]
 [ 0.0150777 ]
 [-0.0151066 ]
 [ 0.00361215]]

Simulating particle
Particle track 8 is saved
Initiating Kalman filtering for particle: 8
z = 0
F[0,2]: 
O(h): 0.001
O(h^2): -2.229753185541431e-18
O(h^3): 4.7496413486004486e-30
F[0,3]: O(h^2): 7.28749337926178e-19
O(h^3): -2.1667365776466195e-33
F[0,4]: O(h^2): -1.3405962510592724e-14
O(h^3): 2.611684312140433e-27
F[2,2]: 
O(h^0): 1
O(h^1): -4.459506371082863e-15
O(h^2): 1.4248924045801344e-26
F[2,3] 
O(h^1): 1.4574986758523559e-15
O(h^2): -6.500209732939857e-30
F[2,4] 
O(h^1): -2.681192502118545e-11
O(h^2): 1.1957687431835317e-25
z = 1000
F[0,2]: 
O(h): 0.001
O(h^2): -4.150839928961743e-12
O(h^3): 1.6544023337656966e-17
F[0,3]: O(h^2): 1.3597164835125354e-12
O(h^3): -7.52584862704337e-21
F[0,4]: O(h^2): -2.5020094423287317e-08
O(h^3): 9.097102188445614e-15
F[2,2]: 
O(h^0): 1
O(h^1): -8.301679857923486e-09
O(h^2): 4.963207001297091e-14
F[2,3] 
O(h^1): 2.719432967025071e-09
O(h^2): -2.2577545881130116e-17
F[2,4] 
O(h^1): -5.004018884657464e-05
O(h^2): 4.154486149441237e-13
z = 2000
F[0,2]: 
O(h): 0.001
O(h^2): -5.732672403080345e-12
O(h^3): 3.243163726855695e-17
F[0,3]: O(h^2): 1.9037899212924156e-12
O(h^3): -1.4552824050563983e-20
F[0,4]: O(h^2): -3.5031351008764376e-08
O(h^3): 1.7833709044205676e-14
F[2,2]: 
O(h^0): 1
O(h^1): -1.146534480616069e-08
O(h^2): 9.729491180567084e-14
F[2,3] 
O(h^1): 3.807579842584831e-09
O(h^2): -4.3658472151691947e-17
F[2,4] 
O(h^1): -7.006270201752875e-05
O(h^2): 8.033529568294066e-13
z = 3000
F[0,2]: 
O(h): 0.001
O(h^2): -2.8785316802254852e-11
O(h^3): 9.242685826501518e-16
F[0,3]: O(h^2): 1.034518449308293e-11
O(h^3): -3.970832349308902e-19
F[0,4]: O(h^2): -1.8702020581038302e-07
O(h^3): 5.082954226882662e-13
F[2,2]: 
O(h^0): 1
O(h^1): -5.757063360450971e-08
O(h^2): 2.772805747950456e-12
F[2,3] 
O(h^1): 2.069036898616586e-08
O(h^2): -1.1912497047926708e-15
F[2,4] 
O(h^1): -0.0003740404116207661
O(h^2): 2.1535407619926473e-11
z = 4000
F[0,2]: 
O(h): 0.001
O(h^2): -5.81292933016332e-11
O(h^3): 5.356838580184557e-15
F[0,3]: O(h^2): 2.4909074070446775e-11
O(h^3): -1.9307450354234346e-18
F[0,4]: O(h^2): -4.502795200153508e-07
O(h^3): 2.9466544691782466e-12
F[2,2]: 
O(h^0): 1
O(h^1): -1.1625858660326642e-07
O(h^2): 1.607051574055367e-11
F[2,3] 
O(h^1): 4.981814814089355e-08
O(h^2): -5.7922351062703024e-15
F[2,4] 
O(h^1): -0.0009005590400307016
O(h^2): 1.0470581267257343e-10
z = 4697
F[0,2]: 
O(h): 0.001
O(h^2): -5.327310103373092e-11
O(h^3): 7.307420530591909e-15
F[0,3]: O(h^2): 2.909670918206656e-11
O(h^3): -2.066922308290829e-18
F[0,4]: O(h^2): -5.25950735487713e-07
O(h^3): 4.020484383554979e-12
F[2,2]: 
O(h^0): 1
O(h^1): -1.0654620206746187e-07
O(h^2): 2.1922261591775728e-11
F[2,3] 
O(h^1): 5.8193418364133136e-08
O(h^2): -6.200766924872487e-15
F[2,4] 
O(h^1): -0.001051901470975426
O(h^2): 1.120847689103836e-10
z = 5000
F[0,2]: 
O(h): 0.001
O(h^2): -4.6114892164387034e-11
O(h^3): 7.137768625619172e-15
F[0,3]: O(h^2): 2.8758410908767022e-11
O(h^3): -1.768391359549824e-18
F[0,4]: O(h^2): -5.198252179505869e-07
O(h^3): 3.927459095404859e-12
F[2,2]: 
O(h^0): 1
O(h^1): -9.222978432877406e-08
O(h^2): 2.141330587685751e-11
F[2,3] 
O(h^1): 5.751682181753405e-08
O(h^2): -5.3051740786494696e-15
F[2,4] 
O(h^1): -0.001039650435901174
O(h^2): 9.589414660109259e-11
z = 6000
F[0,2]: 
O(h): 0.001
O(h^2): -2.1471709508142326e-11
O(h^3): 4.770249789491531e-15
F[0,3]: O(h^2): 2.3512715374070045e-11
O(h^3): -6.731962889053264e-19
F[0,4]: O(h^2): -4.2498716483263135e-07
O(h^3): 2.6252341593764183e-12
F[2,2]: 
O(h^0): 1
O(h^1): -4.294341901628465e-08
O(h^2): 1.4310749368474591e-11
F[2,3] 
O(h^1): 4.70254307481401e-08
O(h^2): -2.019588866715979e-15
F[2,4] 
O(h^1): -0.0008499743296652626
O(h^2): 3.650362507852701e-11
z = 7000
F[0,2]: 
O(h): 0.001
O(h^2): -5.9203123684524914e-12
O(h^3): 1.6499380895381648e-15
F[0,3]: O(h^2): 1.3828791994868577e-11
O(h^3): -1.0916946199814321e-19
F[0,4]: O(h^2): -2.499481887545788e-07
O(h^3): 9.080791118633037e-13
F[2,2]: 
O(h^0): 1
O(h^1): -1.1840624736904983e-08
O(h^2): 4.949814268614494e-12
F[2,3] 
O(h^1): 2.765758398973716e-08
O(h^2): -3.2750838599442964e-16
F[2,4] 
O(h^1): -0.0004998963775091576
O(h^2): 5.919542929824877e-12
z = 8000
F[0,2]: 
O(h): 0.001
O(h^2): -1.2184775503936694e-12
O(h^3): 4.130280978110325e-16
F[0,3]: O(h^2): 6.8131803134742544e-12
O(h^3): -1.106977260766978e-20
F[0,4]: O(h^2): -1.2497027835668638e-07
O(h^3): 2.2716460392573807e-13
F[2,2]: 
O(h^0): 1
O(h^1): -2.4369551007873394e-09
O(h^2): 1.2390842934330976e-12
F[2,3] 
O(h^1): 1.3626360626948509e-08
O(h^2): -3.320931782300935e-17
F[2,4] 
O(h^1): -0.0002499405567133728
O(h^2): 6.091395649942573e-13
z = 9000
F[0,2]: 
O(h): 0.001
O(h^2): -1.6531738211880101e-13
O(h^3): 1.0334432304333929e-16
F[0,3]: O(h^2): 3.402354540945261e-12
O(h^3): -7.500138149561642e-22
F[0,4]: O(h^2): -6.248404598768228e-08
O(h^3): 5.681426405763679e-14
F[2,2]: 
O(h^0): 1
O(h^1): -3.3063476423760206e-10
O(h^2): 3.1003296913001784e-13
F[2,3] 
O(h^1): 6.804709081890523e-09
O(h^2): -2.250041444868492e-18
F[2,4] 
O(h^1): -0.00012496809197536454
O(h^2): 4.132188207413976e-14
Particle 8:
eta 4.542862193766914, phi 2.351688519812977,
p 82.36293184154607, q 1.60217662e-19,
brem = False
output State:
[[ 0.00098882]
 [ 0.00104573]
 [ 0.01512072]
 [-0.01498506]
 [ 0.00364009]]
Data added to pickle list for particle: 8
Particle 9:
eta 3.310519623934, phi 2.589305340414336,
p 93.0, q -1.60217662e-19,
brem = False
input State:
[[ 0.001     ]
 [ 0.001     ]
 [ 0.03834656]
 [-0.06222498]
 [-0.00322375]]

Simulating particle
Particle track 9 is saved
Initiating Kalman filtering for particle: 9
z = 0
F[0,2]: 
O(h): 0.001
O(h^2): 4.864755927398323e-18
O(h^3): 3.571498296772453e-30
F[0,3]: O(h^2): -2.6061975012726492e-18
O(h^3): -1.6926357123904673e-32
F[0,4]: O(h^2): -1.3455549735158473e-14
O(h^3): -2.266028337130633e-27
F[2,2]: 
O(h^0): 1
O(h^1): 9.729511854796648e-15
O(h^2): 1.0714494890317361e-26
F[2,3] 
O(h^1): -5.212395002545299e-15
O(h^2): -5.077907137171404e-29
F[2,4] 
O(h^1): -2.6911099470316952e-11
O(h^2): -2.621675141709762e-25
z = 1000
F[0,2]: 
O(h): 0.001
O(h^2): 9.102223463509703e-12
O(h^3): 1.2441185976869865e-17
F[0,3]: O(h^2): -4.87639353626233e-12
O(h^3): -5.925761640015864e-20
F[0,4]: O(h^2): -2.5113214471023157e-08
O(h^3): -7.893394533575701e-15
F[2,2]: 
O(h^0): 1
O(h^1): 1.8204446927019402e-08
O(h^2): 3.7323557930609594e-14
F[2,3] 
O(h^1): -9.75278707252466e-09
O(h^2): -1.777728492004759e-16
F[2,4] 
O(h^1): -5.022642894204632e-05
O(h^2): -9.155224359759796e-13
z = 2000
F[0,2]: 
O(h): 0.001
O(h^2): 1.280402824313843e-11
O(h^3): 2.4391695750451342e-17
F[0,3]: O(h^2): -6.827690316388568e-12
O(h^3): -1.1671276776039594e-19
F[0,4]: O(h^2): -3.516279753083834e-08
O(h^3): -1.5474619146135717e-14
F[2,2]: 
O(h^0): 1
O(h^1): 2.560805648627686e-08
O(h^2): 7.317508725135401e-14
F[2,3] 
O(h^1): -1.3655380632777135e-08
O(h^2): -3.501383032811878e-16
F[2,4] 
O(h^1): -7.032559506167668e-05
O(h^2): -1.8032221286480217e-12
z = 3000
F[0,2]: 
O(h): 0.001
O(h^2): 6.889245890207871e-11
O(h^3): 6.953195810011663e-16
F[0,3]: O(h^2): -3.635558959652372e-11
O(h^3): -3.343781049363967e-18
F[0,4]: O(h^2): -1.8773323462955664e-07
O(h^3): -4.410862251765351e-13
F[2,2]: 
O(h^0): 1
O(h^1): 1.377849178041574e-07
O(h^2): 2.085958743003499e-12
F[2,3] 
O(h^1): -7.271117919304745e-08
O(h^2): -1.0031343148091902e-14
F[2,4] 
O(h^1): -0.00037546646925911326
O(h^2): -5.1799916265156734e-11
z = 4000
F[0,2]: 
O(h): 0.001
O(h^2): 1.7432143288373554e-10
O(h^3): 4.035162324047671e-15
F[0,3]: O(h^2): -8.754636381111975e-11
O(h^3): -2.0374350142477833e-17
F[0,4]: O(h^2): -4.521442510071411e-07
O(h^3): -2.5581499639270133e-12
F[2,2]: 
O(h^0): 1
O(h^1): 3.486428657674711e-07
O(h^2): 1.2105486972143014e-11
F[2,3] 
O(h^1): -1.7509272762223952e-07
O(h^2): -6.11230504274335e-14
F[2,4] 
O(h^1): -0.0009042885020142824
O(h^2): -3.1567771237659766e-10
z = 4697
F[0,2]: 
O(h): 0.001
O(h^2): 2.146884486825654e-10
O(h^3): 5.512430259594843e-15
F[0,3]: O(h^2): -1.0227679223385664e-10
O(h^3): -2.9314368163885005e-17
F[0,4]: O(h^2): -5.283203480054167e-07
O(h^3): -3.492086534530228e-12
F[2,2]: 
O(h^0): 1
O(h^1): 4.293768973651307e-07
O(h^2): 1.6537290778784528e-11
F[2,3] 
O(h^1): -2.045535844677133e-07
O(h^2): -8.794310449165502e-14
F[2,4] 
O(h^1): -0.0010566406960108331
O(h^2): -4.542783416933127e-10
z = 5000
F[0,2]: 
O(h): 0.001
O(h^2): 2.1714090010255948e-10
O(h^3): 5.387932765078051e-15
F[0,3]: O(h^2): -1.0109315152481441e-10
O(h^3): -2.9306103697246167e-17
F[0,4]: O(h^2): -5.222520985951086e-07
O(h^3): -3.412026087920362e-12
F[2,2]: 
O(h^0): 1
O(h^1): 4.34281800205119e-07
O(h^2): 1.6163798295234148e-11
F[2,3] 
O(h^1): -2.0218630304962885e-07
O(h^2): -8.791831109173847e-14
F[2,4] 
O(h^1): -0.0010445041971902172
O(h^2): -4.5419023722222736e-10
z = 6000
F[0,2]: 
O(h): 0.001
O(h^2): 1.8983143703418526e-10
O(h^3): 3.607803588125772e-15
F[0,3]: O(h^2): -8.266669753142026e-11
O(h^3): -2.0950446374770422e-17
F[0,4]: O(h^2): -4.271796643833524e-07
O(h^3): -2.2821863522918205e-12
F[2,2]: 
O(h^0): 1
O(h^1): 3.7966287406837054e-07
O(h^2): 1.0823410764377317e-11
F[2,3] 
O(h^1): -1.6533339506284052e-07
O(h^2): -6.285133912431127e-14
F[2,4] 
O(h^1): -0.0008543593287667047
O(h^2): -3.247839184934508e-10
z = 7000
F[0,2]: 
O(h): 0.001
O(h^2): 1.167376414766116e-10
O(h^3): 1.2495451532270748e-15
F[0,3]: O(h^2): -4.8625177953370975e-11
O(h^3): -7.578208671478738e-18
F[0,4]: O(h^2): -2.51322588802927e-07
O(h^3): -7.897730790161257e-13
F[2,2]: 
O(h^0): 1
O(h^1): 2.334752829532232e-07
O(h^2): 3.748635459681226e-12
F[2,3] 
O(h^1): -9.725035590674196e-08
O(h^2): -2.2734626014436222e-14
F[2,4] 
O(h^1): -0.0005026451776058542
O(h^2): -1.1750548390575863e-10
z = 8000
F[0,2]: 
O(h): 0.001
O(h^2): 5.997473928930783e-11
O(h^3): 3.138128510398385e-16
F[0,3]: O(h^2): -2.4416446534458605e-11
O(h^3): -1.955004533929055e-18
F[0,4]: O(h^2): -1.2568361683582756e-07
O(h^3): -1.9786676646589702e-13
F[2,2]: 
O(h^0): 1
O(h^1): 1.199494785786157e-07
O(h^2): 9.414385531195154e-13
F[2,3] 
O(h^1): -4.883289306891721e-08
O(h^2): -5.865013601787166e-15
F[2,4] 
O(h^1): -0.0002513672336716551
O(h^2): -3.019014749847504e-11
z = 9000
F[0,2]: 
O(h): 0.001
O(h^2): 3.033680853562224e-11
O(h^3): 7.85137117505848e-17
F[0,3]: O(h^2): -1.2196208490914776e-11
O(h^3): -4.939582780268209e-19
F[0,4]: O(h^2): -6.284607708012985e-08
O(h^3): -4.948188427730512e-14
F[2,2]: 
O(h^0): 1
O(h^1): 6.067361707124449e-08
O(h^2): 2.355411352517544e-13
F[2,3] 
O(h^1): -2.4392416981829553e-08
O(h^2): -1.4818748340804628e-15
F[2,4] 
O(h^1): -0.00012569215416025973
O(h^2): -7.635981306411743e-12
Particle 9:
eta 3.3107923247722955, phi 2.587877859261141,
p 95.44468990802514, q -1.60217662e-19,
brem = False
output State:
[[ 0.0009709 ]
 [ 0.00098791]
 [ 0.03842484]
 [-0.06215318]
 [-0.00314118]]
Data added to pickle list for particle: 9
data saved to data/toy_output/378