This is the start of the log file generated at 09_29_16h28m40s

multiple scattering + bremsstrahlun on
magfield_ shape: cssim_stepsize: 0.001detector_length: 11
15 VELO-type subdetectors added at z-locations: [20, 50, 80, 110, 140, 170, 200, 230, 260, 290, 450, 600, 650, 700, 750]
4 TT-type subdetectors added at z-locations: [2330, 2370, 2600, 2640]
24 OT-type subdetectors added at z-locations: [7860, 7870, 7910, 7920, 7980, 7990, 8030, 8040, 8540, 8550, 8590, 8600, 8660, 8670, 8710, 8720, 9230, 9240, 9280, 9290, 9350, 9360, 9400, 9410]
The detector is built.
Generating 1940 particles...
Particle 0:
eta 3.163393528268506, phi -1.3998969948918396,
p 3.0, q 1.60217662e-19,
brem = True
input State:
[[ 0.001     ]
 [-0.001     ]
 [-0.08348136]
 [ 0.01440745]
 [ 0.09993617]]

Simulating particle
large brem at z = 8.784
initial q/p: 0.15015638277044446
  final q/p: 0.8904754460368164
Initiating Kalman filtering for particle: 0
z = 0
F[0,2]: 
O(h): 0.001
O(h^2): 1.0407414991168779e-16
O(h^3): 8.953867623857553e-27
F[0,3]: O(h^2): -3.053526500523845e-17
O(h^3): -4.237536889660518e-30
F[0,4]: O(h^2): -1.3406589338564316e-14
O(h^3): 1.133904696020577e-25
F[2,2]: 
O(h^0): 1
O(h^1): 2.0814829982337556e-13
O(h^2): 2.6861602871572665e-23
F[2,3] 
O(h^1): -6.107053001047691e-14
O(h^2): -1.2712610668981553e-26
F[2,4] 
O(h^1): -2.6813178677128632e-11
O(h^2): -5.581505535676492e-24
z = 1000
F[0,2]: 
O(h): 0.001
O(h^2): 3.814715363774156e-10
O(h^3): 2.3896402310182754e-14
F[0,3]: O(h^2): 9.368842784642214e-12
O(h^3): 4.7652742008404666e-18
F[0,4]: O(h^2): -2.5059822069522036e-08
O(h^3): 3.4531461873612974e-13
F[2,2]: 
O(h^0): 1
O(h^1): 7.629430727548312e-07
O(h^2): 7.168920693054825e-11
F[2,3] 
O(h^1): 1.873768556928443e-08
O(h^2): 1.4295822602521396e-14
F[2,4] 
O(h^1): -5.0119644139044084e-05
O(h^2): -3.8238529452527145e-11
z = 2000
F[0,2]: 
O(h): 0.001
O(h^2): 6.485551665902888e-10
O(h^3): 4.702679698861773e-14
F[0,3]: O(h^2): 1.3121933190847361e-11
O(h^3): 1.134709134197375e-17
F[0,4]: O(h^2): -3.512121649613199e-08
O(h^3): 6.77826276209216e-13
F[2,2]: 
O(h^0): 1
O(h^1): 1.2971103331805776e-06
O(h^2): 1.410803909658532e-10
F[2,3] 
O(h^1): 2.6243866381694722e-08
O(h^2): 3.4041274025921253e-14
F[2,4] 
O(h^1): -7.024243299226397e-05
O(h^2): -9.111240984693124e-11
z = 3000
F[0,2]: 
O(h): 0.001
O(h^2): 3.364246410012891e-09
O(h^3): 1.4884205331592443e-13
F[0,3]: O(h^2): 2.4560133040863884e-10
O(h^3): 1.1020041238150939e-15
F[0,4]: O(h^2): -1.9222895024328713e-07
O(h^3): 6.346779520495809e-12
F[2,2]: 
O(h^0): 1
O(h^1): 6.728492820025783e-06
O(h^2): 4.465261599477734e-10
F[2,3] 
O(h^1): 4.912026608172778e-07
O(h^2): 3.3060123714452823e-12
F[2,4] 
O(h^1): -0.00038445790048657425
O(h^2): -2.58757265930467e-09
Data added to pickle list for particle: 0