This is the start of the log file generated at 10_20_15h35m57s

magfield_ shape: cs, sim_stepsize: 0.001, detector_length: 11
15 VELO-type subdetectors added at z-locations: [20, 50, 80, 110, 140, 170, 200, 230, 260, 290, 450, 600, 650, 700, 750]
4 TT-type subdetectors added at z-locations: [2330, 2370, 2600, 2640]
24 OT-type subdetectors added at z-locations: [7860, 7870, 7910, 7920, 7980, 7990, 8030, 8040, 8540, 8550, 8590, 8600, 8660, 8670, 8710, 8720, 9230, 9240, 9280, 9290, 9350, 9360, 9400, 9410]
The detector is built.
Generating 2 particles, from 50 to 100 GeV. Brem = False, ms = False

Particle 0:
eta 3.9360078627932302, phi 2.339208868945776,
p 50.0, q 1.60217662e-19,
brem = False
input State:
[[ 0.001     ]
 [-0.001     ]
 [ 0.02808969]
 [-0.0271513 ]
 [ 0.00599617]]

Simulating particle
Initiating Kalman filtering for particle: 0
z = 0
F[0,2]: 
O(h): 0.001
O(h^2): -6.896183663242e-18
O(h^3): 1.3208945888331914e-29
F[0,3]: O(h^2): 2.1970976917172253e-18
O(h^3): -2.0207061522647855e-32
F[0,4]: O(h^2): -1.34208619696274e-14
O(h^3): 4.3540046444779035e-27
F[2,2]: 
O(h^0): 1
O(h^1): -1.3792367326484001e-14
O(h^2): 3.962683766499574e-26
F[2,3] 
O(h^1): 4.394195383434451e-15
O(h^2): -6.062118456794357e-29
F[2,4] 
O(h^1): -2.6841723939254804e-11
O(h^2): 3.703014907297027e-25
z = 1000
F[0,2]: 
O(h): 0.001
O(h^2): -1.2546613676448242e-11
O(h^3): 4.4515657264065194e-17
F[0,3]: O(h^2): 3.634786903000681e-12
O(h^3): -6.081776785671822e-20
F[0,4]: O(h^2): -2.5045676399616335e-08
O(h^3): 1.4916919101432913e-14
F[2,2]: 
O(h^0): 1
O(h^1): -2.509322735289649e-08
O(h^2): 1.335469717921956e-13
F[2,3] 
O(h^1): 7.269573806001363e-09
O(h^2): -1.8245330357015464e-16
F[2,4] 
O(h^1): -5.009135279923267e-05
O(h^2): 1.257203385289683e-12
z = 2000
F[0,2]: 
O(h): 0.001
O(h^2): -1.735417725556693e-11
O(h^3): 8.725845390110246e-17
F[0,3]: O(h^2): 5.089168743668918e-12
O(h^3): -1.1778117377911265e-19
F[0,4]: O(h^2): -3.5066500175640055e-08
O(h^3): 2.9241974505386694e-14
F[2,2]: 
O(h^0): 1
O(h^1): -3.470835451113386e-08
O(h^2): 2.617753617033073e-13
F[2,3] 
O(h^1): 1.0178337487337837e-08
O(h^2): -3.533435213373379e-16
F[2,4] 
O(h^1): -7.013300035128012e-05
O(h^2): 2.4346845776043924e-12
z = 3000
F[0,2]: 
O(h): 0.001
O(h^2): -8.454271157443172e-11
O(h^3): 2.2801364555505916e-15
F[0,3]: O(h^2): 2.8911141098107097e-11
O(h^3): -3.259767810658927e-18
F[0,4]: O(h^2): -1.872076252965008e-07
O(h^3): 7.981622101978665e-13
F[2,2]: 
O(h^0): 1
O(h^1): -1.6908542314886345e-07
O(h^2): 6.8404093666517746e-12
F[2,3] 
O(h^1): 5.7822282196214193e-08
O(h^2): -9.779303431976782e-15
F[2,4] 
O(h^1): -0.0003744152505930016
O(h^2): 6.332369124905136e-11
z = 4000
F[0,2]: 
O(h): 0.001
O(h^2): -1.7598282145787576e-10
O(h^3): 1.320585159429831e-14
F[0,3]: O(h^2): 6.960798615459401e-11
O(h^3): -1.633708711870747e-17
F[0,4]: O(h^2): -4.5065145274296066e-07
O(h^3): 4.625964496610618e-12
F[2,2]: 
O(h^0): 1
O(h^1): -3.5196564291575153e-07
O(h^2): 3.961755478289494e-11
F[2,3] 
O(h^1): 1.3921597230918801e-07
O(h^2): -4.901126135612242e-14
F[2,4] 
O(h^1): -0.0009013029054859215
O(h^2): 3.173054896581546e-10
z = 4697
F[0,2]: 
O(h): 0.001
O(h^2): -1.695068335377381e-10
O(h^3): 1.8002279612619842e-14
F[0,3]: O(h^2): 8.13056519202359e-11
O(h^3): -1.838032747458722e-17
F[0,4]: O(h^2): -5.262957673762383e-07
O(h^3): 6.310345204748703e-12
F[2,2]: 
O(h^0): 1
O(h^1): -3.3901366707547617e-07
O(h^2): 5.400683883785952e-11
F[2,3] 
O(h^1): 1.6261130384047182e-07
O(h^2): -5.514098242376165e-14
F[2,4] 
O(h^1): -0.0010525915347524765
O(h^2): 3.5693048359127044e-10
z = 5000
F[0,2]: 
O(h): 0.001
O(h^2): -1.514244197105218e-10
O(h^3): 1.757960050601629e-14
F[0,3]: O(h^2): 8.035852948354514e-11
O(h^3): -1.622830655463395e-17
F[0,4]: O(h^2): -5.201311829691165e-07
O(h^3): 6.163783800642464e-12
F[2,2]: 
O(h^0): 1
O(h^1): -3.028488394210436e-07
O(h^2): 5.2738801518048855e-11
F[2,3] 
O(h^1): 1.607170589670903e-07
O(h^2): -4.8684919663901834e-14
F[2,4] 
O(h^1): -0.0010402623659382332
O(h^2): 3.15119565032943e-10
z = 6000
F[0,2]: 
O(h): 0.001
O(h^2): -8.382850855362831e-11
O(h^3): 1.1740727715339202e-14
F[0,3]: O(h^2): 6.569698498801056e-11
O(h^3): -7.344842702996501e-18
F[0,4]: O(h^2): -4.251656029256023e-07
O(h^3): 4.119136044747179e-12
F[2,2]: 
O(h^0): 1
O(h^1): -1.6765701710725664e-07
O(h^2): 3.5222183146017595e-11
F[2,3] 
O(h^1): 1.3139396997602112e-07
O(h^2): -2.2034528108989497e-14
F[2,4] 
O(h^1): -0.0008503312058512046
O(h^2): 1.4259898578830264e-10
z = 7000
F[0,2]: 
O(h): 0.001
O(h^2): -3.2790389176379505e-11
O(h^3): 4.05949366986024e-15
F[0,3]: O(h^2): 3.8637979006932315e-11
O(h^3): -1.6896871533755988e-18
F[0,4]: O(h^2): -2.500315783093052e-07
O(h^3): 1.4246620750849016e-12
F[2,2]: 
O(h^0): 1
O(h^1): -6.558077835275902e-08
O(h^2): 1.2178481009580725e-11
F[2,3] 
O(h^1): 7.727595801386462e-08
O(h^2): -5.0690614601267985e-15
F[2,4] 
O(h^1): -0.0005000631566186105
O(h^2): 3.280258103548783e-11
z = 8000
F[0,2]: 
O(h): 0.001
O(h^2): -6.284128436792758e-09
O(h^3): 1.5065301312360513e-12
F[0,3]: O(h^2): -5.138533492790468e-09
O(h^3): 4.3596777071316817e-14
F[0,4]: O(h^2): -1.285301448199084e-07
O(h^3): -1.3901290388473599e-11
F[2,2]: 
O(h^0): 1
O(h^1): -1.2568256873585513e-05
O(h^2): 4.519590393708154e-09
F[2,3] 
O(h^1): -1.0277066985580936e-05
O(h^2): 1.3079033121395046e-10
F[2,4] 
O(h^1): -0.00025706028963981683
O(h^2): 3.2714587217459085e-09
z = 9000
F[0,2]: 
O(h): 0.001
O(h^2): -6.142046112740834e-12
O(h^3): 6.221344336870452e-16
F[0,3]: O(h^2): 1.3980861500873955e-11
O(h^3): -1.1451879772354903e-19
F[0,4]: O(h^2): -6.249795520509578e-08
O(h^3): 1.3942424077535707e-13
F[2,2]: 
O(h^0): 1
O(h^1): -1.2284092225481668e-08
O(h^2): 1.866403301061135e-12
F[2,3] 
O(h^1): 2.796172300174791e-08
O(h^2): -3.43556393170647e-16
F[2,4] 
O(h^1): -0.00012499591041019158
O(h^2): 1.535783189716969e-12
Particle 0:
eta 3.921940159304708, phi 2.356765357519374,
p 49.49933865203288, q 1.60217662e-19,
brem = False
output State:
[[ 0.00138574]
 [-0.00022416]
 [ 0.02800015]
 [-0.02803213]
 [ 0.00605682]]
Data added to pickle list for particle: 0
Particle 1:
eta 2.52225841021087, phi 1.1812271268762775,
p 50.0, q -1.60217662e-19,
brem = False
input State:
[[-0.001     ]
 [ 0.001     ]
 [ 0.14948957]
 [ 0.06137315]
 [-0.00599617]]

Simulating particle
Initiating Kalman filtering for particle: 1
z = 0
F[0,2]: 
O(h): 0.001
O(h^2): 3.6639856837208056e-17
O(h^3): 1.4924693505795562e-29
F[0,3]: O(h^2): 5.0131281722226585e-18
O(h^3): 2.452073730907856e-31
F[0,4]: O(h^2): -1.387530390902938e-14
O(h^3): -4.5483216145372526e-27
F[2,2]: 
O(h^0): 1
O(h^1): 7.327971367441613e-14
O(h^2): 4.4774080517386706e-26
F[2,3] 
O(h^1): 1.002625634444532e-14
O(h^2): 7.35622119272357e-28
F[2,4] 
O(h^1): -2.7750607818058765e-11
O(h^2): -2.036050169964588e-24
z = 1000
F[0,2]: 
O(h): 0.001
O(h^2): 6.89125508419673e-11
O(h^3): 5.2778235805956016e-17
F[0,3]: O(h^2): 9.442018870855643e-12
O(h^3): 8.686320169446761e-19
F[0,4]: O(h^2): -2.5896554498783438e-08
O(h^3): -1.596311094364099e-14
F[2,2]: 
O(h^0): 1
O(h^1): 1.3782510168393458e-07
O(h^2): 1.5833470741786804e-13
F[2,3] 
O(h^1): 1.8884037741711283e-08
O(h^2): 2.6058960508340286e-15
F[2,4] 
O(h^1): -5.179310899756688e-05
O(h^2): -7.14717159768529e-12
z = 2000
F[0,2]: 
O(h): 0.001
O(h^2): 9.674061260763695e-11
O(h^3): 1.0353112468230956e-16
F[0,3]: O(h^2): 1.3220908871772617e-11
O(h^3): 1.70742929442203e-18
F[0,4]: O(h^2): -3.626493706884237e-08
O(h^3): -3.130103821802524e-14
F[2,2]: 
O(h^0): 1
O(h^1): 1.9348122521527393e-07
O(h^2): 3.105933740469287e-13
F[2,3] 
O(h^1): 2.6441817743545235e-08
O(h^2): 5.12228788326609e-15
F[2,4] 
O(h^1): -7.252987413768473e-05
O(h^2): -1.40504294777907e-11
z = 3000
F[0,2]: 
O(h): 0.001
O(h^2): 5.122211980205432e-10
O(h^3): 2.8471771270858172e-15
F[0,3]: O(h^2): 6.911380795270385e-11
O(h^3): 4.7259866577317066e-17
F[0,4]: O(h^2): -1.937485740794005e-07
O(h^3): -8.760125057832234e-13
F[2,2]: 
O(h^0): 1
O(h^1): 1.0244423960410865e-06
O(h^2): 8.54153138125745e-12
F[2,3] 
O(h^1): 1.382276159054077e-07
O(h^2): 1.4177959973195117e-13
F[2,4] 
O(h^1): -0.00038749714815880103
O(h^2): -3.974545187903952e-10
z = 4000
F[0,2]: 
O(h): 0.001
O(h^2): 1.2680532471063685e-09
O(h^3): 1.6622322024970926e-14
F[0,3]: O(h^2): 1.6652079153926335e-10
O(h^3): 2.8188724130803397e-16
F[0,4]: O(h^2): -4.6739181532637865e-07
O(h^3): -5.091603258999461e-12
F[2,2]: 
O(h^0): 1
O(h^1): 2.5361064942127376e-06
O(h^2): 4.9866966074912764e-11
F[2,3] 
O(h^1): 3.330415830785267e-07
O(h^2): 8.456617239241016e-13
F[2,4] 
O(h^1): -0.0009347836306527575
O(h^2): -2.373609713497698e-09
z = 4697
F[0,2]: 
O(h): 0.001
O(h^2): 1.5270304918584984e-09
O(h^3): 2.286452389945563e-14
F[0,3]: O(h^2): 1.9466180570009778e-10
O(h^3): 3.96823292948167e-16
F[0,4]: O(h^2): -5.47163796029058e-07
O(h^3): -6.967882118671784e-12
F[2,2]: 
O(h^0): 1
O(h^1): 3.0540609837169966e-06
O(h^2): 6.859357169836688e-11
F[2,3] 
O(h^1): 3.8932361140019545e-07
O(h^2): 1.190469878844501e-12
F[2,4] 
O(h^1): -0.001094327592058116
O(h^2): -3.346224060873811e-09
z = 5000
F[0,2]: 
O(h): 0.001
O(h^2): 1.5298700540115547e-09
O(h^3): 2.2419140346927588e-14
F[0,3]: O(h^2): 1.9246503576557682e-10
O(h^3): 3.9307437743668503e-16
F[0,4]: O(h^2): -5.413495256388666e-07
O(h^3): -6.816025971160039e-12
F[2,2]: 
O(h^0): 1
O(h^1): 3.05974010802311e-06
O(h^2): 6.725742104078276e-11
F[2,3] 
O(h^1): 3.8493007153115375e-07
O(h^2): 1.1792231323100549e-12
F[2,4] 
O(h^1): -0.0010826990512777335
O(h^2): -3.3168200175119923e-09
z = 6000
F[0,2]: 
O(h): 0.001
O(h^2): 1.3023311823939334e-09
O(h^3): 1.516085505768196e-14
F[0,3]: O(h^2): 1.5752728713706813e-10
O(h^3): 2.7387000861683254e-16
F[0,4]: O(h^2): -4.4400485641061255e-07
O(h^3): -4.575534393634986e-12
F[2,2]: 
O(h^0): 1
O(h^1): 2.6046623647878674e-06
O(h^2): 4.548256517304588e-11
F[2,3] 
O(h^1): 3.150545742741363e-07
O(h^2): 8.216100258504975e-13
F[2,4] 
O(h^1): -0.0008880097128212252
O(h^2): -2.3157819079043107e-09
z = 7000
F[0,2]: 
O(h): 0.001
O(h^2): 7.874616231490058e-10
O(h^3): 5.288526632312403e-15
F[0,3]: O(h^2): 9.272017939191866e-11
O(h^3): 9.746980516240448e-17
F[0,4]: O(h^2): -2.61738788792811e-07
O(h^3): -1.5875895794583632e-12
F[2,2]: 
O(h^0): 1
O(h^1): 1.5749232462980118e-06
O(h^2): 1.586557989693721e-11
F[2,3] 
O(h^1): 1.8544035878383733e-07
O(h^2): 2.9240941548721347e-13
F[2,4] 
O(h^1): -0.000523477577585622
O(h^2): -8.254393676022994e-10
z = 8000
F[0,2]: 
O(h): 0.001
O(h^2): 3.7926484917908465e-10
O(h^3): 1.2271822473833548e-15
F[0,3]: O(h^2): 4.4428296166526896e-11
O(h^3): 2.2493812978114975e-17
F[0,4]: O(h^2): -1.308616887829181e-07
O(h^3): -3.8236777658510847e-13
F[2,2]: 
O(h^0): 1
O(h^1): 7.585296983581692e-07
O(h^2): 3.681546742150064e-12
F[2,3] 
O(h^1): 8.88565923330538e-08
O(h^2): 6.748143893434493e-14
F[2,4] 
O(h^1): -0.0002617233775658362
O(h^2): -1.9876375693882628e-10
z = 9000
F[0,2]: 
O(h): 0.001
O(h^2): 1.7359679016103366e-10
O(h^3): 2.536006498779071e-16
F[0,3]: O(h^2): 2.034275242149904e-11
O(h^3): 4.7143378276076275e-18
F[0,4]: O(h^2): -6.547736897320091e-08
O(h^3): -8.688205722595995e-14
F[2,2]: 
O(h^0): 1
O(h^1): 3.4719358032206733e-07
O(h^2): 7.608019496337213e-13
F[2,3] 
O(h^1): 4.068550484299808e-08
O(h^2): 1.4143013482822878e-14
F[2,4] 
O(h^1): -0.00013095473794640181
O(h^2): -4.5522223002088203e-11
Particle 1:
eta 2.526084989270122, phi 1.184561683645021,
p 49.639370980452775, q -1.60217662e-19,
brem = False
output State:
[[-0.00092324]
 [ 0.00131561]
 [ 0.14911429]
 [ 0.06063884]
 [-0.00603973]]
Data added to pickle list for particle: 1