This is the start of the log file generated at 10_20_23h06m05s

magfield_ shape: cs, sim_stepsize: 0.001, detector_length: 11
15 VELO-type subdetectors added at z-locations: [20, 50, 80, 110, 140, 170, 200, 230, 260, 290, 450, 600, 650, 700, 750]
4 TT-type subdetectors added at z-locations: [2330, 2370, 2600, 2640]
24 OT-type subdetectors added at z-locations: [7860, 7870, 7910, 7920, 7980, 7990, 8030, 8040, 8540, 8550, 8590, 8600, 8660, 8670, 8710, 8720, 9230, 9240, 9280, 9290, 9350, 9360, 9400, 9410]
The detector is built.
Generating 2 particles, from 50 to 100 GeV. Brem = False, ms = True

Particle 0:
eta 2.0911808002097154, phi -1.776692169470686,
p 50.0, q 1.60217662e-19,
brem = False
input State:
[[-0.001     ]
 [-0.001     ]
 [-0.24561216]
 [-0.05129747]
 [ 0.00599617]]

Simulating particle
Initiating Kalman filtering for particle: 0
z = 0
F[0,2]: 
O(h): 0.001
O(h^2): 6.069638290899873e-17
O(h^3): 1.7680991974025204e-29
F[0,3]: O(h^2): 4.214920946234554e-18
O(h^3): 3.4138865911661533e-31
F[0,4]: O(h^2): -1.4649314024831104e-14
O(h^3): 4.829370507893548e-27
F[2,2]: 
O(h^0): 1
O(h^1): 1.213927658179975e-13
O(h^2): 5.30429759220756e-26
F[2,3] 
O(h^1): 8.429841892469108e-15
O(h^2): 1.024165977349846e-27
F[2,4] 
O(h^1): -2.929862804966221e-11
O(h^2): -3.559575424338468e-24
z = 1000
F[0,2]: 
O(h): 0.001
O(h^2): 1.1330177780267009e-10
O(h^3): 6.159267163572714e-17
F[0,3]: O(h^2): 7.840040628391427e-12
O(h^3): 1.1853578031893048e-18
F[0,4]: O(h^2): -2.7341282122959998e-08
O(h^3): 1.6822273992477216e-14
F[2,2]: 
O(h^0): 1
O(h^1): 2.2660355560534018e-07
O(h^2): 1.8477801490718142e-13
F[2,3] 
O(h^1): 1.5680081256782854e-08
O(h^2): 3.556073409567914e-15
F[2,4] 
O(h^1): -5.468256424592001e-05
O(h^2): -1.2401416134102512e-11
z = 2000
F[0,2]: 
O(h): 0.001
O(h^2): 1.5893586300874758e-10
O(h^3): 1.2086976809567158e-16
F[0,3]: O(h^2): 1.0978280545678686e-11
O(h^3): 2.3283624294755505e-18
F[0,4]: O(h^2): -3.829326859991139e-08
O(h^3): 3.299165180543815e-14
F[2,2]: 
O(h^0): 1
O(h^1): 3.178717260174952e-07
O(h^2): 3.6260930428701464e-13
F[2,3] 
O(h^1): 2.195656109135737e-08
O(h^2): 6.98508728842665e-15
F[2,4] 
O(h^1): -7.65865371998228e-05
O(h^2): -2.4364637305141175e-11
z = 3000
F[0,2]: 
O(h): 0.001
O(h^2): 7.265170380680594e-10
O(h^3): 2.5079986008509943e-15
F[0,3]: O(h^2): 4.9966165424888365e-11
O(h^3): 4.84413406894401e-17
F[0,4]: O(h^2): -2.04602187624224e-07
O(h^3): 8.021115389380021e-13
F[2,2]: 
O(h^0): 1
O(h^1): 1.4530340761361189e-06
O(h^2): 7.523995802552983e-12
F[2,3] 
O(h^1): 9.993233084977674e-08
O(h^2): 1.4532402206832033e-13
F[2,4] 
O(h^1): -0.00040920437524844807
O(h^2): -5.950749387448272e-10
z = 4000
F[0,2]: 
O(h): 0.001
O(h^2): 1.780140690355628e-09
O(h^3): 1.4683176626873155e-14
F[0,3]: O(h^2): 1.204282043345867e-10
O(h^3): 2.8607254746524345e-16
F[0,4]: O(h^2): -4.940812239066869e-07
O(h^3): 4.668452830214406e-12
F[2,2]: 
O(h^0): 1
O(h^1): 3.5602813807112568e-06
O(h^2): 4.4049529880619464e-11
F[2,3] 
O(h^1): 2.4085640866917344e-07
O(h^2): 8.582176423957305e-13
F[2,4] 
O(h^1): -0.000988162447813374
O(h^2): -3.5210125856822522e-09
z = 4697
F[0,2]: 
O(h): 0.001
O(h^2): 2.120204504636448e-09
O(h^3): 2.026008951609692e-14
F[0,3]: O(h^2): 1.4083413428520613e-10
O(h^3): 3.9845432357237225e-16
F[0,4]: O(h^2): -5.790776344113398e-07
O(h^3): 6.3986562808157275e-12
F[2,2]: 
O(h^0): 1
O(h^1): 4.2404090092728954e-06
O(h^2): 6.078026854829076e-11
F[2,3] 
O(h^1): 2.8166826857041223e-07
O(h^2): 1.1953629707171166e-12
F[2,4] 
O(h^1): -0.0011581552688226797
O(h^2): -4.915058162987497e-09
z = 5000
F[0,2]: 
O(h): 0.001
O(h^2): 2.113941761325047e-09
O(h^3): 1.9893234907372176e-14
F[0,3]: O(h^2): 1.3926921411324612e-10
O(h^3): 3.9286256303216726e-16
F[0,4]: O(h^2): -5.732254408828927e-07
O(h^3): 6.263593458336662e-12
F[2,2]: 
O(h^0): 1
O(h^1): 4.2278835226500935e-06
O(h^2): 5.967970472211652e-11
F[2,3] 
O(h^1): 2.785384282264922e-07
O(h^2): 1.1785876890965016e-12
F[2,4] 
O(h^1): -0.0011464508817657852
O(h^2): -4.851010698977117e-09
z = 6000
F[0,2]: 
O(h): 0.001
O(h^2): 1.7744876212237321e-09
O(h^3): 1.3509528652997378e-14
F[0,3]: O(h^2): 1.14049040517151e-10
O(h^3): 2.7005734694998604e-16
F[0,4]: O(h^2): -4.7090471718363396e-07
O(h^3): 4.21370671955249e-12
F[2,2]: 
O(h^0): 1
O(h^1): 3.548975242447464e-06
O(h^2): 4.052858595899212e-11
F[2,3] 
O(h^1): 2.2809808103430204e-07
O(h^2): 8.10172040849958e-13
F[2,4] 
O(h^1): -0.000941809434367268
O(h^2): -3.3451735677615268e-09
z = 7000
F[0,2]: 
O(h): 0.001
O(h^2): 1.0629862783586727e-09
O(h^3): 4.726341396794039e-15
F[0,3]: O(h^2): 6.715447374794872e-11
O(h^3): 9.525618646945655e-17
F[0,4]: O(h^2): -2.77912417405833e-07
O(h^3): 1.4642664517997097e-12
F[2,2]: 
O(h^0): 1
O(h^1): 2.125972556717346e-06
O(h^2): 1.417902419038212e-11
F[2,3] 
O(h^1): 1.3430894749589746e-07
O(h^2): 2.8576855940836973e-13
F[2,4] 
O(h^1): -0.000555824834811666
O(h^2): -1.1826260669072444e-09
z = 8000
F[0,2]: 
O(h): 0.001
O(h^2): 5.344984312895384e-10
O(h^3): 1.1796518398562627e-15
F[0,3]: O(h^2): 3.3532449651873225e-11
O(h^3): 2.3916805733795035e-17
F[0,4]: O(h^2): -1.3920439903741996e-07
O(h^3): 3.655569650182639e-13
F[2,2]: 
O(h^0): 1
O(h^1): 1.0689968625790767e-06
O(h^2): 3.5389555195687878e-12
F[2,3] 
O(h^1): 6.706489930374644e-08
O(h^2): 7.175041720138511e-14
F[2,4] 
O(h^1): -0.0002784087980748399
O(h^2): -2.978599479279325e-10
z = 9000
F[0,2]: 
O(h): 0.001
O(h^2): 2.663759249425636e-10
O(h^3): 2.9130222627036244e-16
F[0,3]: O(h^2): 1.6681852135706305e-11
O(h^3): 5.929690851322416e-18
F[0,4]: O(h^2): -6.965841909991986e-08
O(h^3): 9.080436937140176e-14
F[2,2]: 
O(h^0): 1
O(h^1): 5.327518498851271e-07
O(h^2): 8.739066788110873e-13
F[2,3] 
O(h^1): 3.33637042714126e-08
O(h^2): 1.7789072553967248e-14
F[2,4] 
O(h^1): -0.0001393168381998397
O(h^2): -7.428184000689002e-11
Particle 0:
eta 2.0913202652926683, phi -1.7761591941355594,
p 59.60254208765888, q 1.60217662e-19,
brem = False
output State:
[[-0.0010051 ]
 [-0.0010029 ]
 [-0.24560415]
 [-0.0511592 ]
 [ 0.00503013]]
Data added to pickle list for particle: 0
Particle 1:
eta 2.649876412954026, phi 0.43098703296880586,
p 50.0, q -1.60217662e-19,
brem = False
input State:
[[-0.001     ]
 [-0.001     ]
 [ 0.05933515]
 [ 0.12904101]
 [-0.00599617]]

Simulating particle
Initiating Kalman filtering for particle: 1
z = 0
F[0,2]: 
O(h): 0.001
O(h^2): 1.436125996713846e-17
O(h^3): 1.3490134981663436e-29
F[0,3]: O(h^2): 1.0339784191005915e-17
O(h^3): 1.9907380233660894e-31
F[0,4]: O(h^2): -1.3581468412224499e-14
O(h^3): -4.423469142611219e-27
F[2,2]: 
O(h^0): 1
O(h^1): 2.872251993427692e-14
O(h^2): 4.0470404944990313e-26
F[2,3] 
O(h^1): 2.0679568382011837e-14
O(h^2): 5.97221407009827e-28
F[2,4] 
O(h^1): -2.7162936824449002e-11
O(h^2): -7.844596680715765e-25
z = 1000
F[0,2]: 
O(h): 0.001
O(h^2): 2.92099915017164e-11
O(h^3): 5.564761915765201e-17
F[0,3]: O(h^2): 2.097311165546617e-11
O(h^3): 8.21293185614919e-19
F[0,4]: O(h^2): -2.534753229353009e-08
O(h^3): -1.6767036352813254e-14
F[2,2]: 
O(h^0): 1
O(h^1): 5.8419983003432814e-08
O(h^2): 1.6694285747295607e-13
F[2,3] 
O(h^1): 4.194622331093234e-08
O(h^2): 2.4638795568447573e-15
F[2,4] 
O(h^1): -5.069506458706019e-05
O(h^2): -2.977777816684348e-12
z = 2000
F[0,2]: 
O(h): 0.001
O(h^2): 4.116700723596407e-11
O(h^3): 1.0912089483837448e-16
F[0,3]: O(h^2): 2.936601530725742e-11
O(h^3): 1.6206831967615282e-18
F[0,4]: O(h^2): -3.549257014572435e-08
O(h^3): -3.2873042202973297e-14
F[2,2]: 
O(h^0): 1
O(h^1): 8.233401447192814e-08
O(h^2): 3.2736268451512337e-13
F[2,3] 
O(h^1): 5.8732030614514835e-08
O(h^2): 4.862049590284585e-15
F[2,4] 
O(h^1): -7.098514029144872e-05
O(h^2): -5.876406258377125e-12
z = 3000
F[0,2]: 
O(h): 0.001
O(h^2): 3.8974888490506155e-10
O(h^3): 9.041522284758138e-15
F[0,3]: O(h^2): 2.6720713774465766e-10
O(h^3): 1.3961680654351214e-16
F[0,4]: O(h^2): -1.8957357348485186e-07
O(h^3): -1.5971056121233864e-12
F[2,2]: 
O(h^0): 1
O(h^1): 7.794977698101231e-07
O(h^2): 2.7124566854274417e-11
F[2,3] 
O(h^1): 5.344142754893154e-07
O(h^2): 4.1885041963053656e-13
F[2,4] 
O(h^1): -0.00037914714696970375
O(h^2): -2.971588688655008e-10
z = 4000
F[0,2]: 
O(h): 0.001
O(h^2): 1.049322076980288e-09
O(h^3): 5.2715272567820156e-14
F[0,3]: O(h^2): 6.437106952817322e-10
O(h^3): 9.055283970514397e-16
F[0,4]: O(h^2): -4.5711758678984556e-07
O(h^3): -9.277259210736926e-12
F[2,2]: 
O(h^0): 1
O(h^1): 2.098644153960576e-06
O(h^2): 1.5814581770346045e-10
F[2,3] 
O(h^1): 1.2874213905634644e-06
O(h^2): 2.716585191154319e-12
F[2,4] 
O(h^1): -0.0009142351735796912
O(h^2): -1.929125733022033e-09
z = 4697
F[0,2]: 
O(h): 0.001
O(h^2): 1.3717761024561439e-09
O(h^3): 7.24398749894718e-14
F[0,3]: O(h^2): 7.524079047911584e-10
O(h^3): 1.3836821139023253e-15
F[0,4]: O(h^2): -5.349372578161182e-07
O(h^3): -1.2689624096554802e-11
F[2,2]: 
O(h^0): 1
O(h^1): 2.7435522049122872e-06
O(h^2): 2.1731962496841536e-10
F[2,3] 
O(h^1): 1.5048158095823168e-06
O(h^2): 4.151046341706976e-12
F[2,4] 
O(h^1): -0.001069874515632236
O(h^2): -2.951257333901488e-09
z = 5000
F[0,2]: 
O(h): 0.001
O(h^2): 1.4214613941179716e-09
O(h^3): 7.10097713840528e-14
F[0,3]: O(h^2): 7.438896997392962e-10
O(h^3): 1.417561760697782e-15
F[0,4]: O(h^2): -5.291872418704052e-07
O(h^3): -1.2410986893049702e-11
F[2,2]: 
O(h^0): 1
O(h^1): 2.8429227882359423e-06
O(h^2): 2.130293141521583e-10
F[2,3] 
O(h^1): 1.4877793994785923e-06
O(h^2): 4.252685282093345e-12
F[2,4] 
O(h^1): -0.0010583744837408104
O(h^2): -3.025269466377263e-09
z = 6000
F[0,2]: 
O(h): 0.001
O(h^2): 1.3263214305572046e-09
O(h^3): 4.8014015679692683e-14
F[0,3]: O(h^2): 6.088210793799043e-10
O(h^3): 1.0825108913548392e-15
F[0,4]: O(h^2): -4.339401308597249e-07
O(h^3): -8.329022730895926e-12
F[2,2]: 
O(h^0): 1
O(h^1): 2.6526428611144093e-06
O(h^2): 1.4404204703907803e-10
F[2,3] 
O(h^1): 1.2176421587598085e-06
O(h^2): 3.247532674064517e-12
F[2,4] 
O(h^1): -0.00086788026171945
O(h^2): -2.3146944172664343e-09
z = 7000
F[0,2]: 
O(h): 0.001
O(h^2): 8.486025130217285e-10
O(h^3): 1.67575655441353e-14
F[0,3]: O(h^2): 3.5835666901029886e-10
O(h^3): 4.0767119578535004e-16
F[0,4]: O(h^2): -2.5580869884980476e-07
O(h^3): -2.8899776216335785e-12
F[2,2]: 
O(h^0): 1
O(h^1): 1.6972050260434569e-06
O(h^2): 5.0272696632405896e-11
F[2,3] 
O(h^1): 7.167133380205977e-07
O(h^2): 1.2230135873560503e-12
F[2,4] 
O(h^1): -0.0005116173976996096
O(h^2): -8.730338835920813e-10
z = 8000
F[0,2]: 
O(h): 0.001
O(h^2): 1.7583668659979745e-10
O(h^3): 1.038380551890027e-15
F[0,3]: O(h^2): 9.001515845821038e-11
O(h^3): 2.121923015446173e-17
F[0,4]: O(h^2): -1.272967941439399e-07
O(h^3): -3.607469335968721e-13
F[2,2]: 
O(h^0): 1
O(h^1): 3.516733731995949e-07
O(h^2): 3.115141655670081e-12
F[2,3] 
O(h^1): 1.8003031691642081e-07
O(h^2): 6.36576904633852e-14
F[2,4] 
O(h^1): -0.0002545935882878798
O(h^2): -9.002283679096349e-11
z = 9000
F[0,2]: 
O(h): 0.001
O(h^2): 9.022576133174956e-11
O(h^3): 2.65071994650674e-16
F[0,3]: O(h^2): 4.546530736565646e-11
O(h^3): 5.4994048150310096e-18
F[0,4]: O(h^2): -6.366884010217679e-08
O(h^3): -9.111316778391905e-14
F[2,2]: 
O(h^0): 1
O(h^1): 1.804515226634991e-07
O(h^2): 7.952159839520218e-13
F[2,3] 
O(h^1): 9.093061473131292e-08
O(h^2): 1.6498214445093024e-14
F[2,4] 
O(h^1): -0.00012733768020435358
O(h^2): -2.310381779733701e-11
Particle 1:
eta 2.6508305449120932, phi 0.4303008719933615,
p 53.71723419051248, q -1.60217662e-19,
brem = False
output State:
[[-0.00096976]
 [-0.00098236]
 [ 0.05918952]
 [ 0.12895736]
 [-0.00558123]]
Data added to pickle list for particle: 1