This is the start of the log file generated at 11_23_20h46m09s

magfield_ shape: cs, sim_stepsize: 0.001, detector_length: 11
15 VELO-type subdetectors added at z-locations: [20, 50, 80, 110, 140, 170, 200, 230, 260, 290, 450, 600, 650, 700, 750]
4 TT-type subdetectors added at z-locations: [2330, 2370, 2600, 2640]
24 OT-type subdetectors added at z-locations: [7860, 7870, 7910, 7920, 7980, 7990, 8030, 8040, 8540, 8550, 8590, 8600, 8660, 8670, 8710, 8720, 9230, 9240, 9280, 9290, 9350, 9360, 9400, 9410]
The detector is built.
Generating 140 particles, from 30 to 100 GeV. Brem = False, ms = False

Particle 0:
eta 3.7609521016298735, phi 0.870291489979841,
p 30.000000000000004, q 1.60217662e-19,
brem = False
input State:
[[0.001     ]
 [0.001     ]
 [0.035587  ]
 [0.03000524]
 [0.00999362]]

Simulating particle
Initiating Kalman filtering for particle: 0
Particle 0:
eta 3.7630417840991646, phi 0.8710567386265775,
p 30.151075329294443, q 1.60217662e-19,
brem = False
output State:
[[0.00100157]
 [0.00102026]
 [0.03553554]
 [0.02991535]
 [0.00994354]]
Data added to pickle list for particle: 0
Particle 1:
eta 2.4324179783208115, phi 0.15240388519958964,
p 30.000000000000004, q -1.60217662e-19,
brem = False
input State:
[[-0.001     ]
 [ 0.001     ]
 [ 0.02687327]
 [ 0.17496199]
 [-0.00999362]]

Simulating particle
Initiating Kalman filtering for particle: 1
Particle 1:
eta 2.434622947371648, phi 0.15243493280332857,
p 29.480741174622487, q -1.60217662e-19,
brem = False
output State:
[[-0.0010097 ]
 [ 0.00097071]
 [ 0.02681859]
 [ 0.17456983]
 [-0.01016964]]
Data added to pickle list for particle: 1
Particle 2:
eta 3.1403827359338363, phi -2.471494818592203,
p 31.0, q 1.60217662e-19,
brem = False
input State:
[[ 0.001     ]
 [-0.001     ]
 [-0.05384288]
 [-0.06794796]
 [ 0.00967124]]

Simulating particle
Initiating Kalman filtering for particle: 2
Particle 2:
eta 3.141978651685976, phi -2.4718363510785046,
p 30.257315243708913, q 1.60217662e-19,
brem = False
output State:
[[ 0.00102158]
 [-0.00098137]
 [-0.05373353]
 [-0.06785756]
 [ 0.00990863]]
Data added to pickle list for particle: 2
Particle 3:
eta 2.935476565574251, phi 0.9379760309150309,
p 31.0, q -1.60217662e-19,
brem = False
input State:
[[-0.001     ]
 [-0.001     ]
 [ 0.08588666]
 [ 0.06299299]
 [-0.00967124]]

Simulating particle
Initiating Kalman filtering for particle: 3
Particle 3:
eta 2.9365989822280816, phi 0.9373797048163149,
p 29.428523131720027, q -1.60217662e-19,
brem = False
output State:
[[-0.00107118]
 [-0.00105296]
 [ 0.08575223]
 [ 0.06297307]
 [-0.01018768]]
Data added to pickle list for particle: 3
Particle 4:
eta 3.7561959662777733, phi 2.2190937913348687,
p 32.0, q 1.60217662e-19,
brem = False
input State:
[[ 0.001     ]
 [ 0.001     ]
 [ 0.03728138]
 [-0.02824145]
 [ 0.00936902]]

Simulating particle
Initiating Kalman filtering for particle: 4
Particle 4:
eta 3.759248605556573, phi 2.217809849856787,
p 32.0539395316339, q 1.60217662e-19,
brem = False
output State:
[[ 0.00101916]
 [ 0.00097051]
 [ 0.03720375]
 [-0.02810753]
 [ 0.00935325]]
Data added to pickle list for particle: 4
Particle 5:
eta 2.159429831335542, phi 0.16260256487407496,
p 32.0, q -1.60217662e-19,
brem = False
input State:
[[ 0.001     ]
 [ 0.001     ]
 [ 0.03786474]
 [ 0.23081088]
 [-0.00936902]]

Simulating particle
Initiating Kalman filtering for particle: 5
Particle 5:
eta 2.1632282003268757, phi 0.1643922930536141,
p 36.85279990411736, q -1.60217662e-19,
brem = False
output State:
[[ 0.00099603]
 [ 0.00103296]
 [ 0.03812876]
 [ 0.22984448]
 [-0.0081353 ]]
Data added to pickle list for particle: 5
Particle 6:
eta 4.314161488047854, phi 2.9748342528512306,
p 33.0, q 1.60217662e-19,
brem = False
input State:
[[-0.001     ]
 [-0.001     ]
 [ 0.00444185]
 [-0.02638909]
 [ 0.00908511]]

Simulating particle
Initiating Kalman filtering for particle: 6
Particle 6:
eta 4.31715613001333, phi 2.9731192855591404,
p 32.91977429982921, q 1.60217662e-19,
brem = False
output State:
[[-0.00103434]
 [-0.00101428]
 [ 0.00447368]
 [-0.02630253]
 [ 0.00910725]]
Data added to pickle list for particle: 6
Particle 7:
eta 3.0328652194354917, phi -1.6542668812392785,
p 33.0, q -1.60217662e-19,
brem = False
input State:
[[-0.001     ]
 [ 0.001     ]
 [-0.09624271]
 [-0.00805214]
 [-0.00908511]]

Simulating particle
Initiating Kalman filtering for particle: 7
Particle 7:
eta 3.0364188737956135, phi -1.6539434353973324,
p 33.22155046893149, q -1.60217662e-19,
brem = False
output State:
[[-0.00102074]
 [ 0.00098423]
 [-0.09590232]
 [-0.00799243]
 [-0.00902452]]
Data added to pickle list for particle: 7
Particle 8:
eta 4.231009108118093, phi -2.20742230551406,
p 34.0, q 1.60217662e-19,
brem = False
input State:
[[ 0.001     ]
 [ 0.001     ]
 [-0.02338467]
 [-0.01728858]
 [ 0.0088179 ]]

Simulating particle
Initiating Kalman filtering for particle: 8
Particle 8:
eta 4.233640389476385, phi -2.2068747895041807,
p 33.992069734604684, q 1.60217662e-19,
brem = False
output State:
[[ 0.00097389]
 [ 0.00097841]
 [-0.02333263]
 [-0.01723036]
 [ 0.00881995]]
Data added to pickle list for particle: 8
Particle 9:
eta 4.902791576324733, phi 2.6659609528960235,
p 34.0, q -1.60217662e-19,
brem = False
input State:
[[-0.001     ]
 [-0.001     ]
 [ 0.00680095]
 [-0.0132039 ]
 [-0.0088179 ]]

Simulating particle
Initiating Kalman filtering for particle: 9
Particle 9:
eta 4.912481186006212, phi 2.662244844740046,
p 34.11000455052676, q -1.60217662e-19,
brem = False
output State:
[[-0.00097984]
 [-0.00108398]
 [ 0.00678391]
 [-0.01305144]
 [-0.00878946]]
Data added to pickle list for particle: 9
Particle 10:
eta 2.159917110162285, phi 1.066011048309942,
p 35.0, q 1.60217662e-19,
brem = False
input State:
[[-0.001     ]
 [-0.001     ]
 [ 0.20462179]
 [ 0.11306014]
 [ 0.00856596]]

Simulating particle
Initiating Kalman filtering for particle: 10
Particle 10:
eta 2.158537321678172, phi 1.0711720912406333,
p 25.917654051822762, q 1.60217662e-19,
brem = False
output State:
[[-0.00105537]
 [-0.00094426]
 [ 0.20549356]
 [ 0.1121614 ]
 [ 0.01156773]]
Data added to pickle list for particle: 10
Particle 11:
eta 2.4222591290195017, phi 0.6034837932918752,
p 35.0, q -1.60217662e-19,
brem = False
input State:
[[-0.001     ]
 [-0.001     ]
 [ 0.10149978]
 [ 0.14725833]
 [-0.00856596]]

Simulating particle
Initiating Kalman filtering for particle: 11
Particle 11:
eta 2.4273223985421217, phi 0.6036555616683555,
p 35.83144036366565, q -1.60217662e-19,
brem = False
output State:
[[-0.00098301]
 [-0.00096168]
 [ 0.10100425]
 [ 0.14648555]
 [-0.00836719]]
Data added to pickle list for particle: 11
Particle 12:
eta 3.0637670798845993, phi 1.676025579430686,
p 36.0, q 1.60217662e-19,
brem = False
input State:
[[-0.001     ]
 [-0.001     ]
 [ 0.09310919]
 [-0.00983414]
 [ 0.00832801]]

Simulating particle
Initiating Kalman filtering for particle: 12
Particle 12:
eta 3.0618098315565265, phi 1.6754440471794492,
p 35.71538145740314, q 1.60217662e-19,
brem = False
output State:
[[-0.00113027]
 [-0.00098919]
 [ 0.09329812]
 [-0.00979923]
 [ 0.00839438]]
Data added to pickle list for particle: 12
Particle 13:
eta 3.5771811704790584, phi 2.508245690022385,
p 36.0, q -1.60217662e-19,
brem = False
input State:
[[ 0.001     ]
 [-0.001     ]
 [ 0.03311525]
 [-0.04510057]
 [-0.00832801]]

Simulating particle
Initiating Kalman filtering for particle: 13
Particle 13:
eta 3.5805614779792387, phi 2.5060370352831147,
p 35.955002746773374, q -1.60217662e-19,
brem = False
output State:
[[ 0.00099438]
 [-0.00106668]
 [ 0.03310252]
 [-0.04487514]
 [-0.00833844]]
Data added to pickle list for particle: 13
Particle 14:
eta 2.788851807152727, phi 0.24756990034077492,
p 36.99999999999999, q 1.60217662e-19,
brem = False
input State:
[[ 0.001     ]
 [-0.001     ]
 [ 0.03025135]
 [ 0.11968645]
 [ 0.00810293]]

Simulating particle
Initiating Kalman filtering for particle: 14
Particle 14:
eta 2.791376205646701, phi 0.24672914295981652,
p 37.33155768303607, q 1.60217662e-19,
brem = False
output State:
[[ 0.00098781]
 [-0.00103656]
 [ 0.03007412]
 [ 0.11940774]
 [ 0.00803097]]
Data added to pickle list for particle: 14
Particle 15:
eta 2.425786142162134, phi 3.0603955164182786,
p 36.99999999999999, q -1.60217662e-19,
brem = False
input State:
[[ 0.001     ]
 [ 0.001     ]
 [ 0.01445425]
 [-0.17762294]
 [-0.00810293]]

Simulating particle
Initiating Kalman filtering for particle: 15
Particle 15:
eta 2.4278915987637393, phi 3.0604765910373013,
p 37.12427569842031, q -1.60217662e-19,
brem = False
output State:
[[ 0.00099528]
 [ 0.0010314 ]
 [ 0.01440901]
 [-0.17724466]
 [-0.00807581]]
Data added to pickle list for particle: 15
Particle 16:
eta 4.321897758524851, phi 1.7167923880256306,
p 38.0, q 1.60217662e-19,
brem = False
input State:
[[-0.001     ]
 [ 0.001     ]
 [ 0.02627152]
 [-0.00386302]
 [ 0.0078897 ]]

Simulating particle
Initiating Kalman filtering for particle: 16
Particle 16:
eta 4.3238680397726394, phi 1.7174051458446224,
p 38.31988195531494, q 1.60217662e-19,
brem = False
output State:
[[-0.00098824]
 [ 0.00102262]
 [ 0.02621742]
 [-0.00387148]
 [ 0.00782384]]
Data added to pickle list for particle: 16
Particle 17:
eta 2.627528359969012, phi -2.8022519320960773,
p 38.0, q -1.60217662e-19,
brem = False
input State:
[[ 0.001     ]
 [-0.001     ]
 [-0.04835608]
 [-0.1369879 ]
 [-0.0078897 ]]

Simulating particle
Initiating Kalman filtering for particle: 17
Particle 17:
eta 2.631293955240273, phi -2.803403540887987,
p 38.834500500127106, q -1.60217662e-19,
brem = False
output State:
[[ 0.00095549]
 [-0.0009862 ]
 [-0.04801525]
 [-0.13652304]
 [-0.00772016]]
Data added to pickle list for particle: 17
Particle 18:
eta 2.1868685352629758, phi 0.6504381824054625,
p 39.0, q 1.60217662e-19,
brem = False
input State:
[[ 0.001     ]
 [-0.001     ]
 [ 0.13769973]
 [ 0.18097049]
 [ 0.0076874 ]]

Simulating particle
Initiating Kalman filtering for particle: 18
Particle 18:
eta 2.1897919207769716, phi 0.6597314229372807,
p 24.36044670496455, q 1.60217662e-19,
brem = False
output State:
[[ 0.00087195]
 [-0.00084223]
 [ 0.13895837]
 [ 0.17914517]
 [ 0.01230718]]
Data added to pickle list for particle: 18
Particle 19:
eta 2.9265068175351856, phi 0.7347237724719636,
p 39.0, q -1.60217662e-19,
brem = False
input State:
[[-0.001     ]
 [ 0.001     ]
 [ 0.07205025]
 [ 0.07974918]
 [-0.0076874 ]]

Simulating particle
Initiating Kalman filtering for particle: 19
Particle 19:
eta 2.9296306446426703, phi 0.7340367334778659,
p 38.21380118443403, q -1.60217662e-19,
brem = False
output State:
[[-0.00098771]
 [ 0.00097026]
 [ 0.0717696 ]
 [ 0.07954835]
 [-0.00784556]]
Data added to pickle list for particle: 19
Particle 20:
eta 3.6159288922438253, phi 1.471975835771387,
p 40.0, q 1.60217662e-19,
brem = False
input State:
[[-0.001     ]
 [ 0.001     ]
 [ 0.0535602 ]
 [ 0.00531014]
 [ 0.00749521]]

Simulating particle
Initiating Kalman filtering for particle: 20
Particle 20:
eta 3.6175656567711996, phi 1.4715649805666824,
p 40.51586057205635, q 1.60217662e-19,
brem = False
output State:
[[-0.00098926]
 [ 0.00099332]
 [ 0.0534703 ]
 [ 0.00532341]
 [ 0.00739978]]
Data added to pickle list for particle: 20
Particle 21:
eta 3.160615921471922, phi 2.705527993148063,
p 40.0, q -1.60217662e-19,
brem = False
input State:
[[-0.001     ]
 [-0.001     ]
 [ 0.03588164]
 [-0.07700223]
 [-0.00749521]]

Simulating particle
Initiating Kalman filtering for particle: 21
Particle 21:
eta 3.162147260316731, phi 2.7047730770627854,
p 39.621326222451366, q -1.60217662e-19,
brem = False
output State:
[[-0.00105056]
 [-0.0009678 ]
 [ 0.03588457]
 [-0.07685691]
 [-0.00756685]]
Data added to pickle list for particle: 21
Particle 22:
eta 2.754361416354531, phi -0.25344684305871,
p 41.0, q 1.60217662e-19,
brem = False
input State:
[[ 0.001     ]
 [ 0.001     ]
 [-0.03204914]
 [ 0.12373387]
 [ 0.0073124 ]]

Simulating particle
Initiating Kalman filtering for particle: 22
Particle 22:
eta 2.757062175170576, phi -0.25287813709912665,
p 41.02350196191913, q 1.60217662e-19,
brem = False
output State:
[[ 0.00096235]
 [ 0.00096732]
 [-0.03189182]
 [ 0.1234156 ]
 [ 0.00730821]]
Data added to pickle list for particle: 22
Particle 23:
eta 2.4666612702189012, phi -0.47765514280262183,
p 41.0, q -1.60217662e-19,
brem = False
input State:
[[ 0.001     ]
 [ 0.001     ]
 [-0.07859313]
 [ 0.15183145]
 [-0.0073124 ]]

Simulating particle
Initiating Kalman filtering for particle: 23
Particle 23:
eta 2.4696342761292422, phi -0.4792475249989002,
p 38.7160809401832, q -1.60217662e-19,
brem = False
output State:
[[ 0.00099934]
 [ 0.00100033]
 [-0.0785974 ]
 [ 0.15124925]
 [-0.00774377]]
Data added to pickle list for particle: 23
Particle 24:
eta 3.044338165649238, phi 2.5554010394477755,
p 42.0, q 1.60217662e-19,
brem = False
input State:
[[-0.001     ]
 [ 0.001     ]
 [ 0.05281451]
 [-0.07953346]
 [ 0.0071383 ]]

Simulating particle
Initiating Kalman filtering for particle: 24
Particle 24:
eta 3.0456659722415447, phi 2.554864578205818,
p 41.69866788203641, q 1.60217662e-19,
brem = False
output State:
[[-0.00105988]
 [ 0.00103788]
 [ 0.05278671]
 [-0.07939914]
 [ 0.00718988]]
Data added to pickle list for particle: 24
Particle 25:
eta 3.2355467963654956, phi 1.5751193447616993,
p 42.0, q -1.60217662e-19,
brem = False
input State:
[[ 0.001     ]
 [ 0.001     ]
 [ 0.07879859]
 [-0.00034065]
 [-0.0071383 ]]

Simulating particle
Initiating Kalman filtering for particle: 25
Particle 25:
eta 3.2343179170637764, phi 1.575722698795232,
p 42.40781049275312, q -1.60217662e-19,
brem = False
output State:
[[ 0.00091203]
 [ 0.00100704]
 [ 0.07889556]
 [-0.00038867]
 [-0.00706965]]
Data added to pickle list for particle: 25
Particle 26:
eta 2.8951310995395487, phi -1.9901326590830404,
p 43.0, q 1.60217662e-19,
brem = False
input State:
[[-0.001     ]
 [-0.001     ]
 [-0.10131225]
 [-0.04516265]
 [ 0.00697229]]

Simulating particle
Initiating Kalman filtering for particle: 26
Particle 26:
eta 2.8971680634526025, phi -1.9898860967804133,
p 43.500167130153464, q 1.60217662e-19,
brem = False
output State:
[[-0.00101834]
 [-0.00098771]
 [-0.10111594]
 [-0.04504525]
 [ 0.00689212]]
Data added to pickle list for particle: 26
Particle 27:
eta 2.1078730595846733, phi -0.5868555802608614,
p 43.0, q -1.60217662e-19,
brem = False
input State:
[[ 0.001     ]
 [ 0.001     ]
 [-0.13657181]
 [ 0.20536771]
 [-0.00697229]]

Simulating particle
Initiating Kalman filtering for particle: 27
Particle 27:
eta 2.1076796943674325, phi -0.5861066939006516,
p 45.898447179381215, q -1.60217662e-19,
brem = False
output State:
[[ 0.00099707]
 [ 0.00097102]
 [-0.13644515]
 [ 0.20551085]
 [-0.006532  ]]
Data added to pickle list for particle: 27
Particle 28:
eta 3.151990674101131, phi 1.4557514540381182,
p 44.0, q 1.60217662e-19,
brem = False
input State:
[[0.001     ]
 [0.001     ]
 [0.0851241 ]
 [0.00983653]
 [0.00681383]]

Simulating particle
Initiating Kalman filtering for particle: 28
Particle 28:
eta 3.153831616928613, phi 1.4566668109092462,
p 44.233703119474406, q 1.60217662e-19,
brem = False
output State:
[[0.00100085]
 [0.00101943]
 [0.08497591]
 [0.00974059]
 [0.00677783]]
Data added to pickle list for particle: 28
Particle 29:
eta 3.8606051990619945, phi -1.275395728367024,
p 44.0, q -1.60217662e-19,
brem = False
input State:
[[ 0.001     ]
 [-0.001     ]
 [-0.04030438]
 [ 0.01226478]
 [-0.00681383]]

Simulating particle
Initiating Kalman filtering for particle: 29
Particle 29:
eta 3.8626115439850475, phi -1.2762767424675343,
p 44.184297635654346, q -1.60217662e-19,
brem = False
output State:
[[ 0.00098737]
 [-0.00098285]
 [-0.0402343 ]
 [ 0.01220473]
 [-0.00678541]]
Data added to pickle list for particle: 29
Particle 30:
eta 4.757573231530087, phi -0.0635505282831589,
p 45.0, q 1.60217662e-19,
brem = False
input State:
[[-0.001     ]
 [-0.001     ]
 [-0.00109069]
 [ 0.01713944]
 [ 0.00666241]]

Simulating particle
Initiating Kalman filtering for particle: 30
Particle 30:
eta 4.765173205994389, phi -0.0649045020683466,
p 45.54838573922832, q 1.60217662e-19,
brem = False
output State:
[[-0.00099755]
 [-0.00092158]
 [-0.00110546]
 [ 0.01700817]
 [ 0.0065822 ]]
Data added to pickle list for particle: 30
Particle 31:
eta 4.635100721391303, phi 2.5134349260254565,
p 45.0, q -1.60217662e-19,
brem = False
input State:
[[-0.001     ]
 [-0.001     ]
 [ 0.01140761]
 [-0.01570654]
 [-0.00666241]]

Simulating particle
Initiating Kalman filtering for particle: 31
Particle 31:
eta 4.638432970028172, phi 2.5094403204921534,
p 45.39087807884845, q -1.60217662e-19,
brem = False
output State:
[[-0.00102033]
 [-0.00103261]
 [ 0.0114321 ]
 [-0.01560874]
 [-0.00660504]]
Data added to pickle list for particle: 31
Particle 32:
eta 4.990550301616961, phi -1.037073626644499,
p 46.0, q 1.60217662e-19,
brem = False
input State:
[[-0.001     ]
 [-0.001     ]
 [-0.01171235]
 [ 0.00692116]
 [ 0.00651758]]

Simulating particle
Initiating Kalman filtering for particle: 32
Particle 32:
eta 4.99554033005227, phi -1.0414099292639825,
p 46.120116739115424, q 1.60217662e-19,
brem = False
output State:
[[-0.00102582]
 [-0.00096047]
 [-0.0116838 ]
 [ 0.00683611]
 [ 0.0065006 ]]
Data added to pickle list for particle: 32
Particle 33:
eta 2.150952633392377, phi 2.18886884977226,
p 46.0, q -1.60217662e-19,
brem = False
input State:
[[-0.001     ]
 [ 0.001     ]
 [ 0.19229182]
 [-0.13672009]
 [-0.00651758]]

Simulating particle
Initiating Kalman filtering for particle: 33
Particle 33:
eta 2.150149327029176, phi 2.179307858670178,
p 4567.925634580319, q -1.60217662e-19,
brem = False
output State:
[[-1.11067447e-03]
 [ 8.37840632e-04]
 [ 1.93750039e-01]
 [-1.34986737e-01]
 [-6.56334019e-05]]
Data added to pickle list for particle: 33
Particle 34:
eta 3.8557595187931786, phi 1.4397590067774424,
p 47.0, q 1.60217662e-19,
brem = False
input State:
[[-0.001     ]
 [-0.001     ]
 [ 0.04197107]
 [ 0.00553147]
 [ 0.0063789 ]]

Simulating particle
Initiating Kalman filtering for particle: 34
Particle 34:
eta 3.857751841667345, phi 1.4403890472734642,
p 46.7960506186105, q 1.60217662e-19,
brem = False
output State:
[[-0.00099961]
 [-0.00098433]
 [ 0.04189093]
 [ 0.00549406]
 [ 0.00640671]]
Data added to pickle list for particle: 34
Particle 35:
eta 4.7141631366177625, phi -1.0614070204203228,
p 47.0, q -1.60217662e-19,
brem = False
input State:
[[ 0.001     ]
 [ 0.001     ]
 [-0.01565904]
 [ 0.00874647]
 [-0.0063789 ]]

Simulating particle
Initiating Kalman filtering for particle: 35
Particle 35:
eta 4.717026484114038, phi -1.058696937460528,
p 47.59909980731373, q -1.60217662e-19,
brem = False
output State:
[[ 0.00095989]
 [ 0.00097573]
 [-0.01559057]
 [ 0.00876374]
 [-0.00629862]]
Data added to pickle list for particle: 35
Particle 36:
eta 4.727395656731733, phi 1.2498323142457517,
p 48.0, q 1.60217662e-19,
brem = False
input State:
[[-0.001     ]
 [ 0.001     ]
 [ 0.01679644]
 [ 0.00558414]
 [ 0.00624601]]

Simulating particle
Initiating Kalman filtering for particle: 36
Particle 36:
eta 4.730474430977912, phi 1.2526064762417672,
p 47.87790911322803, q 1.60217662e-19,
brem = False
output State:
[[-0.00096732]
 [ 0.00102396]
 [ 0.01676017]
 [ 0.00552049]
 [ 0.00626194]]
Data added to pickle list for particle: 36
Particle 37:
eta 4.92606200667117, phi 3.0793186479613817,
p 48.0, q -1.60217662e-19,
brem = False
input State:
[[-0.001     ]
 [-0.001     ]
 [ 0.00090306]
 [-0.01448267]
 [-0.00624601]]

Simulating particle
Initiating Kalman filtering for particle: 37
Particle 37:
eta 4.932917969277504, phi 3.080184274541819,
p 48.196526941234104, q -1.60217662e-19,
brem = False
output State:
[[-0.00098246]
 [-0.00103669]
 [ 0.00088444]
 [-0.01438448]
 [-0.00622054]]
Data added to pickle list for particle: 37
Particle 38:
eta 2.627665119601636, phi 1.8144936125534759,
p 49.0, q 1.60217662e-19,
brem = False
input State:
[[-0.001     ]
 [ 0.001     ]
 [ 0.14096023]
 [-0.03504821]
 [ 0.00611854]]

Simulating particle
Initiating Kalman filtering for particle: 38
Particle 38:
eta 2.634417060965961, phi 1.8152947061372366,
p 50.64361465750496, q 1.60217662e-19,
brem = False
output State:
[[-0.00090104]
 [ 0.00100114]
 [ 0.1399739 ]
 [-0.03492205]
 [ 0.00591997]]
Data added to pickle list for particle: 38
Particle 39:
eta 4.524051144899052, phi -0.12787619514205772,
p 49.0, q -1.60217662e-19,
brem = False
input State:
[[ 0.001     ]
 [-0.001     ]
 [-0.00276641]
 [ 0.02151543]
 [-0.00611854]]

Simulating particle
Initiating Kalman filtering for particle: 39
Particle 39:
eta 4.530014132181416, phi -0.12915354518505948,
p 48.87159878191384, q -1.60217662e-19,
brem = False
output State:
[[ 0.00099705]
 [-0.00094484]
 [-0.00277727]
 [ 0.02138396]
 [-0.00613462]]
Data added to pickle list for particle: 39
Particle 40:
eta 3.8689366396823233, phi 1.2253239497473165,
p 50.0, q 1.60217662e-19,
brem = False
input State:
[[0.001     ]
 [0.001     ]
 [0.03931083]
 [0.0141482 ]
 [0.00599617]]

Simulating particle
Initiating Kalman filtering for particle: 40
Particle 40:
eta 3.8712492927359796, phi 1.2249101934023767,
p 50.21632514909162, q 1.60217662e-19,
brem = False
output State:
[[0.00102719]
 [0.00098951]
 [0.0392141 ]
 [0.01413172]
 [0.00597034]]
Data added to pickle list for particle: 40
Particle 41:
eta 4.080379639731372, phi 0.7358387953373372,
p 50.0, q -1.60217662e-19,
brem = False
input State:
[[-0.001     ]
 [ 0.001     ]
 [ 0.02269476]
 [ 0.02506357]
 [-0.00599617]]

Simulating particle
Initiating Kalman filtering for particle: 41
Particle 41:
eta 4.082254177690105, phi 0.7360071685992664,
p 49.797038951824476, q -1.60217662e-19,
brem = False
output State:
[[-0.00100278]
 [ 0.00100946]
 [ 0.02265644]
 [ 0.02501279]
 [-0.00602061]]
Data added to pickle list for particle: 41
Particle 42:
eta 2.744898559141323, phi 1.0053271859646156,
p 51.0, q 1.60217662e-19,
brem = False
input State:
[[ 0.001     ]
 [-0.001     ]
 [ 0.10895532]
 [ 0.06914247]
 [ 0.0058786 ]]

Simulating particle
Initiating Kalman filtering for particle: 42
Particle 42:
eta 2.7500736801262318, phi 1.005197001896545,
p 49.50560894437158, q 1.60217662e-19,
brem = False
output State:
[[ 0.00102663]
 [-0.00098242]
 [ 0.10837934]
 [ 0.06879675]
 [ 0.00605605]]
Data added to pickle list for particle: 42
Particle 43:
eta 3.8460206532277317, phi 3.099145760831801,
p 51.0, q -1.60217662e-19,
brem = False
input State:
[[-0.001     ]
 [ 0.001     ]
 [ 0.001814  ]
 [-0.04271018]
 [-0.0058786 ]]

Simulating particle
Initiating Kalman filtering for particle: 43
Particle 43:
eta 3.850402001640805, phi 3.099239186784906,
p 50.99975944616522, q -1.60217662e-19,
brem = False
output State:
[[-0.00100212]
 [ 0.00094375]
 [ 0.00180209]
 [-0.04252346]
 [-0.00587863]]
Data added to pickle list for particle: 43
Particle 44:
eta 4.6986475790790205, phi -0.5216807138531597,
p 51.99999999999999, q 1.60217662e-19,
brem = False
input State:
[[-0.001     ]
 [ 0.001     ]
 [-0.00907807]
 [ 0.01579355]
 [ 0.00576555]]

Simulating particle
Initiating Kalman filtering for particle: 44
Particle 44:
eta 4.705036708291904, phi -0.5251383158847202,
p 52.522489199605765, q 1.60217662e-19,
brem = False
output State:
[[-0.00102038]
 [ 0.00107149]
 [-0.00907445]
 [ 0.01566167]
 [ 0.00570819]]
Data added to pickle list for particle: 44
Particle 45:
eta 2.843564406914958, phi -2.965512178526001,
p 51.99999999999999, q -1.60217662e-19,
brem = False
input State:
[[-0.001     ]
 [ 0.001     ]
 [-0.02046562]
 [-0.11502508]
 [-0.00576555]]

Simulating particle
Initiating Kalman filtering for particle: 45
Particle 45:
eta 2.8451123179960143, phi -2.9662883408117,
p 50.98527396488444, q -1.60217662e-19,
brem = False
output State:
[[-0.00102514]
 [ 0.00105467]
 [-0.0203446 ]
 [-0.11486179]
 [-0.0058803 ]]
Data added to pickle list for particle: 45
Particle 46:
eta 4.089450790558664, phi 2.22708998500087,
p 53.0, q 1.60217662e-19,
brem = False
input State:
[[-0.001     ]
 [ 0.001     ]
 [ 0.02654564]
 [-0.020445  ]
 [ 0.00565676]]

Simulating particle
Initiating Kalman filtering for particle: 46
Particle 46:
eta 4.092309130947598, phi 2.225668633787169,
p 53.047521287133065, q 1.60217662e-19,
brem = False
output State:
[[-0.00101959]
 [ 0.00096253]
 [ 0.02649878]
 [-0.02034897]
 [ 0.0056517 ]]
Data added to pickle list for particle: 46
Particle 47:
eta 2.7071568857889146, phi 0.3906519186053557,
p 53.0, q -1.60217662e-19,
brem = False
input State:
[[-0.001     ]
 [ 0.001     ]
 [ 0.05104482]
 [ 0.12395019]
 [-0.00565676]]

Simulating particle
Initiating Kalman filtering for particle: 47
Particle 47:
eta 2.710561920868471, phi 0.3895441575641061,
p 51.993170376634914, q -1.60217662e-19,
brem = False
output State:
[[-0.00096122]
 [ 0.00098403]
 [ 0.0507329 ]
 [ 0.12358138]
 [-0.00576631]]
Data added to pickle list for particle: 47
Particle 48:
eta 3.774391810923046, phi 2.28179453296666,
p 54.0, q 1.60217662e-19,
brem = False
input State:
[[ 0.001     ]
 [-0.001     ]
 [ 0.03479884]
 [-0.02997105]
 [ 0.00555201]]

Simulating particle
Initiating Kalman filtering for particle: 48
Particle 48:
eta 3.7769521024330306, phi 2.2800314622852507,
p 54.14754896215857, q 1.60217662e-19,
brem = False
output State:
[[ 0.00099285]
 [-0.00102174]
 [ 0.03476242]
 [-0.02983309]
 [ 0.00553688]]
Data added to pickle list for particle: 48
Particle 49:
eta 2.1016995767406983, phi 0.9357014721956151,
p 54.0, q -1.60217662e-19,
brem = False
input State:
[[ 0.001     ]
 [-0.001     ]
 [ 0.19980992]
 [ 0.14724937]
 [-0.00555201]]

Simulating particle
Initiating Kalman filtering for particle: 49
Particle 49:
eta 2.1019630045251207, phi 0.9344300274471201,
p 45.79104656353295, q -1.60217662e-19,
brem = False
output State:
[[ 0.00100673]
 [-0.00105247]
 [ 0.19956837]
 [ 0.14746327]
 [-0.00654732]]
Data added to pickle list for particle: 49
Particle 50:
eta 4.100102608279816, phi 1.542929932274623,
p 54.99999999999999, q 1.60217662e-19,
brem = False
input State:
[[-0.001     ]
 [-0.001     ]
 [ 0.03313818]
 [ 0.00092368]
 [ 0.00545106]]

Simulating particle
Initiating Kalman filtering for particle: 50
Particle 50:
eta 4.10179478622174, phi 1.543071547688126,
p 55.28853824823933, q 1.60217662e-19,
brem = False
output State:
[[-0.00098518]
 [-0.00099612]
 [ 0.03308225]
 [ 0.00091743]
 [ 0.00542262]]
Data added to pickle list for particle: 50
Particle 51:
eta 4.901300009281088, phi 1.3801635461307031,
p 54.99999999999999, q -1.60217662e-19,
brem = False
input State:
[[ 0.001     ]
 [-0.001     ]
 [ 0.01460518]
 [ 0.00281845]
 [-0.00545106]]

Simulating particle
Initiating Kalman filtering for particle: 51
Particle 51:
eta 4.900428976055363, phi 1.377200536419283,
p 55.42550824904065, q -1.60217662e-19,
brem = False
output State:
[[ 0.00099322]
 [-0.00103382]
 [ 0.01460949]
 [ 0.00286421]
 [-0.00540922]]
Data added to pickle list for particle: 51
Particle 52:
eta 4.818426760382334, phi 1.8784778895321963,
p 56.0, q 1.60217662e-19,
brem = False
input State:
[[ 0.001     ]
 [-0.001     ]
 [ 0.01540113]
 [-0.00489406]
 [ 0.00535372]]

Simulating particle
Initiating Kalman filtering for particle: 52
Particle 52:
eta 4.821063909425104, phi 1.880076383388509,
p 55.82596010036859, q 1.60217662e-19,
brem = False
output State:
[[ 0.00104062]
 [-0.00098997]
 [ 0.01535274]
 [-0.00490572]
 [ 0.00537041]]
Data added to pickle list for particle: 52
Particle 53:
eta 3.814402090362209, phi -2.698319648832506,
p 56.0, q -1.60217662e-19,
brem = False
input State:
[[ 0.001     ]
 [-0.001     ]
 [-0.01892439]
 [-0.03985885]
 [-0.00535372]]

Simulating particle
Initiating Kalman filtering for particle: 53
Particle 53:
eta 3.817582479065302, phi -2.6977096791477146,
p 56.164367454982894, q -1.60217662e-19,
brem = False
output State:
[[ 0.00099899]
 [-0.00102436]
 [-0.01888847]
 [-0.03972065]
 [-0.00533806]]
Data added to pickle list for particle: 53
Particle 54:
eta 2.141458189042288, phi 2.3391256157143205,
p 57.00000000000001, q 1.60217662e-19,
brem = False
input State:
[[-0.001     ]
 [ 0.001     ]
 [ 0.17132288]
 [-0.16557191]
 [ 0.0052598 ]]

Simulating particle
Initiating Kalman filtering for particle: 54
Particle 54:
eta 2.142113431308283, phi 2.3290319450594303,
p 26.81586933418926, q 1.60217662e-19,
brem = False
output State:
[[-0.00113152]
 [ 0.00084688]
 [ 0.17286887]
 [-0.16372391]
 [ 0.01118026]]
Data added to pickle list for particle: 54
Particle 55:
eta 3.5559622590831386, phi 2.2908951611946953,
p 57.00000000000001, q -1.60217662e-19,
brem = False
input State:
[[-0.001     ]
 [ 0.001     ]
 [ 0.04296526]
 [-0.03769096]
 [-0.0052598 ]]

Simulating particle
Initiating Kalman filtering for particle: 55
Particle 55:
eta 3.558586652906041, phi 2.289464734478651,
p 57.183988530382905, q -1.60217662e-19,
brem = False
output State:
[[-0.0009888 ]
 [ 0.00096904]
 [ 0.04290619]
 [-0.03753068]
 [-0.00524287]]
Data added to pickle list for particle: 55
Particle 56:
eta 4.243520178638627, phi -0.3358234878310662,
p 58.0, q 1.60217662e-19,
brem = False
input State:
[[-0.001     ]
 [-0.001     ]
 [-0.00946453]
 [ 0.02711554]
 [ 0.00516911]]

Simulating particle
Initiating Kalman filtering for particle: 56
Particle 56:
eta 4.2482092643921705, phi -0.3379215562416997,
p 58.24359329222499, q 1.60217662e-19,
brem = False
output State:
[[-0.00095552]
 [-0.00092911]
 [-0.00947684]
 [ 0.02696881]
 [ 0.00514749]]
Data added to pickle list for particle: 56
Particle 57:
eta 2.8096766810162017, phi -2.6834871716317226,
p 58.0, q -1.60217662e-19,
brem = False
input State:
[[ 0.001     ]
 [-0.001     ]
 [-0.05346241]
 [-0.10842292]
 [-0.00516911]]

Simulating particle
Initiating Kalman filtering for particle: 57
Particle 57:
eta 2.8147204045269736, phi -2.684559482394801,
p 56.72667658084769, q -1.60217662e-19,
brem = False
output State:
[[ 0.00096054]
 [-0.00102511]
 [-0.05307579]
 [-0.10793047]
 [-0.00528514]]
Data added to pickle list for particle: 57
Particle 58:
eta 3.598766487365887, phi 0.5447138215205753,
p 59.0, q 1.60217662e-19,
brem = False
input State:
[[-0.001     ]
 [-0.001     ]
 [ 0.02837304]
 [ 0.04683137]
 [ 0.0050815 ]]

Simulating particle
Initiating Kalman filtering for particle: 58
Particle 58:
eta 3.6023139926371988, phi 0.5459286936328117,
p 58.55907097268604, q 1.60217662e-19,
brem = False
output State:
[[-0.00098645]
 [-0.00095022]
 [ 0.02832908]
 [ 0.0466309 ]
 [ 0.00511976]]
Data added to pickle list for particle: 58
Particle 59:
eta 3.0527155705080093, phi -2.7269078414711116,
p 59.0, q -1.60217662e-19,
brem = False
input State:
[[ 0.001     ]
 [-0.001     ]
 [-0.03814356]
 [-0.08664808]
 [-0.0050815 ]]

Simulating particle
Initiating Kalman filtering for particle: 59
Particle 59:
eta 3.0568645907222853, phi -2.726581855115424,
p 58.29243887405051, q -1.60217662e-19,
brem = False
output State:
[[ 0.00099494]
 [-0.00101033]
 [-0.03801305]
 [-0.08627533]
 [-0.00514318]]
Data added to pickle list for particle: 59
Particle 60:
eta 3.225217954786997, phi -1.8114733974307258,
p 60.00000000000001, q 1.60217662e-19,
brem = False
input State:
[[ 0.001     ]
 [ 0.001     ]
 [-0.07732512]
 [-0.01897825]
 [ 0.00499681]]

Simulating particle
Initiating Kalman filtering for particle: 60
Particle 60:
eta 3.224564105554205, phi -1.8110303287823193,
p 57.0855505243114, q 1.60217662e-19,
brem = False
output State:
[[ 0.00102551]
 [ 0.00100007]
 [-0.07738426]
 [-0.01895641]
 [ 0.00525192]]
Data added to pickle list for particle: 60
Particle 61:
eta 3.0517552811843376, phi -1.293251921507,
p 60.00000000000001, q -1.60217662e-19,
brem = False
input State:
[[ 0.001     ]
 [ 0.001     ]
 [-0.09113704]
 [ 0.02596472]
 [-0.00499681]]

Simulating particle
Initiating Kalman filtering for particle: 61
Particle 61:
eta 3.050636812442315, phi -1.2940052746845432,
p 61.862384053348364, q -1.60217662e-19,
brem = False
output State:
[[ 0.00111038]
 [ 0.00098271]
 [-0.09125905]
 [ 0.02592517]
 [-0.00484638]]
Data added to pickle list for particle: 61
Particle 62:
eta 3.5104067028450787, phi -0.28730168076089124,
p 61.0, q 1.60217662e-19,
brem = False
input State:
[[ 0.001     ]
 [ 0.001     ]
 [-0.01695176]
 [ 0.05737092]
 [ 0.00491489]]

Simulating particle
Initiating Kalman filtering for particle: 62
Particle 62:
eta 3.514043031750815, phi -0.2881516066143903,
p 61.94012605911699, q 1.60217662e-19,
brem = False
output State:
[[ 0.00099299]
 [ 0.00105727]
 [-0.0169387 ]
 [ 0.05714793]
 [ 0.0048403 ]]
Data added to pickle list for particle: 62
Particle 63:
eta 3.687948583958476, phi -0.1922413929409892,
p 61.0, q -1.60217662e-19,
brem = False
input State:
[[-0.001     ]
 [ 0.001     ]
 [-0.00956786]
 [ 0.04915541]
 [-0.00491489]]

Simulating particle
Initiating Kalman filtering for particle: 63
Particle 63:
eta 3.6922221989869164, phi -0.1933226382604811,
p 60.86895939998642, q -1.60217662e-19,
brem = False
output State:
[[-0.00096493]
 [ 0.00104975]
 [-0.00957993]
 [ 0.0489352 ]
 [-0.00492547]]
Data added to pickle list for particle: 63
Particle 64:
eta 3.116987008461398, phi -1.8454718715991476,
p 62.0, q 1.60217662e-19,
brem = False
input State:
[[ 0.001     ]
 [ 0.001     ]
 [-0.0854278 ]
 [-0.02407341]
 [ 0.00483562]]

Simulating particle
Initiating Kalman filtering for particle: 64
Particle 64:
eta 3.1160641585671294, phi -1.8452703771228753,
p 62.32226663724065, q 1.60217662e-19,
brem = False
output State:
[[ 0.00111171]
 [ 0.00101961]
 [-0.08551184]
 [-0.0240785 ]
 [ 0.00481062]]
Data added to pickle list for particle: 64
Particle 65:
eta 2.513571640291603, phi 0.3295851490213283,
p 62.0, q -1.60217662e-19,
brem = False
input State:
[[ 0.001     ]
 [ 0.001     ]
 [ 0.05276346]
 [ 0.15425144]
 [-0.00483562]]

Simulating particle
Initiating Kalman filtering for particle: 65
Particle 65:
eta 2.516764371229566, phi 0.3291492888971195,
p 59.55228161120709, q -1.60217662e-19,
brem = False
output State:
[[ 0.00099344]
 [ 0.00099695]
 [ 0.05252604]
 [ 0.15377619]
 [-0.00503437]]
Data added to pickle list for particle: 65
Particle 66:
eta 4.793220931487783, phi 2.712104567942763,
p 62.99999999999999, q 1.60217662e-19,
brem = False
input State:
[[-0.001     ]
 [ 0.001     ]
 [ 0.00690092]
 [-0.01506745]
 [ 0.00475887]]

Simulating particle
Initiating Kalman filtering for particle: 66
Particle 66:
eta 4.789870026641942, phi 2.7149578978005366,
p 62.71014158113462, q 1.60217662e-19,
brem = False
output State:
[[-0.00096043]
 [ 0.00106202]
 [ 0.00688092]
 [-0.01513773]
 [ 0.00478086]]
Data added to pickle list for particle: 66
Particle 67:
eta 4.68228189445111, phi 2.8139192540615228,
p 62.99999999999999, q -1.60217662e-19,
brem = False
input State:
[[ 0.001     ]
 [-0.001     ]
 [ 0.00595963]
 [-0.01753208]
 [-0.00475887]]

Simulating particle
Initiating Kalman filtering for particle: 67
Particle 67:
eta 4.684586906648548, phi 2.8157816844078347,
p 62.29488597782673, q -1.60217662e-19,
brem = False
output State:
[[ 0.00103561]
 [-0.00099808]
 [ 0.00591332]
 [-0.01750275]
 [-0.00481273]]
Data added to pickle list for particle: 67
Particle 68:
eta 2.975021964312421, phi 0.843970696170625,
p 64.0, q 1.60217662e-19,
brem = False
input State:
[[0.001     ]
 [0.001     ]
 [0.07649186]
 [0.06801787]
 [0.00468451]]

Simulating particle
Initiating Kalman filtering for particle: 68
Particle 68:
eta 2.979297255167737, phi 0.8441021063793853,
p 64.02727847199985, q 1.60217662e-19,
brem = False
output State:
[[0.00104138]
 [0.00100581]
 [0.07617274]
 [0.06771618]
 [0.00468251]]
Data added to pickle list for particle: 68
Particle 69:
eta 3.735697264922029, phi -0.8734171026406494,
p 64.0, q -1.60217662e-19,
brem = False
input State:
[[ 0.001     ]
 [ 0.001     ]
 [-0.03659422]
 [ 0.0306593 ]
 [-0.00468451]]

Simulating particle
Initiating Kalman filtering for particle: 69
Particle 69:
eta 3.738701597244938, phi -0.8744188726314656,
p 63.99065923299748, q -1.60217662e-19,
brem = False
output State:
[[ 0.00097186]
 [ 0.00103448]
 [-0.03651492]
 [ 0.03053066]
 [-0.00468519]]
Data added to pickle list for particle: 69
Particle 70:
eta 3.9705673173940057, phi 2.085443863699927,
p 65.0, q 1.60217662e-19,
brem = False
input State:
[[-0.001     ]
 [-0.001     ]
 [ 0.03285043]
 [-0.01857614]
 [ 0.00461244]]

Simulating particle
Initiating Kalman filtering for particle: 70
Particle 70:
eta 3.9722509191600475, phi 2.0844152624174845,
p 65.63299117234445, q 1.60217662e-19,
brem = False
output State:
[[-0.00100442]
 [-0.00101409]
 [ 0.03281419]
 [-0.01851113]
 [ 0.00456795]]
Data added to pickle list for particle: 70
Particle 71:
eta 4.808090600691676, phi -2.9322038216927586,
p 65.0, q -1.60217662e-19,
brem = False
input State:
[[-0.001     ]
 [-0.001     ]
 [-0.00339396]
 [-0.01597132]
 [-0.00461244]]

Simulating particle
Initiating Kalman filtering for particle: 71
Particle 71:
eta 4.817412407876178, phi -2.931887233094948,
p 66.08911669059428, q -1.60217662e-19,
brem = False
output State:
[[-0.00100836]
 [-0.00106383]
 [-0.00336748]
 [-0.01582204]
 [-0.00453643]]
Data added to pickle list for particle: 71
Particle 72:
eta 4.445549139980264, phi -1.7268721128663231,
p 66.0, q 1.60217662e-19,
brem = False
input State:
[[ 0.001     ]
 [ 0.001     ]
 [-0.02317934]
 [-0.0036474 ]
 [ 0.00454255]]

Simulating particle
Initiating Kalman filtering for particle: 72
Particle 72:
eta 4.446461306771184, phi -1.7270689093775178,
p 65.98612799933967, q 1.60217662e-19,
brem = False
output State:
[[ 0.00097185]
 [ 0.00100729]
 [-0.02315748]
 [-0.00364863]
 [ 0.00454351]]
Data added to pickle list for particle: 72
Particle 73:
eta 3.8390828186546053, phi 2.046778254207237,
p 66.0, q -1.60217662e-19,
brem = False
input State:
[[-0.001     ]
 [ 0.001     ]
 [ 0.03826165]
 [-0.01972443]
 [-0.00454255]]

Simulating particle
Initiating Kalman filtering for particle: 73
Particle 73:
eta 3.841790570705077, phi 2.045323364402354,
p 65.18123559849757, q -1.60217662e-19,
brem = False
output State:
[[-0.0009852 ]
 [ 0.00098581]
 [ 0.03818667]
 [-0.01961551]
 [-0.00459961]]
Data added to pickle list for particle: 73
Particle 74:
eta 3.122910619759474, phi 2.6881752368516376,
p 67.0, q 1.60217662e-19,
brem = False
input State:
[[-0.001     ]
 [-0.001     ]
 [ 0.03864771]
 [-0.07931366]
 [ 0.00447475]]

Simulating particle
Initiating Kalman filtering for particle: 74
Particle 74:
eta 3.1241708206943595, phi 2.68799158851457,
p 65.93178325058574, q 1.60217662e-19,
brem = False
output State:
[[-0.00102932]
 [-0.00095257]
 [ 0.0386134 ]
 [-0.0792063 ]
 [ 0.00454725]]
Data added to pickle list for particle: 74
Particle 75:
eta 4.2882527360645595, phi 2.8749500968452613,
p 67.0, q -1.60217662e-19,
brem = False
input State:
[[-0.001     ]
 [ 0.001     ]
 [ 0.00723633]
 [-0.02649245]
 [-0.00447475]]

Simulating particle
Initiating Kalman filtering for particle: 75
Particle 75:
eta 4.2899306785877975, phi 2.8750609783993437,
p 67.39546489963799, q -1.60217662e-19,
brem = False
output State:
[[-0.00100207]
 [ 0.00098424]
 [ 0.00722126]
 [-0.02644882]
 [-0.0044485 ]]
Data added to pickle list for particle: 75
Particle 76:
eta 4.725313120363004, phi -0.831557903556033,
p 68.0, q 1.60217662e-19,
brem = False
input State:
[[-0.001     ]
 [-0.001     ]
 [-0.01310752]
 [ 0.01195005]
 [ 0.00440895]]

Simulating particle
Initiating Kalman filtering for particle: 76
Particle 76:
eta 4.730824765792704, phi -0.8332188699729755,
p 67.83101417391084, q 1.60217662e-19,
brem = False
output State:
[[-0.00106475]
 [-0.00095253]
 [-0.01305518]
 [ 0.01186269]
 [ 0.00441993]]
Data added to pickle list for particle: 76
Particle 77:
eta 4.523800641772562, phi 3.090039073445694,
p 68.0, q -1.60217662e-19,
brem = False
input State:
[[ 0.001     ]
 [-0.001     ]
 [ 0.00111811]
 [-0.02166916]
 [-0.00440895]]

Simulating particle
Initiating Kalman filtering for particle: 77
Particle 77:
eta 4.525289520271519, phi 3.088944370282569,
p 69.4491414215046, q -1.60217662e-19,
brem = False
output State:
[[ 0.00098029]
 [-0.00098618]
 [ 0.00114013]
 [-0.02163568]
 [-0.00431695]]
Data added to pickle list for particle: 77
Particle 78:
eta 2.9994254901612103, phi 2.6876915639047407,
p 69.0, q 1.60217662e-19,
brem = False
input State:
[[-0.001     ]
 [ 0.001     ]
 [ 0.04379454]
 [-0.08976579]
 [ 0.00434505]]

Simulating particle
Initiating Kalman filtering for particle: 78
Particle 78:
eta 3.001815889954117, phi 2.6874303773227197,
p 67.74458956441914, q 1.60217662e-19,
brem = False
output State:
[[-0.00101523]
 [ 0.00102238]
 [ 0.04371284]
 [-0.08953899]
 [ 0.00442557]]
Data added to pickle list for particle: 78
Particle 79:
eta 4.765139870990693, phi 0.8602697982851113,
p 69.0, q -1.60217662e-19,
brem = False
input State:
[[-0.001     ]
 [ 0.001     ]
 [ 0.01292015]
 [ 0.01111707]
 [-0.00434505]]

Simulating particle
Initiating Kalman filtering for particle: 79
Particle 79:
eta 4.767194907249605, phi 0.8623353164866487,
p 69.06504908279699, q -1.60217662e-19,
brem = False
output State:
[[-0.00099853]
 [ 0.00101751]
 [ 0.01291651]
 [ 0.01106759]
 [-0.00434096]]
Data added to pickle list for particle: 79
Particle 80:
eta 2.612153118779132, phi 1.3193554668845118,
p 70.0, q 1.60217662e-19,
brem = False
input State:
[[-0.001     ]
 [ 0.001     ]
 [ 0.14290755]
 [ 0.0367097 ]
 [ 0.00428298]]

Simulating particle
Initiating Kalman filtering for particle: 80
Particle 80:
eta 2.617086321438843, phi 1.3192109858714167,
p 75.44183369843009, q 1.60217662e-19,
brem = False
output State:
[[-0.00094197]
 [ 0.0010102 ]
 [ 0.14219146]
 [ 0.03654766]
 [ 0.00397404]]
Data added to pickle list for particle: 80
Particle 81:
eta 3.0278343712484967, phi -1.4502469799989774,
p 70.0, q -1.60217662e-19,
brem = False
input State:
[[ 0.001     ]
 [ 0.001     ]
 [-0.0963639 ]
 [ 0.01167321]
 [-0.00428298]]

Simulating particle
Initiating Kalman filtering for particle: 81
Particle 81:
eta 3.028912871401351, phi -1.4500514963551168,
p 70.51732210975675, q -1.60217662e-19,
brem = False
output State:
[[ 0.00107565]
 [ 0.00099971]
 [-0.09625726]
 [ 0.01167938]
 [-0.00425156]]
Data added to pickle list for particle: 81
Particle 82:
eta 2.3438120982942303, phi -1.5023052796858698,
p 71.0, q 1.60217662e-19,
brem = False
input State:
[[ 0.001     ]
 [-0.001     ]
 [-0.19325184]
 [ 0.01325676]
 [ 0.00422265]]

Simulating particle
Initiating Kalman filtering for particle: 82
Particle 82:
eta 2.347770155681115, phi -1.5020933463901824,
p 61.63841341624523, q 1.60217662e-19,
brem = False
output State:
[[ 0.00092219]
 [-0.00101626]
 [-0.19247154]
 [ 0.01324421]
 [ 0.00486399]]
Data added to pickle list for particle: 82
Particle 83:
eta 4.408309980570011, phi -1.946696601107586,
p 71.0, q -1.60217662e-19,
brem = False
input State:
[[ 0.001     ]
 [-0.001     ]
 [-0.02265455]
 [-0.008941  ]
 [-0.00422265]]

Simulating particle
Initiating Kalman filtering for particle: 83
Particle 83:
eta 4.410214186760769, phi -1.943952744061254,
p 70.83162064349301, q -1.60217662e-19,
brem = False
output State:
[[ 0.00099082]
 [-0.00104513]
 [-0.02263584]
 [-0.00886191]
 [-0.00423269]]
Data added to pickle list for particle: 83
Particle 84:
eta 4.691046736544581, phi -2.976944056593703,
p 72.0, q 1.60217662e-19,
brem = False
input State:
[[-0.001     ]
 [ 0.001     ]
 [-0.0030086 ]
 [-0.01810745]
 [ 0.00416401]]

Simulating particle
Initiating Kalman filtering for particle: 84
Particle 84:
eta 4.6916170251338345, phi -2.9785853804374525,
p 71.51064022271763, q 1.60217662e-19,
brem = False
output State:
[[-0.00101942]
 [ 0.0010082 ]
 [-0.00297718]
 [-0.01810204]
 [ 0.0041925 ]]
Data added to pickle list for particle: 84
Particle 85:
eta 3.0630613484296503, phi -1.9428742097737763,
p 72.0, q -1.60217662e-19,
brem = False
input State:
[[-0.001     ]
 [-0.001     ]
 [-0.0872824 ]
 [-0.03406244]
 [-0.00416401]]

Simulating particle
Initiating Kalman filtering for particle: 85
Particle 85:
eta 3.064256578546872, phi -1.9426316116090037,
p 70.56985001886794, q -1.60217662e-19,
brem = False
output State:
[[-0.00099228]
 [-0.0009878 ]
 [-0.08718593]
 [-0.03400043]
 [-0.00424839]]
Data added to pickle list for particle: 85
Particle 86:
eta 4.531322159707233, phi -0.9391519477789678,
p 73.0, q 1.60217662e-19,
brem = False
input State:
[[ 0.001     ]
 [-0.001     ]
 [-0.01738028]
 [ 0.01271604]
 [ 0.00410697]]

Simulating particle
Initiating Kalman filtering for particle: 86
Particle 86:
eta 4.532734992604591, phi -0.9388099068936427,
p 72.22841491722728, q 1.60217662e-19,
brem = False
output State:
[[ 0.00099625]
 [-0.00099955]
 [-0.01735139]
 [ 0.01270402]
 [ 0.00415084]]
Data added to pickle list for particle: 86
Particle 87:
eta 4.26751366042938, phi -3.069084309385595,
p 73.0, q -1.60217662e-19,
brem = False
input State:
[[ 0.001     ]
 [-0.001     ]
 [-0.00203126]
 [-0.02796501]
 [-0.00410697]]

Simulating particle
Initiating Kalman filtering for particle: 87
Particle 87:
eta 4.269621716962299, phi -3.0695398964352547,
p 72.94747002833068, q -1.60217662e-19,
brem = False
output State:
[[ 0.00097436]
 [-0.00098529]
 [-0.00201426]
 [-0.02790702]
 [-0.00410992]]
Data added to pickle list for particle: 87
Particle 88:
eta 4.196108583106584, phi -0.08033665962478286,
p 73.99999999999999, q 1.60217662e-19,
brem = False
input State:
[[-0.001     ]
 [-0.001     ]
 [-0.00241673]
 [ 0.03001779]
 [ 0.00405147]]

Simulating particle
Initiating Kalman filtering for particle: 88
Particle 88:
eta 4.199496807384395, phi -0.08064639407439177,
p 73.46606579663404, q 1.60217662e-19,
brem = False
output State:
[[-0.00099972]
 [-0.00095661]
 [-0.00241782]
 [ 0.02991546]
 [ 0.00408091]]
Data added to pickle list for particle: 88
Particle 89:
eta 2.468330575849943, phi -2.994443730814068,
p 73.99999999999999, q -1.60217662e-19,
brem = False
input State:
[[ 0.001     ]
 [ 0.001     ]
 [-0.02502449]
 [-0.16883309]
 [-0.00405147]]

Simulating particle
Initiating Kalman filtering for particle: 89
Particle 89:
eta 2.4704705827326747, phi -2.9948499771143706,
p 72.67815429442632, q -1.60217662e-19,
brem = False
output State:
[[ 0.00098602]
 [ 0.00104804]
 [-0.02490178]
 [-0.1684771 ]
 [-0.00412515]]
Data added to pickle list for particle: 89
Particle 90:
eta 2.5415668550583956, phi 0.5840753816652712,
p 75.0, q 1.60217662e-19,
brem = False
input State:
[[-0.001     ]
 [ 0.001     ]
 [ 0.08738397]
 [ 0.13219789]
 [ 0.00399745]]

Simulating particle
Initiating Kalman filtering for particle: 90
Particle 90:
eta 2.546858478598733, phi 0.5826245503180889,
p 75.75578425057178, q 1.60217662e-19,
brem = False
output State:
[[-0.00094825]
 [ 0.0010122 ]
 [ 0.08672622]
 [ 0.13161753]
 [ 0.00395757]]
Data added to pickle list for particle: 90
Particle 91:
eta 3.8355380115348097, phi 0.9735549316522826,
p 75.0, q -1.60217662e-19,
brem = False
input State:
[[ 0.001     ]
 [-0.001     ]
 [ 0.0357213 ]
 [ 0.02429387]
 [-0.00399745]]

Simulating particle
Initiating Kalman filtering for particle: 91
Particle 91:
eta 3.8383553230723093, phi 0.97357615332388,
p 73.76122527217959, q -1.60217662e-19,
brem = False
output State:
[[ 0.00103307]
 [-0.00099946]
 [ 0.03562123]
 [ 0.0242247 ]
 [-0.00406458]]
Data added to pickle list for particle: 91
Particle 92:
eta 2.740027437550746, phi 0.6804225164674045,
p 76.0, q 1.60217662e-19,
brem = False
input State:
[[0.001     ]
 [0.001     ]
 [0.08158309]
 [0.10079945]
 [0.00394485]]

Simulating particle
Initiating Kalman filtering for particle: 92
Particle 92:
eta 2.7454610608151, phi 0.6788611502042212,
p 74.9274599353353, q 1.60217662e-19,
brem = False
output State:
[[0.00102342]
 [0.00101249]
 [0.0809807 ]
 [0.10037526]
 [0.00400132]]
Data added to pickle list for particle: 92
Particle 93:
eta 4.097621543531686, phi 1.1620978182179675,
p 76.0, q -1.60217662e-19,
brem = False
input State:
[[ 0.001     ]
 [ 0.001     ]
 [ 0.0304963 ]
 [ 0.01320748]
 [-0.00394485]]

Simulating particle
Initiating Kalman filtering for particle: 93
Particle 93:
eta 4.100954615027113, phi 1.165776423368338,
p 77.0106737024007, q -1.60217662e-19,
brem = False
output State:
[[ 0.00100404]
 [ 0.00104686]
 [ 0.03044299]
 [ 0.01305161]
 [-0.00389308]]
Data added to pickle list for particle: 93
Particle 94:
eta 2.9444219369388804, phi -3.073032690216921,
p 77.0, q 1.60217662e-19,
brem = False
input State:
[[ 0.001     ]
 [ 0.001     ]
 [-0.00723134]
 [-0.10530938]
 [ 0.00389362]]

Simulating particle
Initiating Kalman filtering for particle: 94
Particle 94:
eta 2.9458117052160953, phi -3.0728283121166293,
p 77.11689549220547, q 1.60217662e-19,
brem = False
output State:
[[ 0.00100075]
 [ 0.00103941]
 [-0.00724273]
 [-0.10516083]
 [ 0.00388771]]
Data added to pickle list for particle: 94
Particle 95:
eta 3.7325098761424185, phi -1.5031777592619566,
p 77.0, q -1.60217662e-19,
brem = False
input State:
[[-0.001     ]
 [ 0.001     ]
 [-0.04778337]
 [ 0.00323598]
 [-0.00389362]]

Simulating particle
Initiating Kalman filtering for particle: 95
Particle 95:
eta 3.73495437643255, phi -1.503686404422773,
p 78.00994852938798, q -1.60217662e-19,
brem = False
output State:
[[-0.00102218]
 [ 0.00099996]
 [-0.04766821]
 [ 0.00320382]
 [-0.00384321]]
Data added to pickle list for particle: 95
Particle 96:
eta 2.956566445772634, phi 1.7202763754917347,
p 78.0, q 1.60217662e-19,
brem = False
input State:
[[-0.001     ]
 [-0.001     ]
 [ 0.1031134 ]
 [-0.01552923]
 [ 0.0038437 ]]

Simulating particle
Initiating Kalman filtering for particle: 96
Particle 96:
eta 2.957860901334313, phi 1.71995994728009,
p 81.48675418993432, q 1.60217662e-19,
brem = False
output State:
[[-0.0010776 ]
 [-0.0009874 ]
 [ 0.10298419]
 [-0.01547645]
 [ 0.00367923]]
Data added to pickle list for particle: 96
Particle 97:
eta 3.0667079117630767, phi -2.2130831655133054,
p 78.0, q -1.60217662e-19,
brem = False
input State:
[[-0.001     ]
 [ 0.001     ]
 [-0.07474872]
 [-0.05591985]
 [-0.0038437 ]]

Simulating particle
Initiating Kalman filtering for particle: 97
Particle 97:
eta 3.0680683200874244, phi -2.2112171162665297,
p 78.26052734893442, q -1.60217662e-19,
brem = False
output State:
[[-0.00092178]
 [ 0.00099183]
 [-0.07475073]
 [-0.0557041 ]
 [-0.0038309 ]]
Data added to pickle list for particle: 97
Particle 98:
eta 2.3862468437459174, phi 2.901961678470116,
p 79.0, q 1.60217662e-19,
brem = False
input State:
[[ 0.001     ]
 [-0.001     ]
 [ 0.04403157]
 [-0.18021675]
 [ 0.00379504]]

Simulating particle
Initiating Kalman filtering for particle: 98
Particle 98:
eta 2.387623537675312, phi 2.90175891358974,
p 83.23216140542347, q 1.60217662e-19,
brem = False
output State:
[[ 0.00103023]
 [-0.00096643]
 [ 0.04400645]
 [-0.17995568]
 [ 0.00360208]]
Data added to pickle list for particle: 98
Particle 99:
eta 2.1660923915527124, phi 2.4183280385095913,
p 79.0, q -1.60217662e-19,
brem = False
input State:
[[ 0.001     ]
 [-0.001     ]
 [ 0.15374536]
 [-0.17414458]
 [-0.00379504]]

Simulating particle
Initiating Kalman filtering for particle: 99
Particle 99:
eta 2.1694487133235265, phi 2.4062248979822063,
p 96.75185401502652, q 1.60217662e-19,
brem = False
output State:
[[ 0.00087885]
 [-0.00122051]
 [ 0.15530573]
 [-0.17167855]
 [ 0.00309874]]
Data added to pickle list for particle: 99
Particle 100:
eta 3.3406679390338385, phi -2.4157416757088668,
p 80.0, q 1.60217662e-19,
brem = False
input State:
[[ 0.001     ]
 [ 0.001     ]
 [-0.04707175]
 [-0.05304019]
 [ 0.00374761]]

Simulating particle
Initiating Kalman filtering for particle: 100
Particle 100:
eta 3.3410073687221877, phi -2.4153534600720628,
p 77.83700437967073, q 1.60217662e-19,
brem = False
output State:
[[ 0.00098976]
 [ 0.00100257]
 [-0.04707632]
 [-0.05300388]
 [ 0.00385175]]
Data added to pickle list for particle: 100
Particle 101:
eta 4.33935271935283, phi -3.016637524329999,
p 80.0, q -1.60217662e-19,
brem = False
input State:
[[-0.001     ]
 [ 0.001     ]
 [-0.00325215]
 [-0.02589093]
 [-0.00374761]]

Simulating particle
Initiating Kalman filtering for particle: 101
Particle 101:
eta 4.342972844416644, phi -3.0161221857200458,
p 78.51346224601095, q -1.60217662e-19,
brem = False
output State:
[[-0.00099043]
 [ 0.00096523]
 [-0.00325369]
 [-0.02579566]
 [-0.00381856]]
Data added to pickle list for particle: 101
Particle 102:
eta 3.6554655172289876, phi 1.892038637863687,
p 81.0, q 1.60217662e-19,
brem = False
input State:
[[ 0.001     ]
 [ 0.001     ]
 [ 0.04908701]
 [-0.01633462]
 [ 0.00370134]]

Simulating particle
Initiating Kalman filtering for particle: 102
Particle 102:
eta 3.6576323035145943, phi 1.8904735218979276,
p 81.48164571712348, q 1.60217662e-19,
brem = False
output State:
[[ 0.00102929]
 [ 0.00096473]
 [ 0.04900607]
 [-0.01622254]
 [ 0.00367946]]
Data added to pickle list for particle: 102
Particle 103:
eta 4.449267199143386, phi -0.4615919648554737,
p 81.0, q -1.60217662e-19,
brem = False
input State:
[[-0.001     ]
 [-0.001     ]
 [-0.01041171]
 [ 0.02093087]
 [-0.00370134]]

Simulating particle
Initiating Kalman filtering for particle: 103
Particle 103:
eta 4.455567908833696, phi -0.46359222564991703,
p 81.81794993605703, q -1.60217662e-19,
brem = False
output State:
[[-0.00102336]
 [-0.00091096]
 [-0.01038788]
 [ 0.02077864]
 [-0.00366434]]
Data added to pickle list for particle: 103
Particle 104:
eta 2.519218920259978, phi -1.733148332904495,
p 82.0, q 1.60217662e-19,
brem = False
input State:
[[ 0.001     ]
 [-0.001     ]
 [-0.15996437]
 [-0.02620115]
 [ 0.0036562 ]]

Simulating particle
Initiating Kalman filtering for particle: 104
Particle 104:
eta 2.5257735185263073, phi -1.7337241895216746,
p 66.99452391520965, q 1.60217662e-19,
brem = False
output State:
[[ 0.00089202]
 [-0.00098193]
 [-0.15889078]
 [-0.02611926]
 [ 0.00447512]]
Data added to pickle list for particle: 104
Particle 105:
eta 3.2740859806245535, phi -1.8579242875776516,
p 82.0, q -1.60217662e-19,
brem = False
input State:
[[ 0.001     ]
 [-0.001     ]
 [-0.07270788]
 [-0.02146974]
 [-0.0036562 ]]

Simulating particle
Initiating Kalman filtering for particle: 105
Particle 105:
eta 3.273857896165561, phi -1.8570411153167576,
p 81.11196515563375, q -1.60217662e-19,
brem = False
output State:
[[ 0.00100946]
 [-0.00101093]
 [-0.07274346]
 [-0.02141042]
 [-0.00369623]]
Data added to pickle list for particle: 105
Particle 106:
eta 4.087813821346799, phi -1.023122130956617,
p 83.0, q 1.60217662e-19,
brem = False
input State:
[[ 0.001     ]
 [-0.001     ]
 [-0.02865245]
 [ 0.01747541]
 [ 0.00361215]]

Simulating particle
Initiating Kalman filtering for particle: 106
Particle 106:
eta 4.089993841327859, phi -1.0259880408448174,
p 83.73816513438868, q 1.60217662e-19,
brem = False
output State:
[[ 0.00104951]
 [-0.00095786]
 [-0.02863988]
 [ 0.01735532]
 [ 0.00358031]]
Data added to pickle list for particle: 106
Particle 107:
eta 2.4800806453375794, phi 1.824894910065391,
p 83.0, q -1.60217662e-19,
brem = False
input State:
[[-0.001     ]
 [-0.001     ]
 [ 0.16324004]
 [-0.04239545]
 [-0.00361215]]

Simulating particle
Initiating Kalman filtering for particle: 107
Particle 107:
eta 2.4827053554749927, phi 1.8250116524285198,
p 74.43255429707153, q -1.60217662e-19,
brem = False
output State:
[[-0.00098664]
 [-0.00098964]
 [ 0.16280119]
 [-0.04230176]
 [-0.00402792]]
Data added to pickle list for particle: 107
Particle 108:
eta 4.540701905628672, phi 1.7442800867599106,
p 84.0, q 1.60217662e-19,
brem = False
input State:
[[-0.001     ]
 [ 0.001     ]
 [ 0.02101402]
 [-0.00368261]
 [ 0.00356915]]

Simulating particle
Initiating Kalman filtering for particle: 108
Particle 108:
eta 4.541538836794744, phi 1.7455142973057098,
p 84.15317675225515, q 1.60217662e-19,
brem = False
output State:
[[-0.00100334]
 [ 0.00100343]
 [ 0.02099188]
 [-0.00370544]
 [ 0.00356265]]
Data added to pickle list for particle: 108
Particle 109:
eta 3.0931855742663106, phi 0.5524068115200088,
p 84.0, q -1.60217662e-19,
brem = False
input State:
[[-0.001     ]
 [ 0.001     ]
 [ 0.04769942]
 [ 0.07738116]
 [-0.00356915]]

Simulating particle
Initiating Kalman filtering for particle: 109
Particle 109:
eta 3.0939895287159707, phi 0.5529746001577625,
p 82.85123956815502, q -1.60217662e-19,
brem = False
output State:
[[-0.00103685]
 [ 0.0009487 ]
 [ 0.04770482]
 [ 0.07729165]
 [-0.00361864]]
Data added to pickle list for particle: 109
Particle 110:
eta 2.9648253393973065, phi 1.1458792062609424,
p 85.0, q 1.60217662e-19,
brem = False
input State:
[[-0.001     ]
 [-0.001     ]
 [ 0.09421767]
 [ 0.04263192]
 [ 0.00352716]]

Simulating particle
Initiating Kalman filtering for particle: 110
Particle 110:
eta 2.965608920825682, phi 1.1457469970714553,
p 89.59628947553581, q 1.60217662e-19,
brem = False
output State:
[[-0.00108657]
 [-0.00102505]
 [ 0.09413784]
 [ 0.0426108 ]
 [ 0.00334622]]
Data added to pickle list for particle: 110
Particle 111:
eta 3.4582790801753984, phi 1.0565822628174482,
p 85.0, q -1.60217662e-19,
brem = False
input State:
[[ 0.001     ]
 [-0.001     ]
 [ 0.05487917]
 [ 0.03100148]
 [-0.00352716]]

Simulating particle
Initiating Kalman filtering for particle: 111
Particle 111:
eta 3.460105398323204, phi 1.0568953675364687,
p 85.00458139230484, q -1.60217662e-19,
brem = False
output State:
[[ 0.00101967]
 [-0.00099075]
 [ 0.05478852]
 [ 0.03092765]
 [-0.00352697]]
Data added to pickle list for particle: 111
Particle 112:
eta 3.4649746714675165, phi 2.523014870636503,
p 86.0, q 1.60217662e-19,
brem = False
input State:
[[ 0.001     ]
 [-0.001     ]
 [ 0.03630542]
 [-0.05100766]
 [ 0.00348615]]

Simulating particle
Initiating Kalman filtering for particle: 112
Particle 112:
eta 3.466138782362779, phi 2.52158049597809,
p 86.58337827106799, q 1.60217662e-19,
brem = False
output State:
[[ 0.00093089]
 [-0.0009792 ]
 [ 0.03633614]
 [-0.05089614]
 [ 0.00346266]]
Data added to pickle list for particle: 112
Particle 113:
eta 3.085481644214339, phi -0.22024119725053454,
p 86.0, q -1.60217662e-19,
brem = False
input State:
[[-0.001     ]
 [-0.001     ]
 [-0.02001301]
 [ 0.08939462]
 [-0.00348615]]

Simulating particle
Initiating Kalman filtering for particle: 113
Particle 113:
eta 3.0877341530489852, phi -0.22085113611549384,
p 87.55139467541218, q -1.60217662e-19,
brem = False
output State:
[[-0.00097611]
 [-0.00102614]
 [-0.0200222 ]
 [ 0.08918045]
 [-0.00342437]]
Data added to pickle list for particle: 113
Particle 114:
eta 4.0169677115298414, phi -3.07506916469791,
p 87.0, q 1.60217662e-19,
brem = False
input State:
[[ 0.001     ]
 [ 0.001     ]
 [-0.00239485]
 [-0.03594697]
 [ 0.00344607]]

Simulating particle
Initiating Kalman filtering for particle: 114
Particle 114:
eta 4.022692242181324, phi -3.0746773314436857,
p 87.13855861360268, q 1.60217662e-19,
brem = False
output State:
[[ 0.00100304]
 [ 0.00093029]
 [-0.00239518]
 [-0.03574071]
 [ 0.0034406 ]]
Data added to pickle list for particle: 114
Particle 115:
eta 2.8909808369037338, phi -1.9364031182046082,
p 87.0, q -1.60217662e-19,
brem = False
input State:
[[-0.001     ]
 [-0.001     ]
 [-0.10402493]
 [-0.03982258]
 [-0.00344607]]

Simulating particle
Initiating Kalman filtering for particle: 115
Particle 115:
eta 2.895170670052803, phi -1.9371057894422201,
p 87.24210352715346, q -1.60217662e-19,
brem = False
output State:
[[-0.00104444]
 [-0.00098295]
 [-0.10355944]
 [-0.03972783]
 [-0.00343651]]
Data added to pickle list for particle: 115
Particle 116:
eta 4.611588230135137, phi 3.1087225515428605,
p 88.0, q 1.60217662e-19,
brem = False
input State:
[[-0.001     ]
 [ 0.001     ]
 [ 0.00065314]
 [-0.01986328]
 [ 0.00340691]]

Simulating particle
Initiating Kalman filtering for particle: 116
Particle 116:
eta 4.6148594102971146, phi 3.1106287868803766,
p 88.385442253742, q 1.60217662e-19,
brem = False
output State:
[[-0.00096895]
 [ 0.00097812]
 [ 0.00061327]
 [-0.0197996 ]
 [ 0.00339206]]
Data added to pickle list for particle: 116
Particle 117:
eta 3.6672609051757235, phi 1.1041860767934326,
p 88.0, q -1.60217662e-19,
brem = False
input State:
[[ 0.001     ]
 [ 0.001     ]
 [ 0.0456606 ]
 [ 0.02299965]
 [-0.00340691]]

Simulating particle
Initiating Kalman filtering for particle: 117
Particle 117:
eta 3.6697184320100154, phi 1.1054009656126524,
p 88.16210353480797, q -1.60217662e-19,
brem = False
output State:
[[ 0.00103511]
 [ 0.00101497]
 [ 0.04557622]
 [ 0.02288777]
 [-0.00340065]]
Data added to pickle list for particle: 117
Particle 118:
eta 4.926793162312833, phi -2.0430611942410226,
p 89.0, q 1.60217662e-19,
brem = False
input State:
[[-0.001     ]
 [ 0.001     ]
 [-0.012913  ]
 [-0.0065962 ]
 [ 0.00336863]]

Simulating particle
Initiating Kalman filtering for particle: 118
Particle 118:
eta 4.929843202417978, phi -2.0402368028788618,
p 90.57112905202546, q 1.60217662e-19,
brem = False
output State:
[[-0.00100282]
 [ 0.00096808]
 [-0.0128922 ]
 [-0.00653972]
 [ 0.0033102 ]]
Data added to pickle list for particle: 118
Particle 119:
eta 4.5273149219690225, phi 1.053800100717977,
p 89.0, q -1.60217662e-19,
brem = False
input State:
[[-0.001     ]
 [ 0.001     ]
 [ 0.01879604]
 [ 0.01068706]
 [-0.00336863]]

Simulating particle
Initiating Kalman filtering for particle: 119
Particle 119:
eta 4.530230771674778, phi 1.058634046054533,
p 90.02812020512395, q -1.60217662e-19,
brem = False
output State:
[[-0.00099198]
 [ 0.00106413]
 [ 0.01879259]
 [ 0.01056521]
 [-0.00333017]]
Data added to pickle list for particle: 119
Particle 120:
eta 3.4969686502149555, phi 0.30639745678128427,
p 90.0, q 1.60217662e-19,
brem = False
input State:
[[ 0.001     ]
 [-0.001     ]
 [ 0.01828871]
 [ 0.05780982]
 [ 0.00333121]]

Simulating particle
Initiating Kalman filtering for particle: 120
Particle 120:
eta 3.5006252586861337, phi 0.3075099269639323,
p 89.03123488969018, q 1.60217662e-19,
brem = False
output State:
[[ 0.000998  ]
 [-0.00094314]
 [ 0.0182859 ]
 [ 0.05757812]
 [ 0.00336745]]
Data added to pickle list for particle: 120
Particle 121:
eta 4.648386130545133, phi -1.6709839532833193,
p 90.0, q -1.60217662e-19,
brem = False
input State:
[[ 0.001     ]
 [ 0.001     ]
 [-0.01905979]
 [-0.00191597]
 [-0.00333121]]

Simulating particle
Initiating Kalman filtering for particle: 121
Particle 121:
eta 4.646899826257357, phi -1.6701076866988367,
p 89.76127179634967, q -1.60217662e-19,
brem = False
output State:
[[ 0.00105354]
 [ 0.00099644]
 [-0.01908982]
 [-0.00190209]
 [-0.00334007]]
Data added to pickle list for particle: 121
Particle 122:
eta 4.117280202216469, phi -2.1516441708123835,
p 91.0, q 1.60217662e-19,
brem = False
input State:
[[-0.001     ]
 [-0.001     ]
 [-0.02724195]
 [-0.0178811 ]
 [ 0.0032946 ]]

Simulating particle
Initiating Kalman filtering for particle: 122
Particle 122:
eta 4.12058049195117, phi -2.1507833672087586,
p 90.28212837297447, q 1.60217662e-19,
brem = False
output State:
[[-0.00103036]
 [-0.0010074 ]
 [-0.02716748]
 [-0.01779877]
 [ 0.0033208 ]]
Data added to pickle list for particle: 122
Particle 123:
eta 3.9289190347164102, phi -2.2124870004073527,
p 91.0, q -1.60217662e-19,
brem = False
input State:
[[-0.001     ]
 [ 0.001     ]
 [-0.03151873]
 [-0.02355001]
 [-0.0032946 ]]

Simulating particle
Initiating Kalman filtering for particle: 123
Particle 123:
eta 3.9314954171224383, phi -2.2105835358182384,
p 91.0264669051495, q -1.60217662e-19,
brem = False
output State:
[[-0.00101814]
 [ 0.00096682]
 [-0.03148222]
 [-0.02342948]
 [-0.00329364]]
Data added to pickle list for particle: 123
Particle 124:
eta 2.889169105795547, phi -1.3751046517648404,
p 92.0, q 1.60217662e-19,
brem = False
input State:
[[-0.001     ]
 [-0.001     ]
 [-0.10946019]
 [ 0.02169814]
 [ 0.00325879]]

Simulating particle
Initiating Kalman filtering for particle: 124
Particle 124:
eta 2.8924037037995918, phi -1.374781196317969,
p 90.69557527465874, q 1.60217662e-19,
brem = False
output State:
[[-0.00105147]
 [-0.00100407]
 [-0.10909752]
 [ 0.02166292]
 [ 0.00330566]]
Data added to pickle list for particle: 124
Particle 125:
eta 3.0939816543113725, phi 1.560361383179677,
p 92.0, q -1.60217662e-19,
brem = False
input State:
[[ 0.001     ]
 [-0.001     ]
 [ 0.0908239 ]
 [ 0.00094778]
 [-0.00325879]]

Simulating particle
Initiating Kalman filtering for particle: 125
Particle 125:
eta 3.0962736636688573, phi 1.560731722891318,
p 88.07545971538322, q -1.60217662e-19,
brem = False
output State:
[[ 0.00100223]
 [-0.00099095]
 [ 0.09061546]
 [ 0.00091204]
 [-0.003404  ]]
Data added to pickle list for particle: 125
Particle 126:
eta 2.7333107835379424, phi -0.7092373467149108,
p 93.0, q 1.60217662e-19,
brem = False
input State:
[[-0.001     ]
 [ 0.001     ]
 [-0.0850273 ]
 [ 0.09907593]
 [ 0.00322375]]

Simulating particle
Initiating Kalman filtering for particle: 126
Particle 126:
eta 2.7413448025805796, phi -0.7071488948101323,
p 90.57919891756046, q 1.60217662e-19,
brem = False
output State:
[[-0.00108626]
 [ 0.00106059]
 [-0.0841358 ]
 [ 0.09845242]
 [ 0.0033099 ]]
Data added to pickle list for particle: 126
Particle 127:
eta 2.002234895255171, phi 3.1387716931738487,
p 93.0, q -1.60217662e-19,
brem = False
input State:
[[-0.001     ]
 [ 0.001     ]
 [ 0.00077599]
 [-0.27508106]
 [-0.00322375]]

Simulating particle
Initiating Kalman filtering for particle: 127
Particle 127:
eta 2.0028384792563725, phi 3.1389096542302366,
p 90.45816768453565, q -1.60217662e-19,
brem = False
output State:
[[-0.00096723]
 [ 0.0010023 ]
 [ 0.00073758]
 [-0.27490902]
 [-0.00331433]]
Data added to pickle list for particle: 127
Particle 128:
eta 3.5327181584716465, phi 0.4864547167331485,
p 94.0, q 1.60217662e-19,
brem = False
input State:
[[ 0.001     ]
 [-0.001     ]
 [ 0.02734878]
 [ 0.05171438]
 [ 0.00318945]]

Simulating particle
Initiating Kalman filtering for particle: 128
Particle 128:
eta 3.536531637930636, phi 0.48759783969755466,
p 95.55385020841523, q 1.60217662e-19,
brem = False
output State:
[[ 0.00102562]
 [-0.00094303]
 [ 0.02730338]
 [ 0.05148603]
 [ 0.00313759]]
Data added to pickle list for particle: 128
Particle 129:
eta 2.4078896305162707, phi -2.2760744587296227,
p 94.0, q -1.60217662e-19,
brem = False
input State:
[[-0.001     ]
 [ 0.001     ]
 [-0.13818473]
 [-0.11764377]
 [-0.00318945]]

Simulating particle
Initiating Kalman filtering for particle: 129
Particle 129:
eta 2.410468762426961, phi -2.2734634602692085,
p 70.92875988095226, q -1.60217662e-19,
brem = False
output State:
[[-0.00102538]
 [ 0.0009689 ]
 [-0.13812889]
 [-0.11697555]
 [-0.0042269 ]]
Data added to pickle list for particle: 129
Particle 130:
eta 3.6334469393368667, phi 1.1867968825500643,
p 95.0, q 1.60217662e-19,
brem = False
input State:
[[-0.001     ]
 [ 0.001     ]
 [ 0.04903526]
 [ 0.01981307]
 [ 0.00315588]]

Simulating particle
Initiating Kalman filtering for particle: 130
Particle 130:
eta 3.6347388982493847, phi 1.187777986331415,
p 93.13169474250762, q 1.60217662e-19,
brem = False
output State:
[[-0.00099268]
 [ 0.00100871]
 [ 0.04899126]
 [ 0.0197394 ]
 [ 0.00321919]]
Data added to pickle list for particle: 130
Particle 131:
eta 4.259764118293472, phi 0.10371873846469849,
p 95.0, q -1.60217662e-19,
brem = False
input State:
[[ 0.001     ]
 [-0.001     ]
 [ 0.00292552]
 [ 0.02810505]
 [-0.00315588]]

Simulating particle
Initiating Kalman filtering for particle: 131
Particle 131:
eta 4.2662983631805655, phi 0.10475387658033322,
p 96.95660660146535, q -1.60217662e-19,
brem = False
output State:
[[ 0.00099368]
 [-0.00090996]
 [ 0.00293536]
 [ 0.02791891]
 [-0.00309219]]
Data added to pickle list for particle: 131
Particle 132:
eta 4.18140094577727, phi -1.9127133877218057,
p 96.0, q 1.60217662e-19,
brem = False
input State:
[[ 0.001     ]
 [ 0.001     ]
 [-0.02879223]
 [-0.01024702]
 [ 0.00312301]]

Simulating particle
Initiating Kalman filtering for particle: 132
Particle 132:
eta 4.181978724506006, phi -1.9111827041770786,
p 96.32726576795064, q 1.60217662e-19,
brem = False
output State:
[[ 0.00101828]
 [ 0.00098029]
 [-0.02879123]
 [-0.01019704]
 [ 0.00311239]]
Data added to pickle list for particle: 132
Particle 133:
eta 4.976453370858007, phi -2.358242936439111,
p 96.0, q -1.60217662e-19,
brem = False
input State:
[[-0.001     ]
 [ 0.001     ]
 [-0.00973639]
 [-0.00977636]
 [-0.00312301]]

Simulating particle
Initiating Kalman filtering for particle: 133
Particle 133:
eta 4.978705393323822, phi -2.3571373224219445,
p 96.42497397701433, q -1.60217662e-19,
brem = False
output State:
[[-0.0009882 ]
 [ 0.00100831]
 [-0.00972526]
 [-0.00974362]
 [-0.00310924]]
Data added to pickle list for particle: 133
Particle 134:
eta 4.345614043995416, phi 0.12032498283967509,
p 97.0, q 1.60217662e-19,
brem = False
input State:
[[-0.001     ]
 [ 0.001     ]
 [ 0.00311268]
 [ 0.02574396]
 [ 0.00309081]]

Simulating particle
Initiating Kalman filtering for particle: 134
Particle 134:
eta 4.350520054796695, phi 0.12280142629634751,
p 95.35992937842906, q 1.60217662e-19,
brem = False
output State:
[[-0.00104618]
 [ 0.00102973]
 [ 0.00316087]
 [ 0.02561017]
 [ 0.00314397]]
Data added to pickle list for particle: 134
Particle 135:
eta 2.8721835540869116, phi -0.7963515243033676,
p 97.0, q -1.60217662e-19,
brem = False
input State:
[[ 0.001     ]
 [-0.001     ]
 [-0.08114076]
 [ 0.07938242]
 [-0.00309081]]

Simulating particle
Initiating Kalman filtering for particle: 135
Particle 135:
eta 2.873519091916318, phi -0.7965025224790154,
p 94.22733356670909, q -1.60217662e-19,
brem = False
output State:
[[ 0.00106117]
 [-0.00104398]
 [-0.08104374]
 [ 0.07926356]
 [-0.00318176]]
Data added to pickle list for particle: 135
Particle 136:
eta 3.010674610140719, phi 0.6955594524269915,
p 98.0, q 1.60217662e-19,
brem = False
input State:
[[-0.001     ]
 [-0.001     ]
 [ 0.06328465]
 [ 0.0758149 ]
 [ 0.00305927]]

Simulating particle
Initiating Kalman filtering for particle: 136
Particle 136:
eta 3.0126882333863603, phi 0.6961639497726168,
p 99.98116448884024, q 1.60217662e-19,
brem = False
output State:
[[-0.00102904]
 [-0.00101291]
 [ 0.06320245]
 [ 0.07562346]
 [ 0.00299865]]
Data added to pickle list for particle: 136
Particle 137:
eta 4.666653261137158, phi -2.929397768252494,
p 98.0, q -1.60217662e-19,
brem = False
input State:
[[-0.001     ]
 [ 0.001     ]
 [-0.0039613 ]
 [-0.01838717]
 [-0.00305927]]

Simulating particle
Initiating Kalman filtering for particle: 137
Particle 137:
eta 4.6750384128111575, phi -2.9276540609451174,
p 98.92053987786313, q -1.60217662e-19,
brem = False
output State:
[[-0.00101366]
 [ 0.00091436]
 [-0.00396   ]
 [-0.01822673]
 [-0.0030308 ]]
Data added to pickle list for particle: 137
Particle 138:
eta 4.219832517064977, phi 2.4737808890958317,
p 99.00000000000001, q 1.60217662e-19,
brem = False
input State:
[[-0.001     ]
 [-0.001     ]
 [ 0.01821182]
 [-0.02309098]
 [ 0.00302837]]

Simulating particle
Initiating Kalman filtering for particle: 138
Particle 138:
eta 4.222713702248606, phi 2.47114174636573,
p 97.91545380842217, q 1.60217662e-19,
brem = False
output State:
[[-0.0010381 ]
 [-0.00103757]
 [ 0.01822011]
 [-0.02297651]
 [ 0.00306191]]
Data added to pickle list for particle: 138
Particle 139:
eta 4.173186556951472, phi -0.9161363567023254,
p 99.00000000000001, q -1.60217662e-19,
brem = False
input State:
[[-0.001     ]
 [-0.001     ]
 [-0.02444297]
 [ 0.01876202]
 [-0.00302837]]

Simulating particle
Initiating Kalman filtering for particle: 139
Particle 139:
eta 4.176015361816078, phi -0.9162946586910405,
p 97.85112598416582, q -1.60217662e-19,
brem = False
output State:
[[-0.00100116]
 [-0.00100132]
 [-0.02437685]
 [ 0.01870514]
 [-0.00306392]]
Data added to pickle list for particle: 139