This is the start of the log file generated at 11_23_22h22m58s

magfield_ shape: cs, sim_stepsize: 0.01, detector_length: 11
15 VELO-type subdetectors added at z-locations: [20, 50, 80, 110, 140, 170, 200, 230, 260, 290, 450, 600, 650, 700, 750]
4 TT-type subdetectors added at z-locations: [2330, 2370, 2600, 2640]
24 OT-type subdetectors added at z-locations: [7860, 7870, 7910, 7920, 7980, 7990, 8030, 8040, 8540, 8550, 8590, 8600, 8660, 8670, 8710, 8720, 9230, 9240, 9280, 9290, 9350, 9360, 9400, 9410]
The detector is built.
Generating 140 particles, from 30 to 100 GeV. Brem = False, ms = False

Particle 0:
eta 4.380172634042757, phi -1.3403383196385297,
p 30.000000000000004, q 1.60217662e-19,
brem = False
input State:
[[ 0.001     ]
 [-0.001     ]
 [-0.02438804]
 [ 0.00572208]
 [ 0.00999362]]

Simulating particle
Initiating Kalman filtering for particle: 0
Particle 0:
eta 4.391917255478035, phi -1.340347360567295,
p 30.433872071199975, q 1.60217662e-19,
brem = False
output State:
[[ 0.0008877 ]
 [-0.00095726]
 [-0.02410325]
 [ 0.00565503]
 [ 0.00985115]]
Data added to pickle list for particle: 0
Particle 1:
eta 2.1618890294658244, phi -2.074178185970024,
p 30.000000000000004, q -1.60217662e-19,
brem = False
input State:
[[ 0.001     ]
 [ 0.001     ]
 [-0.20436601]
 [-0.11254473]
 [-0.00999362]]

Simulating particle
Initiating Kalman filtering for particle: 1
Particle 1:
eta 2.1775492531785203, phi -2.052987109890308,
p 14.207372877839175, q -1.60217662e-19,
brem = False
output State:
[[ 0.0009218 ]
 [ 0.00068548]
 [-0.20340884]
 [-0.1064639 ]
 [-0.02110232]]
Data added to pickle list for particle: 1
Particle 2:
eta 2.371498492993975, phi 1.8260095489775356,
p 31.0, q 1.60217662e-19,
brem = False
input State:
[[ 0.001     ]
 [-0.001     ]
 [ 0.1822224 ]
 [-0.04754228]
 [ 0.00967124]]

Simulating particle
Initiating Kalman filtering for particle: 2
Particle 2:
eta 2.3805194267933274, phi 1.8228597828337603,
p 30.257855773786773, q 1.60217662e-19,
brem = False
output State:
[[ 0.00113523]
 [-0.00094997]
 [ 0.18070509]
 [-0.04653898]
 [ 0.00990845]]
Data added to pickle list for particle: 2
Particle 3:
eta 3.8826312126261198, phi 0.8888741975473055,
p 31.0, q -1.60217662e-19,
brem = False
input State:
[[-0.001     ]
 [-0.001     ]
 [ 0.03199437]
 [ 0.02597448]
 [-0.00967124]]

Simulating particle
Initiating Kalman filtering for particle: 3
Particle 3:
eta 3.902856228333791, phi 0.8920734132094419,
p 31.597201628532215, q -1.60217662e-19,
brem = False
output State:
[[-0.00085933]
 [-0.00097081]
 [ 0.03143453]
 [ 0.02535356]
 [-0.00948845]]
Data added to pickle list for particle: 3
Particle 4:
eta 2.030956354327332, phi -2.7174999969666596,
p 32.0, q 1.60217662e-19,
brem = False
input State:
[[-0.001     ]
 [ 0.001     ]
 [-0.10987586]
 [-0.24336257]
 [ 0.00936902]]

Simulating particle
Initiating Kalman filtering for particle: 4
Particle 4:
eta 2.035794184807722, phi -2.7195238431802506,
p 25.668768211967578, q 1.60217662e-19,
brem = False
output State:
[[-0.00109202]
 [ 0.00092998]
 [-0.10883685]
 [-0.24236798]
 [ 0.01167989]]
Data added to pickle list for particle: 4
Particle 5:
eta 4.194798803888262, phi -1.960740648693153,
p 32.0, q -1.60217662e-19,
brem = False
input State:
[[-0.001     ]
 [ 0.001     ]
 [-0.02789072]
 [-0.0114628 ]
 [-0.00936902]]

Simulating particle
Initiating Kalman filtering for particle: 5
Particle 5:
eta 4.2142979708053, phi -1.9631083923166333,
p 33.08620815761669, q -1.60217662e-19,
brem = False
output State:
[[-0.00114129]
 [ 0.00108396]
 [-0.02732521]
 [-0.01130608]
 [-0.00906143]]
Data added to pickle list for particle: 5
Particle 6:
eta 3.110911900612583, phi -0.2579457432291909,
p 33.0, q 1.60217662e-19,
brem = False
input State:
[[ 0.001     ]
 [ 0.001     ]
 [-0.02277943]
 [ 0.08634359]
 [ 0.00908511]]

Simulating particle
Initiating Kalman filtering for particle: 6
Particle 6:
eta 3.140109178944474, phi -0.2588259724164482,
p 30.707455511844465, q 1.60217662e-19,
brem = False
output State:
[[ 0.00112843]
 [ 0.00065931]
 [-0.02219525]
 [ 0.08383007]
 [ 0.00976338]]
Data added to pickle list for particle: 6
Particle 7:
eta 3.028271674346021, phi -0.9373197741139803,
p 33.0, q -1.60217662e-19,
brem = False
input State:
[[ 0.001     ]
 [-0.001     ]
 [-0.07820024]
 [ 0.0574344 ]
 [-0.00908511]]

Simulating particle
Initiating Kalman filtering for particle: 7
Particle 7:
eta 3.041616643313766, phi -0.9501624248851553,
p 35.686089084787106, q -1.60217662e-19,
brem = False
output State:
[[ 0.00172221]
 [-0.00119944]
 [-0.07788023]
 [ 0.05567396]
 [-0.00840127]]
Data added to pickle list for particle: 7
Particle 8:
eta 3.5471243261328222, phi -0.7957205263235411,
p 34.0, q 1.60217662e-19,
brem = False
input State:
[[-0.001     ]
 [ 0.001     ]
 [-0.0411923 ]
 [ 0.04035055]
 [ 0.0088179 ]]

Simulating particle
Initiating Kalman filtering for particle: 8
Particle 8:
eta 3.5668329205609752, phi -0.8022938343995295,
p 34.05479510175044, q 1.60217662e-19,
brem = False
output State:
[[-0.00064599]
 [ 0.00070473]
 [-0.04064628]
 [ 0.03929549]
 [ 0.00880371]]
Data added to pickle list for particle: 8
Particle 9:
eta 3.602182861188339, phi 1.598218941242977,
p 34.0, q -1.60217662e-19,
brem = False
input State:
[[-0.001     ]
 [ 0.001     ]
 [ 0.05454833]
 [-0.00149623]
 [-0.0088179 ]]

Simulating particle
Initiating Kalman filtering for particle: 9
Particle 9:
eta 3.618551413366768, phi 1.5975307405926114,
p 36.535481626304076, q -1.60217662e-19,
brem = False
output State:
[[-0.00079731]
 [ 0.00100297]
 [ 0.05366244]
 [-0.00143498]
 [-0.00820595]]
Data added to pickle list for particle: 9
Particle 10:
eta 3.9200133174309357, phi 0.443660018462438,
p 35.0, q 1.60217662e-19,
brem = False
input State:
[[-0.001     ]
 [ 0.001     ]
 [ 0.01703998]
 [ 0.03585406]
 [ 0.00856596]]

Simulating particle
Initiating Kalman filtering for particle: 10
Particle 10:
eta 3.943874492709098, phi 0.4460209334224989,
p 36.001581809576564, q 1.60217662e-19,
brem = False
output State:
[[-0.00096456]
 [ 0.00105002]
 [ 0.0167205 ]
 [ 0.03496865]
 [ 0.00832765]]
Data added to pickle list for particle: 10
Particle 11:
eta 2.0447829080619955, phi -2.2581071132006607,
p 35.0, q -1.60217662e-19,
brem = False
input State:
[[ 0.001     ]
 [-0.001     ]
 [-0.20346081]
 [-0.16700573]
 [-0.00856596]]

Simulating particle
Initiating Kalman filtering for particle: 11
Particle 11:
eta 2.0515689835310904, phi -2.259843140222157,
p 43.72325457311129, q -1.60217662e-19,
brem = False
output State:
[[ 0.00087533]
 [-0.00106959]
 [-0.2017502 ]
 [-0.16618868]
 [-0.00685696]]
Data added to pickle list for particle: 11
Particle 12:
eta 2.033771123335263, phi 2.4961351129652214,
p 36.0, q 1.60217662e-19,
brem = False
input State:
[[ 0.001     ]
 [ 0.001     ]
 [ 0.16016053]
 [-0.21267924]
 [ 0.00832801]]

Simulating particle
Initiating Kalman filtering for particle: 12
Particle 12:
eta 2.0395747979170777, phi 2.498155284212446,
p 48.96976257126182, q 1.60217662e-19,
brem = False
output State:
[[ 0.00108899]
 [ 0.00091272]
 [ 0.1587743 ]
 [-0.21172718]
 [ 0.00612232]]
Data added to pickle list for particle: 12
Particle 13:
eta 3.3947790733648437, phi -1.2430851433121892,
p 36.0, q -1.60217662e-19,
brem = False
input State:
[[ 0.001     ]
 [ 0.001     ]
 [-0.06359676]
 [ 0.02162096]
 [-0.00832801]]

Simulating particle
Initiating Kalman filtering for particle: 13
Particle 13:
eta 3.4041175908691508, phi -1.2454511601321492,
p 37.21853013239613, q -1.60217662e-19,
brem = False
output State:
[[ 0.0015498 ]
 [ 0.0008024 ]
 [-0.06305482]
 [ 0.02127042]
 [-0.00805536]]
Data added to pickle list for particle: 13
Particle 14:
eta 2.977038168433421, phi -2.7157635306211403,
p 36.99999999999999, q 1.60217662e-19,
brem = False
input State:
[[-0.001     ]
 [ 0.001     ]
 [-0.04219658]
 [-0.09302957]
 [ 0.00810293]]

Simulating particle
Initiating Kalman filtering for particle: 14
Particle 14:
eta 3.0054431890849327, phi -2.7073397696902526,
p 33.2575691147831, q 1.60217662e-19,
brem = False
output State:
[[-0.00064788]
 [ 0.00130325]
 [-0.0417691 ]
 [-0.09006259]
 [ 0.00901474]]
Data added to pickle list for particle: 14
Particle 15:
eta 3.328608907469255, phi 2.4658813536731254,
p 36.99999999999999, q -1.60217662e-19,
brem = False
input State:
[[-0.001     ]
 [ 0.001     ]
 [ 0.04489378]
 [-0.05600572]
 [-0.00810293]]

Simulating particle
Initiating Kalman filtering for particle: 15
Particle 15:
eta 3.382254788103548, phi 2.493122962937435,
p 44.43020023400249, q -1.60217662e-19,
brem = False
output State:
[[-0.00085289]
 [ 0.00123644]
 [ 0.04108189]
 [-0.05421258]
 [-0.00674785]]
Data added to pickle list for particle: 15
Particle 16:
eta 3.2437060429663616, phi 1.0744008612721923,
p 38.0, q 1.60217662e-19,
brem = False
input State:
[[ 0.001     ]
 [-0.001     ]
 [ 0.06872387]
 [ 0.037223  ]
 [ 0.0078897 ]]

Simulating particle
Initiating Kalman filtering for particle: 16
Particle 16:
eta 3.2563606294299974, phi 1.0817709187056503,
p 40.710179712385944, q 1.60217662e-19,
brem = False
output State:
[[ 0.00041795]
 [-0.0011874 ]
 [ 0.06812612]
 [ 0.03625242]
 [ 0.00736446]]
Data added to pickle list for particle: 16
Particle 17:
eta 3.3958520977014923, phi 1.9572309915100459,
p 38.0, q -1.60217662e-19,
brem = False
input State:
[[ 0.001     ]
 [ 0.001     ]
 [ 0.06215134]
 [-0.02528896]
 [-0.0078897 ]]

Simulating particle
Initiating Kalman filtering for particle: 17
Particle 17:
eta 3.4257263656895227, phi 1.956592154787175,
p 42.38966130651413, q -1.60217662e-19,
brem = False
output State:
[[ 0.00065818]
 [ 0.00106545]
 [ 0.0603338 ]
 [-0.0245045 ]
 [-0.00707268]]
Data added to pickle list for particle: 17
Particle 18:
eta 2.009631218400253, phi 1.1310942609995112,
p 39.0, q 1.60217662e-19,
brem = False
input State:
[[ 0.001     ]
 [-0.001     ]
 [ 0.2470143 ]
 [ 0.11619963]
 [ 0.0076874 ]]

Simulating particle
Initiating Kalman filtering for particle: 18
Particle 18:
eta 2.0172005357394807, phi 1.128882563659546,
p 54.625446289414285, q 1.60217662e-19,
brem = False
output State:
[[ 0.00118669]
 [-0.00096037]
 [ 0.24482867]
 [ 0.11583348]
 [ 0.00548844]]
Data added to pickle list for particle: 18
Particle 19:
eta 4.4699349707644895, phi -0.8086152274166035,
p 39.0, q -1.60217662e-19,
brem = False
input State:
[[ 0.001     ]
 [-0.001     ]
 [-0.01656366]
 [ 0.01581186]
 [-0.0076874 ]]

Simulating particle
Initiating Kalman filtering for particle: 19
Particle 19:
eta 4.488895188729273, phi -0.8082808575354549,
p 40.13767343078682, q -1.60217662e-19,
brem = False
output State:
[[ 0.00084764]
 [-0.00086945]
 [-0.0162473 ]
 [ 0.01552025]
 [-0.0074695 ]]
Data added to pickle list for particle: 19
Particle 20:
eta 3.091571056409508, phi -0.37523737121193834,
p 40.0, q 1.60217662e-19,
brem = False
input State:
[[ 0.001     ]
 [ 0.001     ]
 [-0.03336885]
 [ 0.08471384]
 [ 0.00749521]]

Simulating particle
Initiating Kalman filtering for particle: 20
Particle 20:
eta 3.1219191195151703, phi -0.3763684832817011,
p 35.87696749083492, q 1.60217662e-19,
brem = False
output State:
[[ 0.00120636]
 [ 0.00068272]
 [-0.03246036]
 [ 0.08213489]
 [ 0.00835657]]
Data added to pickle list for particle: 20
Particle 21:
eta 4.730063437035242, phi -2.5318362213315813,
p 40.0, q -1.60217662e-19,
brem = False
input State:
[[-0.001     ]
 [ 0.001     ]
 [-0.01010942]
 [-0.01447187]
 [-0.00749521]]

Simulating particle
Initiating Kalman filtering for particle: 21
Particle 21:
eta 4.744772580661225, phi -2.531397078483556,
p 41.19466602898072, q -1.60217662e-19,
brem = False
output State:
[[-0.00099782]
 [ 0.00092272]
 [-0.00996804]
 [-0.01425615]
 [-0.00727785]]
Data added to pickle list for particle: 21
Particle 22:
eta 2.2770175383126943, phi 1.925502441593852,
p 41.0, q 1.60217662e-19,
brem = False
input State:
[[-0.001     ]
 [ 0.001     ]
 [ 0.19445329]
 [-0.07201984]
 [ 0.0073124 ]]

Simulating particle
Initiating Kalman filtering for particle: 22
Particle 22:
eta 2.2874757497223097, phi 1.9174106843017684,
p 29.98833036300911, q 1.60217662e-19,
brem = False
output State:
[[-0.00088536]
 [ 0.00095092]
 [ 0.19295817]
 [-0.0696958 ]
 [ 0.00999751]]
Data added to pickle list for particle: 22
Particle 23:
eta 3.9911455884543092, phi -1.6144328448075997,
p 41.0, q -1.60217662e-19,
brem = False
input State:
[[ 0.001     ]
 [ 0.001     ]
 [-0.0369345 ]
 [-0.00161272]
 [-0.0073124 ]]

Simulating particle
Initiating Kalman filtering for particle: 23
Particle 23:
eta 4.0107672481401435, phi -1.6144875382862771,
p 42.35061940581602, q -1.60217662e-19,
brem = False
output State:
[[ 0.00082019]
 [ 0.00101259]
 [-0.03621628]
 [-0.00158334]
 [-0.0070792 ]]
Data added to pickle list for particle: 23
Particle 24:
eta 3.6578119488932206, phi 0.2624384309853031,
p 42.0, q 1.60217662e-19,
brem = False
input State:
[[0.001     ]
 [0.001     ]
 [0.01339005]
 [0.0498449 ]
 [0.0071383 ]]

Simulating particle
Initiating Kalman filtering for particle: 24
Particle 24:
eta 3.684400316077945, phi 0.2631545638596544,
p 43.336553715053256, q 1.60217662e-19,
brem = False
output State:
[[0.00093484]
 [0.00066027]
 [0.01307302]
 [0.04852604]
 [0.00691814]]
Data added to pickle list for particle: 24
Particle 25:
eta 4.350390069884181, phi 1.186404434035772,
p 42.0, q -1.60217662e-19,
brem = False
input State:
[[ 0.001     ]
 [ 0.001     ]
 [ 0.02392457]
 [ 0.00967783]
 [-0.0071383 ]]

Simulating particle
Initiating Kalman filtering for particle: 25
Particle 25:
eta 4.367420241091034, phi 1.184202568686081,
p 43.15747257698133, q -1.60217662e-19,
brem = False
output State:
[[ 0.00110749]
 [ 0.00093834]
 [ 0.02349944]
 [ 0.00956612]
 [-0.00694685]]
Data added to pickle list for particle: 25
Particle 26:
eta 3.7990808953230553, phi -0.9260883359263802,
p 43.0, q 1.60217662e-19,
brem = False
input State:
[[ 0.001     ]
 [ 0.001     ]
 [-0.03581165]
 [ 0.02692633]
 [ 0.00697229]]

Simulating particle
Initiating Kalman filtering for particle: 26
Particle 26:
eta 3.819404524662944, phi -0.9292089272728029,
p 43.73316995519552, q 1.60217662e-19,
brem = False
output State:
[[ 0.0008664 ]
 [ 0.00103347]
 [-0.03517263]
 [ 0.02627445]
 [ 0.0068554 ]]
Data added to pickle list for particle: 26
Particle 27:
eta 3.927285338424884, phi -0.5587382245016028,
p 43.0, q -1.60217662e-19,
brem = False
input State:
[[-0.001     ]
 [-0.001     ]
 [-0.0208916 ]
 [ 0.03341623]
 [-0.00697229]]

Simulating particle
Initiating Kalman filtering for particle: 27
Particle 27:
eta 3.9511603772892383, phi -0.5601176086829731,
p 44.437004399596816, q -1.60217662e-19,
brem = False
output State:
[[-0.0011246 ]
 [-0.00094716]
 [-0.02044334]
 [ 0.03259911]
 [-0.00674682]]
Data added to pickle list for particle: 27
Particle 28:
eta 3.6686736530577195, phi -2.9067319984554936,
p 44.0, q 1.60217662e-19,
brem = False
input State:
[[-0.001     ]
 [ 0.001     ]
 [-0.0118806 ]
 [-0.0496522 ]
 [ 0.00681383]]

Simulating particle
Initiating Kalman filtering for particle: 28
Particle 28:
eta 3.695063156393076, phi -2.9060044276482233,
p 44.16981831125974, q 1.60217662e-19,
brem = False
output State:
[[-0.00106908]
 [ 0.00085855]
 [-0.01160597]
 [-0.04834899]
 [ 0.00678763]]
Data added to pickle list for particle: 28
Particle 29:
eta 2.9717238048987205, phi 0.236012355298714,
p 44.0, q -1.60217662e-19,
brem = False
input State:
[[ 0.001     ]
 [-0.001     ]
 [ 0.0240139 ]
 [ 0.09985226]
 [-0.00681383]]

Simulating particle
Initiating Kalman filtering for particle: 29
Particle 29:
eta 3.0017429775974294, phi 0.23996591050768507,
p 39.41044175102307, q -1.60217662e-19,
brem = False
output State:
[[ 0.00079623]
 [-0.00135107]
 [ 0.02368302]
 [ 0.0967916 ]
 [-0.00760734]]
Data added to pickle list for particle: 29
Particle 30:
eta 3.2227824253142967, phi 1.270233898368713,
p 45.0, q 1.60217662e-19,
brem = False
input State:
[[-0.001     ]
 [ 0.001     ]
 [ 0.0762367 ]
 [ 0.02362977]
 [ 0.00666241]]

Simulating particle
Initiating Kalman filtering for particle: 30
Particle 30:
eta 3.229089459827506, phi 1.2767219480458245,
p 47.26896401471493, q 1.60217662e-19,
brem = False
output State:
[[-0.00170529]
 [ 0.0009018 ]
 [ 0.07590663]
 [ 0.02298873]
 [ 0.00634261]]
Data added to pickle list for particle: 30
Particle 31:
eta 2.829127772843506, phi -1.5905076932996887,
p 45.0, q -1.60217662e-19,
brem = False
input State:
[[ 0.001     ]
 [-0.001     ]
 [-0.11851922]
 [-0.00233648]
 [-0.00666241]]

Simulating particle
Initiating Kalman filtering for particle: 31
Particle 31:
eta 2.8375362921415173, phi -1.5899581150074773,
p 47.58214136886953, q -1.60217662e-19,
brem = False
output State:
[[ 0.00090923]
 [-0.00099153]
 [-0.11752122]
 [-0.00225219]
 [-0.00630086]]
Data added to pickle list for particle: 31
Particle 32:
eta 3.8654407204705468, phi 2.032744569401866,
p 46.0, q 1.60217662e-19,
brem = False
input State:
[[-0.001     ]
 [ 0.001     ]
 [ 0.03753137]
 [-0.01868603]
 [ 0.00651758]]

Simulating particle
Initiating Kalman filtering for particle: 32
Particle 32:
eta 3.8857971625871337, phi 2.030658704182878,
p 47.437490954030096, q 1.60217662e-19,
brem = False
output State:
[[-0.00083461]
 [ 0.00099217]
 [ 0.03681255]
 [-0.01823242]
 [ 0.00632007]]
Data added to pickle list for particle: 32
Particle 33:
eta 3.1342878913177734, phi 0.7043754441036849,
p 46.0, q -1.60217662e-19,
brem = False
input State:
[[-0.001     ]
 [ 0.001     ]
 [ 0.0564844 ]
 [ 0.06646821]
 [-0.00651758]]

Simulating particle
Initiating Kalman filtering for particle: 33
Particle 33:
eta 3.15842685992005, phi 0.710765399329865,
p 41.55308533104615, q -1.60217662e-19,
brem = False
output State:
[[-0.00141843]
 [ 0.00073774]
 [ 0.05554575]
 [ 0.06452352]
 [-0.00721507]]
Data added to pickle list for particle: 33
Particle 34:
eta 3.4948672100098537, phi 1.0672209759213007,
p 47.0, q 1.60217662e-19,
brem = False
input State:
[[-0.001     ]
 [ 0.001     ]
 [ 0.05321877]
 [ 0.0293211 ]
 [ 0.0063789 ]]

Simulating particle
Initiating Kalman filtering for particle: 34
Particle 34:
eta 3.508493815900904, phi 1.0688418738838068,
p 48.996132084972, q 1.60217662e-19,
brem = False
output State:
[[-0.00142914]
 [ 0.00073566]
 [ 0.05254401]
 [ 0.02883841]
 [ 0.00611902]]
Data added to pickle list for particle: 34
Particle 35:
eta 4.762506109387926, phi -2.9032714663502768,
p 47.0, q -1.60217662e-19,
brem = False
input State:
[[ 0.001     ]
 [-0.001     ]
 [-0.00403437]
 [-0.01660656]
 [-0.0063789 ]]

Simulating particle
Initiating Kalman filtering for particle: 35
Particle 35:
eta 4.783149598408451, phi -2.902656396966301,
p 47.83835061536651, q -1.60217662e-19,
brem = False
output State:
[[ 0.00096856]
 [-0.00115876]
 [-0.00396193]
 [-0.01626478]
 [-0.00626712]]
Data added to pickle list for particle: 35
Particle 36:
eta 2.3448884452810352, phi -0.5868515774313565,
p 48.0, q 1.60217662e-19,
brem = False
input State:
[[ 0.001     ]
 [ 0.001     ]
 [-0.10714564]
 [ 0.16111997]
 [ 0.00624601]]

Simulating particle
Initiating Kalman filtering for particle: 36
Particle 36:
eta 2.3809953267198023, phi -0.6339032390772821,
p 17.541074139985025, q -1.60217662e-19,
brem = False
output State:
[[ 0.0012673 ]
 [ 0.0017098 ]
 [-0.11046963]
 [ 0.15027631]
 [-0.0170918 ]]
Data added to pickle list for particle: 36
Particle 37:
eta 2.1806926097953445, phi -2.8697453745843755,
p 48.0, q -1.60217662e-19,
brem = False
input State:
[[-0.001     ]
 [-0.001     ]
 [-0.06144795]
 [-0.22044272]
 [-0.00624601]]

Simulating particle
Initiating Kalman filtering for particle: 37
Particle 37:
eta 2.2295973224883254, phi -2.8433794862926263,
p 13.218046797715951, q -1.60217662e-19,
brem = False
output State:
[[-0.00079514]
 [-0.00169045]
 [-0.06395192]
 [-0.20805524]
 [-0.02268176]]
Data added to pickle list for particle: 37
Particle 38:
eta 4.876265847547706, phi -2.6004007686409847,
p 49.0, q 1.60217662e-19,
brem = False
input State:
[[ 0.001     ]
 [-0.001     ]
 [-0.00785706]
 [-0.01307221]
 [ 0.00611854]]

Simulating particle
Initiating Kalman filtering for particle: 38
Particle 38:
eta 4.893383864718114, phi -2.5934578239630195,
p 49.548585083034986, q 1.60217662e-19,
brem = False
output State:
[[ 0.00101716]
 [-0.00112967]
 [-0.00781273]
 [-0.01279638]
 [ 0.0060508 ]]
Data added to pickle list for particle: 38
Particle 39:
eta 2.739466505168819, phi -2.8318060346731397,
p 49.0, q -1.60217662e-19,
brem = False
input State:
[[-0.001     ]
 [ 0.001     ]
 [-0.03955534]
 [-0.12357483]
 [-0.00611854]]

Simulating particle
Initiating Kalman filtering for particle: 39
Particle 39:
eta 2.7727948841169923, phi -2.830020737369247,
p 75.82244513439926, q -1.60217662e-19,
brem = False
output State:
[[-0.00109121]
 [ 0.00137141]
 [-0.03846169]
 [-0.11942339]
 [-0.00395409]]
Data added to pickle list for particle: 39
Particle 40:
eta 4.41465106627536, phi 0.035740708721093466,
p 50.0, q 1.60217662e-19,
brem = False
input State:
[[-0.001     ]
 [ 0.001     ]
 [ 0.00086478]
 [ 0.02418564]
 [ 0.00599617]]

Simulating particle
Initiating Kalman filtering for particle: 40
Particle 40:
eta 4.427827597201799, phi 0.033730338460804685,
p 50.90441304228354, q 1.60217662e-19,
brem = False
output State:
[[-0.00095609]
 [ 0.00107429]
 [ 0.00080547]
 [ 0.02387062]
 [ 0.00588964]]
Data added to pickle list for particle: 40
Particle 41:
eta 4.185369105497962, phi 1.3488078028179342,
p 50.0, q -1.60217662e-19,
brem = False
input State:
[[ 0.001     ]
 [ 0.001     ]
 [ 0.02969327]
 [ 0.00670202]
 [-0.00599617]]

Simulating particle
Initiating Kalman filtering for particle: 41
Particle 41:
eta 4.204051425110755, phi 1.3502861350696511,
p 50.743594251748895, q -1.60217662e-19,
brem = False
output State:
[[ 0.00114674]
 [ 0.00101049]
 [ 0.02915313]
 [ 0.00653482]
 [-0.0059083 ]]
Data added to pickle list for particle: 41
Particle 42:
eta 2.4775975337198295, phi 1.5795744161111291,
p 51.0, q 1.60217662e-19,
brem = False
input State:
[[-0.001     ]
 [ 0.001     ]
 [ 0.16907426]
 [-0.00148419]
 [ 0.0058786 ]]

Simulating particle
Initiating Kalman filtering for particle: 42
Particle 42:
eta 2.485539449119676, phi 1.5796622710928354,
p 53.68304991995193, q 1.60217662e-19,
brem = False
output State:
[[-0.00089765]
 [ 0.00100495]
 [ 0.16771792]
 [-0.00148702]
 [ 0.00558479]]
Data added to pickle list for particle: 42
Particle 43:
eta 3.5620404505845893, phi -0.14977866291024802,
p 51.0, q -1.60217662e-19,
brem = False
input State:
[[ 0.001     ]
 [ 0.001     ]
 [-0.00847677]
 [ 0.05617146]
 [-0.0058786 ]]

Simulating particle
Initiating Kalman filtering for particle: 43
Particle 43:
eta 3.589031740786206, phi -0.1503541169620033,
p 52.59422423851129, q -1.60217662e-19,
brem = False
output State:
[[ 0.00105662]
 [ 0.00061215]
 [-0.00828214]
 [ 0.05466852]
 [-0.00570041]]
Data added to pickle list for particle: 43
Particle 44:
eta 3.735122238939166, phi -0.9506272823436009,
p 51.99999999999999, q 1.60217662e-19,
brem = False
input State:
[[-0.001     ]
 [-0.001     ]
 [-0.03887243]
 [ 0.0277613 ]
 [ 0.00576555]]

Simulating particle
Initiating Kalman filtering for particle: 44
Particle 44:
eta 3.7565307291039063, phi -0.9556767803960343,
p 52.63925878712308, q 1.60217662e-19,
brem = False
output State:
[[-0.00112187]
 [-0.0009086 ]
 [-0.03818489]
 [ 0.02698017]
 [ 0.00569553]]
Data added to pickle list for particle: 44
Particle 45:
eta 4.576010467961113, phi 1.4004083331198007,
p 51.99999999999999, q -1.60217662e-19,
brem = False
input State:
[[-0.001     ]
 [-0.001     ]
 [ 0.02029574]
 [ 0.00349201]
 [-0.00576555]]

Simulating particle
Initiating Kalman filtering for particle: 45
Particle 45:
eta 4.587673509708447, phi 1.4050931317116953,
p 52.92243468744798, q -1.60217662e-19,
brem = False
output State:
[[-0.00091591]
 [-0.00092078]
 [ 0.02007631]
 [ 0.00335749]
 [-0.00566505]]
Data added to pickle list for particle: 45
Particle 46:
eta 2.5801565001135733, phi -1.8424102336470567,
p 53.0, q 1.60217662e-19,
brem = False
input State:
[[-0.001     ]
 [-0.001     ]
 [-0.14681197]
 [-0.04088661]
 [ 0.00565676]]

Simulating particle
Initiating Kalman filtering for particle: 46
Particle 46:
eta 2.5931943169664837, phi -1.8384767538872375,
p 54.790112196843594, q 1.60217662e-19,
brem = False
output State:
[[-0.0011508 ]
 [-0.00095291]
 [-0.14504636]
 [-0.03978078]
 [ 0.00547195]]
Data added to pickle list for particle: 46
Particle 47:
eta 2.8243743416181046, phi 1.158173074893949,
p 53.0, q -1.60217662e-19,
brem = False
input State:
[[ 0.001     ]
 [-0.001     ]
 [ 0.1091143 ]
 [ 0.04776517]
 [-0.00565676]]

Simulating particle
Initiating Kalman filtering for particle: 47
Particle 47:
eta 2.8368774357891313, phi 1.1661301523279353,
p 53.96162842684073, q -1.60217662e-19,
brem = False
output State:
[[ 0.00106761]
 [-0.00116718]
 [ 0.10812102]
 [ 0.04630871]
 [-0.00555596]]
Data added to pickle list for particle: 47
Particle 48:
eta 2.5880580802575692, phi 1.0226684947849576,
p 54.0, q 1.60217662e-19,
brem = False
input State:
[[-0.001     ]
 [-0.001     ]
 [ 0.12903742]
 [ 0.07878151]
 [ 0.00555201]]

Simulating particle
Initiating Kalman filtering for particle: 48
Particle 48:
eta 2.6075795172662333, phi 1.0366829412968253,
p 46.82345661796614, q 1.60217662e-19,
brem = False
output State:
[[-0.00089148]
 [-0.00111011]
 [ 0.12758537]
 [ 0.07546112]
 [ 0.00640296]]
Data added to pickle list for particle: 48
Particle 49:
eta 4.259676899002244, phi 0.4149843906178364,
p 54.0, q -1.60217662e-19,
brem = False
input State:
[[-0.001     ]
 [-0.001     ]
 [ 0.01139349]
 [ 0.02586079]
 [-0.00555201]]

Simulating particle
Initiating Kalman filtering for particle: 49
Particle 49:
eta 4.280186024556177, phi 0.4190586066702808,
p 54.79379635515272, q -1.60217662e-19,
brem = False
output State:
[[-0.00093943]
 [-0.00076514]
 [ 0.01126524]
 [ 0.02528992]
 [-0.00547158]]
Data added to pickle list for particle: 49
Particle 50:
eta 3.8065901105052578, phi 2.4176976687743594,
p 54.99999999999999, q 1.60217662e-19,
brem = False
input State:
[[-0.001     ]
 [ 0.001     ]
 [ 0.02945259]
 [-0.03331805]
 [ 0.00545106]]

Simulating particle
Initiating Kalman filtering for particle: 50
Particle 50:
eta 3.8304048169192293, phi 2.4161320569529168,
p 58.52147950669515, q 1.60217662e-19,
brem = False
output State:
[[-0.00083643]
 [ 0.00094213]
 [ 0.0288097 ]
 [-0.03248816]
 [ 0.00512305]]
Data added to pickle list for particle: 50
Particle 51:
eta 4.766078137142711, phi 1.9416270132043878,
p 54.99999999999999, q -1.60217662e-19,
brem = False
input State:
[[ 0.001     ]
 [-0.001     ]
 [ 0.01587115]
 [-0.00617101]
 [-0.00545106]]

Simulating particle
Initiating Kalman filtering for particle: 51
Particle 51:
eta 4.776378650464242, phi 1.9460692408684492,
p 55.886391792011686, q -1.60217662e-19,
brem = False
output State:
[[ 0.00109092]
 [-0.00096832]
 [ 0.0156812 ]
 [-0.00617748]
 [-0.00536461]]
Data added to pickle list for particle: 51
Particle 52:
eta 2.5153062309893603, phi -1.5896949410437138,
p 56.0, q 1.60217662e-19,
brem = False
input State:
[[ 0.001     ]
 [-0.001     ]
 [-0.16271072]
 [-0.00307537]
 [ 0.00535372]]

Simulating particle
Initiating Kalman filtering for particle: 52
Particle 52:
eta 2.526899200399188, phi -1.5890585840752498,
p 49.137851867119764, q 1.60217662e-19,
brem = False
output State:
[[ 0.00088574]
 [-0.00100031]
 [-0.16081297]
 [-0.00293713]
 [ 0.00610138]]
Data added to pickle list for particle: 52
Particle 53:
eta 3.7476368980560446, phi -1.9830168554717873,
p 56.0, q -1.60217662e-19,
brem = False
input State:
[[ 0.001     ]
 [-0.001     ]
 [-0.04322147]
 [-0.01889961]
 [-0.00535372]]

Simulating particle
Initiating Kalman filtering for particle: 53
Particle 53:
eta 3.76772434401077, phi -1.980072216105326,
p 58.998934660024, q -1.60217662e-19,
brem = False
output State:
[[ 0.00084032]
 [-0.00104062]
 [-0.04241535]
 [-0.01839853]
 [-0.00508159]]
Data added to pickle list for particle: 53
Particle 54:
eta 3.0999508699207343, phi 0.7049226494608101,
p 57.00000000000001, q 1.60217662e-19,
brem = False
input State:
[[-0.001     ]
 [ 0.001     ]
 [ 0.05850311]
 [ 0.06876745]
 [ 0.0052598 ]]

Simulating particle
Initiating Kalman filtering for particle: 54
Particle 54:
eta 3.124210012398603, phi 0.7098497131533719,
p 70.55401986924471, q 1.60217662e-19,
brem = False
output State:
[[-0.00140045]
 [ 0.00072222]
 [ 0.05742543]
 [ 0.06683069]
 [ 0.00424935]]
Data added to pickle list for particle: 54
Particle 55:
eta 3.8355466934024185, phi 1.7580123555128415,
p 57.00000000000001, q -1.60217662e-19,
brem = False
input State:
[[-0.001     ]
 [ 0.001     ]
 [ 0.04244435]
 [-0.00804042]
 [-0.0052598 ]]

Simulating particle
Initiating Kalman filtering for particle: 55
Particle 55:
eta 3.8545283826983545, phi 1.756459578777534,
p 60.79254118993123, q -1.60217662e-19,
brem = False
output State:
[[-0.00078778]
 [ 0.00097821]
 [ 0.04165776]
 [-0.00782443]
 [-0.00493167]]
Data added to pickle list for particle: 55
Particle 56:
eta 4.670204661005934, phi 2.6757875448610586,
p 58.0, q 1.60217662e-19,
brem = False
input State:
[[-0.001     ]
 [ 0.001     ]
 [ 0.00841798]
 [-0.01674554]
 [ 0.00516911]]

Simulating particle
Initiating Kalman filtering for particle: 56
Particle 56:
eta 4.690207043582187, phi 2.6748742157399645,
p 59.65948047704452, q 1.60217662e-19,
brem = False
output State:
[[-0.00097794]
 [ 0.0008621 ]
 [ 0.00826623]
 [-0.01640632]
 [ 0.00502533]]
Data added to pickle list for particle: 56
Particle 57:
eta 2.348241732599584, phi -0.29753590935262264,
p 58.0, q -1.60217662e-19,
brem = False
input State:
[[ 0.001     ]
 [ 0.001     ]
 [-0.05653225]
 [ 0.18436126]
 [-0.00516911]]

Simulating particle
Initiating Kalman filtering for particle: 57
Particle 57:
eta 2.3796437796981293, phi -0.30443879013176567,
p 39.53486265872299, q -1.60217662e-19,
brem = False
output State:
[[ 0.00095223]
 [ 0.00109164]
 [-0.05598518]
 [ 0.17817956]
 [-0.0075834 ]]
Data added to pickle list for particle: 57
Particle 58:
eta 2.4956617055909516, phi 0.5747679626146098,
p 59.0, q 1.60217662e-19,
brem = False
input State:
[[ 0.001     ]
 [-0.001     ]
 [ 0.09025082]
 [ 0.13933701]
 [ 0.0050815 ]]

Simulating particle
Initiating Kalman filtering for particle: 58
Particle 58:
eta 2.5275846267089572, phi 0.5918021371841035,
p 33.6314061693168, q 1.60217662e-19,
brem = False
output State:
[[ 0.00103464]
 [-0.00082686]
 [ 0.08966343]
 [ 0.1333942 ]
 [ 0.00891454]]
Data added to pickle list for particle: 58
Particle 59:
eta 3.764496020904721, phi -0.020661140854399563,
p 59.0, q -1.60217662e-19,
brem = False
input State:
[[-0.001     ]
 [ 0.001     ]
 [-0.00095827]
 [ 0.0463736 ]
 [-0.0050815 ]]

Simulating particle
Initiating Kalman filtering for particle: 59
Particle 59:
eta 3.792507360332769, phi -0.020297417848075976,
p 60.52828676246421, q -1.60217662e-19,
brem = False
output State:
[[-0.00099536]
 [ 0.00115119]
 [-0.00091537]
 [ 0.04509166]
 [-0.0049532 ]]
Data added to pickle list for particle: 59
Particle 60:
eta 3.501767566078527, phi -1.275823669677585,
p 60.00000000000001, q 1.60217662e-19,
brem = False
input State:
[[-0.001     ]
 [ 0.001     ]
 [-0.05773673]
 [ 0.01754252]
 [ 0.00499681]]

Simulating particle
Initiating Kalman filtering for particle: 60
Particle 60:
eta 3.5134960474084753, phi -1.2779003813724679,
p 60.752365797585405, q 1.60217662e-19,
brem = False
output State:
[[-0.00052398]
 [ 0.00084211]
 [-0.05709821]
 [ 0.01721907]
 [ 0.00493493]]
Data added to pickle list for particle: 60
Particle 61:
eta 2.4522042681175655, phi 2.1875284146901723,
p 60.00000000000001, q -1.60217662e-19,
brem = False
input State:
[[-0.001     ]
 [ 0.001     ]
 [ 0.14153122]
 [-0.1003438 ]
 [-0.00499681]]

Simulating particle
Initiating Kalman filtering for particle: 61
Particle 61:
eta 2.4687953693819478, phi 2.171162638017181,
p 444.76308930881066, q 1.60217662e-19,
brem = False
output State:
[[-0.00093829]
 [ 0.00095728]
 [ 0.14076459]
 [-0.09637795]
 [ 0.00067409]]
Data added to pickle list for particle: 61
Particle 62:
eta 4.392496660090866, phi 0.8468352538126687,
p 61.0, q 1.60217662e-19,
brem = False
input State:
[[-0.001     ]
 [ 0.001     ]
 [ 0.01853746]
 [ 0.01638898]
 [ 0.00491489]]

Simulating particle
Initiating Kalman filtering for particle: 62
Particle 62:
eta 4.407780428974272, phi 0.8473359279660373,
p 62.50860068513419, q 1.60217662e-19,
brem = False
output State:
[[-0.00085522]
 [ 0.00111062]
 [ 0.01826428]
 [ 0.01613118]
 [ 0.00479628]]
Data added to pickle list for particle: 62
Particle 63:
eta 4.668120532497432, phi 1.3271759072093974,
p 61.0, q -1.60217662e-19,
brem = False
input State:
[[ 0.001     ]
 [ 0.001     ]
 [ 0.01822686]
 [ 0.00453042]
 [-0.00491489]]

Simulating particle
Initiating Kalman filtering for particle: 63
Particle 63:
eta 4.682785285445778, phi 1.330134231356987,
p 61.99022389863674, q -1.60217662e-19,
brem = False
output State:
[[ 0.00112563]
 [ 0.00105805]
 [ 0.0179746 ]
 [ 0.0044113 ]
 [-0.00483638]]
Data added to pickle list for particle: 63
Particle 64:
eta 2.0750192305118573, phi 2.0458694857874455,
p 62.0, q 1.60217662e-19,
brem = False
input State:
[[-0.001     ]
 [ 0.001     ]
 [ 0.22687658]
 [-0.11669729]
 [ 0.00483562]]

Simulating particle
Initiating Kalman filtering for particle: 64
Particle 64:
eta 2.082499980511678, phi 2.0477374878802532,
p 106.71193481011653, q 1.60217662e-19,
brem = False
output State:
[[-0.00082179]
 [ 0.00095124]
 [ 0.22491545]
 [-0.11622036]
 [ 0.00280951]]
Data added to pickle list for particle: 64
Particle 65:
eta 3.275676677883088, phi -0.08231224614169572,
p 62.0, q -1.60217662e-19,
brem = False
input State:
[[-0.001     ]
 [ 0.001     ]
 [-0.00622324]
 [ 0.07543441]
 [-0.00483562]]

Simulating particle
Initiating Kalman filtering for particle: 65
Particle 65:
eta 3.305766776349645, phi -0.08257992078632331,
p 64.35000234077467, q -1.60217662e-19,
brem = False
output State:
[[-0.00096893]
 [ 0.00070654]
 [-0.00605786]
 [ 0.07319066]
 [-0.00465903]]
Data added to pickle list for particle: 65
Particle 66:
eta 3.393912849793701, phi -2.7929823886264793,
p 62.99999999999999, q 1.60217662e-19,
brem = False
input State:
[[ 0.001     ]
 [-0.001     ]
 [-0.02296519]
 [-0.06318588]
 [ 0.00475887]]

Simulating particle
Initiating Kalman filtering for particle: 66
Particle 66:
eta 3.5272020545269687, phi 2.9938423752313277,
p 15.385011503634809, q 1.60217662e-19,
brem = False
output State:
[[-0.00351809]
 [-0.00167712]
 [ 0.0086598 ]
 [-0.05818394]
 [ 0.01948705]]
Data added to pickle list for particle: 66
Particle 67:
eta 3.4405009579396473, phi 1.6791045959047328,
p 62.99999999999999, q -1.60217662e-19,
brem = False
input State:
[[-0.001     ]
 [-0.001     ]
 [ 0.06378718]
 [-0.00693582]
 [-0.00475887]]

Simulating particle
Initiating Kalman filtering for particle: 67
Particle 67:
eta 3.4513128227733803, phi 1.6787308612615275,
p 64.96652281205344, q -1.60217662e-19,
brem = False
output State:
[[-0.00151792]
 [-0.00092961]
 [ 0.06310241]
 [-0.0068375 ]
 [-0.00461482]]
Data added to pickle list for particle: 67
Particle 68:
eta 3.2675921431675174, phi 1.3993890581586996,
p 64.0, q 1.60217662e-19,
brem = False
input State:
[[0.001     ]
 [0.001     ]
 [0.07518864]
 [0.0130156 ]
 [0.00468451]]

Simulating particle
Initiating Kalman filtering for particle: 68
Particle 68:
eta 3.2718759930999424, phi 1.4025640269504949,
p 66.87909972418895, q 1.60217662e-19,
brem = False
output State:
[[0.00029683]
 [0.00093652]
 [0.07490707]
 [0.01272204]
 [0.00448284]]
Data added to pickle list for particle: 68
Particle 69:
eta 4.293023290413328, phi -1.5165486439918858,
p 64.0, q -1.60217662e-19,
brem = False
input State:
[[ 0.001     ]
 [ 0.001     ]
 [-0.027292  ]
 [ 0.00148198]
 [-0.00468451]]

Simulating particle
Initiating Kalman filtering for particle: 69
Particle 69:
eta 4.308103952795266, phi -1.5140660099769525,
p 65.64713211739735, q -1.60217662e-19,
brem = False
output State:
[[ 0.00082226]
 [ 0.00095021]
 [-0.02687965]
 [ 0.00152653]
 [-0.00456697]]
Data added to pickle list for particle: 69
Particle 70:
eta 4.728519423747584, phi 1.4260210972193503,
p 65.0, q 1.60217662e-19,
brem = False
input State:
[[-0.001     ]
 [ 0.001     ]
 [ 0.01749551]
 [ 0.00255076]
 [ 0.00461244]]

Simulating particle
Initiating Kalman filtering for particle: 70
Particle 70:
eta 4.738736438034659, phi 1.418349968589939,
p 67.23969359469945, q 1.60217662e-19,
brem = False
output State:
[[-0.00105862]
 [ 0.0009001 ]
 [ 0.01729777]
 [ 0.0026576 ]
 [ 0.0044588 ]]
Data added to pickle list for particle: 70
Particle 71:
eta 3.6364773184699875, phi 0.7644162445398917,
p 65.0, q -1.60217662e-19,
brem = False
input State:
[[-0.001     ]
 [-0.001     ]
 [ 0.03649289]
 [ 0.03805732]
 [-0.00461244]]

Simulating particle
Initiating Kalman filtering for particle: 71
Particle 71:
eta 3.657940595658562, phi 0.7679218316244577,
p 65.56242852728967, q -1.60217662e-19,
brem = False
output State:
[[-0.00087887]
 [-0.00095412]
 [ 0.03584729]
 [ 0.03712267]
 [-0.00457287]]
Data added to pickle list for particle: 71
Particle 72:
eta 3.332334692660646, phi 1.781053694075598,
p 66.0, q 1.60217662e-19,
brem = False
input State:
[[-0.001     ]
 [-0.001     ]
 [ 0.0699356 ]
 [-0.01492506]
 [ 0.00454255]]

Simulating particle
Initiating Kalman filtering for particle: 72
Particle 72:
eta 3.336594734327854, phi 1.778014842716159,
p 69.06224856720351, q 1.60217662e-19,
brem = False
output State:
[[-0.0016664 ]
 [-0.00087827]
 [ 0.06968239]
 [-0.01464977]
 [ 0.00434113]]
Data added to pickle list for particle: 72
Particle 73:
eta 3.4249133645728707, phi 3.1089339003583785,
p 66.0, q -1.60217662e-19,
brem = False
input State:
[[-0.001     ]
 [ 0.001     ]
 [ 0.0021281 ]
 [-0.06513851]
 [-0.00454255]]

Simulating particle
Initiating Kalman filtering for particle: 73
Particle 73:
eta 3.4438775512024717, phi 3.108686219084901,
p 67.17578849542785, q -1.60217662e-19,
brem = False
output State:
[[-0.00099858]
 [ 0.00155953]
 [ 0.00210387]
 [-0.06391181]
 [-0.00446304]]
Data added to pickle list for particle: 73
Particle 74:
eta 4.4443855333906, phi -1.864121545046137,
p 67.0, q 1.60217662e-19,
brem = False
input State:
[[ 0.001     ]
 [ 0.001     ]
 [-0.02248849]
 [-0.00679237]
 [ 0.00447475]]

Simulating particle
Initiating Kalman filtering for particle: 74
Particle 74:
eta 4.4576935082062725, phi -1.8595116363867912,
p 67.48356767196074, q 1.60217662e-19,
brem = False
output State:
[[ 0.00087906]
 [ 0.00092187]
 [-0.02222178]
 [-0.00660018]
 [ 0.00444269]]
Data added to pickle list for particle: 74
Particle 75:
eta 2.7092061748031697, phi 0.3288402753205302,
p 67.0, q -1.60217662e-19,
brem = False
input State:
[[ 0.001     ]
 [ 0.001     ]
 [ 0.04320124]
 [ 0.1266046 ]
 [-0.00447475]]

Simulating particle
Initiating Kalman filtering for particle: 75
Particle 75:
eta 2.746379033382504, phi 0.33262942070718965,
p 49.569333124582144, q -1.60217662e-19,
brem = False
output State:
[[ 0.00111004]
 [ 0.00074588]
 [ 0.0420733 ]
 [ 0.12178728]
 [-0.00604827]]
Data added to pickle list for particle: 75
Particle 76:
eta 3.5810244860747296, phi -1.9552791785357642,
p 68.0, q 1.60217662e-19,
brem = False
input State:
[[ 0.001     ]
 [-0.001     ]
 [-0.05166828]
 [-0.02090602]
 [ 0.00440895]]

Simulating particle
Initiating Kalman filtering for particle: 76
Particle 76:
eta 3.599504189488604, phi -1.9519800315458347,
p 69.50310031412182, q 1.60217662e-19,
brem = False
output State:
[[ 0.00083056]
 [-0.0010611 ]
 [-0.05078823]
 [-0.02035521]
 [ 0.0043136 ]]
Data added to pickle list for particle: 76
Particle 77:
eta 3.624312140201489, phi -0.2139415037312623,
p 68.0, q -1.60217662e-19,
brem = False
input State:
[[-0.001     ]
 [-0.001     ]
 [-0.01133175]
 [ 0.05215601]
 [-0.00440895]]

Simulating particle
Initiating Kalman filtering for particle: 77
Particle 77:
eta 3.6514761050198468, phi -0.2142917286079021,
p 71.51582772482111, q -1.60217662e-19,
brem = False
output State:
[[-0.00106425]
 [-0.00083379]
 [-0.01104544]
 [ 0.05075254]
 [-0.0041922 ]]
Data added to pickle list for particle: 77
Particle 78:
eta 2.9446742720782826, phi -1.1745872928910575,
p 69.0, q 1.60217662e-19,
brem = False
input State:
[[ 0.001     ]
 [-0.001     ]
 [-0.0973552 ]
 [ 0.04072677]
 [ 0.00434505]]

Simulating particle
Initiating Kalman filtering for particle: 78
Particle 78:
eta 2.9507023808131523, phi -1.1828374906428962,
p 58.01965251158302, q 1.60217662e-19,
brem = False
output State:
[[ 0.00191632]
 [-0.00118977]
 [-0.09709755]
 [ 0.03968094]
 [ 0.00516736]]
Data added to pickle list for particle: 78
Particle 79:
eta 3.9519531175904232, phi -1.0898286521254952,
p 69.0, q -1.60217662e-19,
brem = False
input State:
[[ 0.001     ]
 [-0.001     ]
 [-0.03408639]
 [ 0.01778769]
 [-0.00434505]]

Simulating particle
Initiating Kalman filtering for particle: 79
Particle 79:
eta 3.9707168265196953, phi -1.088330504295941,
p 72.5160151558453, q -1.60217662e-19,
brem = False
output State:
[[ 0.00083273]
 [-0.00107621]
 [-0.03342612]
 [ 0.0175069 ]
 [-0.00413438]]
Data added to pickle list for particle: 79
Particle 80:
eta 3.6400572037740964, phi -0.31137260881423884,
p 70.0, q 1.60217662e-19,
brem = False
input State:
[[ 0.001     ]
 [ 0.001     ]
 [-0.0160958 ]
 [ 0.05001155]
 [ 0.00428298]]

Simulating particle
Initiating Kalman filtering for particle: 80
Particle 80:
eta 3.6659528491288995, phi -0.31345750654829074,
p 68.69713638740801, q 1.60217662e-19,
brem = False
output State:
[[ 0.00113651]
 [ 0.00065314]
 [-0.01578536]
 [ 0.04869859]
 [ 0.00436421]]
Data added to pickle list for particle: 80
Particle 81:
eta 2.0728161060357393, phi -0.9457836285518453,
p 70.0, q -1.60217662e-19,
brem = False
input State:
[[-0.001     ]
 [ 0.001     ]
 [-0.20736999]
 [ 0.14961823]
 [-0.00428298]]

Simulating particle
Initiating Kalman filtering for particle: 81
Particle 81:
eta 2.0795944870876646, phi -0.9430982656819833,
p 154.927501565714, q -1.60217662e-19,
brem = False
output State:
[[-0.00113715]
 [ 0.00103308]
 [-0.20552478]
 [ 0.14912775]
 [-0.00193515]]
Data added to pickle list for particle: 81
Particle 82:
eta 3.6028527632500724, phi 2.924775032921043,
p 71.0, q 1.60217662e-19,
brem = False
input State:
[[ 0.001     ]
 [ 0.001     ]
 [ 0.01173113]
 [-0.05325549]
 [ 0.00422265]]

Simulating particle
Initiating Kalman filtering for particle: 82
Particle 82:
eta 3.629699079741768, phi 2.924398651395143,
p 74.4877927772152, q 1.60217662e-19,
brem = False
output State:
[[ 0.00107753]
 [ 0.00085595]
 [ 0.01143945]
 [-0.05183848]
 [ 0.00402493]]
Data added to pickle list for particle: 82
Particle 83:
eta 2.0725876267573966, phi -0.950259634033893,
p 71.0, q -1.60217662e-19,
brem = False
input State:
[[-0.001     ]
 [-0.001     ]
 [-0.20808667]
 [ 0.14872361]
 [-0.00422265]]

Simulating particle
Initiating Kalman filtering for particle: 83
Particle 83:
eta 2.0796604344815792, phi -0.9480606495113953,
p 148.47924509827536, q -1.60217662e-19,
brem = False
output State:
[[-0.00117184]
 [-0.00095732]
 [-0.20624824]
 [ 0.14809595]
 [-0.00201919]]
Data added to pickle list for particle: 83
Particle 84:
eta 2.1513816893038973, phi 2.78544359850497,
p 72.0, q 1.60217662e-19,
brem = False
input State:
[[ 0.001     ]
 [-0.001     ]
 [ 0.08222899]
 [-0.22103814]
 [ 0.00416401]]

Simulating particle
Initiating Kalman filtering for particle: 84
Exception occured at particle 84
Data added to pickle list for particle: 84