This is the start of the log file generated at 11_25_23h05m58s

magfield_ shape: cs, sim_stepsize: 0.001, detector_length: 11
15 VELO-type subdetectors added at z-locations: [20, 50, 80, 110, 140, 170, 200, 230, 260, 290, 450, 600, 650, 700, 750]
4 TT-type subdetectors added at z-locations: [2330, 2370, 2600, 2640]
24 OT-type subdetectors added at z-locations: [7860, 7870, 7910, 7920, 7980, 7990, 8030, 8040, 8540, 8550, 8590, 8600, 8660, 8670, 8710, 8720, 9230, 9240, 9280, 9290, 9350, 9360, 9400, 9410]
The detector is built.
Generating 140 particles, from 30 to 100 GeV. Brem = False, ms = False

Particle 0:
eta 3.7612451940654927, phi -2.2504280844473956,
p 30.000000000000004, q 1.60217662e-19,
brem = False
input State:
[[-0.001     ]
 [ 0.001     ]
 [-0.03619488]
 [-0.02924737]
 [ 0.00999362]]

Simulating particle
Initiating Kalman filtering for particle: 0
Particle 0:
eta 3.7650014998718264, phi -2.2499142566328874,
p 30.19851350153379, q 1.60217662e-19,
brem = False
output State:
[[-0.00099433]
 [ 0.00099941]
 [-0.036074  ]
 [-0.02911906]
 [ 0.00992792]]
Data added to pickle list for particle: 0
Particle 1:
eta 3.211611622028293, phi 0.31482005663781903,
p 30.000000000000004, q -1.60217662e-19,
brem = False
input State:
[[ 0.001     ]
 [ 0.001     ]
 [ 0.02499281]
 [ 0.07674735]
 [-0.00999362]]

Simulating particle
Initiating Kalman filtering for particle: 1
Particle 1:
eta 3.216587616258254, phi 0.31549411215601947,
p 30.151435298379592, q -1.60217662e-19,
brem = False
output State:
[[ 0.00098725]
 [ 0.00103141]
 [ 0.02491982]
 [ 0.07634839]
 [-0.00994342]]
Data added to pickle list for particle: 1
Particle 2:
eta 4.459902278822422, phi -1.884980476127632,
p 31.0, q 1.60217662e-19,
brem = False
input State:
[[-0.001     ]
 [-0.001     ]
 [-0.02199783]
 [-0.00714813]
 [ 0.00967124]]

Simulating particle
Initiating Kalman filtering for particle: 2
Particle 2:
eta 4.462723700563408, phi -1.8850896181724308,
p 31.13613462198997, q 1.60217662e-19,
brem = False
output State:
[[-0.00099061]
 [-0.00099889]
 [-0.02193506]
 [-0.00713038]
 [ 0.00962896]]
Data added to pickle list for particle: 2
Particle 3:
eta 4.802720093858536, phi 1.5844313053868038,
p 31.0, q -1.60217662e-19,
brem = False
input State:
[[ 0.001     ]
 [-0.001     ]
 [ 0.01641436]
 [-0.00022382]
 [-0.00967124]]

Simulating particle
Initiating Kalman filtering for particle: 3
Particle 3:
eta 4.8051589625357956, phi 1.582689236208929,
p 31.080191045761755, q -1.60217662e-19,
brem = False
output State:
[[ 0.0009905 ]
 [-0.00100885]
 [ 0.01637474]
 [-0.00019475]
 [-0.00964629]]
Data added to pickle list for particle: 3
Particle 4:
eta 3.018682203150407, phi -1.5712992672284345,
p 32.0, q 1.60217662e-19,
brem = False
input State:
[[-1.00000000e-03]
 [ 1.00000000e-03]
 [-9.79650546e-02]
 [-4.92705912e-05]
 [ 9.36901560e-03]]

Simulating particle
Initiating Kalman filtering for particle: 4
Particle 4:
eta 3.0214645287573987, phi -1.5712500011089285,
p 32.49639419297392, q 1.60217662e-19,
brem = False
output State:
[[-9.48676463e-04]
 [ 1.00624487e-03]
 [-9.76915675e-02]
 [-4.43201579e-05]
 [ 9.22590049e-03]]
Data added to pickle list for particle: 4
Particle 5:
eta 4.652637227411816, phi 1.3926250237450264,
p 32.0, q -1.60217662e-19,
brem = False
input State:
[[-0.001     ]
 [-0.001     ]
 [ 0.01877261]
 [ 0.00338059]
 [-0.00936902]]

Simulating particle
Initiating Kalman filtering for particle: 5
Particle 5:
eta 4.655261248154422, phi 1.3931350418889854,
p 32.1068245629728, q -1.60217662e-19,
brem = False
output State:
[[-0.00100964]
 [-0.00099443]
 [ 0.01872512]
 [ 0.00336218]
 [-0.00933784]]
Data added to pickle list for particle: 5
Particle 6:
eta 4.825250338186841, phi -1.2528856958153964,
p 33.0, q 1.60217662e-19,
brem = False
input State:
[[-0.001     ]
 [ 0.001     ]
 [-0.01524586]
 [ 0.00501699]
 [ 0.00908511]]

Simulating particle
Initiating Kalman filtering for particle: 6
Particle 6:
eta 4.827136172025745, phi -1.2541734458771296,
p 33.05144663279146, q 1.60217662e-19,
brem = False
output State:
[[-0.00098715]
 [ 0.0010026 ]
 [-0.01522357]
 [ 0.00498794]
 [ 0.00907096]]
Data added to pickle list for particle: 6
Particle 7:
eta 3.479143118864496, phi -2.6328273805121882,
p 33.0, q -1.60217662e-19,
brem = False
input State:
[[ 0.001     ]
 [-0.001     ]
 [-0.03006685]
 [-0.05390848]
 [-0.00908511]]

Simulating particle
Initiating Kalman filtering for particle: 7
Particle 7:
eta 3.4834182737016843, phi -2.6322231112772556,
p 32.97639097864552, q -1.60217662e-19,
brem = False
output State:
[[ 0.00100732]
 [-0.00101439]
 [-0.02997077]
 [-0.05365997]
 [-0.00909161]]
Data added to pickle list for particle: 7
Particle 8:
eta 3.149815836479264, phi -1.4546527613386344,
p 34.0, q 1.60217662e-19,
brem = False
input State:
[[-0.001     ]
 [ 0.001     ]
 [-0.08529923]
 [ 0.00995174]
 [ 0.0088179 ]]

Simulating particle
Initiating Kalman filtering for particle: 8
Particle 8:
eta 3.1527873839840477, phi -1.455363866663314,
p 34.457285678291534, q 1.60217662e-19,
brem = False
output State:
[[-0.00096066]
 [ 0.00102091]
 [-0.08505224]
 [ 0.00986163]
 [ 0.00870087]]
Data added to pickle list for particle: 8
Particle 9:
eta 4.11849777352702, phi -1.9362029232319757,
p 34.0, q -1.60217662e-19,
brem = False
input State:
[[ 0.001     ]
 [-0.001     ]
 [-0.03039772]
 [-0.01162981]
 [-0.0088179 ]]

Simulating particle
Initiating Kalman filtering for particle: 9
Particle 9:
eta 4.121253960702325, phi -1.9367912706469748,
p 33.94361127488438, q -1.60217662e-19,
brem = False
output State:
[[ 0.00101451]
 [-0.00098931]
 [-0.03030718]
 [-0.01161561]
 [-0.00883255]]
Data added to pickle list for particle: 9
Particle 10:
eta 3.735975396686459, phi -1.5068706905086857,
p 35.0, q 1.60217662e-19,
brem = False
input State:
[[-0.001     ]
 [-0.001     ]
 [-0.04762946]
 [ 0.0030489 ]
 [ 0.00856596]]

Simulating particle
Initiating Kalman filtering for particle: 10
Particle 10:
eta 3.738756947288067, phi -1.5063758718512077,
p 35.24003571205056, q 1.60217662e-19,
brem = False
output State:
[[-0.00096424]
 [-0.00101248]
 [-0.0474955 ]
 [ 0.00306392]
 [ 0.00850761]]
Data added to pickle list for particle: 10
Particle 11:
eta 3.444485452447751, phi -2.4695500546354436,
p 35.0, q -1.60217662e-19,
brem = False
input State:
[[ 0.001     ]
 [ 0.001     ]
 [-0.03978789]
 [-0.0500109 ]
 [-0.00856596]]

Simulating particle
Initiating Kalman filtering for particle: 11
Particle 11:
eta 3.448799642798244, phi -2.468392717625973,
p 34.93842468191186, q -1.60217662e-19,
brem = False
output State:
[[ 0.00102082]
 [ 0.00098968]
 [-0.03967386]
 [-0.04974929]
 [-0.00858105]]
Data added to pickle list for particle: 11
Particle 12:
eta 3.5283731674839864, phi -2.9636309265299716,
p 36.0, q 1.60217662e-19,
brem = False
input State:
[[-0.001     ]
 [ 0.001     ]
 [-0.01040119]
 [-0.05782792]
 [ 0.00832801]]

Simulating particle
Initiating Kalman filtering for particle: 12
Particle 12:
eta 3.5331351176748247, phi -2.9631891037120472,
p 36.086706725315445, q 1.60217662e-19,
brem = False
output State:
[[-0.0009933 ]
 [ 0.00098605]
 [-0.01037712]
 [-0.05754815]
 [ 0.008308  ]]
Data added to pickle list for particle: 12
Particle 13:
eta 3.5149935656962126, phi 2.5376707148053645,
p 36.0, q -1.60217662e-19,
brem = False
input State:
[[-0.001     ]
 [-0.001     ]
 [ 0.03381621]
 [-0.0490154 ]
 [-0.00832801]]

Simulating particle
Initiating Kalman filtering for particle: 13
Particle 13:
eta 3.519348058518298, phi 2.5365478827820995,
p 36.21577234028946, q -1.60217662e-19,
brem = False
output State:
[[-0.00101025]
 [-0.00101279]
 [ 0.0337238 ]
 [-0.04876422]
 [-0.0082784 ]]
Data added to pickle list for particle: 13
Particle 14:
eta 2.708574870300454, phi -0.13899079307496937,
p 36.99999999999999, q 1.60217662e-19,
brem = False
input State:
[[ 0.001     ]
 [ 0.001     ]
 [-0.01854514]
 [ 0.13256681]
 [ 0.00810293]]

Simulating particle
Initiating Kalman filtering for particle: 14
Particle 14:
eta 2.7133564424539336, phi -0.13926952700532472,
p 37.14071249301384, q 1.60217662e-19,
brem = False
output State:
[[ 0.00100204]
 [ 0.00102708]
 [-0.01849267]
 [ 0.1319237 ]
 [ 0.00807223]]
Data added to pickle list for particle: 14
Particle 15:
eta 2.63153982564657, phi -1.8697557374749458,
p 36.99999999999999, q -1.60217662e-19,
brem = False
input State:
[[ 0.001     ]
 [ 0.001     ]
 [-0.13826679]
 [-0.04261333]
 [-0.00810293]]

Simulating particle
Initiating Kalman filtering for particle: 15
Particle 15:
eta 2.634469369688981, phi -1.8694019214778967,
p 36.743644632627465, q -1.60217662e-19,
brem = False
output State:
[[ 0.00107248]
 [ 0.00101656]
 [-0.13787315]
 [-0.04243861]
 [-0.00815947]]
Data added to pickle list for particle: 15
Particle 16:
eta 4.3043996802649245, phi -3.095931901040689,
p 38.0, q 1.60217662e-19,
brem = False
input State:
[[ 0.001     ]
 [-0.001     ]
 [-0.00123346]
 [-0.02699475]
 [ 0.0078897 ]]

Simulating particle
Initiating Kalman filtering for particle: 16
Particle 16:
eta 4.310147671026928, phi -3.0965546781341486,
p 38.16332779444245, q 1.60217662e-19,
brem = False
output State:
[[ 0.00098766]
 [-0.00101663]
 [-0.00120967]
 [-0.02684073]
 [ 0.00785593]]
Data added to pickle list for particle: 16
Particle 17:
eta 3.1794427333554496, phi -3.12986141725075,
p 38.0, q -1.60217662e-19,
brem = False
input State:
[[ 0.001     ]
 [ 0.001     ]
 [-0.00097792]
 [-0.08335626]
 [-0.0078897 ]]

Simulating particle
Initiating Kalman filtering for particle: 17
Particle 17:
eta 3.1843764060040467, phi -3.1296908516961555,
p 38.101462680909854, q -1.60217662e-19,
brem = False
output State:
[[ 0.00099141]
 [ 0.00098088]
 [-0.00098723]
 [-0.08294444]
 [-0.00786869]]
Data added to pickle list for particle: 17
Particle 18:
eta 4.654225403558237, phi 0.4084012732959721,
p 39.0, q 1.60217662e-19,
brem = False
input State:
[[-0.001     ]
 [ 0.001     ]
 [ 0.0075633 ]
 [ 0.01747804]
 [ 0.0076874 ]]

Simulating particle
Initiating Kalman filtering for particle: 18
Particle 18:
eta 4.658686977818474, phi 0.4100757547694704,
p 39.105279312092506, q 1.60217662e-19,
brem = False
output State:
[[-0.0010081 ]
 [ 0.00100697]
 [ 0.00755875]
 [ 0.01738758]
 [ 0.0076667 ]]
Data added to pickle list for particle: 18
Particle 19:
eta 4.996017926081352, phi 1.0232541436110345,
p 39.0, q -1.60217662e-19,
brem = False
input State:
[[-0.001     ]
 [-0.001     ]
 [ 0.01155224]
 [ 0.00704373]
 [-0.0076874 ]]

Simulating particle
Initiating Kalman filtering for particle: 19
Particle 19:
eta 4.999368096147558, phi 1.0239066619667465,
p 39.12169845377672, q -1.60217662e-19,
brem = False
output State:
[[-0.00099347]
 [-0.0010081 ]
 [ 0.01151818]
 [ 0.00701266]
 [-0.00766348]]
Data added to pickle list for particle: 19
Particle 20:
eta 3.3751054060415413, phi 0.07047617490232747,
p 40.0, q 1.60217662e-19,
brem = False
input State:
[[ 0.001     ]
 [-0.001     ]
 [ 0.00482427]
 [ 0.06833915]
 [ 0.00749521]]

Simulating particle
Initiating Kalman filtering for particle: 20
Particle 20:
eta 3.3799195172209258, phi 0.07047698230812013,
p 40.00036410813194, q 1.60217662e-19,
brem = False
output State:
[[ 0.00100383]
 [-0.0009828 ]
 [ 0.0048011 ]
 [ 0.06801018]
 [ 0.00749514]]
Data added to pickle list for particle: 20
Particle 21:
eta 4.330352045816832, phi 0.025212248796184684,
p 40.0, q -1.60217662e-19,
brem = False
input State:
[[ 0.001     ]
 [-0.001     ]
 [ 0.00066378]
 [ 0.02632202]
 [-0.00749521]]

Simulating particle
Initiating Kalman filtering for particle: 21
Particle 21:
eta 4.335789902015535, phi 0.024963522229832773,
p 40.08183043169651, q -1.60217662e-19,
brem = False
output State:
[[ 0.00100703]
 [-0.00100159]
 [ 0.00065367]
 [ 0.02617939]
 [-0.00747991]]
Data added to pickle list for particle: 21
Particle 22:
eta 3.0442984641332607, phi 1.158563504745065,
p 41.0, q 1.60217662e-19,
brem = False
input State:
[[0.001     ]
 [0.001     ]
 [0.08747786]
 [0.03825305]
 [0.0073124 ]]

Simulating particle
Initiating Kalman filtering for particle: 22
Particle 22:
eta 3.0473694090163472, phi 1.158847380199353,
p 40.68479477083292, q 1.60217662e-19,
brem = False
output State:
[[0.00096165]
 [0.00099565]
 [0.08721924]
 [0.03811047]
 [0.00736906]]
Data added to pickle list for particle: 22
Particle 23:
eta 4.625197092665025, phi -1.235866285790701,
p 41.0, q -1.60217662e-19,
brem = False
input State:
[[-0.001     ]
 [ 0.001     ]
 [-0.01851593]
 [ 0.00644433]
 [-0.0073124 ]]

Simulating particle
Initiating Kalman filtering for particle: 23
Particle 23:
eta 4.628261089799236, phi -1.2357890652574008,
p 40.96064839278112, q -1.60217662e-19,
brem = False
output State:
[[-0.00098707]
 [ 0.0010032 ]
 [-0.01845877]
 [ 0.00642604]
 [-0.00731943]]
Data added to pickle list for particle: 23
Particle 24:
eta 4.7072409362977785, phi -2.101692075301831,
p 42.0, q 1.60217662e-19,
brem = False
input State:
[[-0.001     ]
 [ 0.001     ]
 [-0.01557479]
 [-0.00914428]
 [ 0.0071383 ]]

Simulating particle
Initiating Kalman filtering for particle: 24
Particle 24:
eta 4.710006730612115, phi -2.0989320746113584,
p 42.09124530304771, q 1.60217662e-19,
brem = False
output State:
[[-0.00098215]
 [ 0.0009914 ]
 [-0.01555687]
 [-0.00907612]
 [ 0.00712282]]
Data added to pickle list for particle: 24
Particle 25:
eta 3.9079003980257054, phi -1.03181206535644,
p 42.0, q -1.60217662e-19,
brem = False
input State:
[[ 0.001     ]
 [-0.001     ]
 [-0.03448494]
 [ 0.02062371]
 [-0.0071383 ]]

Simulating particle
Initiating Kalman filtering for particle: 25
Particle 25:
eta 3.9110892744750374, phi -1.0324963467117578,
p 41.899656906078896, q -1.60217662e-19,
brem = False
output State:
[[ 0.00102538]
 [-0.00099855]
 [-0.03438912]
 [ 0.02053447]
 [-0.00715539]]
Data added to pickle list for particle: 25
Particle 26:
eta 2.835843149186752, phi -0.21968600773319424,
p 43.0, q 1.60217662e-19,
brem = False
input State:
[[-0.001     ]
 [-0.001     ]
 [-0.02565901]
 [ 0.1149135 ]
 [ 0.00697229]]

Simulating particle
Initiating Kalman filtering for particle: 26
Particle 26:
eta 2.840316938467667, phi -0.22001163176009023,
p 43.232839613501305, q 1.60217662e-19,
brem = False
output State:
[[-0.00098133]
 [-0.00098882]
 [-0.02558093]
 [ 0.11438871]
 [ 0.00693474]]
Data added to pickle list for particle: 26
Particle 27:
eta 2.463191680517627, phi 1.9896572590755848,
p 43.0, q -1.60217662e-19,
brem = False
input State:
[[-0.001     ]
 [-0.001     ]
 [ 0.15673803]
 [-0.06978087]
 [-0.00697229]]

Simulating particle
Initiating Kalman filtering for particle: 27
Particle 27:
eta 2.4663027896780556, phi 1.9890880636977346,
p 44.39506172918715, q -1.60217662e-19,
brem = False
output State:
[[-0.00108675]
 [-0.00100942]
 [ 0.15628365]
 [-0.06947201]
 [-0.00675319]]
Data added to pickle list for particle: 27
Particle 28:
eta 2.4829750520547935, phi 1.6469029665743748,
p 44.0, q 1.60217662e-19,
brem = False
input State:
[[-0.001     ]
 [ 0.001     ]
 [ 0.16767444]
 [-0.01278583]
 [ 0.00681383]]

Simulating particle
Initiating Kalman filtering for particle: 28
Particle 28:
eta 2.485684315974029, phi 1.6466426355081314,
p 43.579526103542214, q 1.60217662e-19,
brem = False
output State:
[[-0.00110811]
 [ 0.00099226]
 [ 0.16721775]
 [-0.01270723]
 [ 0.00687957]]
Data added to pickle list for particle: 28
Particle 29:
eta 2.3586831493610885, phi -0.31043646108512524,
p 44.0, q -1.60217662e-19,
brem = False
input State:
[[ 0.001     ]
 [-0.001     ]
 [-0.05828288]
 [ 0.18167481]
 [-0.00681383]]

Simulating particle
Initiating Kalman filtering for particle: 29
Particle 29:
eta 2.3631373426975353, phi -0.31105306560328216,
p 43.80182984131439, q -1.60217662e-19,
brem = False
output State:
[[ 0.00103518]
 [-0.00096208]
 [-0.05813072]
 [ 0.18081712]
 [-0.00684466]]
Data added to pickle list for particle: 29
Particle 30:
eta 4.09368534538172, phi 1.6551809072364407,
p 45.0, q 1.60217662e-19,
brem = False
input State:
[[-0.001     ]
 [ 0.001     ]
 [ 0.03324587]
 [-0.00281212]
 [ 0.00666241]]

Simulating particle
Initiating Kalman filtering for particle: 30
Particle 30:
eta 4.0965232641488, phi 1.6546463145517725,
p 44.909433084378506, q 1.60217662e-19,
brem = False
output State:
[[-0.00101897]
 [ 0.00099672]
 [ 0.0331531 ]
 [-0.00278642]
 [ 0.00667585]]
Data added to pickle list for particle: 30
Particle 31:
eta 3.7406540248199858, phi -0.0742216600667153,
p 45.0, q -1.60217662e-19,
brem = False
input State:
[[-0.001     ]
 [ 0.001     ]
 [-0.00352258]
 [ 0.04737313]
 [-0.00666241]]

Simulating particle
Initiating Kalman filtering for particle: 31
Particle 31:
eta 3.7453579793724, phi -0.07408535894875287,
p 44.95085433157932, q -1.60217662e-19,
brem = False
output State:
[[-0.00100642]
 [ 0.00101422]
 [-0.00349961]
 [ 0.04715104]
 [-0.0066697 ]]
Data added to pickle list for particle: 31
Particle 32:
eta 3.8606979866696247, phi 0.7186248012982402,
p 46.0, q 1.60217662e-19,
brem = False
input State:
[[ 0.001     ]
 [-0.001     ]
 [ 0.02773318]
 [ 0.03170819]
 [ 0.00651758]]

Simulating particle
Initiating Kalman filtering for particle: 32
Particle 32:
eta 3.864773248590691, phi 0.7196058262859918,
p 45.902880460873895, q 1.60217662e-19,
brem = False
output State:
[[ 0.00098123]
 [-0.00100101]
 [ 0.02765126]
 [ 0.03155201]
 [ 0.00653137]]
Data added to pickle list for particle: 32
Particle 33:
eta 3.803731980077427, phi -2.3310907186053966,
p 46.0, q -1.60217662e-19,
brem = False
input State:
[[-0.001     ]
 [ 0.001     ]
 [-0.03231649]
 [-0.03073337]
 [-0.00651758]]

Simulating particle
Initiating Kalman filtering for particle: 33
Particle 33:
eta 3.80727795115107, phi -2.330030739074769,
p 45.897659706996194, q -1.60217662e-19,
brem = False
output State:
[[-0.00097695]
 [ 0.00100402]
 [-0.03223443]
 [-0.03059032]
 [-0.00653211]]
Data added to pickle list for particle: 33
Particle 34:
eta 3.382277252753351, phi -2.8623803941906534,
p 47.0, q 1.60217662e-19,
brem = False
input State:
[[ 0.001     ]
 [ 0.001     ]
 [-0.0187458 ]
 [-0.06538434]
 [ 0.0063789 ]]

Simulating particle
Initiating Kalman filtering for particle: 34
Particle 34:
eta 3.3864444514315464, phi -2.861936129704091,
p 47.20046127005978, q 1.60217662e-19,
brem = False
output State:
[[ 0.00100964]
 [ 0.00100465]
 [-0.01869659]
 [-0.06510352]
 [ 0.00635181]]
Data added to pickle list for particle: 34
Particle 35:
eta 4.167112542956981, phi -2.210046264108281,
p 47.0, q -1.60217662e-19,
brem = False
input State:
[[-0.001     ]
 [-0.001     ]
 [-0.02487991]
 [-0.0184952 ]
 [-0.0063789 ]]

Simulating particle
Initiating Kalman filtering for particle: 35
Particle 35:
eta 4.169426639614378, phi -2.2100158652206074,
p 46.906122582430385, q -1.60217662e-19,
brem = False
output State:
[[-0.00098308]
 [-0.00098882]
 [-0.02482294]
 [-0.01845167]
 [-0.00639167]]
Data added to pickle list for particle: 35
Particle 36:
eta 4.2838077109591755, phi 2.57374001971485,
p 48.0, q 1.60217662e-19,
brem = False
input State:
[[-0.001     ]
 [-0.001     ]
 [ 0.01483604]
 [-0.02325605]
 [ 0.00624601]]

Simulating particle
Initiating Kalman filtering for particle: 36
Particle 36:
eta 4.286802084987768, phi 2.572511406997542,
p 48.08496954822525, q 1.60217662e-19,
brem = False
output State:
[[-0.00102515]
 [-0.0009999 ]
 [ 0.01482014]
 [-0.0231683 ]
 [ 0.00623497]]
Data added to pickle list for particle: 36
Particle 37:
eta 2.984670198841708, phi -1.9215813193844093,
p 48.0, q -1.60217662e-19,
brem = False
input State:
[[-0.001     ]
 [ 0.001     ]
 [-0.09519826]
 [-0.03483479]
 [-0.00624601]]

Simulating particle
Initiating Kalman filtering for particle: 37
Particle 37:
eta 2.9876613822907245, phi -1.9212996615648867,
p 47.52926493345214, q -1.60217662e-19,
brem = False
output State:
[[-0.00094677]
 [ 0.00100382]
 [-0.09492225]
 [-0.03470348]
 [-0.00630787]]
Data added to pickle list for particle: 37
Particle 38:
eta 4.061948523291294, phi 0.5054029964675716,
p 49.0, q 1.60217662e-19,
brem = False
input State:
[[0.001     ]
 [0.001     ]
 [0.016675  ]
 [0.03013525]
 [0.00611854]]

Simulating particle
Initiating Kalman filtering for particle: 38
Particle 38:
eta 4.065196827050154, phi 0.505978908067218,
p 48.98919129722103, q 1.60217662e-19,
brem = False
output State:
[[0.00097896]
 [0.00099267]
 [0.01663819]
 [0.03002788]
 [0.00611989]]
Data added to pickle list for particle: 38
Particle 39:
eta 4.000741486699016, phi -1.5290975657690364,
p 49.0, q -1.60217662e-19,
brem = False
input State:
[[-0.001     ]
 [-0.001     ]
 [-0.03658456]
 [ 0.00152642]
 [-0.00611854]]

Simulating particle
Initiating Kalman filtering for particle: 39
Particle 39:
eta 4.00314819833622, phi -1.528414674837083,
p 48.87995186135155, q -1.60217662e-19,
brem = False
output State:
[[-0.00097101]
 [-0.00101257]
 [-0.03649551]
 [ 0.00154767]
 [-0.00613357]]
Data added to pickle list for particle: 39
Particle 40:
eta 3.0253766334982295, phi 1.6294852469765788,
p 50.0, q 1.60217662e-19,
brem = False
input State:
[[ 0.001     ]
 [ 0.001     ]
 [ 0.0971408 ]
 [-0.00570764]
 [ 0.00599617]]

Simulating particle
Initiating Kalman filtering for particle: 40
Particle 40:
eta 3.0281058898371107, phi 1.6294340715719133,
p 49.527769236739566, q 1.60217662e-19,
brem = False
output State:
[[ 0.00094872]
 [ 0.00100024]
 [ 0.09687509]
 [-0.00568706]
 [ 0.00605334]]
Data added to pickle list for particle: 40
Particle 41:
eta 2.8409643057345075, phi 0.05948082947977174,
p 50.0, q -1.60217662e-19,
brem = False
input State:
[[-0.001     ]
 [-0.001     ]
 [ 0.00696335]
 [ 0.11693064]
 [-0.00599617]]

Simulating particle
Initiating Kalman filtering for particle: 41
Particle 41:
eta 2.8455574704925377, phi 0.05953070111151043,
p 50.1710020517132, q -1.60217662e-19,
brem = False
output State:
[[-0.00100481]
 [-0.00097807]
 [ 0.00693702]
 [ 0.1163908 ]
 [-0.00597573]]
Data added to pickle list for particle: 41
Particle 42:
eta 3.2718716434737027, phi -2.677531799634804,
p 51.0, q 1.60217662e-19,
brem = False
input State:
[[-0.001     ]
 [ 0.001     ]
 [-0.0340074 ]
 [-0.06794458]
 [ 0.0058786 ]]

Simulating particle
Initiating Kalman filtering for particle: 42
Particle 42:
eta 3.275976588967657, phi -2.676454020116568,
p 51.21946995562413, q 1.60217662e-19,
brem = False
output State:
[[-0.00097559]
 [ 0.00099259]
 [-0.03394059]
 [-0.06762891]
 [ 0.00585341]]
Data added to pickle list for particle: 42
Particle 43:
eta 4.09583737294787, phi 1.3775037507306676,
p 51.0, q -1.60217662e-19,
brem = False
input State:
[[ 0.001     ]
 [-0.001     ]
 [ 0.03267282]
 [ 0.00639526]
 [-0.0058786 ]]

Simulating particle
Initiating Kalman filtering for particle: 43
Particle 43:
eta 4.0984790446711425, phi 1.377601132396526,
p 51.35514971665043, q -1.60217662e-19,
brem = False
output State:
[[ 0.00098631]
 [-0.00100548]
 [ 0.0325872 ]
 [ 0.0063752 ]
 [-0.00583794]]
Data added to pickle list for particle: 43
Particle 44:
eta 2.848413126543567, phi 1.1592253712974527,
p 51.99999999999999, q 1.60217662e-19,
brem = False
input State:
[[0.001     ]
 [0.001     ]
 [0.10655393]
 [0.04651081]
 [0.00576555]]

Simulating particle
Initiating Kalman filtering for particle: 44
Particle 44:
eta 2.851398194000747, phi 1.159841943006995,
p 51.48857708683493, q 1.60217662e-19,
brem = False
output State:
[[0.00094328]
 [0.00101005]
 [0.10626278]
 [0.04630574]
 [0.00582282]]
Data added to pickle list for particle: 44
Particle 45:
eta 3.550675713945189, phi 1.9441356711196842,
p 51.99999999999999, q -1.60217662e-19,
brem = False
input State:
[[-0.001     ]
 [ 0.001     ]
 [ 0.05349981]
 [-0.0209564 ]
 [-0.00576555]]

Simulating particle
Initiating Kalman filtering for particle: 45
Particle 45:
eta 3.554482484708543, phi 1.9433885842581542,
p 52.82769129187322, q -1.60217662e-19,
brem = False
output State:
[[-0.00102178]
 [ 0.00098638]
 [ 0.05331179]
 [-0.02083683]
 [-0.00567521]]
Data added to pickle list for particle: 45
Particle 46:
eta 2.7105464587138064, phi -2.558329667979379,
p 53.0, q 1.60217662e-19,
brem = False
input State:
[[ 0.001     ]
 [ 0.001     ]
 [-0.07357568]
 [-0.11150498]
 [ 0.00565676]]

Simulating particle
Initiating Kalman filtering for particle: 46
Particle 46:
eta 2.7144417039985687, phi -2.55752796487859,
p 53.80944211920392, q 1.60217662e-19,
brem = False
output State:
[[ 0.00104449]
 [ 0.0009905 ]
 [-0.07337613]
 [-0.11100887]
 [ 0.00557167]]
Data added to pickle list for particle: 46
Particle 47:
eta 3.834840415110916, phi -2.211012666421329,
p 53.0, q -1.60217662e-19,
brem = False
input State:
[[-0.001     ]
 [-0.001     ]
 [-0.03466881]
 [-0.02582411]
 [-0.00565676]]

Simulating particle
Initiating Kalman filtering for particle: 47
Particle 47:
eta 3.8390572558558262, phi -2.209401558738087,
p 52.7418339483445, q -1.60217662e-19,
brem = False
output State:
[[-0.00098287]
 [-0.00102278]
 [-0.03456418]
 [-0.02565969]
 [-0.00568445]]
Data added to pickle list for particle: 47
Particle 48:
eta 2.711936144335704, phi 2.0980882517370127,
p 54.0, q 1.60217662e-19,
brem = False
input State:
[[-0.001     ]
 [ 0.001     ]
 [ 0.11528458]
 [-0.06712849]
 [ 0.00555201]]

Simulating particle
Initiating Kalman filtering for particle: 48
Particle 48:
eta 2.7153065526673292, phi 2.0971873284880362,
p 53.290726843661204, q 1.60217662e-19,
brem = False
output State:
[[-0.00106454]
 [ 0.00098421]
 [ 0.11495349]
 [-0.06679709]
 [ 0.0056259 ]]
Data added to pickle list for particle: 48
Particle 49:
eta 4.206017262068718, phi 2.8781667787949843,
p 54.0, q -1.60217662e-19,
brem = False
input State:
[[-0.001     ]
 [-0.001     ]
 [ 0.00776426]
 [-0.02878925]
 [-0.00555201]]

Simulating particle
Initiating Kalman filtering for particle: 49
Particle 49:
eta 4.210239950128135, phi 2.877836258682109,
p 54.239573466766274, q -1.60217662e-19,
brem = False
output State:
[[-0.00100939]
 [-0.00099987]
 [ 0.00774101]
 [-0.02866532]
 [-0.00552749]]
Data added to pickle list for particle: 49
Particle 50:
eta 3.8444055330801183, phi 0.953454949254032,
p 54.99999999999999, q 1.60217662e-19,
brem = False
input State:
[[0.001     ]
 [0.001     ]
 [0.03491454]
 [0.02478594]
 [0.00545106]]

Simulating particle
Initiating Kalman filtering for particle: 50
Particle 50:
eta 3.8485857977945632, phi 0.9540318227521103,
p 54.68673163427771, q 1.60217662e-19,
brem = False
output State:
[[0.00098675]
 [0.00100413]
 [0.03478299]
 [0.02466239]
 [0.00548229]]
Data added to pickle list for particle: 50
Particle 51:
eta 4.613582103496458, phi -1.2734395854647935,
p 54.99999999999999, q -1.60217662e-19,
brem = False
input State:
[[-0.001     ]
 [-0.001     ]
 [-0.01896397]
 [ 0.00581136]
 [-0.00545106]]

Simulating particle
Initiating Kalman filtering for particle: 51
Particle 51:
eta 4.616534154367989, phi -1.2727882539601008,
p 54.85051180356072, q -1.60217662e-19,
brem = False
output State:
[[-0.00099454]
 [-0.0010095 ]
 [-0.01890428]
 [ 0.00580655]
 [-0.00546592]]
Data added to pickle list for particle: 51
Particle 52:
eta 2.826919948201886, phi 1.5251561376252667,
p 56.0, q 1.60217662e-19,
brem = False
input State:
[[ 0.001     ]
 [-0.001     ]
 [ 0.11868238]
 [ 0.00542045]
 [ 0.00535372]]

Simulating particle
Initiating Kalman filtering for particle: 52
Particle 52:
eta 2.829659997438456, phi 1.52500913512155,
p 55.24381318734077, q 1.60217662e-19,
brem = False
output State:
[[ 0.00093966]
 [-0.00101502]
 [ 0.11835456]
 [ 0.00542291]
 [ 0.00542701]]
Data added to pickle list for particle: 52
Particle 53:
eta 4.417585933418569, phi 3.0753895104000204,
p 56.0, q -1.60217662e-19,
brem = False
input State:
[[ 0.001     ]
 [-0.001     ]
 [ 0.00159633]
 [-0.02407729]
 [-0.00535372]]

Simulating particle
Initiating Kalman filtering for particle: 53
Particle 53:
eta 4.42185682545978, phi 3.0747341156883006,
p 56.05889710297554, q -1.60217662e-19,
brem = False
output State:
[[ 0.00100954]
 [-0.00099728]
 [ 0.00160523]
 [-0.0239736 ]
 [-0.0053481 ]]
Data added to pickle list for particle: 53
Particle 54:
eta 3.6454345853773273, phi 1.0175415157228485,
p 57.00000000000001, q 1.60217662e-19,
brem = False
input State:
[[-0.001     ]
 [-0.001     ]
 [ 0.04446017]
 [ 0.02745827]
 [ 0.0052598 ]]

Simulating particle
Initiating Kalman filtering for particle: 54
Particle 54:
eta 3.6488991820421908, phi 1.018001269243486,
p 56.595883765146766, q 1.60217662e-19,
brem = False
output State:
[[-0.00101894]
 [-0.00099917]
 [ 0.04431877]
 [ 0.0273428 ]
 [ 0.00529736]]
Data added to pickle list for particle: 54
Particle 55:
eta 2.727106796695243, phi 1.7182270568700677,
p 57.00000000000001, q -1.60217662e-19,
brem = False
input State:
[[-0.001     ]
 [-0.001     ]
 [ 0.12995335]
 [-0.01929915]
 [-0.0052598 ]]

Simulating particle
Initiating Kalman filtering for particle: 55
Particle 55:
eta 2.7299818505493585, phi 1.7177478012889686,
p 58.810875035403605, q -1.60217662e-19,
brem = False
output State:
[[-0.00107419]
 [-0.00101248]
 [ 0.12958628]
 [-0.01918117]
 [-0.00509784]]
Data added to pickle list for particle: 55
Particle 56:
eta 2.3259472656044986, phi 2.6301438803687884,
p 58.0, q 1.60217662e-19,
brem = False
input State:
[[-0.001     ]
 [ 0.001     ]
 [ 0.09654927]
 [-0.17202165]
 [ 0.00516911]]

Simulating particle
Initiating Kalman filtering for particle: 56
Particle 56:
eta 2.329887875184538, phi 2.62947322792996,
p 57.2833334551185, q 1.60217662e-19,
brem = False
output State:
[[-0.00104418]
 [ 0.00098963]
 [ 0.09627717]
 [-0.17126762]
 [ 0.00523378]]
Data added to pickle list for particle: 56
Particle 57:
eta 2.6705731657274283, phi 0.4865569650000459,
p 58.0, q -1.60217662e-19,
brem = False
input State:
[[-0.001     ]
 [ 0.001     ]
 [ 0.06503707]
 [ 0.12294955]
 [-0.00516911]]

Simulating particle
Initiating Kalman filtering for particle: 57
Particle 57:
eta 2.674746725454549, phi 0.4873961714731906,
p 58.860475678070785, q -1.60217662e-19,
brem = False
output State:
[[-0.00104201]
 [ 0.0010188 ]
 [ 0.06486634]
 [ 0.12237819]
 [-0.00509355]]
Data added to pickle list for particle: 57
Particle 58:
eta 4.6276612493323, phi 2.299403568924072,
p 59.0, q 1.60217662e-19,
brem = False
input State:
[[ 0.001     ]
 [ 0.001     ]
 [ 0.01459158]
 [-0.01302171]
 [ 0.0050815 ]]

Simulating particle
Initiating Kalman filtering for particle: 58
Particle 58:
eta 4.633226237171647, phi 2.2982054624350594,
p 58.767025892920635, q 1.60217662e-19,
brem = False
output State:
[[ 0.00100031]
 [ 0.00098886]
 [ 0.01452609]
 [-0.01293203]
 [ 0.00510164]]
Data added to pickle list for particle: 58
Particle 59:
eta 3.5948425182863324, phi -2.9086182049982154,
p 59.0, q -1.60217662e-19,
brem = False
input State:
[[-0.001     ]
 [ 0.001     ]
 [-0.01269141]
 [-0.05348637]
 [-0.0050815 ]]

Simulating particle
Initiating Kalman filtering for particle: 59
Particle 59:
eta 3.5995604749553793, phi -2.9079211695070186,
p 58.97822447335666, q -1.60217662e-19,
brem = False
output State:
[[-0.00097765]
 [ 0.00098935]
 [-0.01266869]
 [-0.05322542]
 [-0.00508338]]
Data added to pickle list for particle: 59
Particle 60:
eta 2.170273090916119, phi 0.04177922555056829,
p 60.00000000000001, q 1.60217662e-19,
brem = False
input State:
[[-0.001     ]
 [ 0.001     ]
 [ 0.009661  ]
 [ 0.23110483]
 [ 0.00499681]]

Simulating particle
Initiating Kalman filtering for particle: 60
Particle 60:
eta 2.174785667261974, phi 0.04197434319603005,
p 60.16166527970672, q 1.60217662e-19,
brem = False
output State:
[[-0.00101324]
 [ 0.0010325 ]
 [ 0.00966125]
 [ 0.23003513]
 [ 0.00498338]]
Data added to pickle list for particle: 60
Particle 61:
eta 2.1978580457672527, phi -2.309988178453707,
p 60.00000000000001, q -1.60217662e-19,
brem = False
input State:
[[ 0.001     ]
 [ 0.001     ]
 [-0.16617005]
 [-0.15148206]
 [-0.00499681]]

Simulating particle
Initiating Kalman filtering for particle: 61
Particle 61:
eta 2.2014507081390446, phi -2.308903708004045,
p 59.07129714727896, q -1.60217662e-19,
brem = False
output State:
[[ 0.0010954 ]
 [ 0.00097234]
 [-0.16572291]
 [-0.15074569]
 [-0.00507537]]
Data added to pickle list for particle: 61
Particle 62:
eta 3.3439916970979127, phi 0.11759054724430788,
p 61.0, q 1.60217662e-19,
brem = False
input State:
[[-0.001     ]
 [ 0.001     ]
 [ 0.00829211]
 [ 0.07019152]
 [ 0.00491489]]

Simulating particle
Initiating Kalman filtering for particle: 62
Particle 62:
eta 3.348264551565122, phi 0.1179733515372893,
p 61.093084698931754, q 1.60217662e-19,
brem = False
output State:
[[-0.00101494]
 [ 0.00100675]
 [ 0.00828343]
 [ 0.06988834]
 [ 0.0049074 ]]
Data added to pickle list for particle: 62
Particle 63:
eta 3.437664626536667, phi -1.9047139847156578,
p 61.0, q -1.60217662e-19,
brem = False
input State:
[[-0.001     ]
 [ 0.001     ]
 [-0.06079168]
 [-0.02108912]
 [-0.00491489]]

Simulating particle
Initiating Kalman filtering for particle: 63
Particle 63:
eta 3.4402426005037987, phi -1.9044069032937494,
p 60.5114994593754, q -1.60217662e-19,
brem = False
output State:
[[-0.00095824]
 [ 0.00100715]
 [-0.06064129]
 [-0.02101609]
 [-0.00495457]]
Data added to pickle list for particle: 63
Particle 64:
eta 2.8870244321895835, phi 1.255214569468656,
p 62.0, q 1.60217662e-19,
brem = False
input State:
[[-0.001     ]
 [ 0.001     ]
 [ 0.10630846]
 [ 0.03470898]
 [ 0.00483562]]

Simulating particle
Initiating Kalman filtering for particle: 64
Particle 64:
eta 2.8898924149477137, phi 1.2558226714759984,
p 61.279703644245245, q 1.60217662e-19,
brem = False
output State:
[[-0.00105961]
 [ 0.00100231]
 [ 0.10602315]
 [ 0.03454449]
 [ 0.00489246]]
Data added to pickle list for particle: 64
Particle 65:
eta 2.793747670093935, phi -2.371488183726785,
p 62.0, q -1.60217662e-19,
brem = False
input State:
[[ 0.001     ]
 [-0.001     ]
 [-0.08552448]
 [-0.08818129]
 [-0.00483562]]

Simulating particle
Initiating Kalman filtering for particle: 65
Particle 65:
eta 2.797343901511934, phi -2.370557319534508,
p 61.37957310311034, q -1.60217662e-19,
brem = False
output State:
[[ 0.00105307]
 [-0.00101026]
 [-0.08529692]
 [-0.08778301]
 [-0.0048845 ]]
Data added to pickle list for particle: 65
Particle 66:
eta 4.906407306537796, phi 0.841373685521566,
p 62.99999999999999, q 1.60217662e-19,
brem = False
input State:
[[ 0.001     ]
 [-0.001     ]
 [ 0.01103342]
 [ 0.00986254]
 [ 0.00475887]]

Simulating particle
Initiating Kalman filtering for particle: 66
Particle 66:
eta 4.906794673221176, phi 0.8420578781938152,
p 63.21089258959611, q 1.60217662e-19,
brem = False
output State:
[[ 0.00097185]
 [-0.00101001]
 [ 0.01103589]
 [ 0.00985117]
 [ 0.00474299]]
Data added to pickle list for particle: 66
Particle 67:
eta 4.011453636148454, phi 2.0646159188680056,
p 62.99999999999999, q -1.60217662e-19,
brem = False
input State:
[[-0.001     ]
 [ 0.001     ]
 [ 0.03189803]
 [-0.01717085]
 [-0.00475887]]

Simulating particle
Initiating Kalman filtering for particle: 67
Particle 67:
eta 4.014726553232218, phi 2.0634725201432524,
p 63.50652129826786, q -1.60217662e-19,
brem = False
output State:
[[-0.00101656]
 [ 0.00098917]
 [ 0.03181328]
 [-0.01707834]
 [-0.00472091]]
Data added to pickle list for particle: 67
Particle 68:
eta 2.580476779282244, phi 2.2033204489691154,
p 64.0, q 1.60217662e-19,
brem = False
input State:
[[ 0.001     ]
 [ 0.001     ]
 [ 0.12287579]
 [-0.09006646]
 [ 0.00468451]]

Simulating particle
Initiating Kalman filtering for particle: 68
Particle 68:
eta 2.5841543605865125, phi 2.202314382739688,
p 62.703339102912935, q 1.60217662e-19,
brem = False
output State:
[[ 0.00095466]
 [ 0.00096605]
 [ 0.12250977]
 [-0.08960884]
 [ 0.00478138]]
Data added to pickle list for particle: 68
Particle 69:
eta 4.3349800565224434, phi 0.7876100231265407,
p 64.0, q -1.60217662e-19,
brem = False
input State:
[[ 0.001     ]
 [-0.001     ]
 [ 0.01857334]
 [ 0.01849136]
 [-0.00468451]]

Simulating particle
Initiating Kalman filtering for particle: 69
Particle 69:
eta 4.33908296712253, phi 0.7889146161992763,
p 64.35726688800155, q -1.60217662e-19,
brem = False
output State:
[[ 0.0009861 ]
 [-0.00099765]
 [ 0.01852128]
 [ 0.01839148]
 [-0.0046585 ]]
Data added to pickle list for particle: 69
Particle 70:
eta 2.3084726180079906, phi -2.558363088639306,
p 65.0, q 1.60217662e-19,
brem = False
input State:
[[-0.001     ]
 [ 0.001     ]
 [-0.11059089]
 [-0.16761424]
 [ 0.00461244]]

Simulating particle
Initiating Kalman filtering for particle: 70
Particle 70:
eta 2.3124268685222673, phi -2.5574534373141695,
p 66.5999316233477, q 1.60217662e-19,
brem = False
output State:
[[-0.00092921]
 [ 0.00097927]
 [-0.1102976 ]
 [-0.16683937]
 [ 0.00450163]]
Data added to pickle list for particle: 70
Particle 71:
eta 4.109621997403712, phi -0.983172333586067,
p 65.0, q -1.60217662e-19,
brem = False
input State:
[[ 0.001     ]
 [-0.001     ]
 [-0.02732877]
 [ 0.01820424]
 [-0.00461244]]

Simulating particle
Initiating Kalman filtering for particle: 71
Particle 71:
eta 4.113280694528583, phi -0.9835265005288809,
p 64.63376232195638, q -1.60217662e-19,
brem = False
output State:
[[ 0.00100831]
 [-0.00100338]
 [-0.02723533]
 [ 0.01812807]
 [-0.00463857]]
Data added to pickle list for particle: 71
Particle 72:
eta 2.367113988931099, phi -2.769021243493978,
p 66.0, q 1.60217662e-19,
brem = False
input State:
[[-0.001     ]
 [ 0.001     ]
 [-0.06885805]
 [-0.17618668]
 [ 0.00454255]]

Simulating particle
Initiating Kalman filtering for particle: 72
Particle 72:
eta 2.371507750290681, phi -2.7683675596346164,
p 67.32029337298644, q 1.60217662e-19,
brem = False
output State:
[[-0.00096509]
 [ 0.00096624]
 [-0.06866549]
 [-0.1753558 ]
 [ 0.00445346]]
Data added to pickle list for particle: 72
Particle 73:
eta 3.560087443299917, phi 2.0606953705758526,
p 66.0, q -1.60217662e-19,
brem = False
input State:
[[-0.001     ]
 [ 0.001     ]
 [ 0.05022395]
 [-0.02678234]
 [-0.00454255]]

Simulating particle
Initiating Kalman filtering for particle: 73
Particle 73:
eta 3.5630844435593323, phi 2.060597862796696,
p 66.91156912358275, q -1.60217662e-19,
brem = False
output State:
[[-0.00102293]
 [ 0.00099845]
 [ 0.05007601]
 [-0.02669719]
 [-0.00448067]]
Data added to pickle list for particle: 73
Particle 74:
eta 4.523032239927136, phi -1.9101893514515238,
p 67.0, q 1.60217662e-19,
brem = False
input State:
[[ 0.001     ]
 [ 0.001     ]
 [-0.020476  ]
 [-0.00722914]
 [ 0.00447475]]

Simulating particle
Initiating Kalman filtering for particle: 74
Particle 74:
eta 4.526092093615285, phi -1.909931217683512,
p 67.5702772473794, q 1.60217662e-19,
brem = False
output State:
[[ 0.00100984]
 [ 0.00099321]
 [-0.02041529]
 [-0.00720177]
 [ 0.00443699]]
Data added to pickle list for particle: 74
Particle 75:
eta 4.736437616131642, phi 1.754144549255619,
p 67.0, q -1.60217662e-19,
brem = False
input State:
[[ 0.001     ]
 [ 0.001     ]
 [ 0.017247  ]
 [-0.00319812]
 [-0.00447475]]

Simulating particle
Initiating Kalman filtering for particle: 75
Particle 75:
eta 4.740337916440489, phi 1.753667195789723,
p 67.54844281135108, q -1.60217662e-19,
brem = False
output State:
[[ 0.00099667]
 [ 0.00099148]
 [ 0.01718137]
 [-0.00317747]
 [-0.00443842]]
Data added to pickle list for particle: 75
Particle 76:
eta 4.985059847804793, phi 2.860120551082437,
p 68.0, q 1.60217662e-19,
brem = False
input State:
[[-0.001     ]
 [-0.001     ]
 [ 0.00379972]
 [-0.01314106]
 [ 0.00440895]]

Simulating particle
Initiating Kalman filtering for particle: 76
Particle 76:
eta 4.993646731416829, phi 2.8591444967118718,
p 67.96316690687469, q 1.60217662e-19,
brem = False
output State:
[[-0.00099887]
 [-0.00101922]
 [ 0.00377995]
 [-0.01302501]
 [ 0.00441134]]
Data added to pickle list for particle: 76
Particle 77:
eta 3.629384661025651, phi -1.7258728381347026,
p 68.0, q -1.60217662e-19,
brem = False
input State:
[[-0.001     ]
 [ 0.001     ]
 [-0.05246515]
 [-0.00820197]
 [-0.00440895]]

Simulating particle
Initiating Kalman filtering for particle: 77
Particle 77:
eta 3.632183270576652, phi -1.7262774337430233,
p 67.45987597827404, q -1.60217662e-19,
brem = False
output State:
[[-0.00097765]
 [ 0.00101362]
 [-0.05231501]
 [-0.00820018]
 [-0.00444425]]
Data added to pickle list for particle: 77
Particle 78:
eta 4.550555388153985, phi 1.989462969464652,
p 69.0, q 1.60217662e-19,
brem = False
input State:
[[ 0.001     ]
 [ 0.001     ]
 [ 0.0193005 ]
 [-0.00858823]
 [ 0.00434505]]

Simulating particle
Initiating Kalman filtering for particle: 78
Particle 78:
eta 4.554176462789389, phi 1.9891704804344037,
p 68.65413140501472, q 1.60217662e-19,
brem = False
output State:
[[ 0.00099081]
 [ 0.0010006 ]
 [ 0.01923322]
 [-0.00855155]
 [ 0.00436694]]
Data added to pickle list for particle: 78
Particle 79:
eta 4.135307367626264, phi -2.0722526131744847,
p 69.0, q -1.60217662e-19,
brem = False
input State:
[[-0.001     ]
 [ 0.001     ]
 [-0.0280635 ]
 [-0.01538427]
 [-0.00434505]]

Simulating particle
Initiating Kalman filtering for particle: 79
Particle 79:
eta 4.138377375966582, phi -2.071747688818744,
p 68.76611820387606, q -1.60217662e-19,
brem = False
output State:
[[-0.00098741]
 [ 0.00101263]
 [-0.02798518]
 [-0.01532296]
 [-0.00435983]]
Data added to pickle list for particle: 79
Particle 80:
eta 2.05036350068277, phi 2.9333388771909306,
p 70.0, q 1.60217662e-19,
brem = False
input State:
[[ 0.001     ]
 [-0.001     ]
 [ 0.05410906]
 [-0.25605566]
 [ 0.00428298]]

Simulating particle
Initiating Kalman filtering for particle: 80
Particle 80:
eta 2.054897652807025, phi 2.932882247762541,
p 69.44751980890449, q 1.60217662e-19,
brem = False
output State:
[[ 0.00096401]
 [-0.00105087]
 [ 0.05397246]
 [-0.25483393]
 [ 0.00431705]]
Data added to pickle list for particle: 80
Particle 81:
eta 3.323422984413685, phi -1.005422075299613,
p 70.0, q -1.60217662e-19,
brem = False
input State:
[[ 0.001     ]
 [-0.001     ]
 [-0.0609245 ]
 [ 0.03865426]
 [-0.00428298]]

Simulating particle
Initiating Kalman filtering for particle: 81
Particle 81:
eta 3.327197412905765, phi -1.0063578858565492,
p 69.078393586195, q -1.60217662e-19,
brem = False
output State:
[[ 0.00101974]
 [-0.00098538]
 [-0.0607304 ]
 [ 0.03845144]
 [-0.00434012]]
Data added to pickle list for particle: 81
Particle 82:
eta 3.6929241487559983, phi -2.8273062404516054,
p 71.0, q 1.60217662e-19,
brem = False
input State:
[[-0.001     ]
 [-0.001     ]
 [-0.01540405]
 [-0.0473883 ]
 [ 0.00422265]]

Simulating particle
Initiating Kalman filtering for particle: 82
Particle 82:
eta 3.697428467693243, phi -2.8266691844100054,
p 71.41611758472362, q 1.60217662e-19,
brem = False
output State:
[[-0.00097789]
 [-0.00100313]
 [-0.01536479]
 [-0.04716529]
 [ 0.00419805]]
Data added to pickle list for particle: 82
Particle 83:
eta 4.979386252538894, phi 1.701719830185815,
p 71.0, q -1.60217662e-19,
brem = False
input State:
[[ 0.001     ]
 [-0.001     ]
 [ 0.01363948]
 [-0.001796  ]
 [-0.00422265]]

Simulating particle
Initiating Kalman filtering for particle: 83
Particle 83:
eta 4.982512184746044, phi 1.7042287415575417,
p 71.47074772838683, q -1.60217662e-19,
brem = False
output State:
[[ 0.00099315]
 [-0.00099001]
 [ 0.01359237]
 [-0.0018245 ]
 [-0.00419484]]
Data added to pickle list for particle: 83
Particle 84:
eta 3.9348543197568935, phi -1.4131580500573515,
p 72.0, q 1.60217662e-19,
brem = False
input State:
[[-0.001     ]
 [-0.001     ]
 [-0.03862708]
 [ 0.00614005]
 [ 0.00416401]]

Simulating particle
Initiating Kalman filtering for particle: 84
Particle 84:
eta 3.938048810777487, phi -1.4124755084185443,
p 72.9761670992987, q 1.60217662e-19,
brem = False
output State:
[[-0.00099244]
 [-0.00101528]
 [-0.03849961]
 [ 0.00614673]
 [ 0.00410831]]
Data added to pickle list for particle: 84
Particle 85:
eta 4.273226447014979, phi -0.2704957680721569,
p 72.0, q -1.60217662e-19,
brem = False
input State:
[[ 0.001     ]
 [ 0.001     ]
 [-0.0074495 ]
 [ 0.02686519]
 [-0.00416401]]

Simulating particle
Initiating Kalman filtering for particle: 85
Particle 85:
eta 4.277338589317202, phi -0.2710952429140452,
p 72.02179925971609, q -1.60217662e-19,
brem = False
output State:
[[ 0.00099846]
 [ 0.00100605]
 [-0.00743496]
 [ 0.02675044]
 [-0.00416275]]
Data added to pickle list for particle: 85
Particle 86:
eta 4.445371615607368, phi -1.8895010957803635,
p 73.0, q 1.60217662e-19,
brem = False
input State:
[[ 0.001     ]
 [-0.001     ]
 [-0.02228688]
 [-0.00735361]
 [ 0.00410697]]

Simulating particle
Initiating Kalman filtering for particle: 86
Particle 86:
eta 4.4484451866419485, phi -1.889638876319171,
p 73.58889684674789, q 1.60217662e-19,
brem = False
output State:
[[ 0.00101014]
 [-0.0009835 ]
 [-0.02221746]
 [-0.0073341 ]
 [ 0.0040741 ]]
Data added to pickle list for particle: 86
Particle 87:
eta 4.944555514996414, phi 1.028865842176247,
p 73.0, q -1.60217662e-19,
brem = False
input State:
[[-0.001     ]
 [-0.001     ]
 [ 0.0122038 ]
 [ 0.00734738]
 [-0.00410697]]

Simulating particle
Initiating Kalman filtering for particle: 87
Particle 87:
eta 4.945774948850963, phi 1.0288682299280145,
p 73.08558530251554, q -1.60217662e-19,
brem = False
output State:
[[-0.00100881]
 [-0.00100657]
 [ 0.01218894]
 [ 0.0073384 ]
 [-0.00410216]]
Data added to pickle list for particle: 87
Particle 88:
eta 4.2715872687461065, phi -2.460828473479628,
p 73.99999999999999, q 1.60217662e-19,
brem = False
input State:
[[-0.001     ]
 [-0.001     ]
 [-0.01757542]
 [-0.02170003]
 [ 0.00405147]]

Simulating particle
Initiating Kalman filtering for particle: 88
Particle 88:
eta 4.275788442945947, phi -2.4605768291502073,
p 74.71754261737684, q 1.60217662e-19,
brem = False
output State:
[[-0.00099757]
 [-0.0010004 ]
 [-0.01750714]
 [-0.02160461]
 [ 0.00401256]]
Data added to pickle list for particle: 88
Particle 89:
eta 4.625680714127635, phi 1.920577877570756,
p 73.99999999999999, q -1.60217662e-19,
brem = False
input State:
[[-0.001     ]
 [-0.001     ]
 [ 0.01840927]
 [-0.00671535]
 [-0.00405147]]

Simulating particle
Initiating Kalman filtering for particle: 89
Particle 89:
eta 4.629419723590476, phi 1.919939491312406,
p 74.63361191150382, q -1.60217662e-19,
brem = False
output State:
[[-0.00100464]
 [-0.00099612]
 [ 0.01834482]
 [-0.00667858]
 [-0.00401707]]
Data added to pickle list for particle: 89
Particle 90:
eta 2.210193341791169, phi -2.413341697985075,
p 75.0, q 1.60217662e-19,
brem = False
input State:
[[-0.001     ]
 [-0.001     ]
 [-0.14777533]
 [-0.16570965]
 [ 0.00399745]]

Simulating particle
Initiating Kalman filtering for particle: 90
Particle 90:
eta 2.2140824415471543, phi -2.412365278441094,
p 78.5354409480105, q 1.60217662e-19,
brem = False
output State:
[[-0.00092929]
 [-0.00104176]
 [-0.14734894]
 [-0.16490707]
 [ 0.00381749]]
Data added to pickle list for particle: 90
Particle 91:
eta 4.092990469314623, phi 1.2195322726257385,
p 75.0, q -1.60217662e-19,
brem = False
input State:
[[ 0.001     ]
 [ 0.001     ]
 [ 0.03134909]
 [ 0.01148824]
 [-0.00399745]]

Simulating particle
Initiating Kalman filtering for particle: 91
Particle 91:
eta 4.096070385408674, phi 1.2204956094981585,
p 75.72575900399342, q -1.60217662e-19,
brem = False
output State:
[[ 0.00098282]
 [ 0.00099401]
 [ 0.03126365]
 [ 0.01142278]
 [-0.00395913]]
Data added to pickle list for particle: 91
Particle 92:
eta 4.351159786359589, phi 2.80321100975028,
p 76.0, q 1.60217662e-19,
brem = False
input State:
[[ 0.001     ]
 [-0.001     ]
 [ 0.00856061]
 [-0.02432563]
 [ 0.00394485]]

Simulating particle
Initiating Kalman filtering for particle: 92
Particle 92:
eta 4.35620574398966, phi 2.801869716222326,
p 76.09550441087157, q 1.60217662e-19,
brem = False
output State:
[[ 0.00099203]
 [-0.00101623]
 [ 0.00854996]
 [-0.02419171]
 [ 0.0039399 ]]
Data added to pickle list for particle: 92
Particle 93:
eta 2.3920928123907848, phi -1.8464678117420577,
p 76.0, q -1.60217662e-19,
brem = False
input State:
[[-0.001     ]
 [-0.001     ]
 [-0.17745501]
 [-0.05019735]
 [-0.00394485]]

Simulating particle
Initiating Kalman filtering for particle: 93
Particle 93:
eta 2.395036889768382, phi -1.846068834871498,
p 73.91000134468534, q -1.60217662e-19,
brem = False
output State:
[[-0.00091149]
 [-0.00099845]
 [-0.17694453]
 [-0.04997672]
 [-0.0040564 ]]
Data added to pickle list for particle: 93
Particle 94:
eta 2.6771648187085804, phi 2.3568435632676703,
p 77.0, q 1.60217662e-19,
brem = False
input State:
[[-0.001     ]
 [-0.001     ]
 [ 0.0976367 ]
 [-0.09776352]
 [ 0.00389362]]

Simulating particle
Initiating Kalman filtering for particle: 94
Particle 94:
eta 2.6806922258660073, phi 2.3560942042010202,
p 75.77729997753744, q 1.60217662e-19,
brem = False
output State:
[[-0.00105316]
 [-0.00101049]
 [ 0.09736262]
 [-0.0973431 ]
 [ 0.00395644]]
Data added to pickle list for particle: 94
Particle 95:
eta 4.756391152447515, phi -0.8132436212205908,
p 77.0, q -1.60217662e-19,
brem = False
input State:
[[-0.001     ]
 [ 0.001     ]
 [-0.01249209]
 [ 0.01181507]
 [-0.00389362]]

Simulating particle
Initiating Kalman filtering for particle: 95
Particle 95:
eta 4.758292029685452, phi -0.8118307849314125,
p 76.86399525495993, q -1.60217662e-19,
brem = False
output State:
[[-0.00099968]
 [ 0.00099324]
 [-0.01245169]
 [ 0.01181023]
 [-0.00390051]]
Data added to pickle list for particle: 95
Particle 96:
eta 4.2661952365191755, phi -0.34387489032382373,
p 78.0, q 1.60217662e-19,
brem = False
input State:
[[ 0.001     ]
 [ 0.001     ]
 [-0.00946537]
 [ 0.02643201]
 [ 0.0038437 ]]

Simulating particle
Initiating Kalman filtering for particle: 96
Particle 96:
eta 4.2697244782218275, phi -0.34450369930726904,
p 78.22492186624913, q 1.60217662e-19,
brem = False
output State:
[[ 0.00100435]
 [ 0.00100323]
 [-0.00944857]
 [ 0.02633292]
 [ 0.00383265]]
Data added to pickle list for particle: 96
Particle 97:
eta 2.45556463075919, phi 0.1745789484742546,
p 78.0, q -1.60217662e-19,
brem = False
input State:
[[-0.001     ]
 [-0.001     ]
 [ 0.03003208]
 [ 0.17027458]
 [-0.0038437 ]]

Simulating particle
Initiating Kalman filtering for particle: 97
Particle 97:
eta 2.460095054663277, phi 0.17497007983180154,
p 78.46052561323, q -1.60217662e-19,
brem = False
output State:
[[-0.00101974]
 [-0.00097126]
 [ 0.02996062]
 [ 0.16948186]
 [-0.00382114]]
Data added to pickle list for particle: 97
Particle 98:
eta 3.7078894654617343, phi 2.307775014022733,
p 79.0, q 1.60217662e-19,
brem = False
input State:
[[-0.001     ]
 [ 0.001     ]
 [ 0.03634979]
 [-0.03298978]
 [ 0.00379504]]

Simulating particle
Initiating Kalman filtering for particle: 98
Particle 98:
eta 3.7117827360129216, phi 2.307657258740998,
p 77.9250459415156, q 1.60217662e-19,
brem = False
output State:
[[-0.00100842]
 [ 0.00100088]
 [ 0.03621225]
 [-0.03285717]
 [ 0.0038474 ]]
Data added to pickle list for particle: 98
Particle 99:
eta 2.4878628837040226, phi -0.8293329212296029,
p 79.0, q -1.60217662e-19,
brem = False
input State:
[[ 0.001     ]
 [ 0.001     ]
 [-0.12340259]
 [ 0.1130092 ]
 [-0.00379504]]

Simulating particle
Initiating Kalman filtering for particle: 99
Particle 99:
eta 2.491498568918864, phi -0.8302535745886481,
p 77.10251209297569, q -1.60217662e-19,
brem = False
output State:
[[ 0.00106704]
 [ 0.00100711]
 [-0.12305216]
 [ 0.11248017]
 [-0.00388844]]
Data added to pickle list for particle: 99
Particle 100:
eta 2.665437533548207, phi 1.9612662093874447,
p 80.0, q 1.60217662e-19,
brem = False
input State:
[[-0.001     ]
 [ 0.001     ]
 [ 0.1292907 ]
 [-0.05321661]
 [ 0.00374761]]

Simulating particle
Initiating Kalman filtering for particle: 100
Particle 100:
eta 2.6685653291175497, phi 1.9605595535838929,
p 77.95241839607965, q 1.60217662e-19,
brem = False
output State:
[[-0.0010673 ]
 [ 0.0009849 ]
 [ 0.12892049]
 [-0.05295772]
 [ 0.00384604]]
Data added to pickle list for particle: 100
Particle 101:
eta 2.8407027591160205, phi 2.5464204108388158,
p 80.0, q -1.60217662e-19,
brem = False
input State:
[[-0.001     ]
 [ 0.001     ]
 [ 0.06569076]
 [-0.09702172]
 [-0.00374761]]

Simulating particle
Initiating Kalman filtering for particle: 101
Particle 101:
eta 2.8445313480155785, phi 2.5456708342294765,
p 81.56017826945482, q -1.60217662e-19,
brem = False
output State:
[[-0.00103441]
 [ 0.0009873 ]
 [ 0.06551046]
 [-0.09659938]
 [-0.00367592]]
Data added to pickle list for particle: 101
Particle 102:
eta 4.39123489697929, phi -1.3315970228200058,
p 81.0, q 1.60217662e-19,
brem = False
input State:
[[ 0.001     ]
 [-0.001     ]
 [-0.02406927]
 [ 0.00586973]
 [ 0.00370134]]

Simulating particle
Initiating Kalman filtering for particle: 102
Particle 102:
eta 4.394444314802039, phi -1.3315597239997456,
p 81.76824315380247, q 1.60217662e-19,
brem = False
output State:
[[ 0.0010106 ]
 [-0.00099265]
 [-0.0239919 ]
 [ 0.00585181]
 [ 0.00366656]]
Data added to pickle list for particle: 102
Particle 103:
eta 2.253972841108837, phi -1.3271857955530164,
p 81.0, q -1.60217662e-19,
brem = False
input State:
[[-0.001     ]
 [-0.001     ]
 [-0.20603388]
 [ 0.05120907]
 [-0.00370134]]

Simulating particle
Initiating Kalman filtering for particle: 103
Particle 103:
eta 2.2568909808066406, phi -1.3277326025694176,
p 78.34587742148057, q -1.60217662e-19,
brem = False
output State:
[[-0.00088719]
 [-0.00099155]
 [-0.20544808]
 [ 0.05094421]
 [-0.00382673]]
Data added to pickle list for particle: 103
Particle 104:
eta 3.321805348858594, phi 2.0949188687699785,
p 82.0, q 1.60217662e-19,
brem = False
input State:
[[ 0.001     ]
 [ 0.001     ]
 [ 0.06256817]
 [-0.03616746]
 [ 0.0036562 ]]

Simulating particle
Initiating Kalman filtering for particle: 104
Particle 104:
eta 3.3251283010299626, phi 2.0937533721828347,
p 81.13784839481306, q 1.60217662e-19,
brem = False
output State:
[[ 0.00096175]
 [ 0.00098855]
 [ 0.06240203]
 [-0.03597446]
 [ 0.00369505]]
Data added to pickle list for particle: 104
Particle 105:
eta 4.650809937662624, phi 0.7166839432749819,
p 82.0, q -1.60217662e-19,
brem = False
input State:
[[-0.001     ]
 [ 0.001     ]
 [ 0.01255278]
 [ 0.01440831]
 [-0.0036562 ]]

Simulating particle
Initiating Kalman filtering for particle: 105
Particle 105:
eta 4.655785412006501, phi 0.7183790419811198,
p 82.33634109813705, q -1.60217662e-19,
brem = False
output State:
[[-0.00100801]
 [ 0.00100848]
 [ 0.01251475]
 [ 0.01431559]
 [-0.00364127]]
Data added to pickle list for particle: 105
Particle 106:
eta 2.055163830902014, phi -0.30137297241531924,
p 83.0, q 1.60217662e-19,
brem = False
input State:
[[ 0.001     ]
 [-0.001     ]
 [-0.07729944]
 [ 0.24867819]
 [ 0.00361215]]

Simulating particle
Initiating Kalman filtering for particle: 106
Particle 106:
eta 2.0595210284741836, phi -0.301854471692364,
p 84.95245394935607, q 1.60217662e-19,
brem = False
output State:
[[ 0.00103246]
 [-0.00096294]
 [-0.07707142]
 [ 0.2475241 ]
 [ 0.00352913]]
Data added to pickle list for particle: 106
Particle 107:
eta 2.199433532594711, phi 2.1575547259144305,
p 83.0, q -1.60217662e-19,
brem = False
input State:
[[-0.001     ]
 [-0.001     ]
 [ 0.18694273]
 [-0.12429279]
 [-0.00361215]]

Simulating particle
Initiating Kalman filtering for particle: 107
Particle 107:
eta 2.202855169322254, phi 2.156691706951,
p 88.83070953671795, q -1.60217662e-19,
brem = False
output State:
[[-0.00109301]
 [-0.00102294]
 [ 0.18639518]
 [-0.12369691]
 [-0.00337505]]
Data added to pickle list for particle: 107
Particle 108:
eta 3.974881440147756, phi 1.2217626093815617,
p 84.0, q 1.60217662e-19,
brem = False
input State:
[[-0.001     ]
 [-0.001     ]
 [ 0.0353106 ]
 [ 0.01285072]
 [ 0.00356915]]

Simulating particle
Initiating Kalman filtering for particle: 108
Particle 108:
eta 3.9779088081858816, phi 1.2217937710384628,
p 83.09267774789882, q 1.60217662e-19,
brem = False
output State:
[[-0.00101433]
 [-0.00100385]
 [ 0.03520418]
 [ 0.01281075]
 [ 0.00360812]]
Data added to pickle list for particle: 108
Particle 109:
eta 4.723272191082127, phi 1.303324095682217,
p 84.0, q -1.60217662e-19,
brem = False
input State:
[[-0.001     ]
 [ 0.001     ]
 [ 0.01714152]
 [ 0.00469744]
 [-0.00356915]]

Simulating particle
Initiating Kalman filtering for particle: 109
Particle 109:
eta 4.72722908156201, phi 1.306224914749045,
p 84.57706650383896, q -1.60217662e-19,
brem = False
output State:
[[-0.0010011 ]
 [ 0.0010169 ]
 [ 0.01708732]
 [ 0.00462934]
 [-0.0035448 ]]
Data added to pickle list for particle: 109
Particle 110:
eta 3.7955020878054313, phi 1.4996964338907908,
p 85.0, q 1.60217662e-19,
brem = False
input State:
[[-0.001     ]
 [ 0.001     ]
 [ 0.04485234]
 [ 0.00319438]
 [ 0.00352716]]

Simulating particle
Initiating Kalman filtering for particle: 110
Particle 110:
eta 3.79817265417894, phi 1.4995782792310393,
p 84.32862003664185, q 1.60217662e-19,
brem = False
output State:
[[-0.0010255 ]
 [ 0.00099019]
 [ 0.04473222]
 [ 0.00319114]
 [ 0.00355524]]
Data added to pickle list for particle: 110
Particle 111:
eta 4.239045327306556, phi -0.5282883789611819,
p 85.0, q -1.60217662e-19,
brem = False
input State:
[[ 0.001     ]
 [-0.001     ]
 [-0.01454136]
 [ 0.02491579]
 [-0.00352716]]

Simulating particle
Initiating Kalman filtering for particle: 111
Particle 111:
eta 4.242727687122977, phi -0.5291937652671427,
p 84.8974581534987, q -1.60217662e-19,
brem = False
output State:
[[ 0.00101405]
 [-0.00100451]
 [-0.01451036]
 [ 0.02481105]
 [-0.00353142]]
Data added to pickle list for particle: 111
Particle 112:
eta 3.322656801074878, phi -2.473072280562397,
p 86.0, q 1.60217662e-19,
brem = False
input State:
[[ 0.001     ]
 [ 0.001     ]
 [-0.04475617]
 [-0.05666424]
 [ 0.00348615]]

Simulating particle
Initiating Kalman filtering for particle: 112
Particle 112:
eta 3.3270680038667644, phi -2.472157212923094,
p 87.62807621203558, q 1.60217662e-19,
brem = False
output State:
[[ 0.00102137]
 [ 0.00099087]
 [-0.04461027]
 [-0.05637339]
 [ 0.00342137]]
Data added to pickle list for particle: 112
Particle 113:
eta 2.860409117244126, phi 2.9385262064250024,
p 86.0, q -1.60217662e-19,
brem = False
input State:
[[ 0.001     ]
 [-0.001     ]
 [ 0.02316567]
 [-0.11250689]
 [-0.00348615]]

Simulating particle
Initiating Kalman filtering for particle: 113
Particle 113:
eta 2.865106908764384, phi 2.9383270542732207,
p 87.18556257605695, q -1.60217662e-19,
brem = False
output State:
[[ 0.00099423]
 [-0.00102557]
 [ 0.02307869]
 [-0.11197156]
 [-0.00343874]]
Data added to pickle list for particle: 113
Particle 114:
eta 3.841922927638552, phi -0.45970402015468087,
p 87.0, q 1.60217662e-19,
brem = False
input State:
[[-0.001     ]
 [-0.001     ]
 [-0.01904481]
 [ 0.03846813]
 [ 0.00344607]]

Simulating particle
Initiating Kalman filtering for particle: 114
Particle 114:
eta 3.847270566553022, phi -0.4607512151724249,
p 87.74047551808394, q 1.60217662e-19,
brem = False
output State:
[[-0.00098895]
 [-0.00098614]
 [-0.0189832 ]
 [ 0.03824292]
 [ 0.00341699]]
Data added to pickle list for particle: 114
Particle 115:
eta 3.6064513364331496, phi -0.24119119501541972,
p 87.0, q -1.60217662e-19,
brem = False
input State:
[[ 0.001     ]
 [-0.001     ]
 [-0.01297869]
 [ 0.05276327]
 [-0.00344607]]

Simulating particle
Initiating Kalman filtering for particle: 115
Particle 115:
eta 3.6114973132321753, phi -0.24190964251440328,
p 86.93877025984771, q -1.60217662e-19,
brem = False
output State:
[[ 0.00100653]
 [-0.00096859]
 [-0.01295098]
 [ 0.05248802]
 [-0.0034485 ]]
Data added to pickle list for particle: 115
Particle 116:
eta 2.443130602725465, phi -0.1205198836745779,
p 88.0, q 1.60217662e-19,
brem = False
input State:
[[ 0.001     ]
 [-0.001     ]
 [-0.02105183]
 [ 0.17382863]
 [ 0.00340691]]

Simulating particle
Initiating Kalman filtering for particle: 116
Particle 116:
eta 2.447792685035616, phi -0.12068605429676386,
p 88.6825601164709, q 1.60217662e-19,
brem = False
output State:
[[ 0.00101353]
 [-0.00097423]
 [-0.02098118]
 [ 0.17300441]
 [ 0.00338069]]
Data added to pickle list for particle: 116
Particle 117:
eta 2.843544357555152, phi 2.4310517783568195,
p 88.0, q -1.60217662e-19,
brem = False
input State:
[[-0.001     ]
 [-0.001     ]
 [ 0.0762042 ]
 [-0.08856117]
 [-0.00340691]]

Simulating particle
Initiating Kalman filtering for particle: 117
Particle 117:
eta 2.84735303678511, phi 2.4302287887976295,
p 90.43359889405583, q -1.60217662e-19,
brem = False
output State:
[[-0.00103236]
 [-0.00101124]
 [ 0.07598513]
 [-0.08815973]
 [-0.00331523]]
Data added to pickle list for particle: 117
Particle 118:
eta 4.254889552243488, phi 0.03548700750040981,
p 89.0, q 1.60217662e-19,
brem = False
input State:
[[-0.001     ]
 [-0.001     ]
 [ 0.00100744]
 [ 0.02837716]
 [ 0.00336863]]

Simulating particle
Initiating Kalman filtering for particle: 118
Particle 118:
eta 4.26091790772902, phi 0.035684408605665886,
p 89.24266283071158, q 1.60217662e-19,
brem = False
output State:
[[-0.00100037]
 [-0.00098625]
 [ 0.00100695]
 [ 0.02820634]
 [ 0.00335948]]
Data added to pickle list for particle: 118
Particle 119:
eta 2.9380512658563993, phi -2.5785525375587652,
p 89.0, q -1.60217662e-19,
brem = False
input State:
[[ 0.001     ]
 [-0.001     ]
 [-0.05670435]
 [-0.08983682]
 [-0.00336863]]

Simulating particle
Initiating Kalman filtering for particle: 119
Particle 119:
eta 2.9422195513515854, phi -2.5775111876550514,
p 88.04092533329296, q -1.60217662e-19,
brem = False
output State:
[[ 0.00102847]
 [-0.00102122]
 [-0.05656029]
 [-0.0894022 ]
 [-0.00340533]]
Data added to pickle list for particle: 119
Particle 120:
eta 4.800341337318033, phi 1.7321588892886044,
p 90.0, q 1.60217662e-19,
brem = False
input State:
[[ 0.001     ]
 [-0.001     ]
 [ 0.01624123]
 [-0.00264371]
 [ 0.00333121]]

Simulating particle
Initiating Kalman filtering for particle: 120
Particle 120:
eta 4.802905813156912, phi 1.7321550807330015,
p 89.6745657664672, q 1.60217662e-19,
brem = False
output State:
[[ 0.00099062]
 [-0.00098804]
 [ 0.01619964]
 [-0.00263688]
 [ 0.00334329]]
Data added to pickle list for particle: 120
Particle 121:
eta 3.8208586652388554, phi -1.2292101371811095,
p 90.0, q -1.60217662e-19,
brem = False
input State:
[[-0.001     ]
 [ 0.001     ]
 [-0.04130618]
 [ 0.01468528]
 [-0.00333121]]

Simulating particle
Initiating Kalman filtering for particle: 121
Particle 121:
eta 3.8235280279290977, phi -1.229348069598756,
p 89.12866154088421, q -1.60217662e-19,
brem = False
output State:
[[-0.00097437]
 [ 0.0010036 ]
 [-0.04119798]
 [ 0.01464041]
 [-0.00336377]]
Data added to pickle list for particle: 121
Particle 122:
eta 3.0021120053212718, phi -1.5672219047346192,
p 91.0, q 1.60217662e-19,
brem = False
input State:
[[ 0.001     ]
 [-0.001     ]
 [-0.09960929]
 [ 0.00035605]
 [ 0.0032946 ]]

Simulating particle
Initiating Kalman filtering for particle: 122
Particle 122:
eta 3.0048557489384504, phi -1.5672142152012238,
p 94.16656050023863, q 1.60217662e-19,
brem = False
output State:
[[ 0.00105206]
 [-0.00100292]
 [-0.09933501]
 [ 0.00035583]
 [ 0.00318381]]
Data added to pickle list for particle: 122
Particle 123:
eta 4.333604546220694, phi -1.876901190795359,
p 91.0, q -1.60217662e-19,
brem = False
input State:
[[-0.001     ]
 [ 0.001     ]
 [-0.02502485]
 [-0.00790881]
 [-0.0032946 ]]

Simulating particle
Initiating Kalman filtering for particle: 123
Particle 123:
eta 4.336943519112466, phi -1.8759044563625622,
p 90.27471137118877, q -1.60217662e-19,
brem = False
output State:
[[-0.00099086]
 [ 0.00099872]
 [-0.02494925]
 [-0.00785757]
 [-0.00332107]]
Data added to pickle list for particle: 123
Particle 124:
eta 2.593713001113677, phi -0.8255587913205855,
p 92.0, q 1.60217662e-19,
brem = False
input State:
[[-0.001     ]
 [ 0.001     ]
 [-0.11047698]
 [ 0.10194153]
 [ 0.00325879]]

Simulating particle
Initiating Kalman filtering for particle: 124
Particle 124:
eta 2.597342832539976, phi -0.8266109091010408,
p 95.33229377153343, q 1.60217662e-19,
brem = False
output State:
[[-0.0009465 ]
 [ 0.00101989]
 [-0.11017902]
 [ 0.10145218]
 [ 0.00314488]]
Data added to pickle list for particle: 124
Particle 125:
eta 3.5502587184211327, phi -0.1934119143891602,
p 92.0, q -1.60217662e-19,
brem = False
input State:
[[ 0.001     ]
 [ 0.001     ]
 [-0.01104848]
 [ 0.05641002]
 [-0.00325879]]

Simulating particle
Initiating Kalman filtering for particle: 125
Particle 125:
eta 3.5549334825368764, phi -0.19388437867713176,
p 91.9423215239334, q -1.60217662e-19,
brem = False
output State:
[[ 0.00100924]
 [ 0.00101721]
 [-0.0110234 ]
 [ 0.0561413 ]
 [-0.00326083]]
Data added to pickle list for particle: 125
Particle 126:
eta 3.6967347552090453, phi -1.6074822309349537,
p 93.0, q 1.60217662e-19,
brem = False
input State:
[[-0.001     ]
 [ 0.001     ]
 [-0.04960591]
 [-0.00182065]
 [ 0.00322375]]

Simulating particle
Initiating Kalman filtering for particle: 126
Particle 126:
eta 3.6999733701450617, phi -1.6076051590352944,
p 94.9181169386387, q 1.60217662e-19,
brem = False
output State:
[[-0.0009788 ]
 [ 0.00100393]
 [-0.0494451 ]
 [-0.00182084]
 [ 0.0031586 ]]
Data added to pickle list for particle: 126
Particle 127:
eta 3.193377187421819, phi -1.905844849939828,
p 93.0, q -1.60217662e-19,
brem = False
input State:
[[-0.001     ]
 [ 0.001     ]
 [-0.07763349]
 [-0.02703008]
 [-0.00322375]]

Simulating particle
Initiating Kalman filtering for particle: 127
Particle 127:
eta 3.1965955823945444, phi -1.9051402905478658,
p 91.08848873370752, q -1.60217662e-19,
brem = False
output State:
[[-0.00096117]
 [ 0.00099694]
 [-0.07740217]
 [-0.02688841]
 [-0.0032914 ]]
Data added to pickle list for particle: 127
Particle 128:
eta 3.031695052071748, phi -1.6521604963933705,
p 94.0, q 1.60217662e-19,
brem = False
input State:
[[-0.001     ]
 [ 0.001     ]
 [-0.09637269]
 [-0.00785863]
 [ 0.00318945]]

Simulating particle
Initiating Kalman filtering for particle: 128
Particle 128:
eta 3.034446392799055, phi -1.6516572155198972,
p 97.2724749134716, q 1.60217662e-19,
brem = False
output State:
[[-0.00094586]
 [ 0.00098565]
 [-0.09611061]
 [-0.00778857]
 [ 0.00308215]]
Data added to pickle list for particle: 128
Particle 129:
eta 4.5427737004840365, phi 1.9599939098088532,
p 94.0, q -1.60217662e-19,
brem = False
input State:
[[ 0.001     ]
 [-0.001     ]
 [ 0.01969789]
 [-0.00807845]
 [-0.00318945]]

Simulating particle
Initiating Kalman filtering for particle: 129
Particle 129:
eta 4.546321458325923, phi 1.958417704822047,
p 94.76335729655342, q -1.60217662e-19,
brem = False
output State:
[[ 0.00098186]
 [-0.00101156]
 [ 0.01964078]
 [-0.00801888]
 [-0.00316376]]
Data added to pickle list for particle: 129
Particle 130:
eta 2.857823522910434, phi -2.3770014236877604,
p 95.0, q 1.60217662e-19,
brem = False
input State:
[[ 0.001     ]
 [-0.001     ]
 [-0.07972305]
 [-0.08311163]
 [ 0.00315588]]

Simulating particle
Initiating Kalman filtering for particle: 130
Particle 130:
eta 2.8617385497127947, phi -2.37610392108884,
p 98.01077752767766, q 1.60217662e-19,
brem = False
output State:
[[ 0.00103875]
 [-0.00102399]
 [-0.07948377]
 [-0.08271345]
 [ 0.00305893]]
Data added to pickle list for particle: 130
Particle 131:
eta 4.768727026202855, phi 2.7357202215073166,
p 95.0, q -1.60217662e-19,
brem = False
input State:
[[-0.001     ]
 [ 0.001     ]
 [ 0.00670547]
 [-0.01560381]
 [-0.00315588]]

Simulating particle
Initiating Kalman filtering for particle: 131
Particle 131:
eta 4.775382373521829, phi 2.734370910122939,
p 95.2907701214755, q -1.60217662e-19,
brem = False
output State:
[[-0.00099917]
 [ 0.00098549]
 [ 0.00668189]
 [-0.01549129]
 [-0.00314625]]
Data added to pickle list for particle: 131
Particle 132:
eta 2.9374142708350393, phi 0.7858258056403009,
p 96.0, q 1.60217662e-19,
brem = False
input State:
[[-0.001     ]
 [ 0.001     ]
 [ 0.07520031]
 [ 0.07513601]
 [ 0.00312301]]

Simulating particle
Initiating Kalman filtering for particle: 132
Particle 132:
eta 2.9409794186414286, phi 0.7868403093123849,
p 94.4524108460487, q 1.60217662e-19,
brem = False
output State:
[[-0.00105468]
 [ 0.00100876]
 [ 0.0750071 ]
 [ 0.07479107]
 [ 0.00317418]]
Data added to pickle list for particle: 132
Particle 133:
eta 2.8709671145309312, phi -1.7867126386104593,
p 96.0, q -1.60217662e-19,
brem = False
input State:
[[ 0.001     ]
 [-0.001     ]
 [-0.11101393]
 [-0.02434929]
 [-0.00312301]]

Simulating particle
Initiating Kalman filtering for particle: 133
Particle 133:
eta 2.873873937485661, phi -1.786138430076427,
p 93.62485756500524, q -1.60217662e-19,
brem = False
output State:
[[ 0.0010563 ]
 [-0.00101262]
 [-0.11070356]
 [-0.0242146 ]
 [-0.00320223]]
Data added to pickle list for particle: 133
Particle 134:
eta 4.288632183400545, phi 2.2696596490291707,
p 97.0, q 1.60217662e-19,
brem = False
input State:
[[-0.001     ]
 [-0.001     ]
 [ 0.02101695]
 [-0.01766153]
 [ 0.00309081]]

Simulating particle
Initiating Kalman filtering for particle: 134
Particle 134:
eta 4.292686532615489, phi 2.2695371379402403,
p 96.36765238786568, q 1.60217662e-19,
brem = False
output State:
[[-0.00100296]
 [-0.00100103]
 [ 0.02093403]
 [-0.01758748]
 [ 0.00311109]]
Data added to pickle list for particle: 134
Particle 135:
eta 4.381491362526852, phi -2.44431743861482,
p 97.0, q -1.60217662e-19,
brem = False
input State:
[[ 0.001     ]
 [ 0.001     ]
 [-0.01606439]
 [-0.01917813]
 [-0.00309081]]

Simulating particle
Initiating Kalman filtering for particle: 135
Particle 135:
eta 4.3856268192054735, phi -2.444367184456832,
p 96.22015400678727, q -1.60217662e-19,
brem = False
output State:
[[ 0.00100085]
 [ 0.00100133]
 [-0.01599712]
 [-0.01909975]
 [-0.00311586]]
Data added to pickle list for particle: 135
Particle 136:
eta 2.472411966928441, phi -1.9251228945920902,
p 98.0, q 1.60217662e-19,
brem = False
input State:
[[ 0.001     ]
 [-0.001     ]
 [-0.15941378]
 [-0.05897343]
 [ 0.00305927]]

Simulating particle
Initiating Kalman filtering for particle: 136
Particle 136:
eta 2.4753829397548857, phi -1.9244747517530694,
p 104.20149933128384, q 1.60217662e-19,
brem = False
output State:
[[ 0.00109291]
 [-0.00100871]
 [-0.1589722 ]
 [-0.05869296]
 [ 0.0028772 ]]
Data added to pickle list for particle: 136
Particle 137:
eta 2.05442057034594, phi 1.0483854748711243,
p 98.0, q -1.60217662e-19,
brem = False
input State:
[[-0.001     ]
 [ 0.001     ]
 [ 0.22585405]
 [ 0.13003941]
 [-0.00305927]]

Simulating particle
Initiating Kalman filtering for particle: 137
Particle 137:
eta 2.057500356303289, phi 1.0491380969816155,
p 106.90008553601625, q -1.60217662e-19,
brem = False
output State:
[[-0.00112276]
 [ 0.00101272]
 [ 0.22523394]
 [ 0.12945676]
 [-0.00280457]]
Data added to pickle list for particle: 137
Particle 138:
eta 2.0762150671279156, phi -1.4024916044190352,
p 99.00000000000001, q 1.60217662e-19,
brem = False
input State:
[[-0.001     ]
 [-0.001     ]
 [-0.25121469]
 [ 0.04268441]
 [ 0.00302837]]

Simulating particle
Initiating Kalman filtering for particle: 138
Particle 138:
eta 2.078971409155618, phi -1.4027075541966525,
p 109.45015471942462, q 1.60217662e-19,
brem = False
output State:
[[-0.00086247]
 [-0.00099967]
 [-0.25051039]
 [ 0.04250909]
 [ 0.00273922]]
Data added to pickle list for particle: 138
Particle 139:
eta 4.079010415583689, phi 0.401167689846936,
p 99.00000000000001, q -1.60217662e-19,
brem = False
input State:
[[-0.001     ]
 [-0.001     ]
 [ 0.01322137]
 [ 0.03116997]
 [-0.00302837]]

Simulating particle
Initiating Kalman filtering for particle: 139
Particle 139:
eta 4.083379826684615, phi 0.40251504563544355,
p 99.20035729110427, q -1.60217662e-19,
brem = False
output State:
[[-0.00101288]
 [-0.00099059]
 [ 0.0132055 ]
 [ 0.03101623]
 [-0.00302225]]
Data added to pickle list for particle: 139