This is the start of the log file generated at 11_26_16h26m13s

magfield_ shape: cs, sim_stepsize: 0.001, detector_length: 11
15 VELO-type subdetectors added at z-locations: [20, 50, 80, 110, 140, 170, 200, 230, 260, 290, 450, 600, 650, 700, 750]
4 TT-type subdetectors added at z-locations: [2330, 2370, 2600, 2640]
24 OT-type subdetectors added at z-locations: [7860, 7870, 7910, 7920, 7980, 7990, 8030, 8040, 8540, 8550, 8590, 8600, 8660, 8670, 8710, 8720, 9230, 9240, 9280, 9290, 9350, 9360, 9400, 9410]
The detector is built.
Generating 140 particles, from 30 to 100 GeV. Brem = False, ms = False

Particle 0:
eta 4.276865378892339, phi -1.2022651736501724,
p 30.000000000000004, q 1.60217662e-19,
brem = False
input State:
[[-0.001     ]
 [ 0.001     ]
 [-0.02591254]
 [ 0.01000676]
 [ 0.00999362]]

Simulating particle
Initiating Kalman filtering for particle: 0
Particle 0:
eta 4.186201204145924, phi -1.2305791971985824,
p 31.832312147612285, q 1.60217662e-19,
brem = False
output State:
[[-2.19664749e-05]
 [ 6.31809649e-04]
 [-2.86715807e-02]
 [ 1.01492004e-02]
 [ 9.41837017e-03]]
Data added to pickle list for particle: 0
Particle 1:
eta 3.294930806855326, phi -0.23747607921492903,
p 30.000000000000004, q -1.60217662e-19,
brem = False
input State:
[[ 0.001     ]
 [ 0.001     ]
 [-0.01746575]
 [ 0.0721596 ]
 [-0.00999362]]

Simulating particle
Initiating Kalman filtering for particle: 1
Particle 1:
eta 3.306879970990548, phi -0.20006412099524326,
p 32.150770884048825, q -1.60217662e-19,
brem = False
output State:
[[ 0.00010265]
 [ 0.0016306 ]
 [-0.01457879]
 [ 0.07189577]
 [-0.00932508]]
Data added to pickle list for particle: 1
Particle 2:
eta 2.9043027895714943, phi 0.2417035029666186,
p 31.0, q 1.60217662e-19,
brem = False
input State:
[[-0.001     ]
 [ 0.001     ]
 [ 0.02630625]
 [ 0.10670911]
 [ 0.00967124]]

Simulating particle
Initiating Kalman filtering for particle: 2
Particle 2:
eta 2.9069364560062656, phi 0.21693865695825537,
p 32.75662672709526, q 1.60217662e-19,
brem = False
output State:
[[-0.00015129]
 [ 0.00028862]
 [ 0.02359322]
 [ 0.10704381]
 [ 0.00915261]]
Data added to pickle list for particle: 2
Particle 3:
eta 4.891649509444413, phi 2.6710516861354994,
p 31.0, q -1.60217662e-19,
brem = False
input State:
[[ 0.001     ]
 [ 0.001     ]
 [ 0.0068091 ]
 [-0.01338669]
 [-0.00967124]]

Simulating particle
Initiating Kalman filtering for particle: 3
Particle 3:
eta 4.793398736895898, phi 2.531189822461463,
p 32.658241141559266, q -1.60217662e-19,
brem = False
output State:
[[ 0.00012232]
 [ 0.00153124]
 [ 0.00949768]
 [-0.01357745]
 [-0.00918018]]
Data added to pickle list for particle: 3
Particle 4:
eta 4.217162989537566, phi -0.09369334404650012,
p 32.0, q 1.60217662e-19,
brem = False
input State:
[[-0.001     ]
 [-0.001     ]
 [-0.00275872]
 [ 0.02935788]
 [ 0.00936902]]

Simulating particle
Initiating Kalman filtering for particle: 4
Particle 4:
eta 4.1894943545566035, phi -0.18115648027951892,
p 33.846670008597826, q 1.60217662e-19,
brem = False
output State:
[[-0.00021238]
 [-0.00179569]
 [-0.00546174]
 [ 0.02981878]
 [ 0.00885784]]
Data added to pickle list for particle: 4
Particle 5:
eta 3.529965893509227, phi 1.1104093428364916,
p 32.0, q -1.60217662e-19,
brem = False
input State:
[[-0.001     ]
 [-0.001     ]
 [ 0.05255434]
 [ 0.02606332]
 [-0.00936902]]

Simulating particle
Initiating Kalman filtering for particle: 5
Particle 5:
eta 3.498229936371461, phi 1.1223133375782606,
p 34.11702941842997, q -1.60217662e-19,
brem = False
output State:
[[ 0.00064639]
 [-0.00170479]
 [ 0.05456843]
 [ 0.02625754]
 [-0.00878765]]
Data added to pickle list for particle: 5
Particle 6:
eta 4.828729116586344, phi 2.243330475769513,
p 33.0, q 1.60217662e-19,
brem = False
input State:
[[-0.001     ]
 [ 0.001     ]
 [ 0.01251153]
 [-0.00996402]
 [ 0.00908511]]

Simulating particle
Initiating Kalman filtering for particle: 6
Particle 6:
eta 4.9763537609171316, phi 2.3542893937096867,
p 34.69245076713782, q 1.60217662e-19,
brem = False
output State:
[[-0.00020547]
 [ 0.00023759]
 [ 0.00977594]
 [-0.00973876]
 [ 0.00864189]]
Data added to pickle list for particle: 6
Particle 7:
eta 4.536861333028005, phi -3.1048694318382575,
p 33.0, q -1.60217662e-19,
brem = False
input State:
[[-0.001     ]
 [ 0.001     ]
 [-0.0007863 ]
 [-0.02140193]
 [-0.00908511]]

Simulating particle
Initiating Kalman filtering for particle: 7
Particle 7:
eta 4.543055720980189, phi 3.0827886951362835,
p 35.575478166000444, q -1.60217662e-19,
brem = False
output State:
[[ 0.00065007]
 [ 0.00029531]
 [ 0.00125087]
 [-0.0212473 ]
 [-0.00842739]]
Data added to pickle list for particle: 7
Particle 8:
eta 2.5267052246276767, phi 0.14430719310462556,
p 34.0, q 1.60217662e-19,
brem = False
input State:
[[-0.001     ]
 [-0.001     ]
 [ 0.02313441]
 [ 0.15919926]
 [ 0.0088179 ]]

Simulating particle
Initiating Kalman filtering for particle: 8
Particle 8:
eta 2.5279018666216717, phi 0.1272823515550916,
p 35.58897752078768, q 1.60217662e-19,
brem = False
output State:
[[-1.58919302e-04]
 [-1.67987432e-03]
 [ 2.03961103e-02]
 [ 1.59376744e-01]
 [ 8.42419536e-03]]
Data added to pickle list for particle: 8
Particle 9:
eta 4.924278598365371, phi 2.1604688502555374,
p 34.0, q -1.60217662e-19,
brem = False
input State:
[[-0.001     ]
 [-0.001     ]
 [ 0.01208179]
 [-0.0080837 ]
 [-0.0088179 ]]

Simulating particle
Initiating Kalman filtering for particle: 9
Particle 9:
eta 4.820495558891239, phi 2.0861430677207817,
p 36.381954667969346, q -1.60217662e-19,
brem = False
output State:
[[ 0.0005885 ]
 [-0.0018237 ]
 [ 0.01403213]
 [-0.00794779]
 [-0.00824058]]
Data added to pickle list for particle: 9
Particle 10:
eta 3.523133866904768, phi -0.8985476153106117,
p 35.0, q 1.60217662e-19,
brem = False
input State:
[[ 0.001     ]
 [-0.001     ]
 [-0.04621388]
 [ 0.03678259]
 [ 0.00856596]]

Simulating particle
Initiating Kalman filtering for particle: 10
Particle 10:
eta 3.497473995716541, phi -0.9223871979088867,
p 37.18743171895634, q 1.60217662e-19,
brem = False
output State:
[[-0.00074073]
 [-0.00047189]
 [-0.0483034 ]
 [ 0.03659935]
 [ 0.00806209]]
Data added to pickle list for particle: 10
Particle 11:
eta 3.831612683002129, phi -2.9385615907723848,
p 35.0, q -1.60217662e-19,
brem = False
input State:
[[-0.001     ]
 [ 0.001     ]
 [-0.00874501]
 [-0.04247882]
 [-0.00856596]]

Simulating particle
Initiating Kalman filtering for particle: 11
Particle 11:
eta 3.8468626934953347, phi -2.979703775114211,
p 37.366072034871955, q -1.60217662e-19,
brem = False
output State:
[[ 5.06178172e-04]
 [-1.40047241e-05]
 [-6.88454200e-03]
 [-4.21541822e-02]
 [-8.02354871e-03]]
Data added to pickle list for particle: 11
Particle 12:
eta 2.807544156777897, phi -1.2558944313705536,
p 36.0, q 1.60217662e-19,
brem = False
input State:
[[ 0.001     ]
 [ 0.001     ]
 [-0.11519013]
 [ 0.03752214]
 [ 0.00832801]]

Simulating particle
Initiating Kalman filtering for particle: 12
Particle 12:
eta 2.791272854585154, phi -1.2614530065229346,
p 38.36300662729394, q 1.60217662e-19,
brem = False
output State:
[[-0.00072309]
 [ 0.00154817]
 [-0.11730412]
 [ 0.03749082]
 [ 0.00781504]]
Data added to pickle list for particle: 12
Particle 13:
eta 4.442217776961965, phi 2.078503652761343,
p 36.0, q -1.60217662e-19,
brem = False
input State:
[[ 0.001     ]
 [ 0.001     ]
 [ 0.02057321]
 [-0.01144596]
 [-0.00832801]]

Simulating particle
Initiating Kalman filtering for particle: 13
Particle 13:
eta 4.347306678418497, phi 2.0353033076574616,
p 37.39972424248148, q -1.60217662e-19,
brem = False
output State:
[[ 0.00025298]
 [ 0.00187289]
 [ 0.0231446 ]
 [-0.01159717]
 [-0.00801633]]
Data added to pickle list for particle: 13
Particle 14:
eta 4.08118538513397, phi 2.289861082980185,
p 36.99999999999999, q 1.60217662e-19,
brem = False
input State:
[[-0.001     ]
 [-0.001     ]
 [ 0.02542021]
 [-0.02225322]
 [ 0.00810293]]

Simulating particle
Initiating Kalman filtering for particle: 14
Particle 14:
eta 4.1405636303860645, phi 2.3340957475442856,
p 38.17550352218485, q 1.60217662e-19,
brem = False
output State:
[[-0.00012132]
 [-0.00174121]
 [ 0.02300326]
 [-0.0220084 ]
 [ 0.00785343]]
Data added to pickle list for particle: 14
Particle 15:
eta 4.152616266281422, phi 0.1683881842906246,
p 36.99999999999999, q -1.60217662e-19,
brem = False
input State:
[[-0.001     ]
 [-0.001     ]
 [ 0.00527153]
 [ 0.03100935]
 [-0.00810293]]

Simulating particle
Initiating Kalman filtering for particle: 15
Particle 15:
eta 4.132327628501872, phi 0.22919783644700312,
p 39.29756494439133, q -1.60217662e-19,
brem = False
output State:
[[ 0.00063256]
 [-0.0017826 ]
 [ 0.00729283]
 [ 0.03125981]
 [-0.00762919]]
Data added to pickle list for particle: 15
Particle 16:
eta 4.84948961492614, phi -1.620358059864643,
p 38.0, q 1.60217662e-19,
brem = False
input State:
[[-0.001     ]
 [ 0.001     ]
 [-0.01564647]
 [-0.0007761 ]
 [ 0.0078897 ]]

Simulating particle
Initiating Kalman filtering for particle: 16
Particle 16:
eta 4.700620862563435, phi -1.5959393101746513,
p 39.453044503822426, q 1.60217662e-19,
brem = False
output State:
[[-0.00018376]
 [ 0.00016576]
 [-0.01817502]
 [-0.00045707]
 [ 0.00759912]]
Data added to pickle list for particle: 16
Particle 17:
eta 4.939211343799406, phi -1.385219466354844,
p 38.0, q -1.60217662e-19,
brem = False
input State:
[[ 0.001     ]
 [ 0.001     ]
 [-0.01407532]
 [ 0.00264246]
 [-0.0078897 ]]

Simulating particle
Initiating Kalman filtering for particle: 17
Particle 17:
eta 5.135709834931634, phi -1.3689258207896455,
p 39.643887008828614, q -1.60217662e-19,
brem = False
output State:
[[ 0.00014351]
 [ 0.00171113]
 [-0.01152722]
 [ 0.00235914]
 [-0.00756254]]
Data added to pickle list for particle: 17
Particle 18:
eta 2.082681901014388, phi -0.3378661969200174,
p 39.0, q 1.60217662e-19,
brem = False
input State:
[[ 0.001     ]
 [-0.001     ]
 [-0.0839031 ]
 [ 0.23881028]
 [ 0.0076874 ]]

Simulating particle
Initiating Kalman filtering for particle: 18
Particle 18:
eta 2.0793423621099, phi -0.3452139562690292,
p 40.78046871049066, q 1.60217662e-19,
brem = False
output State:
[[-0.00080461]
 [-0.00080304]
 [-0.08595115]
 [ 0.23900936]
 [ 0.00735177]]
Data added to pickle list for particle: 18
Particle 19:
eta 2.7009191433069564, phi 0.7813432599085528,
p 39.0, q -1.60217662e-19,
brem = False
input State:
[[ 0.001     ]
 [ 0.001     ]
 [ 0.09499809]
 [ 0.09577165]
 [-0.0076874 ]]

Simulating particle
Initiating Kalman filtering for particle: 19
Particle 19:
eta 2.6879578798136503, phi 0.7956255582713887,
p 40.37178855460042, q -1.60217662e-19,
brem = False
output State:
[[ 0.00029395]
 [ 0.00195499]
 [ 0.09762483]
 [ 0.09564809]
 [-0.00742619]]
Data added to pickle list for particle: 19
Particle 20:
eta 3.8537497906963547, phi 2.910762214510526,
p 40.0, q 1.60217662e-19,
brem = False
input State:
[[ 0.001     ]
 [ 0.001     ]
 [ 0.00970493]
 [-0.04129415]
 [ 0.00749521]]

Simulating particle
Initiating Kalman filtering for particle: 20
Particle 20:
eta 3.8549151297860886, phi 2.9585895583001274,
p 42.071852381563176, q 1.60217662e-19,
brem = False
output State:
[[-0.00057905]
 [ 0.00183569]
 [ 0.0077106 ]
 [-0.04166229]
 [ 0.00712611]]
Data added to pickle list for particle: 20
Particle 21:
eta 4.278396480245863, phi 2.581898050793263,
p 40.0, q -1.60217662e-19,
brem = False
input State:
[[-0.001     ]
 [-0.001     ]
 [ 0.01472532]
 [-0.02350319]
 [-0.00749521]]

Simulating particle
Initiating Kalman filtering for particle: 21
Particle 21:
eta 4.248715571162713, phi 2.5207083815744435,
p 41.516579806676475, q -1.60217662e-19,
brem = False
output State:
[[ 0.00063617]
 [-0.00163531]
 [ 0.01662129]
 [-0.0232386 ]
 [-0.00722142]]
Data added to pickle list for particle: 21
Particle 22:
eta 2.4058144758341906, phi -1.8710918160063617,
p 41.0, q 1.60217662e-19,
brem = False
input State:
[[-0.001     ]
 [ 0.001     ]
 [-0.17372485]
 [-0.05379565]
 [ 0.0073124 ]]

Simulating particle
Initiating Kalman filtering for particle: 22
Particle 22:
eta 2.3930503580711675, phi -1.8675513534440356,
p 41.90450056561641, q 1.60217662e-19,
brem = False
output State:
[[-7.79449175e-05]
 [ 5.07222975e-04]
 [-1.76185676e-01]
 [-5.38748173e-02]
 [ 7.15456562e-03]]
Data added to pickle list for particle: 22
Particle 23:
eta 3.928454565768171, phi 1.7019762354258228,
p 41.0, q -1.60217662e-19,
brem = False
input State:
[[-0.001     ]
 [ 0.001     ]
 [ 0.03902514]
 [-0.00514888]
 [-0.0073124 ]]

Simulating particle
Initiating Kalman filtering for particle: 23
Particle 23:
eta 3.881555649471251, phi 1.691588594270326,
p 42.48656959412404, q -1.60217662e-19,
brem = False
output State:
[[ 0.0006761 ]
 [ 0.00040459]
 [ 0.04095438]
 [-0.00497117]
 [-0.00705655]]
Data added to pickle list for particle: 23
Particle 24:
eta 2.8438791568245603, phi -0.5051434723063889,
p 42.0, q 1.60217662e-19,
brem = False
input State:
[[-0.001     ]
 [ 0.001     ]
 [-0.05652073]
 [ 0.10220748]
 [ 0.0071383 ]]

Simulating particle
Initiating Kalman filtering for particle: 24
Particle 24:
eta 2.8305568290768295, phi -0.520297538248854,
p 42.61367265394512, q 1.60217662e-19,
brem = False
output State:
[[-0.00018074]
 [-0.00013542]
 [-0.05884715]
 [ 0.10270779]
 [ 0.0070355 ]]
Data added to pickle list for particle: 24
Particle 25:
eta 3.8479170706841863, phi 3.0137492035604216,
p 42.0, q -1.60217662e-19,
brem = False
input State:
[[ 0.001     ]
 [ 0.001     ]
 [ 0.00543993]
 [-0.04231941]
 [-0.0071383 ]]

Simulating particle
Initiating Kalman filtering for particle: 25
Particle 25:
eta 3.835710333999656, phi 2.956580906547279,
p 43.64403610976967, q -1.60217662e-19,
brem = False
output State:
[[ 0.0001766 ]
 [ 0.00179766]
 [ 0.00794554]
 [-0.04245501]
 [-0.0068694 ]]
Data added to pickle list for particle: 25
Particle 26:
eta 2.236940199829631, phi -2.9686818393086587,
p 43.0, q 1.60217662e-19,
brem = False
input State:
[[ 0.001     ]
 [ 0.001     ]
 [-0.03716857]
 [-0.21281146]
 [ 0.00697229]]

Simulating particle
Initiating Kalman filtering for particle: 26
Particle 26:
eta 2.2334044887271816, phi -2.961257340841232,
p 43.9356018474073, q 1.60217662e-19,
brem = False
output State:
[[-0.00055949]
 [ 0.0018498 ]
 [-0.03888797]
 [-0.21329987]
 [ 0.00682382]]
Data added to pickle list for particle: 26
Particle 27:
eta 4.017463554820977, phi 2.5357567239911902,
p 43.0, q -1.60217662e-19,
brem = False
input State:
[[-0.001     ]
 [-0.001     ]
 [ 0.02050518]
 [-0.02960017]
 [-0.00697229]]

Simulating particle
Initiating Kalman filtering for particle: 27
Particle 27:
eta 3.99396669556282, phi 2.4873212354142282,
p 44.44316452672053, q -1.60217662e-19,
brem = False
output State:
[[ 0.00061054]
 [-0.00175479]
 [ 0.02243564]
 [-0.02925244]
 [-0.00674589]]
Data added to pickle list for particle: 27
Particle 28:
eta 4.187066285492894, phi -2.744529544211222,
p 44.0, q 1.60217662e-19,
brem = False
input State:
[[-0.001     ]
 [-0.001     ]
 [-0.01175162]
 [-0.02802437]
 [ 0.00681383]]

Simulating particle
Initiating Kalman filtering for particle: 28
Particle 28:
eta 4.157130861736491, phi -2.672184830638727,
p 45.26291077184362, q 1.60217662e-19,
brem = False
output State:
[[-0.00018606]
 [-0.00187682]
 [-0.01416446]
 [-0.0279256 ]
 [ 0.00662371]]
Data added to pickle list for particle: 28
Particle 29:
eta 2.4903603369223903, phi 2.1928087124346614,
p 44.0, q -1.60217662e-19,
brem = False
input State:
[[-0.001     ]
 [ 0.001     ]
 [ 0.13564633]
 [-0.09725183]
 [-0.00681383]]

Simulating particle
Initiating Kalman filtering for particle: 29
Particle 29:
eta 2.481274375665991, phi 2.1849034893228354,
p 45.49931557437259, q -1.60217662e-19,
brem = False
output State:
[[ 0.00070991]
 [ 0.00047501]
 [ 0.13767341]
 [-0.09706663]
 [-0.0065893 ]]
Data added to pickle list for particle: 29
Particle 30:
eta 4.196186472154034, phi -1.1904039368219772,
p 45.0, q 1.60217662e-19,
brem = False
input State:
[[-0.001     ]
 [-0.001     ]
 [-0.02796009]
 [ 0.01118034]
 [ 0.00666241]]

Simulating particle
Initiating Kalman filtering for particle: 30
Particle 30:
eta 4.123943667961967, phi -1.2116988831902682,
p 46.19376655287386, q 1.60217662e-19,
brem = False
output State:
[[-0.00018322]
 [-0.00192716]
 [-0.03030491]
 [ 0.01137564]
 [ 0.00649024]]
Data added to pickle list for particle: 30
Particle 31:
eta 4.087840843581398, phi -1.3792515993333383,
p 45.0, q -1.60217662e-19,
brem = False
input State:
[[-0.001     ]
 [ 0.001     ]
 [-0.0329465 ]
 [ 0.00638906]
 [-0.00666241]]

Simulating particle
Initiating Kalman filtering for particle: 31
Particle 31:
eta 4.141821658717514, phi -1.3648822219635386,
p 46.232181060160286, q -1.60217662e-19,
brem = False
output State:
[[ 0.00062352]
 [ 0.00045222]
 [-0.03112407]
 [ 0.00650103]
 [-0.00648484]]
Data added to pickle list for particle: 31
Particle 32:
eta 2.0991425035402225, phi 2.2500327817718904,
p 46.0, q 1.60217662e-19,
brem = False
input State:
[[ 0.001     ]
 [-0.001     ]
 [ 0.19362709]
 [-0.15633438]
 [ 0.00651758]]

Simulating particle
Initiating Kalman filtering for particle: 32
Particle 32:
eta 2.105364345486898, phi 2.2538720310973535,
p 46.68656917799473, q 1.60217662e-19,
brem = False
output State:
[[-0.0007446 ]
 [-0.00074517]
 [ 0.19179204]
 [-0.1560729 ]
 [ 0.00642173]]
Data added to pickle list for particle: 32
Particle 33:
eta 4.44766584917942, phi 1.3110714121408669,
p 46.0, q -1.60217662e-19,
brem = False
input State:
[[ 0.001     ]
 [ 0.001     ]
 [ 0.0226296 ]
 [ 0.0060133 ]
 [-0.00651758]]

Simulating particle
Initiating Kalman filtering for particle: 33
Particle 33:
eta 4.351279058059241, phi 1.3340119432273427,
p 47.79122558532174, q -1.60217662e-19,
brem = False
output State:
[[ 0.00013866]
 [ 0.00168901]
 [ 0.02506545]
 [ 0.00604857]
 [-0.0062733 ]]
Data added to pickle list for particle: 33
Particle 34:
eta 4.856080961778586, phi -0.8156386968213681,
p 47.0, q 1.60217662e-19,
brem = False
input State:
[[-0.001     ]
 [ 0.001     ]
 [-0.01133225]
 [ 0.01066678]
 [ 0.0063789 ]]

Simulating particle
Initiating Kalman filtering for particle: 34
Particle 34:
eta 4.754187211440575, phi -0.9045931596884679,
p 48.0662947580594, q 1.60217662e-19,
brem = False
output State:
[[-0.00012098]
 [ 0.00041907]
 [-0.01354764]
 [ 0.0106497 ]
 [ 0.0062374 ]]
Data added to pickle list for particle: 34
Particle 35:
eta 3.530697631883272, phi 2.7920716002316617,
p 47.0, q -1.60217662e-19,
brem = False
input State:
[[ 0.001     ]
 [ 0.001     ]
 [ 0.02007403]
 [-0.05507492]
 [-0.0063789 ]]

Simulating particle
Initiating Kalman filtering for particle: 35
Particle 35:
eta 3.513954358712147, phi 2.757935918069279,
p 48.20425291374906, q -1.60217662e-19,
brem = False
output State:
[[ 0.00012229]
 [ 0.00177438]
 [ 0.02231312]
 [-0.05527714]
 [-0.00621954]]
Data added to pickle list for particle: 35
Particle 36:
eta 4.257977779521353, phi -0.4359470353401872,
p 48.0, q 1.60217662e-19,
brem = False
input State:
[[ 0.001     ]
 [ 0.001     ]
 [-0.01195336]
 [ 0.02565987]
 [ 0.00624601]]

Simulating particle
Initiating Kalman filtering for particle: 36
Particle 36:
eta 4.243000330152199, phi -0.49761616938509134,
p 49.234904803835896, q 1.60217662e-19,
brem = False
output State:
[[-0.00048688]
 [ 0.0019491 ]
 [-0.01371604]
 [ 0.02524992]
 [ 0.00608935]]
Data added to pickle list for particle: 36
Particle 37:
eta 2.5044280523563383, phi 1.5201760338462382,
p 48.0, q -1.60217662e-19,
brem = False
input State:
[[ 0.001     ]
 [ 0.001     ]
 [ 0.16433279]
 [ 0.00832569]
 [-0.00624601]]

Simulating particle
Initiating Kalman filtering for particle: 37
Particle 37:
eta 2.4911770078600655, phi 1.5217470326418596,
p 48.72649048988496, q -1.60217662e-19,
brem = False
output State:
[[ 0.00017054]
 [ 0.00190968]
 [ 0.16656799]
 [ 0.0081766 ]
 [-0.00615289]]
Data added to pickle list for particle: 37
Particle 38:
eta 3.556521386981359, phi 0.8300844708726848,
p 49.0, q 1.60217662e-19,
brem = False
input State:
[[-0.001     ]
 [ 0.001     ]
 [ 0.04215565]
 [ 0.03854694]
 [ 0.00611854]]

Simulating particle
Initiating Kalman filtering for particle: 38
Particle 38:
eta 3.582807016018315, phi 0.7996477209055625,
p 50.56771625692352, q 1.60217662e-19,
brem = False
output State:
[[-0.00010758]
 [ 0.00014427]
 [ 0.03989868]
 [ 0.0387775 ]
 [ 0.00592885]]
Data added to pickle list for particle: 38
Particle 39:
eta 3.5024282263310837, phi -2.8214792959485546,
p 49.0, q -1.60217662e-19,
brem = False
input State:
[[ 0.001     ]
 [-0.001     ]
 [-0.0189758 ]
 [-0.05723961]
 [-0.00611854]]

Simulating particle
Initiating Kalman filtering for particle: 39
Particle 39:
eta 3.513939321119979, phi -2.8577521163515582,
p 50.50860261216278, q -1.60217662e-19,
brem = False
output State:
[[ 2.10194892e-05]
 [-4.54243362e-04]
 [-1.66939075e-02]
 [-5.72263700e-02]
 [-5.93579081e-03]]
Data added to pickle list for particle: 39
Particle 40:
eta 4.961899158002993, phi 1.5703565031025077,
p 50.0, q 1.60217662e-19,
brem = False
input State:
[[1.00000000e-03]
 [1.00000000e-03]
 [1.39999282e-02]
 [6.15750051e-06]
 [5.99616999e-03]]

Simulating particle
Initiating Kalman filtering for particle: 40
Particle 40:
eta 5.102362488083187, phi 1.6062150813906209,
p 51.7923360566465, q 1.60217662e-19,
brem = False
output State:
[[-0.00052231]
 [ 0.00182449]
 [ 0.01215754]
 [-0.00043079]
 [ 0.00578867]]
Data added to pickle list for particle: 40
Particle 41:
eta 3.8104701981313287, phi 0.15803436869097068,
p 50.0, q -1.60217662e-19,
brem = False
input State:
[[ 0.001     ]
 [-0.001     ]
 [ 0.00697138]
 [ 0.04374524]
 [-0.00599617]]

Simulating particle
Initiating Kalman filtering for particle: 41
Particle 41:
eta 3.8007597943068396, phi 0.20547532539008115,
p 50.965628297183095, q -1.60217662e-19,
brem = False
output State:
[[-1.42315165e-05]
 [-4.59677894e-04]
 [ 9.12635648e-03]
 [ 4.37889800e-02]
 [-5.88256261e-03]]
Data added to pickle list for particle: 41
Particle 42:
eta 4.046755343878584, phi -0.6487220129203733,
p 51.0, q 1.60217662e-19,
brem = False
input State:
[[-0.001     ]
 [-0.001     ]
 [-0.02112697]
 [ 0.02786502]
 [ 0.0058786 ]]

Simulating particle
Initiating Kalman filtering for particle: 42
Particle 42:
eta 4.004358263104609, phi -0.6922163074316344,
p 51.85824851474864, q 1.60217662e-19,
brem = False
output State:
[[-0.00025994]
 [-0.0020657 ]
 [-0.0232858 ]
 [ 0.02808668]
 [ 0.00578131]]
Data added to pickle list for particle: 42
Particle 43:
eta 4.58086843419244, phi 1.311978225667002,
p 51.0, q -1.60217662e-19,
brem = False
input State:
[[ 0.001     ]
 [ 0.001     ]
 [ 0.01981155]
 [ 0.00524523]
 [-0.0058786 ]]

Simulating particle
Initiating Kalman filtering for particle: 43
Particle 43:
eta 4.47710703033684, phi 1.3401305282847227,
p 53.051177559594464, q -1.60217662e-19,
brem = False
output State:
[[ 0.00012675]
 [ 0.00174494]
 [ 0.02213327]
 [ 0.00519791]
 [-0.00565131]]
Data added to pickle list for particle: 43
Particle 44:
eta 2.5167377237150435, phi -1.80082447250078,
p 51.99999999999999, q 1.60217662e-19,
brem = False
input State:
[[-0.001     ]
 [-0.001     ]
 [-0.15822357]
 [-0.0370517 ]
 [ 0.00576555]]

Simulating particle
Initiating Kalman filtering for particle: 44
Particle 44:
eta 2.503915376988344, phi -1.7969992657941918,
p 53.13472533512378, q 1.60217662e-19,
brem = False
output State:
[[-1.53277829e-04]
 [-1.95981173e-03]
 [-1.60435153e-01]
 [-3.69228146e-02]
 [ 5.64242117e-03]]
Data added to pickle list for particle: 44
Particle 45:
eta 2.7934360463466605, phi -1.5189520861347956,
p 51.99999999999999, q -1.60217662e-19,
brem = False
input State:
[[ 0.001     ]
 [ 0.001     ]
 [-0.12271636]
 [ 0.00636784]
 [-0.00576555]]

Simulating particle
Initiating Kalman filtering for particle: 45
Particle 45:
eta 2.810535338141564, phi -1.520028479626539,
p 52.59921781771125, q -1.60217662e-19,
brem = False
output State:
[[ 0.00013655]
 [ 0.00186763]
 [-0.12062725]
 [ 0.00612925]
 [-0.00569987]]
Data added to pickle list for particle: 45
Particle 46:
eta 4.720242889837595, phi -0.12236461708377194,
p 53.0, q 1.60217662e-19,
brem = False
input State:
[[ 0.001     ]
 [ 0.001     ]
 [-0.00217601]
 [ 0.01769414]
 [ 0.00565676]]

Simulating particle
Initiating Kalman filtering for particle: 46
Particle 46:
eta 4.715357793938714, phi -0.19604109135257203,
p 52.35803864258774, q 1.60217662e-19,
brem = False
output State:
[[-0.00050863]
 [ 0.00152458]
 [-0.00348958]
 [ 0.01757161]
 [ 0.00572612]]
Data added to pickle list for particle: 46
Particle 47:
eta 4.902961140238755, phi -1.2701828243981481,
p 53.0, q -1.60217662e-19,
brem = False
input State:
[[ 0.001     ]
 [ 0.001     ]
 [-0.014184  ]
 [ 0.00439716]
 [-0.00565676]]

Simulating particle
Initiating Kalman filtering for particle: 47
Particle 47:
eta 5.052353801011598, phi -1.219826548799775,
p 54.404082134558294, q -1.60217662e-19,
brem = False
output State:
[[ 4.07593809e-05]
 [ 1.54285133e-03]
 [-1.20094287e-02]
 [ 4.39698667e-03]
 [-5.51077212e-03]]
Data added to pickle list for particle: 47
Particle 48:
eta 2.1200673255947895, phi 0.3940031567653967,
p 54.0, q 1.60217662e-19,
brem = False
input State:
[[-0.001     ]
 [ 0.001     ]
 [ 0.09349808]
 [ 0.22489436]
 [ 0.00555201]]

Simulating particle
Initiating Kalman filtering for particle: 48
Particle 48:
eta 2.122964412019617, phi 0.38655350278212053,
p 54.395373927344, q 1.60217662e-19,
brem = False
output State:
[[-1.45019273e-05]
 [ 2.67070563e-04]
 [ 9.15467591e-02]
 [ 2.24913061e-01]
 [ 5.51165435e-03]]
Data added to pickle list for particle: 48
Particle 49:
eta 4.886862328756517, phi -0.7826931085279153,
p 54.0, q -1.60217662e-19,
brem = False
input State:
[[-0.001     ]
 [ 0.001     ]
 [-0.01064203]
 [ 0.01069976]
 [-0.00555201]]

Simulating particle
Initiating Kalman filtering for particle: 49
Particle 49:
eta 4.929956968056282, phi -0.6863270682048034,
p 53.99224471352931, q -1.60217662e-19,
brem = False
output State:
[[ 0.00047643]
 [ 0.00012826]
 [-0.00915975]
 [ 0.0111816 ]
 [-0.00555281]]
Data added to pickle list for particle: 49
Particle 50:
eta 3.195956504114142, phi -2.8025978957815383,
p 54.99999999999999, q 1.60217662e-19,
brem = False
input State:
[[ 0.001     ]
 [-0.001     ]
 [-0.02726558]
 [-0.07732584]
 [ 0.00545106]]

Simulating particle
Initiating Kalman filtering for particle: 50
Particle 50:
eta 3.185516510631461, phi -2.786520801109261,
p 55.26849577066248, q 1.60217662e-19,
brem = False
output State:
[[-0.00057753]
 [-0.00040236]
 [-0.02880535]
 [-0.07768707]
 [ 0.00542458]]
Data added to pickle list for particle: 50
Particle 51:
eta 2.0190018941587637, phi 0.25567848085294437,
p 54.99999999999999, q -1.60217662e-19,
brem = False
input State:
[[-0.001     ]
 [ 0.001     ]
 [ 0.06837019]
 [ 0.26155441]
 [-0.00545106]]

Simulating particle
Initiating Kalman filtering for particle: 51
Particle 51:
eta 2.0151469981208927, phi 0.26143396379513145,
p 56.15204230534287, q -1.60217662e-19,
brem = False
output State:
[[ 5.58943982e-04]
 [ 1.29808807e-04]
 [ 7.01540420e-02]
 [ 2.62201671e-01]
 [-5.33922698e-03]]
Data added to pickle list for particle: 51
Particle 52:
eta 3.4645576352669845, phi -2.937087334067483,
p 56.0, q 1.60217662e-19,
brem = False
input State:
[[ 0.001     ]
 [-0.001     ]
 [-0.01272009]
 [-0.06132978]
 [ 0.00535372]]

Simulating particle
Initiating Kalman filtering for particle: 52
Particle 52:
eta 3.4525523739922988, phi -2.9113792681704758,
p 57.272508058812925, q 1.60217662e-19,
brem = False
output State:
[[-0.00067514]
 [-0.00045842]
 [-0.01446535]
 [-0.06172054]
 [ 0.00523477]]
Data added to pickle list for particle: 52
Particle 53:
eta 2.5219378046327074, phi 2.6613283859712973,
p 56.0, q -1.60217662e-19,
brem = False
input State:
[[-0.001     ]
 [-0.001     ]
 [ 0.07468455]
 [-0.1433631 ]
 [-0.00535372]]

Simulating particle
Initiating Kalman filtering for particle: 53
Particle 53:
eta 2.518849864039006, phi 2.652218697485586,
p 56.216415433545976, q -1.60217662e-19,
brem = False
output State:
[[ 0.00056635]
 [-0.00159353]
 [ 0.0762255 ]
 [-0.14312382]
 [-0.00533311]]
Data added to pickle list for particle: 53
Particle 54:
eta 4.193714632549663, phi -2.5443799178495885,
p 57.00000000000001, q 1.60217662e-19,
brem = False
input State:
[[-0.001     ]
 [-0.001     ]
 [-0.01697542]
 [-0.02496192]
 [ 0.0052598 ]]

Simulating particle
Initiating Kalman filtering for particle: 54
Particle 54:
eta 4.159582593236535, phi -2.4932126629898774,
p 57.81172945548621, q 1.60217662e-19,
brem = False
output State:
[[ 2.26833101e-05]
 [-1.70112883e-03]
 [-1.88631509e-02]
 [-2.48968762e-02]
 [ 5.18594586e-03]]
Data added to pickle list for particle: 54
Particle 55:
eta 3.7481461011945107, phi 0.4223934605363833,
p 57.00000000000001, q -1.60217662e-19,
brem = False
input State:
[[ 0.001     ]
 [ 0.001     ]
 [ 0.01932846]
 [ 0.04300504]
 [-0.0052598 ]]

Simulating particle
Initiating Kalman filtering for particle: 55
Particle 55:
eta 3.7318604003377276, phi 0.4604304626423212,
p 58.52948802030387, q -1.60217662e-19,
brem = False
output State:
[[-2.96859521e-05]
 [ 1.62979539e-03]
 [ 2.12942377e-02]
 [ 4.29332283e-02]
 [-5.12234959e-03]]
Data added to pickle list for particle: 55
Particle 56:
eta 4.104791193392894, phi 0.777581612855245,
p 58.0, q 1.60217662e-19,
brem = False
input State:
[[-0.001     ]
 [ 0.001     ]
 [ 0.02314854]
 [ 0.02351328]
 [ 0.00516911]]

Simulating particle
Initiating Kalman filtering for particle: 56
Particle 56:
eta 4.146515209344694, phi 0.7347954806718733,
p 58.92929211487826, q 1.60217662e-19,
brem = False
output State:
[[5.10653666e-05]
 [4.05646261e-04]
 [2.12171463e-02]
 [2.34809210e-02]
 [5.08759716e-03]]
Data added to pickle list for particle: 56
Particle 57:
eta 2.941125029698494, phi -1.441477191604242,
p 58.0, q -1.60217662e-19,
brem = False
input State:
[[ 0.001     ]
 [ 0.001     ]
 [-0.10502356]
 [ 0.01365778]
 [-0.00516911]]

Simulating particle
Initiating Kalman filtering for particle: 57
Particle 57:
eta 2.960013376216402, phi -1.440608497995582,
p 58.919832313435286, q -1.60217662e-19,
brem = False
output State:
[[ 0.0001825 ]
 [ 0.00200325]
 [-0.10303609]
 [ 0.01349035]
 [-0.00508841]]
Data added to pickle list for particle: 57
Particle 58:
eta 2.3706524001390514, phi -0.5289643709031169,
p 59.0, q 1.60217662e-19,
brem = False
input State:
[[ 0.001     ]
 [-0.001     ]
 [-0.09511671]
 [ 0.16272433]
 [ 0.0050815 ]]

Simulating particle
Initiating Kalman filtering for particle: 58
Particle 58:
eta 2.3664390678687615, phi -0.5361907748950117,
p 59.59425738465578, q 1.60217662e-19,
brem = False
output State:
[[-0.00070313]
 [-0.00066861]
 [-0.09670389]
 [ 0.16272899]
 [ 0.00503083]]
Data added to pickle list for particle: 58
Particle 59:
eta 2.719863570491435, phi 2.1868388124147033,
p 59.0, q -1.60217662e-19,
brem = False
input State:
[[-0.001     ]
 [-0.001     ]
 [ 0.10801372]
 [-0.07646845]
 [-0.0050815 ]]

Simulating particle
Initiating Kalman filtering for particle: 59
Particle 59:
eta 2.7107640270423317, phi 2.1779027577479284,
p 60.55813750868329, q -1.60217662e-19,
brem = False
output State:
[[ 0.00049802]
 [-0.00178776]
 [ 0.10969508]
 [-0.07619645]
 [-0.00495075]]
Data added to pickle list for particle: 59
Particle 60:
eta 2.5147600381167554, phi -0.7147243547858331,
p 60.00000000000001, q 1.60217662e-19,
brem = False
input State:
[[-0.001     ]
 [ 0.001     ]
 [-0.1067202 ]
 [ 0.12298115]
 [ 0.00499681]]

Simulating particle
Initiating Kalman filtering for particle: 60
Particle 60:
eta 2.505965116929034, phi -0.7232522771580355,
p 61.76637357291786, q 1.60217662e-19,
brem = False
output State:
[[-4.88188700e-05]
 [ 2.42039152e-04]
 [-1.08729750e-01]
 [ 1.23159280e-01]
 [ 4.85391131e-03]]
Data added to pickle list for particle: 60
Particle 61:
eta 4.775856596753226, phi 0.45979267800081314,
p 60.00000000000001, q -1.60217662e-19,
brem = False
input State:
[[ 0.001     ]
 [-0.001     ]
 [ 0.00748313]
 [ 0.01511161]
 [-0.00499681]]

Simulating particle
Initiating Kalman filtering for particle: 61
Particle 61:
eta 4.7223079857985395, phi 0.5602485983238786,
p 61.316559846371796, q -1.60217662e-19,
brem = False
output State:
[[ 1.90032801e-04]
 [ 1.05531033e-05]
 [ 9.45389984e-03]
 [ 1.50708777e-02]
 [-4.88951924e-03]]
Data added to pickle list for particle: 61
Particle 62:
eta 4.8357062596337625, phi 0.384227610521923,
p 61.0, q 1.60217662e-19,
brem = False
input State:
[[-0.001     ]
 [ 0.001     ]
 [ 0.00595369]
 [ 0.01472509]
 [ 0.00491489]]

Simulating particle
Initiating Kalman filtering for particle: 62
Particle 62:
eta 4.880078808227113, phi 0.27420915020245773,
p 61.52233725256104, q 1.60217662e-19,
brem = False
output State:
[[6.40710815e-05]
 [5.48798967e-04]
 [4.11423899e-03]
 [1.46260652e-02]
 [4.87316498e-03]]
Data added to pickle list for particle: 62
Particle 63:
eta 3.0926636583640654, phi -2.159478808787337,
p 61.0, q -1.60217662e-19,
brem = False
input State:
[[ 0.001     ]
 [-0.001     ]
 [-0.07563993]
 [-0.05050094]
 [-0.00491489]]

Simulating particle
Initiating Kalman filtering for particle: 63
Particle 63:
eta 3.1094344917115406, phi -2.171292205359346,
p 61.8563841442798, q -1.60217662e-19,
brem = False
output State:
[[ 9.51784444e-05]
 [-1.64872327e-04]
 [-7.37851027e-02]
 [-5.05328363e-02]
 [-4.84684812e-03]]
Data added to pickle list for particle: 63
Particle 64:
eta 3.8275613816558245, phi -1.7290783621731765,
p 62.0, q 1.60217662e-19,
brem = False
input State:
[[ 0.001     ]
 [-0.001     ]
 [-0.04300152]
 [-0.00686378]
 [ 0.00483562]]

Simulating particle
Initiating Kalman filtering for particle: 64
Particle 64:
eta 3.7978953369750514, phi -1.7307464074979526,
p 61.5592367657553, q 1.60217662e-19,
brem = False
output State:
[[-0.0004802 ]
 [-0.00024863]
 [-0.04428575]
 [-0.00714454]
 [ 0.00487024]]
Data added to pickle list for particle: 64
Particle 65:
eta 3.1082202445800218, phi -1.7105480083155529,
p 62.0, q -1.60217662e-19,
brem = False
input State:
[[ 0.001     ]
 [-0.001     ]
 [-0.08866661]
 [-0.01247261]
 [-0.00483562]]

Simulating particle
Initiating Kalman filtering for particle: 65
Particle 65:
eta 3.1294040723074965, phi -1.7119630564736497,
p 63.125805925009544, q -1.60217662e-19,
brem = False
output State:
[[-1.11799724e-05]
 [-5.09918170e-04]
 [-8.67834948e-02]
 [-1.23329752e-02]
 [-4.74938094e-03]]
Data added to pickle list for particle: 65
Particle 66:
eta 3.1291992643603352, phi -1.2559272467325553,
p 62.99999999999999, q 1.60217662e-19,
brem = False
input State:
[[-0.001     ]
 [-0.001     ]
 [-0.08336317]
 [ 0.02715177]
 [ 0.00475887]]

Simulating particle
Initiating Kalman filtering for particle: 66
Particle 66:
eta 3.108916249267913, phi -1.2606208852654561,
p 64.36120803636395, q 1.60217662e-19,
brem = False
output State:
[[-9.81159490e-05]
 [-1.85772181e-03]
 [-8.52071737e-02]
 [ 2.73106851e-02]
 [ 4.65821740e-03]]
Data added to pickle list for particle: 66
Particle 67:
eta 3.3366213379462786, phi -2.2871421662855678,
p 62.99999999999999, q -1.60217662e-19,
brem = False
input State:
[[ 0.001     ]
 [ 0.001     ]
 [-0.05370263]
 [-0.04675477]
 [-0.00475887]]

Simulating particle
Initiating Kalman filtering for particle: 67
Particle 67:
eta 3.356498372798776, phi -2.303694004239093,
p 64.3302157320633, q -1.60217662e-19,
brem = False
output State:
[[ 4.56666542e-05]
 [ 1.67067574e-03]
 [-5.18773405e-02]
 [-4.66973607e-02]
 [-4.66046159e-03]]
Data added to pickle list for particle: 67
Particle 68:
eta 4.438882157499675, phi -2.584997921791696,
p 64.0, q 1.60217662e-19,
brem = False
input State:
[[-0.001     ]
 [-0.001     ]
 [-0.01247922]
 [-0.0200561 ]
 [ 0.00468451]]

Simulating particle
Initiating Kalman filtering for particle: 68
Particle 68:
eta 4.400099018887228, phi -2.5223165983481373,
p 65.00514474277557, q 1.60217662e-19,
brem = False
output State:
[[-2.11378341e-05]
 [-1.69903007e-03]
 [-1.42533977e-02]
 [-1.99958820e-02]
 [ 4.61207340e-03]]
Data added to pickle list for particle: 68
Particle 69:
eta 4.476350544920751, phi 2.198949609618484,
p 64.0, q -1.60217662e-19,
brem = False
input State:
[[-0.001     ]
 [ 0.001     ]
 [ 0.01840948]
 [-0.01337063]
 [-0.00468451]]

Simulating particle
Initiating Kalman filtering for particle: 69
Particle 69:
eta 4.431951060425785, phi 2.152866728518214,
p 64.74575453999672, q -1.60217662e-19,
brem = False
output State:
[[ 0.00049402]
 [ 0.00030334]
 [ 0.01986898]
 [-0.01307641]
 [-0.00463055]]
Data added to pickle list for particle: 69
Particle 70:
eta 4.856150339817639, phi -2.842481080812574,
p 65.0, q 1.60217662e-19,
brem = False
input State:
[[-0.001     ]
 [-0.001     ]
 [-0.00458559]
 [-0.01487074]
 [ 0.00461244]]

Simulating particle
Initiating Kalman filtering for particle: 70
Particle 70:
eta 4.823854147409087, phi -2.728067801959494,
p 66.97835394165647, q 1.60217662e-19,
brem = False
output State:
[[-3.58021732e-05]
 [-1.80747077e-03]
 [-6.45858667e-03]
 [-1.47177968e-02]
 [ 4.47619987e-03]]
Data added to pickle list for particle: 70
Particle 71:
eta 3.9459894160516256, phi -2.9284362759820697,
p 65.0, q -1.60217662e-19,
brem = False
input State:
[[ 0.001     ]
 [-0.001     ]
 [-0.0081823 ]
 [-0.03780324]
 [-0.00461244]]

Simulating particle
Initiating Kalman filtering for particle: 71
Particle 71:
eta 3.955233674975373, phi -2.972608085450725,
p 66.20315844104248, q -1.60217662e-19,
brem = False
output State:
[[-3.67931164e-05]
 [-4.40761601e-04]
 [-6.44512492e-03]
 [-3.77765813e-02]
 [-4.52861323e-03]]
Data added to pickle list for particle: 71
Particle 72:
eta 4.267671014563287, phi -2.0963648295425736,
p 66.0, q 1.60217662e-19,
brem = False
input State:
[[ 0.001     ]
 [-0.001     ]
 [-0.02425074]
 [-0.01406493]
 [ 0.00454255]]

Simulating particle
Initiating Kalman filtering for particle: 72
Particle 72:
eta 4.217993243478922, phi -2.0875986336326,
p 66.55829035759893, q 1.60217662e-19,
brem = False
output State:
[[-0.00045557]
 [-0.00024404]
 [-0.02561501]
 [-0.01455761]
 [ 0.00450445]]
Data added to pickle list for particle: 72
Particle 73:
eta 3.535256683075893, phi 0.3735696870873829,
p 66.0, q -1.60217662e-19,
brem = False
input State:
[[-0.001     ]
 [-0.001     ]
 [ 0.0212951 ]
 [ 0.05432762]
 [-0.00454255]]

Simulating particle
Initiating Kalman filtering for particle: 73
Particle 73:
eta 3.5195424472475403, phi 0.3944350945807041,
p 67.52744207648055, q -1.60217662e-19,
brem = False
output State:
[[ 0.00047414]
 [-0.00182452]
 [ 0.02277973]
 [ 0.05472622]
 [-0.0044398 ]]
Data added to pickle list for particle: 73
Particle 74:
eta 3.578843909161064, phi -2.955012379167978,
p 67.0, q 1.60217662e-19,
brem = False
input State:
[[-0.001     ]
 [ 0.001     ]
 [-0.0103619 ]
 [-0.05488992]
 [ 0.00447475]]

Simulating particle
Initiating Kalman filtering for particle: 74
Particle 74:
eta 3.5718933492919196, phi -2.9250892538091917,
p 67.71474996163607, q 1.60217662e-19,
brem = False
output State:
[[-3.02159452e-05]
 [ 2.87663051e-04]
 [-1.20833155e-02]
 [-5.49364411e-02]
 [ 4.42752132e-03]]
Data added to pickle list for particle: 74
Particle 75:
eta 2.9639000005684815, phi 0.5190052804440382,
p 67.0, q -1.60217662e-19,
brem = False
input State:
[[-0.001     ]
 [ 0.001     ]
 [ 0.05134279]
 [ 0.08987927]
 [-0.00447475]]

Simulating particle
Initiating Kalman filtering for particle: 75
Particle 75:
eta 2.953195311819677, phi 0.5287946250421793,
p 68.24830907603861, q -1.60217662e-19,
brem = False
output State:
[[ 0.0005416 ]
 [ 0.00028677]
 [ 0.05278523]
 [ 0.09033942]
 [-0.00439291]]
Data added to pickle list for particle: 75
Particle 76:
eta 4.840339750837256, phi -2.769247616793651,
p 68.0, q 1.60217662e-19,
brem = False
input State:
[[ 0.001     ]
 [ 0.001     ]
 [-0.00575159]
 [-0.01472639]
 [ 0.00440895]]

Simulating particle
Initiating Kalman filtering for particle: 76
Particle 76:
eta 4.788319681135398, phi -2.703702258305151,
p 68.31724489864686, q 1.60217662e-19,
brem = False
output State:
[[-0.00052715]
 [ 0.00167314]
 [-0.00706181]
 [-0.01508269]
 [ 0.00438847]]
Data added to pickle list for particle: 76
Particle 77:
eta 4.7501384962554605, phi 3.090335750518795,
p 68.0, q -1.60217662e-19,
brem = False
input State:
[[-0.001     ]
 [-0.001     ]
 [ 0.00088647]
 [-0.01727956]
 [-0.00440895]]

Simulating particle
Initiating Kalman filtering for particle: 77
Particle 77:
eta 4.754299174723382, phi 3.017620151868344,
p 67.78282150356465, q -1.60217662e-19,
brem = False
output State:
[[ 0.00052521]
 [-0.00143868]
 [ 0.00213063]
 [-0.0170982 ]
 [-0.00442307]]
Data added to pickle list for particle: 77
Particle 78:
eta 4.057454181751422, phi 2.7833818267947192,
p 69.0, q 1.60217662e-19,
brem = False
input State:
[[ 0.001     ]
 [-0.001     ]
 [ 0.01212944]
 [-0.03240034]
 [ 0.00434505]]

Simulating particle
Initiating Kalman filtering for particle: 78
Particle 78:
eta 4.056040426801615, phi 2.825175774571646,
p 70.04314272332044, q 1.60217662e-19,
brem = False
output State:
[[-3.93120520e-04]
 [-9.84536777e-05]
 [ 1.07803456e-02]
 [-3.29253810e-02]
 [ 4.28034048e-03]]
Data added to pickle list for particle: 78
Particle 79:
eta 4.724570012605675, phi -3.0488483967699374,
p 69.0, q -1.60217662e-19,
brem = False
input State:
[[-0.001     ]
 [ 0.001     ]
 [-0.00164389]
 [-0.01767417]
 [-0.00434505]]

Simulating particle
Initiating Kalman filtering for particle: 79
Particle 79:
eta 4.743888206261067, phi -3.121708332753371,
p 69.09934257394043, q -1.60217662e-19,
brem = False
output State:
[[ 0.00050234]
 [ 0.00021887]
 [-0.00034618]
 [-0.01740735]
 [-0.0043388 ]]
Data added to pickle list for particle: 79
Particle 80:
eta 2.3742691719803646, phi -1.921507190492578,
p 70.0, q 1.60217662e-19,
brem = False
input State:
[[ 0.001     ]
 [ 0.001     ]
 [-0.17636094]
 [-0.06451888]
 [ 0.00428298]]

Simulating particle
Initiating Kalman filtering for particle: 80
Particle 80:
eta 2.366649904950305, phi -1.9216793795871463,
p 70.2981844190625, q 1.60217662e-19,
brem = False
output State:
[[-0.00049772]
 [ 0.00179873]
 [-0.17772246]
 [-0.06505167]
 [ 0.00426481]]
Data added to pickle list for particle: 80
Particle 81:
eta 2.130008530351747, phi -1.1394702280101492,
p 70.0, q -1.60217662e-19,
brem = False
input State:
[[ 0.001     ]
 [-0.001     ]
 [-0.21899733]
 [ 0.10078849]
 [-0.00428298]]

Simulating particle
Initiating Kalman filtering for particle: 81
Particle 81:
eta 2.1371366546327817, phi -1.1378271097837962,
p 70.63292569757684, q -1.60217662e-19,
brem = False
output State:
[[ 4.10562065e-05]
 [-8.41307198e-05]
 [-2.17233071e-01]
 [ 1.00409400e-01]
 [-4.24459976e-03]]
Data added to pickle list for particle: 81
Particle 82:
eta 2.434262694089071, phi -1.8826450293278467,
p 71.0, q 1.60217662e-19,
brem = False
input State:
[[-0.001     ]
 [-0.001     ]
 [-0.16816071]
 [-0.05420948]
 [ 0.00422265]]

Simulating particle
Initiating Kalman filtering for particle: 82
Particle 82:
eta 2.4255727480749836, phi -1.8801512967102878,
p 72.31210486370574, q 1.60217662e-19,
brem = False
output State:
[[-9.20173083e-06]
 [-1.82537171e-03]
 [-1.69787276e-01]
 [-5.42668038e-02]
 [ 4.14603475e-03]]
Data added to pickle list for particle: 82
Particle 83:
eta 2.152406862851875, phi -1.371837926387097,
p 71.0, q -1.60217662e-19,
brem = False
input State:
[[ 0.001     ]
 [ 0.001     ]
 [-0.23094205]
 [ 0.04656389]
 [-0.00422265]]

Simulating particle
Initiating Kalman filtering for particle: 83
Particle 83:
eta 2.1595450646707954, phi -1.3708974956131832,
p 71.38942134840465, q -1.60217662e-19,
brem = False
output State:
[[-9.56952130e-06]
 [ 1.65704206e-03]
 [-2.29211352e-01]
 [ 4.64392999e-02]
 [-4.19962081e-03]]
Data added to pickle list for particle: 83
Particle 84:
eta 4.844470709282393, phi -0.032158517962086415,
p 72.0, q 1.60217662e-19,
brem = False
input State:
[[-0.001     ]
 [-0.001     ]
 [-0.00050623]
 [ 0.0157364 ]
 [ 0.00416401]]

Simulating particle
Initiating Kalman filtering for particle: 84
Particle 84:
eta 4.826678312176358, phi -0.1276680993975294,
p 72.31018913542871, q 1.60217662e-19,
brem = False
output State:
[[ 6.24289803e-06]
 [-1.77561713e-03]
 [-2.04061045e-03]
 [ 1.58967797e-02]
 [ 4.14614459e-03]]
Data added to pickle list for particle: 84
Particle 85:
eta 4.542208626255724, phi -2.2611217537060355,
p 72.0, q -1.60217662e-19,
brem = False
input State:
[[ 0.001     ]
 [-0.001     ]
 [-0.01642477]
 [-0.01356495]
 [-0.00416401]]

Simulating particle
Initiating Kalman filtering for particle: 85
Particle 85:
eta 4.592839877848962, phi -2.315125097434865,
p 72.91676782268041, q -1.60217662e-19,
brem = False
output State:
[[ 3.29589112e-05]
 [-7.13920553e-05]
 [-1.48948952e-02]
 [-1.37190756e-02]
 [-4.11165371e-03]]
Data added to pickle list for particle: 85
Particle 86:
eta 3.6060673332584297, phi 1.9763618244523955,
p 73.0, q 1.60217662e-19,
brem = False
input State:
[[ 0.001     ]
 [-0.001     ]
 [ 0.04994751]
 [-0.02144592]
 [ 0.00410697]]

Simulating particle
Initiating Kalman filtering for particle: 86
Particle 86:
eta 3.6242072815309934, phi 1.992328925118536,
p 72.74581393755224, q 1.60217662e-19,
brem = False
output State:
[[-0.00052129]
 [-0.00021564]
 [ 0.04870584]
 [-0.02184028]
 [ 0.00412132]]
Data added to pickle list for particle: 86
Particle 87:
eta 2.1139514784554394, phi -1.2650839930030517,
p 73.0, q -1.60217662e-19,
brem = False
input State:
[[-0.001     ]
 [-0.001     ]
 [-0.23372956]
 [ 0.07376653]
 [-0.00410697]]

Simulating particle
Initiating Kalman filtering for particle: 87
Particle 87:
eta 2.1181332208222026, phi -1.2622553290513432,
p 71.6952815944579, q -1.60217662e-19,
brem = False
output State:
[[ 0.00043623]
 [-0.001834  ]
 [-0.23251682]
 [ 0.07410766]
 [-0.0041817 ]]
Data added to pickle list for particle: 87
Particle 88:
eta 2.7121635168143703, phi 2.583449391836173,
p 73.99999999999999, q 1.60217662e-19,
brem = False
input State:
[[ 0.001     ]
 [-0.001     ]
 [ 0.07063646]
 [-0.1131331 ]
 [ 0.00405147]]

Simulating particle
Initiating Kalman filtering for particle: 88
Particle 88:
eta 2.7157790218992637, phi 2.592960622326379,
p 74.8970427432348, q 1.60217662e-19,
brem = False
output State:
[[-0.00053088]
 [-0.00035903]
 [ 0.069304  ]
 [-0.11338549]
 [ 0.00400294]]
Data added to pickle list for particle: 88
Particle 89:
eta 4.1855315166819915, phi 2.262255297687502,
p 73.99999999999999, q -1.60217662e-19,
brem = False
input State:
[[-0.001     ]
 [-0.001     ]
 [ 0.0234448 ]
 [-0.01940741]
 [-0.00405147]]

Simulating particle
Initiating Kalman filtering for particle: 89
Particle 89:
eta 4.160625101930549, phi 2.2357994894509714,
p 73.80276136464775, q -1.60217662e-19,
brem = False
output State:
[[ 0.00050882]
 [-0.00148823]
 [ 0.02455426]
 [-0.0192543 ]
 [-0.00406229]]
Data added to pickle list for particle: 89
Particle 90:
eta 4.156283776295392, phi -2.95001081319805,
p 75.0, q 1.60217662e-19,
brem = False
input State:
[[-0.001     ]
 [-0.001     ]
 [-0.00596733]
 [-0.03076565]
 [ 0.00399745]]

Simulating particle
Initiating Kalman filtering for particle: 90
Particle 90:
eta 4.146279286705083, phi -2.901860547476158,
p 76.1210109111737, q 1.60217662e-19,
brem = False
output State:
[[ 4.30547022e-05]
 [-1.66725266e-03]
 [-7.51606986e-03]
 [-3.07490253e-02]
 [ 3.93857748e-03]]
Data added to pickle list for particle: 90
Particle 91:
eta 2.402430748666786, phi 3.1180150010860253,
p 75.0, q -1.60217662e-19,
brem = False
input State:
[[-0.001     ]
 [ 0.001     ]
 [ 0.00430229]
 [-0.18243926]
 [-0.00399745]]

Simulating particle
Initiating Kalman filtering for particle: 91
Particle 91:
eta 2.4041101638305604, phi 3.1111543188342377,
p 74.82022830988802, q -1.60217662e-19,
brem = False
output State:
[[ 0.00051935]
 [ 0.00033922]
 [ 0.00554436]
 [-0.18209433]
 [-0.00400705]]
Data added to pickle list for particle: 91
Particle 92:
eta 3.70020460599471, phi -2.316444522052662,
p 76.0, q 1.60217662e-19,
brem = False
input State:
[[ 0.001     ]
 [-0.001     ]
 [-0.03634097]
 [-0.0335609 ]
 [ 0.00394485]]

Simulating particle
Initiating Kalman filtering for particle: 92
Particle 92:
eta 3.6754513327267464, phi -2.3077262661197637,
p 76.27296739346157, q 1.60217662e-19,
brem = False
output State:
[[-4.13589646e-04]
 [-5.87338543e-06]
 [-3.75514205e-02]
 [-3.40769972e-02]
 [ 3.93073076e-03]]
Data added to pickle list for particle: 92
Particle 93:
eta 2.054643399444901, phi 1.6446710059352596,
p 76.0, q -1.60217662e-19,
brem = False
input State:
[[-0.001     ]
 [ 0.001     ]
 [ 0.25984456]
 [-0.01923093]
 [-0.00394485]]

Simulating particle
Initiating Kalman filtering for particle: 93
Particle 93:
eta 2.0501762571816364, phi 1.642529034144118,
p 76.14433269523005, q -1.60217662e-19,
brem = False
output State:
[[ 4.27436969e-04]
 [ 4.84075089e-05]
 [ 2.61087814e-01]
 [-1.87607250e-02]
 [-3.93737116e-03]]
Data added to pickle list for particle: 93
Particle 94:
eta 3.635153813774479, phi 0.46549942384445725,
p 77.0, q 1.60217662e-19,
brem = False
input State:
[[ 0.001     ]
 [-0.001     ]
 [ 0.02369872]
 [ 0.04717882]
 [ 0.00389362]]

Simulating particle
Initiating Kalman filtering for particle: 94
Particle 94:
eta 3.653822904212044, phi 0.4489463995449332,
p 78.04612977008117, q 1.60217662e-19,
brem = False
output State:
[[-3.69576924e-04]
 [-5.83602501e-05]
 [ 2.24901545e-02]
 [ 4.66836771e-02]
 [ 3.84142686e-03]]
Data added to pickle list for particle: 94
Particle 95:
eta 2.602769094389858, phi -0.4471160026795992,
p 77.0, q -1.60217662e-19,
brem = False
input State:
[[-0.001     ]
 [-0.001     ]
 [-0.06440258]
 [ 0.13431109]
 [-0.00389362]]

Simulating particle
Initiating Kalman filtering for particle: 95
Particle 95:
eta 2.6045327582595275, phi -0.43914712737690775,
p 76.58979573185503, q -1.60217662e-19,
brem = False
output State:
[[ 0.0005159 ]
 [-0.00170254]
 [-0.06321741]
 [ 0.13457986]
 [-0.00391447]]
Data added to pickle list for particle: 95
Particle 96:
eta 4.919169931901775, phi -2.7274904832742353,
p 78.0, q 1.60217662e-19,
brem = False
input State:
[[-0.001     ]
 [-0.001     ]
 [-0.00587907]
 [-0.0133762 ]
 [ 0.0038437 ]]

Simulating particle
Initiating Kalman filtering for particle: 96
Particle 96:
eta 4.88055671478822, phi -2.6351502656929187,
p 78.92086306250582, q 1.60217662e-19,
brem = False
output State:
[[ 3.74014532e-05]
 [-1.73032806e-03]
 [-7.36647896e-03]
 [-1.32801794e-02]
 [ 3.79884973e-03]]
Data added to pickle list for particle: 96
Particle 97:
eta 4.592454480592812, phi -0.511073584526297,
p 78.0, q -1.60217662e-19,
brem = False
input State:
[[-0.001     ]
 [-0.001     ]
 [-0.00990848]
 [ 0.01766944]
 [-0.0038437 ]]

Simulating particle
Initiating Kalman filtering for particle: 97
Particle 97:
eta 4.608885240774813, phi -0.45139445445054005,
p 79.24179181842288, q -1.60217662e-19,
brem = False
output State:
[[ 0.00046253]
 [-0.00177597]
 [-0.00869293]
 [ 0.01793184]
 [-0.00378346]]
Data added to pickle list for particle: 97
Particle 98:
eta 2.3485705897487184, phi 2.9177872546663814,
p 79.0, q 1.60217662e-19,
brem = False
input State:
[[-0.001     ]
 [ 0.001     ]
 [ 0.04278359]
 [-0.18796179]
 [ 0.00379504]]

Simulating particle
Initiating Kalman filtering for particle: 98
Particle 98:
eta 2.350339014109654, phi 2.926063389580637,
p 81.0785195745422, q 1.60217662e-19,
brem = False
output State:
[[ 5.96777529e-05]
 [ 4.46601898e-04]
 [ 4.11523637e-02]
 [-1.87970606e-01]
 [ 3.69775498e-03]]
Data added to pickle list for particle: 98
Particle 99:
eta 2.302128473245178, phi -3.1043514191026973,
p 79.0, q -1.60217662e-19,
brem = False
input State:
[[-0.001     ]
 [-0.001     ]
 [-0.00752525]
 [-0.20197419]
 [-0.00379504]]

Simulating particle
Initiating Kalman filtering for particle: 99
Particle 99:
eta 2.3042107086685655, phi -3.1098550223356316,
p 78.35628592538421, q -1.60217662e-19,
brem = False
output State:
[[ 0.00045647]
 [-0.00169418]
 [-0.00639994]
 [-0.20158388]
 [-0.00382622]]
Data added to pickle list for particle: 99
Particle 100:
eta 2.9819119134474588, phi 2.8470183369727766,
p 80.0, q 1.60217662e-19,
brem = False
input State:
[[ 0.001     ]
 [ 0.001     ]
 [ 0.02951314]
 [-0.09727427]
 [ 0.00374761]]

Simulating particle
Initiating Kalman filtering for particle: 100
Particle 100:
eta 2.981097745071951, phi 2.8576497433288695,
p 79.1149745325131, q 1.60217662e-19,
brem = False
output State:
[[-0.0004142 ]
 [ 0.00174767]
 [ 0.02850064]
 [-0.09766242]
 [ 0.00378953]]
Data added to pickle list for particle: 100
Particle 101:
eta 2.3509162095470977, phi 1.0097090330171659,
p 80.0, q -1.60217662e-19,
brem = False
input State:
[[ 0.001     ]
 [ 0.001     ]
 [ 0.16282409]
 [ 0.10232928]
 [-0.00374761]]

Simulating particle
Initiating Kalman filtering for particle: 101
Particle 101:
eta 2.3437094653911474, phi 1.0137694409853348,
p 81.20997808045482, q -1.60217662e-19,
brem = False
output State:
[[-8.83219407e-05]
 [ 1.49866680e-03]
 [ 1.64440780e-01]
 [ 1.02416264e-01]
 [-3.69176924e-03]]
Data added to pickle list for particle: 101
Particle 102:
eta 4.155811483375481, phi -3.0548596939068955,
p 81.0, q 1.60217662e-19,
brem = False
input State:
[[-0.001     ]
 [ 0.001     ]
 [-0.002716  ]
 [-0.03123598]
 [ 0.00370134]]

Simulating particle
Initiating Kalman filtering for particle: 102
Particle 102:
eta 4.159229420083084, phi -3.006814404986117,
p 82.28985396648078, q 1.60217662e-19,
brem = False
output State:
[[ 3.00269210e-05]
 [ 1.53536394e-04]
 [-4.19865074e-03]
 [-3.09634297e-02]
 [ 3.64332278e-03]]
Data added to pickle list for particle: 102
Particle 103:
eta 4.879594497537355, phi -2.7181295446509486,
p 81.0, q -1.60217662e-19,
brem = False
input State:
[[ 0.001     ]
 [ 0.001     ]
 [-0.00624643]
 [-0.01385838]
 [-0.00370134]]

Simulating particle
Initiating Kalman filtering for particle: 103
Particle 103:
eta 4.911168935002434, phi -2.812245378224143,
p 82.01899520090859, q -1.60217662e-19,
brem = False
output State:
[[ 2.04906888e-05]
 [ 1.75227985e-03]
 [-4.76358781e-03]
 [-1.39369438e-02]
 [-3.65535445e-03]]
Data added to pickle list for particle: 103
Particle 104:
eta 4.712682890298039, phi 2.510409482845494,
p 82.0, q 1.60217662e-19,
brem = False
input State:
[[ 0.001     ]
 [ 0.001     ]
 [ 0.01059983]
 [-0.01450187]
 [ 0.0036562 ]]

Simulating particle
Initiating Kalman filtering for particle: 104
Particle 104:
eta 4.738232663726651, phi 2.563866525206631,
p 81.99974028165917, q 1.60217662e-19,
brem = False
output State:
[[-0.00046954]
 [ 0.00150017]
 [ 0.00956232]
 [-0.01466787]
 [ 0.00365621]]
Data added to pickle list for particle: 104
Particle 105:
eta 4.934900410448557, phi 1.0357973220428711,
p 82.0, q -1.60217662e-19,
brem = False
input State:
[[ 0.001     ]
 [ 0.001     ]
 [ 0.01237334]
 [ 0.00733308]
 [-0.0036562 ]]

Simulating particle
Initiating Kalman filtering for particle: 105
Particle 105:
eta 4.85588026572091, phi 1.0974270168863134,
p 83.2037491595, q -1.60217662e-19,
brem = False
output State:
[[-9.08137838e-06]
 [ 1.84963293e-03]
 [ 1.38542338e-02]
 [ 7.09630300e-03]
 [-3.60330517e-03]]
Data added to pickle list for particle: 105
Particle 106:
eta 2.3808179396786047, phi -2.685035353838138,
p 83.0, q 1.60217662e-19,
brem = False
input State:
[[-0.001     ]
 [ 0.001     ]
 [-0.08224038]
 [-0.1674383 ]
 [ 0.00361215]]

Simulating particle
Initiating Kalman filtering for particle: 106
Particle 106:
eta 2.3774092858139553, phi -2.6781677682832083,
p 83.6413960833978, q 1.60217662e-19,
brem = False
output State:
[[ 1.12272879e-04]
 [ 5.13332159e-04]
 [-8.36779945e-02]
 [-1.67449216e-01]
 [ 3.58445116e-03]]
Data added to pickle list for particle: 106
Particle 107:
eta 3.6063424894756673, phi 2.1164146485354216,
p 83.0, q -1.60217662e-19,
brem = False
input State:
[[-0.001     ]
 [ 0.001     ]
 [ 0.0464519 ]
 [-0.0282006 ]
 [-0.00361215]]

Simulating particle
Initiating Kalman filtering for particle: 107
Particle 107:
eta 3.5928194553384714, phi 2.1028654239348374,
p 82.6253219965631, q -1.60217662e-19,
brem = False
output State:
[[ 0.00048154]
 [ 0.00041836]
 [ 0.04746826]
 [-0.02794456]
 [-0.00362853]]
Data added to pickle list for particle: 107
Particle 108:
eta 2.23027045288355, phi -0.2753310096614888,
p 84.0, q 1.60217662e-19,
brem = False
input State:
[[ 0.001     ]
 [ 0.001     ]
 [-0.05913409]
 [ 0.20931976]
 [ 0.00356915]]

Simulating particle
Initiating Kalman filtering for particle: 108
Particle 108:
eta 2.2304122037724037, phi -0.2800316552497596,
p 82.97223956066105, q 1.60217662e-19,
brem = False
output State:
[[-0.00049089]
 [ 0.00158567]
 [-0.06010865]
 [ 0.20900916]
 [ 0.00361336]]
Data added to pickle list for particle: 108
Particle 109:
eta 2.524235968184396, phi -2.2947540023940878,
p 84.0, q -1.60217662e-19,
brem = False
input State:
[[ 0.001     ]
 [ 0.001     ]
 [-0.12082509]
 [-0.10682079]
 [-0.00356915]]

Simulating particle
Initiating Kalman filtering for particle: 109
Particle 109:
eta 2.5311998978500965, phi -2.300202828228497,
p 84.89810180538028, q -1.60217662e-19,
brem = False
output State:
[[-1.13694448e-04]
 [ 1.51316727e-03]
 [-1.19396138e-01]
 [-1.06722152e-01]
 [-3.53139226e-03]]
Data added to pickle list for particle: 109
Particle 110:
eta 3.4752878079947225, phi 2.2584777742074933,
p 85.0, q 1.60217662e-19,
brem = False
input State:
[[ 0.001     ]
 [-0.001     ]
 [ 0.04788175]
 [-0.03933225]
 [ 0.00352716]]

Simulating particle
Initiating Kalman filtering for particle: 110
Particle 110:
eta 3.4831199525082606, phi 2.275139892803894,
p 85.18730892388321, q 1.60217662e-19,
brem = False
output State:
[[-2.88060920e-04]
 [ 4.92676899e-05]
 [ 4.68506877e-02]
 [-3.98109408e-02]
 [ 3.51940334e-03]]
Data added to pickle list for particle: 110
Particle 111:
eta 4.854728920663823, phi 2.8179406418860893,
p 85.0, q -1.60217662e-19,
brem = False
input State:
[[ 0.001     ]
 [ 0.001     ]
 [ 0.00495614]
 [-0.01477473]
 [-0.00352716]]

Simulating particle
Initiating Kalman filtering for particle: 111
Particle 111:
eta 4.803872041687787, phi 2.7345124687020093,
p 87.5837851583484, q -1.60217662e-19,
brem = False
output State:
[[ 2.95098826e-05]
 [ 1.90276657e-03]
 [ 6.49205612e-03]
 [-1.50570384e-02]
 [-3.42310507e-03]]
Data added to pickle list for particle: 111
Particle 112:
eta 2.477949860845199, phi -1.226583848100833,
p 86.0, q 1.60217662e-19,
brem = False
input State:
[[ 0.001     ]
 [ 0.001     ]
 [-0.15910589]
 [ 0.05703685]
 [ 0.00348615]]

Simulating particle
Initiating Kalman filtering for particle: 112
Particle 112:
eta 2.4720687676117232, phi -1.229104935332857,
p 86.17198620203986, q 1.60217662e-19,
brem = False
output State:
[[-0.00055304]
 [ 0.00135906]
 [-0.16020194]
 [ 0.05697439]
 [ 0.00347919]]
Data added to pickle list for particle: 112
Particle 113:
eta 2.493545667680159, phi -3.007844244454529,
p 86.0, q -1.60217662e-19,
brem = False
input State:
[[-0.001     ]
 [-0.001     ]
 [-0.02218525]
 [-0.16488274]
 [-0.00348615]]

Simulating particle
Initiating Kalman filtering for particle: 113
Particle 113:
eta 2.4963162642594483, phi -3.0135124044203603,
p 85.09183042868125, q -1.60217662e-19,
brem = False
output State:
[[ 0.0004397 ]
 [-0.00172933]
 [-0.02119072]
 [-0.16454306]
 [-0.00352335]]
Data added to pickle list for particle: 113
Particle 114:
eta 3.823857509160161, phi -0.24008465766628628,
p 87.0, q 1.60217662e-19,
brem = False
input State:
[[-0.001     ]
 [-0.001     ]
 [-0.01039301]
 [ 0.04245398]
 [ 0.00344607]]

Simulating particle
Initiating Kalman filtering for particle: 114
Particle 114:
eta 3.8139869838093685, phi -0.2694833172900144,
p 87.52882592314205, q 1.60217662e-19,
brem = False
output State:
[[ 7.16125959e-05]
 [-1.82685536e-03]
 [-1.17519651e-02]
 [ 4.25484497e-02]
 [ 3.42525444e-03]]
Data added to pickle list for particle: 114
Particle 115:
eta 2.157925133150081, phi 0.9756381518488054,
p 87.0, q -1.60217662e-19,
brem = False
input State:
[[ 0.001     ]
 [ 0.001     ]
 [ 0.19397953]
 [ 0.13133427]
 [-0.00344607]]

Simulating particle
Initiating Kalman filtering for particle: 115
Particle 115:
eta 2.152427260937854, phi 0.979350222060273,
p 90.90159835426289, q -1.60217662e-19,
brem = False
output State:
[[-1.40517630e-04]
 [ 1.56329601e-03]
 [ 1.95567073e-01]
 [ 1.31353031e-01]
 [-3.29816532e-03]]
Data added to pickle list for particle: 115
Particle 116:
eta 2.480675001605841, phi -0.5977527788839064,
p 88.0, q 1.60217662e-19,
brem = False
input State:
[[-0.001     ]
 [ 0.001     ]
 [-0.09485983]
 [ 0.13932706]
 [ 0.00340691]]

Simulating particle
Initiating Kalman filtering for particle: 116
Particle 116:
eta 2.474924207220021, phi -0.6033393702804316,
p 88.97355052229646, q 1.60217662e-19,
brem = False
output State:
[[ 1.26845856e-04]
 [ 3.03983612e-04]
 [-9.61961295e-02]
 [ 1.39606813e-01]
 [ 3.36963623e-03]]
Data added to pickle list for particle: 116
Particle 117:
eta 2.853035742114038, phi 2.41628712592975,
p 88.0, q -1.60217662e-19,
brem = False
input State:
[[-0.001     ]
 [-0.001     ]
 [ 0.07676637]
 [-0.08659502]
 [-0.00340691]]

Simulating particle
Initiating Kalman filtering for particle: 117
Particle 117:
eta 2.8496308383088698, phi 2.4081720039951064,
p 86.7653372378223, q -1.60217662e-19,
brem = False
output State:
[[ 0.00047662]
 [-0.00163147]
 [ 0.07773256]
 [-0.08626439]
 [-0.00345539]]
Data added to pickle list for particle: 117
Particle 118:
eta 3.7506083510157144, phi -1.9247838153635128,
p 89.0, q 1.60217662e-19,
brem = False
input State:
[[-0.001     ]
 [ 0.001     ]
 [-0.04411673]
 [-0.01630351]
 [ 0.00336863]]

Simulating particle
Initiating Kalman filtering for particle: 118
Particle 118:
eta 3.723251907390155, phi -1.9096331210203528,
p 92.05720605051113, q 1.60217662e-19,
brem = False
output State:
[[ 3.70861614e-05]
 [ 1.20006251e-04]
 [-4.55903337e-02]
 [-1.60673401e-02]
 [ 3.25676296e-03]]
Data added to pickle list for particle: 118
Particle 119:
eta 3.534394135971329, phi -1.442967701550426,
p 89.0, q -1.60217662e-19,
brem = False
input State:
[[ 0.001     ]
 [-0.001     ]
 [-0.05792607]
 [ 0.00744521]
 [-0.00336863]]

Simulating particle
Initiating Kalman filtering for particle: 119
Particle 119:
eta 3.5562962437371577, phi -1.445183444417943,
p 88.1528943483114, q -1.60217662e-19,
brem = False
output State:
[[ 5.00333599e-05]
 [ 3.17881234e-05]
 [-5.66850890e-02]
 [ 7.15806515e-03]
 [-3.40100574e-03]]
Data added to pickle list for particle: 119
Particle 120:
eta 4.460801682393399, phi -2.450730908876811,
p 90.0, q 1.60217662e-19,
brem = False
input State:
[[ 0.001     ]
 [ 0.001     ]
 [-0.01472527]
 [-0.01781026]
 [ 0.00333121]]

Simulating particle
Initiating Kalman filtering for particle: 120
Particle 120:
eta 4.420117289163389, phi -2.4321724894321988,
p 89.53928628679382, q 1.60217662e-19,
brem = False
output State:
[[-0.00037995]
 [ 0.00180794]
 [-0.01567848]
 [-0.0182622 ]
 [ 0.00334835]]
Data added to pickle list for particle: 120
Particle 121:
eta 4.741932063762645, phi -2.5170255198161793,
p 90.0, q -1.60217662e-19,
brem = False
input State:
[[ 0.001     ]
 [-0.001     ]
 [-0.01020083]
 [-0.01415158]
 [-0.00333121]]

Simulating particle
Initiating Kalman filtering for particle: 121
Particle 121:
eta 4.787611253195107, phi -2.577091898636711,
p 90.40787044404314, q -1.60217662e-19,
brem = False
output State:
[[-0.00012547]
 [-0.00037681]
 [-0.00891612]
 [-0.01408022]
 [-0.00331618]]
Data added to pickle list for particle: 121
Particle 122:
eta 4.2910944672482, phi -2.7751513108935186,
p 91.0, q 1.60217662e-19,
brem = False
input State:
[[-0.001     ]
 [-0.001     ]
 [-0.00981192]
 [-0.02556686]
 [ 0.0032946 ]]

Simulating particle
Initiating Kalman filtering for particle: 122
Particle 122:
eta 4.280475631210858, phi -2.7240511714115043,
p 93.62989636157059, q 1.60217662e-19,
brem = False
output State:
[[-2.71055309e-05]
 [-1.92647060e-03]
 [-1.12236071e-02]
 [-2.52996505e-02]
 [ 3.20205950e-03]]
Data added to pickle list for particle: 122
Particle 123:
eta 4.127398791167098, phi 1.970916017842292,
p 91.0, q -1.60217662e-19,
brem = False
input State:
[[-0.001     ]
 [ 0.001     ]
 [ 0.02971001]
 [-0.01256538]
 [-0.0032946 ]]

Simulating particle
Initiating Kalman filtering for particle: 123
Particle 123:
eta 4.106523315344628, phi 1.9535874476563586,
p 88.73975237874357, q -1.60217662e-19,
brem = False
output State:
[[ 0.00040443]
 [ 0.00026739]
 [ 0.03055485]
 [-0.01230299]
 [-0.00337851]]
Data added to pickle list for particle: 123
Particle 124:
eta 3.385817220218738, phi 3.0817252801927593,
p 92.0, q 1.60217662e-19,
brem = False
input State:
[[-0.001     ]
 [ 0.001     ]
 [ 0.00405524]
 [-0.06765617]
 [ 0.00325879]]

Simulating particle
Initiating Kalman filtering for particle: 124
Particle 124:
eta 3.388674624712508, phi 3.1018456045758978,
p 93.59171199141045, q 1.60217662e-19,
brem = False
output State:
[[-6.85665395e-05]
 [ 1.54596892e-05]
 [ 2.68554793e-03]
 [-6.75303856e-02]
 [ 3.20336591e-03]]
Data added to pickle list for particle: 124
Particle 125:
eta 4.9366492369475505, phi -1.1814654178968635,
p 92.0, q -1.60217662e-19,
brem = False
input State:
[[ 0.001     ]
 [ 0.001     ]
 [-0.01328346]
 [ 0.00544984]
 [-0.00325879]]

Simulating particle
Initiating Kalman filtering for particle: 125
Particle 125:
eta 5.027888783330069, phi -1.1551759361509044,
p 93.25317035094751, q -1.60217662e-19,
brem = False
output State:
[[-9.38763372e-05]
 [ 1.66600202e-03]
 [-1.19900717e-02]
 [ 5.29157530e-03]
 [-3.21499524e-03]]
Data added to pickle list for particle: 125
Particle 126:
eta 4.1771585769138895, phi -0.6113399516368033,
p 93.0, q 1.60217662e-19,
brem = False
input State:
[[-0.001     ]
 [-0.001     ]
 [-0.01761574]
 [ 0.02513248]
 [ 0.00322375]]

Simulating particle
Initiating Kalman filtering for particle: 126
Particle 126:
eta 4.1528091692710065, phi -0.6437748868318652,
p 93.93960118649186, q 1.60217662e-19,
brem = False
output State:
[[ 8.66016657e-05]
 [-1.65504785e-03]
 [-1.88757826e-02]
 [ 2.51533604e-02]
 [ 3.19150279e-03]]
Data added to pickle list for particle: 126
Particle 127:
eta 2.125807244879925, phi 1.6476675672188164,
p 93.0, q -1.60217662e-19,
brem = False
input State:
[[ 0.001     ]
 [-0.001     ]
 [ 0.24140628]
 [-0.01859384]
 [-0.00322375]]

Simulating particle
Initiating Kalman filtering for particle: 127
Particle 127:
eta 2.120268838991481, phi 1.647352436058467,
p 93.89050153953933, q -1.60217662e-19,
brem = False
output State:
[[-1.31893188e-04]
 [-4.05146400e-04]
 [ 2.42791941e-01]
 [-1.86236039e-02]
 [-3.19317177e-03]]
Data added to pickle list for particle: 127
Particle 128:
eta 4.5077356549665115, phi 1.488550301726084,
p 94.0, q 1.60217662e-19,
brem = False
input State:
[[ 0.001     ]
 [-0.001     ]
 [ 0.02197493]
 [ 0.00181144]
 [ 0.00318945]]

Simulating particle
Initiating Kalman filtering for particle: 128
Particle 128:
eta 4.547325666708806, phi 1.5030642768756197,
p 92.50851381369806, q 1.60217662e-19,
brem = False
output State:
[[-2.66819817e-04]
 [-6.64149129e-05]
 [ 2.11447890e-02]
 [ 1.43437404e-03]
 [ 3.24087467e-03]]
Data added to pickle list for particle: 128
Particle 129:
eta 4.785637882824999, phi 2.852585874041395,
p 94.0, q -1.60217662e-19,
brem = False
input State:
[[ 0.001     ]
 [ 0.001     ]
 [ 0.00475915]
 [-0.01600622]
 [-0.00318945]]

Simulating particle
Initiating Kalman filtering for particle: 129
Particle 129:
eta 4.753397583421982, phi 2.7745052725524486,
p 96.94964206194663, q -1.60217662e-19,
brem = False
output State:
[[-0.00011073]
 [ 0.00159189]
 [ 0.00618956]
 [-0.016097  ]
 [-0.00309241]]
Data added to pickle list for particle: 129
Particle 130:
eta 2.9672865740324625, phi 1.6463664879625688,
p 95.0, q 1.60217662e-19,
brem = False
input State:
[[-0.001     ]
 [ 0.001     ]
 [ 0.10286399]
 [-0.00778828]
 [ 0.00315588]]

Simulating particle
Initiating Kalman filtering for particle: 130
Particle 130:
eta 2.9803032403492504, phi 1.6471270082799625,
p 96.75326230982797, q 1.60217662e-19,
brem = False
output State:
[[ 7.80998178e-05]
 [ 3.30390006e-04]
 [ 1.01520919e-01]
 [-7.76424593e-03]
 [ 3.09869137e-03]]
Data added to pickle list for particle: 130
Particle 131:
eta 4.571581996230931, phi -0.21685015652366266,
p 95.0, q -1.60217662e-19,
brem = False
input State:
[[-0.001     ]
 [-0.001     ]
 [-0.00445056]
 [ 0.02020093]
 [-0.00315588]]

Simulating particle
Initiating Kalman filtering for particle: 131
Particle 131:
eta 4.559152575332289, phi -0.1649939084385317,
p 95.60120020442221, q -1.60217662e-19,
brem = False
output State:
[[ 0.00038093]
 [-0.0018379 ]
 [-0.00344   ]
 [ 0.02065972]
 [-0.00313603]]
Data added to pickle list for particle: 131
Particle 132:
eta 2.961886768287463, phi 1.4461966997718452,
p 96.0, q 1.60217662e-19,
brem = False
input State:
[[ 0.001     ]
 [-0.001     ]
 [ 0.10291585]
 [ 0.01289005]
 [ 0.00312301]]

Simulating particle
Initiating Kalman filtering for particle: 132
Particle 132:
eta 2.971004489986231, phi 1.4494510463009482,
p 94.73658223315043, q 1.60217662e-19,
brem = False
output State:
[[-3.43023394e-04]
 [-3.76435505e-06]
 [ 1.02017839e-01]
 [ 1.24405042e-02]
 [ 3.16465395e-03]]
Data added to pickle list for particle: 132
Particle 133:
eta 2.7686060991230796, phi -0.45583164326648895,
p 96.0, q -1.60217662e-19,
brem = False
input State:
[[-0.001     ]
 [-0.001     ]
 [-0.05546412]
 [ 0.11313024]
 [-0.00312301]]

Simulating particle
Initiating Kalman filtering for particle: 133
Particle 133:
eta 2.7690313424069473, phi -0.44811942101186636,
p 95.58914199993175, q -1.60217662e-19,
brem = False
output State:
[[ 0.00041984]
 [-0.00176668]
 [-0.05456661]
 [ 0.11350597]
 [-0.00313643]]
Data added to pickle list for particle: 133
Particle 134:
eta 3.5122573392376206, phi -0.33547064980993085,
p 97.0, q 1.60217662e-19,
brem = False
input State:
[[-0.001     ]
 [-0.001     ]
 [-0.01965805]
 [ 0.05638351]
 [ 0.00309081]]

Simulating particle
Initiating Kalman filtering for particle: 134
Particle 134:
eta 3.5032538278844654, phi -0.35416683267511534,
p 98.22107806309116, q 1.60217662e-19,
brem = False
output State:
[[ 0.00014071]
 [-0.00159625]
 [-0.02089634]
 [ 0.05651359]
 [ 0.00305238]]
Data added to pickle list for particle: 134
Particle 135:
eta 4.36248468076182, phi 1.9766270429557555,
p 97.0, q -1.60217662e-19,
brem = False
input State:
[[ 0.001     ]
 [ 0.001     ]
 [ 0.02342646]
 [-0.01006596]
 [-0.00309081]]

Simulating particle
Initiating Kalman filtering for particle: 135
Particle 135:
eta 4.316297807337028, phi 1.9586129232927614,
p 98.66740010635782, q -1.60217662e-19,
brem = False
output State:
[[-4.97362040e-05]
 [ 1.78659040e-03]
 [ 2.47201259e-02]
 [-1.00982919e-02]
 [-3.03857707e-03]]
Data added to pickle list for particle: 135
Particle 136:
eta 3.8234379149488653, phi -1.1186304225749717,
p 98.0, q 1.60217662e-19,
brem = False
input State:
[[ 0.001     ]
 [-0.001     ]
 [-0.03933164]
 [ 0.01910452]
 [ 0.00305927]]

Simulating particle
Initiating Kalman filtering for particle: 136
Particle 136:
eta 3.8115391254447872, phi -1.1349120966113786,
p 96.0488328802844, q 1.60217662e-19,
brem = False
output State:
[[-0.00038727]
 [-0.00018143]
 [-0.04011238]
 [ 0.01868283]
 [ 0.00312142]]
Data added to pickle list for particle: 136
Particle 137:
eta 4.841223426827897, phi -0.14479023596717902,
p 98.0, q -1.60217662e-19,
brem = False
input State:
[[-0.001     ]
 [-0.001     ]
 [-0.00227909]
 [ 0.01563047]
 [-0.00305927]]

Simulating particle
Initiating Kalman filtering for particle: 137
Particle 137:
eta 4.836316702188158, phi -0.08923639164404967,
p 98.01569572719066, q -1.60217662e-19,
brem = False
output State:
[[ 0.00036315]
 [-0.00173325]
 [-0.00141461]
 [ 0.0158103 ]
 [-0.00305878]]
Data added to pickle list for particle: 137
Particle 138:
eta 2.0265047586371567, phi -2.4338102025321766,
p 99.00000000000001, q 1.60217662e-19,
brem = False
input State:
[[ 0.001     ]
 [-0.001     ]
 [-0.17440303]
 [-0.20381802]
 [ 0.00302837]]

Simulating particle
Initiating Kalman filtering for particle: 138
Particle 138:
eta 2.022622438891536, phi -2.4325801078373295,
p 99.38096223303111, q 1.60217662e-19,
brem = False
output State:
[[-2.70965888e-04]
 [ 1.33767852e-04]
 [-1.75357156e-01]
 [-2.04423489e-01]
 [ 3.01675988e-03]]
Data added to pickle list for particle: 138
Particle 139:
eta 2.9720972659198335, phi 0.3083317259083995,
p 99.00000000000001, q -1.60217662e-19,
brem = False
input State:
[[ 0.001     ]
 [-0.001     ]
 [ 0.0311544 ]
 [ 0.09781937]
 [-0.00302837]]

Simulating particle
Initiating Kalman filtering for particle: 139
Particle 139:
eta 2.9702141600261838, phi 0.3211214827401239,
p 102.75669482757559, q -1.60217662e-19,
brem = False
output State:
[[-1.18114084e-05]
 [-9.64357161e-05]
 [ 3.24642968e-02]
 [ 9.75975003e-02]
 [-2.91765417e-03]]
Data added to pickle list for particle: 139