This is the start of the log file generated at 11_27_12h40m02s

magfield_ shape: cs, sim_stepsize: 0.001, detector_length: 11
15 VELO-type subdetectors added at z-locations: [20, 50, 80, 110, 140, 170, 200, 230, 260, 290, 450, 600, 650, 700, 750]
4 TT-type subdetectors added at z-locations: [2330, 2370, 2600, 2640]
24 OT-type subdetectors added at z-locations: [7860, 7870, 7910, 7920, 7980, 7990, 8030, 8040, 8540, 8550, 8590, 8600, 8660, 8670, 8710, 8720, 9230, 9240, 9280, 9290, 9350, 9360, 9400, 9410]
The detector is built.
Generating 140 particles, from 30 to 100 GeV. Brem = False, ms = False

Particle 0:
eta 4.148695791596878, phi -0.24895289148787605,
p 30.000000000000004, q 1.60217662e-19,
brem = False
input State:
[[ 0.001     ]
 [ 0.001     ]
 [-0.00778044]
 [ 0.03060433]
 [ 0.00999362]]

Simulating particle
Initiating Kalman filtering for particle: 0
Particle 0:
eta 4.147327015554828, phi -0.2495201433387152,
p 30.051729171957703, q 1.60217662e-19,
brem = False
output State:
[[ 0.00102966]
 [ 0.0009875 ]
 [-0.00780849]
 [ 0.03064185]
 [ 0.00997641]]
Data added to pickle list for particle: 0
Particle 1:
eta 4.2129060238469185, phi 0.19678821770014432,
p 30.000000000000004, q -1.60217662e-19,
brem = False
input State:
[[-0.001     ]
 [-0.001     ]
 [ 0.00578996]
 [ 0.02904152]
 [-0.00999362]]

Simulating particle
Initiating Kalman filtering for particle: 1
Particle 1:
eta 4.2154084829658895, phi 0.19705616242578258,
p 29.989706367936808, q -1.60217662e-19,
brem = False
output State:
[[-0.00101126]
 [-0.00096225]
 [ 0.00578325]
 [ 0.02896736]
 [-0.00999705]]
Data added to pickle list for particle: 1
Particle 2:
eta 3.9667344008815517, phi -1.9793081276288755,
p 31.0, q 1.60217662e-19,
brem = False
input State:
[[ 0.001     ]
 [ 0.001     ]
 [-0.03476656]
 [-0.01504916]
 [ 0.00967124]]

Simulating particle
Initiating Kalman filtering for particle: 2
Particle 2:
eta 3.9661313807873895, phi -1.9788160547685492,
p 31.049879970261607, q 1.60217662e-19,
brem = False
output State:
[[ 0.00101941]
 [ 0.00100776]
 [-0.03479496]
 [-0.01504112]
 [ 0.00965571]]
Data added to pickle list for particle: 2
Particle 3:
eta 4.630858585795487, phi -1.4854224208871816,
p 31.0, q -1.60217662e-19,
brem = False
input State:
[[ 0.001     ]
 [ 0.001     ]
 [-0.01942362]
 [ 0.00166231]
 [-0.00967124]]

Simulating particle
Initiating Kalman filtering for particle: 3
Particle 3:
eta 4.6311133129742625, phi -1.4891696293253573,
p 30.956712334890252, q -1.60217662e-19,
brem = False
output State:
[[ 0.0009854 ]
 [ 0.00105013]
 [-0.01942477]
 [ 0.00158911]
 [-0.00968477]]
Data added to pickle list for particle: 3
Particle 4:
eta 3.6591925443662925, phi -0.20072722509898147,
p 32.0, q 1.60217662e-19,
brem = False
input State:
[[-0.001     ]
 [ 0.001     ]
 [-0.0102763 ]
 [ 0.05050594]
 [ 0.00936902]]

Simulating particle
Initiating Kalman filtering for particle: 4
Particle 4:
eta 3.6594834269564966, phi -0.2011196843499025,
p 32.023881575475784, q 1.60217662e-19,
brem = False
output State:
[[-0.00098035]
 [ 0.00101735]
 [-0.01029313]
 [ 0.05048719]
 [ 0.00936203]]
Data added to pickle list for particle: 4
Particle 5:
eta 4.263890126324917, phi 0.15752988020429326,
p 32.0, q -1.60217662e-19,
brem = False
input State:
[[-0.001     ]
 [ 0.001     ]
 [ 0.00441466]
 [ 0.02779207]
 [-0.00936902]]

Simulating particle
Initiating Kalman filtering for particle: 5
Particle 5:
eta 4.263081742898307, phi 0.15827498045438196,
p 32.04316980235721, q -1.60217662e-19,
brem = False
output State:
[[-0.00100872]
 [ 0.00098098]
 [ 0.00443895]
 [ 0.02781126]
 [-0.00935639]]
Data added to pickle list for particle: 5
Particle 6:
eta 4.489586462963697, phi 0.14608294301750538,
p 33.0, q 1.60217662e-19,
brem = False
input State:
[[-0.001     ]
 [-0.001     ]
 [ 0.0032684 ]
 [ 0.02221424]
 [ 0.00908511]]

Simulating particle
Initiating Kalman filtering for particle: 6
Particle 6:
eta 4.493508380270946, phi 0.14804918979820617,
p 32.95162401009444, q 1.60217662e-19,
brem = False
output State:
[[-0.00101667]
 [-0.00094642]
 [ 0.00329911]
 [ 0.02212083]
 [ 0.00909844]]
Data added to pickle list for particle: 6
Particle 7:
eta 3.9210752776316333, phi -0.6004526098672739,
p 33.0, q -1.60217662e-19,
brem = False
input State:
[[ 0.001     ]
 [-0.001     ]
 [-0.02240578]
 [ 0.03271865]
 [-0.00908511]]

Simulating particle
Initiating Kalman filtering for particle: 7
Particle 7:
eta 3.9206217039792453, phi -0.6011092914409653,
p 32.960079385032415, q -1.60217662e-19,
brem = False
output State:
[[ 0.00103297]
 [-0.00100282]
 [-0.02243744]
 [ 0.03271877]
 [-0.00909611]]
Data added to pickle list for particle: 7
Particle 8:
eta 4.58075311457077, phi 3.0766732247378594,
p 34.0, q 1.60217662e-19,
brem = False
input State:
[[-0.001     ]
 [ 0.001     ]
 [ 0.00132969]
 [-0.02045333]
 [ 0.0088179 ]]

Simulating particle
Initiating Kalman filtering for particle: 8
Particle 8:
eta 4.581114884610202, phi 3.0779741857852927,
p 34.07095339506237, q 1.60217662e-19,
brem = False
output State:
[[-0.00096895]
 [ 0.00100162]
 [ 0.00130261]
 [-0.02044764]
 [ 0.00879953]]
Data added to pickle list for particle: 8
Particle 9:
eta 4.238862362229076, phi -2.8237079637719744,
p 34.0, q -1.60217662e-19,
brem = False
input State:
[[-0.001     ]
 [ 0.001     ]
 [-0.00901854]
 [-0.02740836]
 [-0.0088179 ]]

Simulating particle
Initiating Kalman filtering for particle: 9
Particle 9:
eta 4.23821976263085, phi -2.822811775465104,
p 33.936146255221615, q -1.60217662e-19,
brem = False
output State:
[[-0.00098236]
 [ 0.00100738]
 [-0.00904892]
 [-0.02741789]
 [-0.00883449]]
Data added to pickle list for particle: 9
Particle 10:
eta 4.208968733205354, phi 1.8268134011392734,
p 35.0, q 1.60217662e-19,
brem = False
input State:
[[-0.001     ]
 [-0.001     ]
 [ 0.02876093]
 [-0.0075285 ]
 [ 0.00856596]]

Simulating particle
Initiating Kalman filtering for particle: 10
Particle 10:
eta 4.209248166121045, phi 1.8251753042082308,
p 35.00186127273991, q 1.60217662e-19,
brem = False
output State:
[[-0.00100284]
 [-0.0010217 ]
 [ 0.02876518]
 [-0.00747928]
 [ 0.0085655 ]]
Data added to pickle list for particle: 10
Particle 11:
eta 4.762549013967465, phi -1.1806358542208875,
p 35.0, q -1.60217662e-19,
brem = False
input State:
[[-0.001     ]
 [ 0.001     ]
 [-0.01580459]
 [ 0.00649952]
 [-0.00856596]]

Simulating particle
Initiating Kalman filtering for particle: 11
Particle 11:
eta 4.762797206708023, phi -1.1782782917254389,
p 35.041312168772734, q -1.60217662e-19,
brem = False
output State:
[[-0.00100795]
 [ 0.00097728]
 [-0.01578531]
 [ 0.00653514]
 [-0.00855586]]
Data added to pickle list for particle: 11
Particle 12:
eta 4.787345362610793, phi 1.3201304464104926,
p 36.0, q 1.60217662e-19,
brem = False
input State:
[[ 0.001     ]
 [-0.001     ]
 [ 0.01614928]
 [ 0.00413504]
 [ 0.00832801]]

Simulating particle
Initiating Kalman filtering for particle: 12
Particle 12:
eta 4.788910672292592, phi 1.3220518145177165,
p 36.02366453278679, q 1.60217662e-19,
brem = False
output State:
[[ 0.00102404]
 [-0.00096833]
 [ 0.01613192]
 [ 0.00409759]
 [ 0.00832254]]
Data added to pickle list for particle: 12
Particle 13:
eta 4.884078256568387, phi -0.8801375476145528,
p 36.0, q -1.60217662e-19,
brem = False
input State:
[[-0.001     ]
 [ 0.001     ]
 [-0.01166496]
 [ 0.00964044]
 [-0.00832801]]

Simulating particle
Initiating Kalman filtering for particle: 13
Particle 13:
eta 4.880803010042666, phi -0.8767893642508785,
p 35.96442906621451, q -1.60217662e-19,
brem = False
output State:
[[-0.00099668]
 [ 0.00095013]
 [-0.01167078]
 [ 0.0097112 ]
 [-0.00833625]]
Data added to pickle list for particle: 13
Particle 14:
eta 3.78927766338683, phi 2.7716289369705924,
p 36.99999999999999, q 1.60217662e-19,
brem = False
input State:
[[-0.001     ]
 [-0.001     ]
 [ 0.01636048]
 [-0.0421856 ]
 [ 0.00810293]]

Simulating particle
Initiating Kalman filtering for particle: 14
Particle 14:
eta 3.7888506416419916, phi 2.771652089205584,
p 36.99731430625382, q 1.60217662e-19,
brem = False
output State:
[[-0.00100635]
 [-0.00099964]
 [ 0.0163665 ]
 [-0.04220402]
 [ 0.00810352]]
Data added to pickle list for particle: 14
Particle 15:
eta 4.138122762727495, phi -0.8543761370293141,
p 36.99999999999999, q -1.60217662e-19,
brem = False
input State:
[[ 0.001     ]
 [-0.001     ]
 [-0.02406805]
 [ 0.02095736]
 [-0.00810293]]

Simulating particle
Initiating Kalman filtering for particle: 15
Particle 15:
eta 4.1370024472938995, phi -0.8545133985308597,
p 36.87686710129796, q -1.60217662e-19,
brem = False
output State:
[[ 0.0010301 ]
 [-0.00101681]
 [-0.02409792]
 [ 0.02097755]
 [-0.00812999]]
Data added to pickle list for particle: 15
Particle 16:
eta 4.225219399414609, phi -2.037921087603751,
p 38.0, q 1.60217662e-19,
brem = False
input State:
[[ 0.001     ]
 [-0.001     ]
 [-0.0261168 ]
 [-0.01317212]
 [ 0.0078897 ]]

Simulating particle
Initiating Kalman filtering for particle: 16
Particle 16:
eta 4.22617887299809, phi -2.0375057629530464,
p 37.93981148337091, q 1.60217662e-19,
brem = False
output State:
[[ 0.00097614]
 [-0.00100957]
 [-0.02609721]
 [-0.01314864]
 [ 0.00790221]]
Data added to pickle list for particle: 16
Particle 17:
eta 3.675768222671898, phi -2.014377945004758,
p 38.0, q -1.60217662e-19,
brem = False
input State:
[[-0.001     ]
 [-0.001     ]
 [-0.04578641]
 [-0.02175602]
 [-0.0078897 ]]

Simulating particle
Initiating Kalman filtering for particle: 17
Particle 17:
eta 3.6757996197852494, phi -2.013864210404273,
p 37.978333581875155, q -1.60217662e-19,
brem = False
output State:
[[-0.00098654]
 [-0.00100731]
 [-0.04579614]
 [-0.02173182]
 [-0.0078942 ]]
Data added to pickle list for particle: 17
Particle 18:
eta 3.833024945128554, phi 2.31932194730212,
p 39.0, q 1.60217662e-19,
brem = False
input State:
[[-0.001     ]
 [-0.001     ]
 [ 0.03173175]
 [-0.02947392]
 [ 0.0076874 ]]

Simulating particle
Initiating Kalman filtering for particle: 18
Particle 18:
eta 3.8339730731798065, phi 2.3196702349523317,
p 39.130645748347, q 1.60217662e-19,
brem = False
output State:
[[-0.00097319]
 [-0.00100323]
 [ 0.03169139]
 [-0.029457  ]
 [ 0.00766173]]
Data added to pickle list for particle: 18
Particle 19:
eta 4.466803496110272, phi 0.0965243819997931,
p 39.0, q -1.60217662e-19,
brem = False
input State:
[[-0.001     ]
 [-0.001     ]
 [ 0.00221382]
 [ 0.02286403]
 [-0.0076874 ]]

Simulating particle
Initiating Kalman filtering for particle: 19
Particle 19:
eta 4.466613929722728, phi 0.09684787267648227,
p 38.96173333239684, q -1.60217662e-19,
brem = False
output State:
[[-0.00100173]
 [-0.00099203]
 [ 0.00222163]
 [ 0.02286765]
 [-0.00769495]]
Data added to pickle list for particle: 19
Particle 20:
eta 3.8029277067742124, phi 2.982454189912872,
p 40.0, q 1.60217662e-19,
brem = False
input State:
[[-0.001     ]
 [-0.001     ]
 [ 0.00707288]
 [-0.04406898]
 [ 0.00749521]]

Simulating particle
Initiating Kalman filtering for particle: 20
Particle 20:
eta 3.803090046988862, phi 2.982070015720468,
p 39.9130291921404, q 1.60217662e-19,
brem = False
output State:
[[-0.0010005 ]
 [-0.00099221]
 [ 0.00708866]
 [-0.0440591 ]
 [ 0.00751154]]
Data added to pickle list for particle: 20
Particle 21:
eta 4.936164815300278, phi 2.338179557696941,
p 40.0, q -1.60217662e-19,
brem = False
input State:
[[-0.001     ]
 [ 0.001     ]
 [ 0.01033886]
 [-0.00997291]
 [-0.00749521]]

Simulating particle
Initiating Kalman filtering for particle: 21
Particle 21:
eta 4.935712650603398, phi 2.340490388879969,
p 39.93668878249084, q -1.60217662e-19,
brem = False
output State:
[[-0.00097157]
 [ 0.00102653]
 [ 0.01032046]
 [-0.01000129]
 [-0.00750709]]
Data added to pickle list for particle: 21
Particle 22:
eta 4.817937674451471, phi 1.787252428433188,
p 41.0, q 1.60217662e-19,
brem = False
input State:
[[-0.001     ]
 [ 0.001     ]
 [ 0.01579065]
 [-0.00347238]
 [ 0.0073124 ]]

Simulating particle
Initiating Kalman filtering for particle: 22
Particle 22:
eta 4.819633339936548, phi 1.778695859029331,
p 41.008598689748865, q 1.60217662e-19,
brem = False
output State:
[[-0.00099707]
 [ 0.00091337]
 [ 0.01579298]
 [-0.00333149]
 [ 0.00731087]]
Data added to pickle list for particle: 22
Particle 23:
eta 3.5441684694676066, phi -2.331446121002477,
p 41.0, q -1.60217662e-19,
brem = False
input State:
[[ 0.001     ]
 [ 0.001     ]
 [-0.04189394]
 [-0.03987001]
 [-0.0073124 ]]

Simulating particle
Initiating Kalman filtering for particle: 23
Particle 23:
eta 3.544288010091105, phi -2.331702675628517,
p 41.02873633843071, q -1.60217662e-19,
brem = False
output State:
[[ 0.00100265]
 [ 0.0009927 ]
 [-0.0418787 ]
 [-0.03987598]
 [-0.00730728]]
Data added to pickle list for particle: 23
Particle 24:
eta 3.6504218840500657, phi -0.45393448809407744,
p 42.0, q 1.60217662e-19,
brem = False
input State:
[[ 0.001     ]
 [ 0.001     ]
 [-0.02280025]
 [ 0.04672979]
 [ 0.0071383 ]]

Simulating particle
Initiating Kalman filtering for particle: 24
Particle 24:
eta 3.65079995100165, phi -0.45395957132779635,
p 41.98234358027385, q 1.60217662e-19,
brem = False
output State:
[[ 0.00099088]
 [ 0.00101657]
 [-0.02279279]
 [ 0.04671153]
 [ 0.0071413 ]]
Data added to pickle list for particle: 24
Particle 25:
eta 4.286940819438393, phi -2.4792923334307053,
p 42.0, q -1.60217662e-19,
brem = False
input State:
[[-0.001     ]
 [ 0.001     ]
 [-0.01691004]
 [-0.02168518]
 [-0.0071383 ]]

Simulating particle
Initiating Kalman filtering for particle: 25
Particle 25:
eta 4.285671266868316, phi -2.480570069628814,
p 42.0475238117349, q -1.60217662e-19,
brem = False
output State:
[[-0.00100734]
 [ 0.00102559]
 [-0.01690378]
 [-0.02173435]
 [-0.00713023]]
Data added to pickle list for particle: 25
Particle 26:
eta 4.938809454154901, phi 2.4254878819568044,
p 43.0, q 1.60217662e-19,
brem = False
input State:
[[-0.001     ]
 [-0.001     ]
 [ 0.00940496]
 [-0.01080782]
 [ 0.00697229]]

Simulating particle
Initiating Kalman filtering for particle: 26
Particle 26:
eta 4.941731560746901, phi 2.423335560023757,
p 43.004702764926655, q 1.60217662e-19,
brem = False
output State:
[[-0.00101349]
 [-0.00101071]
 [ 0.00940069]
 [-0.01075607]
 [ 0.00697153]]
Data added to pickle list for particle: 26
Particle 27:
eta 3.5587631368520145, phi 0.3868870616686634,
p 43.0, q -1.60217662e-19,
brem = False
input State:
[[ 0.001     ]
 [-0.001     ]
 [ 0.02150435]
 [ 0.0527817 ]
 [-0.00697229]]

Simulating particle
Initiating Kalman filtering for particle: 27
Particle 27:
eta 3.5585779043009986, phi 0.3866838550985239,
p 42.99239067874097, q -1.60217662e-19,
brem = False
output State:
[[ 0.00100031]
 [-0.00101326]
 [ 0.02149761]
 [ 0.05279586]
 [-0.00697352]]
Data added to pickle list for particle: 27
Particle 28:
eta 4.331920165468378, phi 3.088082823683095,
p 44.0, q 1.60217662e-19,
brem = False
input State:
[[-0.001     ]
 [ 0.001     ]
 [ 0.00140605]
 [-0.02625149]
 [ 0.00681383]]

Simulating particle
Initiating Kalman filtering for particle: 28
Particle 28:
eta 4.330163817010967, phi 3.0875123568772986,
p 43.90383368235215, q 1.60217662e-19,
brem = False
output State:
[[-0.00100922]
 [ 0.00102846]
 [ 0.00142353]
 [-0.02629684]
 [ 0.00682875]]
Data added to pickle list for particle: 28
Particle 29:
eta 3.661462976449965, phi 2.253853157715839,
p 44.0, q -1.60217662e-19,
brem = False
input State:
[[-0.001     ]
 [-0.001     ]
 [ 0.03988667]
 [-0.03245697]
 [-0.00681383]]

Simulating particle
Initiating Kalman filtering for particle: 29
Particle 29:
eta 3.6610322036967515, phi 2.2536689082347374,
p 44.09036403729924, q -1.60217662e-19,
brem = False
output State:
[[-0.00100911]
 [-0.00098341]
 [ 0.03990986]
 [-0.03246362]
 [-0.00679986]]
Data added to pickle list for particle: 29
Particle 30:
eta 3.6634616619172222, phi 2.608782285125341,
p 45.0, q 1.60217662e-19,
brem = False
input State:
[[-0.001     ]
 [-0.001     ]
 [ 0.02606878]
 [-0.04420697]
 [ 0.00666241]]

Simulating particle
Initiating Kalman filtering for particle: 30
Particle 30:
eta 3.6629378247361046, phi 2.6087946666014044,
p 44.947469433893026, q 1.60217662e-19,
brem = False
output State:
[[-0.00100818]
 [-0.00098953]
 [ 0.02608191]
 [-0.04423049]
 [ 0.0066702 ]]
Data added to pickle list for particle: 30
Particle 31:
eta 3.730023148022263, phi 0.6973746548930135,
p 45.0, q -1.60217662e-19,
brem = False
input State:
[[ 0.001     ]
 [ 0.001     ]
 [ 0.03083379]
 [ 0.03680283]
 [-0.00666241]]

Simulating particle
Initiating Kalman filtering for particle: 31
Particle 31:
eta 3.730581210560349, phi 0.6975134599624728,
p 44.91532963586005, q -1.60217662e-19,
brem = False
output State:
[[ 0.00100673]
 [ 0.00100955]
 [ 0.03082168]
 [ 0.036778  ]
 [-0.00667497]]
Data added to pickle list for particle: 31
Particle 32:
eta 3.964086990403057, phi -0.2589978698604636,
p 46.0, q 1.60217662e-19,
brem = False
input State:
[[ 0.001     ]
 [-0.001     ]
 [-0.00972826]
 [ 0.03671753]
 [ 0.00651758]]

Simulating particle
Initiating Kalman filtering for particle: 32
Particle 32:
eta 3.963162840423909, phi -0.25861457701039975,
p 45.96874587598268, q 1.60217662e-19,
brem = False
output State:
[[ 0.00098207]
 [-0.00103302]
 [-0.00972318]
 [ 0.03675523]
 [ 0.00652201]]
Data added to pickle list for particle: 32
Particle 33:
eta 4.143125956489162, phi -2.1365457036035664,
p 46.0, q -1.60217662e-19,
brem = False
input State:
[[ 0.001     ]
 [-0.001     ]
 [-0.02680658]
 [-0.01702185]
 [-0.00651758]]

Simulating particle
Initiating Kalman filtering for particle: 33
Particle 33:
eta 4.144111365706534, phi -2.1354005736488304,
p 46.035902707165626, q -1.60217662e-19,
brem = False
output State:
[[ 0.00099551]
 [-0.00102867]
 [-0.02679962]
 [-0.0169744 ]
 [-0.00651249]]
Data added to pickle list for particle: 33
Particle 34:
eta 4.211533567350961, phi 1.785113127597999,
p 47.0, q 1.60217662e-19,
brem = False
input State:
[[ 0.001     ]
 [-0.001     ]
 [ 0.02897533]
 [-0.00630676]
 [ 0.0063789 ]]

Simulating particle
Initiating Kalman filtering for particle: 34
Particle 34:
eta 4.21072321719386, phi 1.7864988362615386,
p 46.962377581044834, q 1.60217662e-19,
brem = False
output State:
[[ 0.00098794]
 [-0.0009817 ]
 [ 0.02899006]
 [-0.00635205]
 [ 0.00638401]]
Data added to pickle list for particle: 34
Particle 35:
eta 3.8660358645031816, phi -1.823213396784112,
p 47.0, q -1.60217662e-19,
brem = False
input State:
[[-0.001     ]
 [ 0.001     ]
 [-0.04057304]
 [-0.01046453]
 [-0.0063789 ]]

Simulating particle
Initiating Kalman filtering for particle: 35
Particle 35:
eta 3.865891614106285, phi -1.8234647692060426,
p 47.0149785876955, q -1.60217662e-19,
brem = False
output State:
[[-0.00099837]
 [ 0.00100344]
 [-0.04057627]
 [-0.01047624]
 [-0.00637687]]
Data added to pickle list for particle: 35
Particle 36:
eta 3.6170478897962965, phi 0.9082124801430151,
p 48.0, q 1.60217662e-19,
brem = False
input State:
[[-0.001     ]
 [-0.001     ]
 [ 0.04238665]
 [ 0.03307233]
 [ 0.00624601]]

Simulating particle
Initiating Kalman filtering for particle: 36
Particle 36:
eta 3.6175567787857013, phi 0.9083242186512,
p 48.04372306425872, q 1.60217662e-19,
brem = False
output State:
[[-0.00099486]
 [-0.00099083]
 [ 0.04236875]
 [ 0.03305075]
 [ 0.00624033]]
Data added to pickle list for particle: 36
Particle 37:
eta 4.371280880943754, phi -0.06332600912761513,
p 48.0, q -1.60217662e-19,
brem = False
input State:
[[ 0.001     ]
 [ 0.001     ]
 [-0.00159944]
 [ 0.02522347]
 [-0.00624601]]

Simulating particle
Initiating Kalman filtering for particle: 37
Particle 37:
eta 4.370858626793461, phi -0.06493717161968941,
p 47.810056765127776, q -1.60217662e-19,
brem = False
output State:
[[ 0.00103868]
 [ 0.00099854]
 [-0.00164077]
 [ 0.02523151]
 [-0.00627083]]
Data added to pickle list for particle: 37
Particle 38:
eta 3.6925206645117084, phi 2.0048160713844005,
p 49.0, q 1.60217662e-19,
brem = False
input State:
[[-0.001     ]
 [-0.001     ]
 [ 0.04522732]
 [-0.02096265]
 [ 0.00611854]]

Simulating particle
Initiating Kalman filtering for particle: 38
Particle 38:
eta 3.692986414201708, phi 2.0047764675565904,
p 49.157716257912554, q 1.60217662e-19,
brem = False
output State:
[[-0.00099424]
 [-0.00099873]
 [ 0.04520706]
 [-0.02095108]
 [ 0.00609891]]
Data added to pickle list for particle: 38
Particle 39:
eta 4.04862198415977, phi -2.6064410496265458,
p 49.0, q -1.60217662e-19,
brem = False
input State:
[[ 0.001     ]
 [ 0.001     ]
 [-0.01779975]
 [-0.03002362]
 [-0.00611854]]

Simulating particle
Initiating Kalman filtering for particle: 39
Particle 39:
eta 4.0473529896842955, phi -2.6075896437680304,
p 49.006590419138284, q -1.60217662e-19,
brem = False
output State:
[[ 0.00099165]
 [ 0.00103511]
 [-0.01778782]
 [-0.03008222]
 [-0.00611772]]
Data added to pickle list for particle: 39
Particle 40:
eta 3.7657877911339597, phi -2.0508148999485547,
p 50.0, q 1.60217662e-19,
brem = False
input State:
[[ 0.001     ]
 [-0.001     ]
 [-0.04108837]
 [-0.02139202]
 [ 0.00599617]]

Simulating particle
Initiating Kalman filtering for particle: 40
Particle 40:
eta 3.7655606211143904, phi -2.050504795482016,
p 50.099193953310596, q 1.60217662e-19,
brem = False
output State:
[[ 0.00099425]
 [-0.00100714]
 [-0.04110434]
 [-0.02138414]
 [ 0.0059843 ]]
Data added to pickle list for particle: 40
Particle 41:
eta 3.9162245789468817, phi -0.4437752847051783,
p 50.0, q -1.60217662e-19,
brem = False
input State:
[[-0.001     ]
 [ 0.001     ]
 [-0.01710886]
 [ 0.0359883 ]
 [-0.00599617]]

Simulating particle
Initiating Kalman filtering for particle: 41
Particle 41:
eta 3.917029195063343, phi -0.44414636403164665,
p 50.02226225457732, q -1.60217662e-19,
brem = False
output State:
[[-0.00101155]
 [ 0.00100573]
 [-0.01710844]
 [ 0.03595298]
 [-0.0059935 ]]
Data added to pickle list for particle: 41
Particle 42:
eta 4.759679006963938, phi 1.9860451106945425,
p 51.0, q 1.60217662e-19,
brem = False
input State:
[[-0.001     ]
 [ 0.001     ]
 [ 0.01568152]
 [-0.00691376]
 [ 0.0058786 ]]

Simulating particle
Initiating Kalman filtering for particle: 42
Particle 42:
eta 4.760436202960584, phi 1.9864870060937423,
p 51.08417177648366, q 1.60217662e-19,
brem = False
output State:
[[-0.00099143]
 [ 0.0009967 ]
 [ 0.0156666 ]
 [-0.00691545]
 [ 0.00586891]]
Data added to pickle list for particle: 42
Particle 43:
eta 3.512566459491594, phi -2.4477558539770903,
p 51.0, q -1.60217662e-19,
brem = False
input State:
[[-0.001     ]
 [ 0.001     ]
 [-0.03817359]
 [-0.04589236]
 [-0.0058786 ]]

Simulating particle
Initiating Kalman filtering for particle: 43
Particle 43:
eta 3.5125666868590755, phi -2.4475160781070944,
p 51.02055323649899, q -1.60217662e-19,
brem = False
output State:
[[-0.00100211]
 [ 0.00099858]
 [-0.03818458]
 [-0.0458832 ]
 [-0.00587623]]
Data added to pickle list for particle: 43
Particle 44:
eta 3.9150304469905635, phi 1.6220567963612609,
p 51.99999999999999, q 1.60217662e-19,
brem = False
input State:
[[ 0.001     ]
 [ 0.001     ]
 [ 0.03984334]
 [-0.00204418]
 [ 0.00576555]]

Simulating particle
Initiating Kalman filtering for particle: 44
Particle 44:
eta 3.9147852557232037, phi 1.6236028351503768,
p 52.0675993135872, q 1.60217662e-19,
brem = False
output State:
[[ 0.00099608]
 [ 0.001038  ]
 [ 0.03984991]
 [-0.00210629]
 [ 0.00575806]]
Data added to pickle list for particle: 44
Particle 45:
eta 3.6635329941440937, phi 1.4246693089907858,
p 51.99999999999999, q -1.60217662e-19,
brem = False
input State:
[[-0.001     ]
 [-0.001     ]
 [ 0.05077034]
 [ 0.00747218]
 [-0.00576555]]

Simulating particle
Initiating Kalman filtering for particle: 45
Particle 45:
eta 3.663264283564403, phi 1.4238415532531645,
p 52.058974402310334, q -1.60217662e-19,
brem = False
output State:
[[-0.0010066 ]
 [-0.00100974]
 [ 0.0507778 ]
 [ 0.00751622]
 [-0.00575902]]
Data added to pickle list for particle: 45
Particle 46:
eta 4.924589646122089, phi 2.3758587475540853,
p 53.0, q 1.60217662e-19,
brem = False
input State:
[[ 0.001     ]
 [-0.001     ]
 [ 0.01007176]
 [-0.01047587]
 [ 0.00565676]]

Simulating particle
Initiating Kalman filtering for particle: 46
Particle 46:
eta 4.924177640658968, phi 2.3731050444507225,
p 52.81497956968071, q 1.60217662e-19,
brem = False
output State:
[[ 0.00097664]
 [-0.00100839]
 [ 0.01010474]
 [-0.0104524 ]
 [ 0.00567658]]
Data added to pickle list for particle: 46
Particle 47:
eta 4.487783583373206, phi -0.6027028542779597,
p 53.0, q -1.60217662e-19,
brem = False
input State:
[[-0.001     ]
 [ 0.001     ]
 [-0.01275116]
 [ 0.01853064]
 [-0.00565676]]

Simulating particle
Initiating Kalman filtering for particle: 47
Particle 47:
eta 4.486920713032559, phi -0.6016367884464978,
p 53.05304608610291, q -1.60217662e-19,
brem = False
output State:
[[-0.00100361]
 [ 0.00096916]
 [-0.01274239]
 [ 0.01856024]
 [-0.00565111]]
Data added to pickle list for particle: 47
Particle 48:
eta 3.5861716472089444, phi 1.2548239907509335,
p 54.0, q 1.60217662e-19,
brem = False
input State:
[[ 0.001     ]
 [-0.001     ]
 [ 0.05270582]
 [ 0.01723087]
 [ 0.00555201]]

Simulating particle
Initiating Kalman filtering for particle: 48
Particle 48:
eta 3.5861007665734066, phi 1.2550640748031003,
p 54.077993306460804, q 1.60217662e-19,
brem = False
output State:
[[ 0.00099887]
 [-0.00099846]
 [ 0.0527137 ]
 [ 0.01721944]
 [ 0.005544  ]]
Data added to pickle list for particle: 48
Particle 49:
eta 4.820690991130197, phi -2.5132082704891356,
p 54.0, q -1.60217662e-19,
brem = False
input State:
[[ 0.001     ]
 [ 0.001     ]
 [-0.009478  ]
 [-0.01304354]
 [-0.00555201]]

Simulating particle
Initiating Kalman filtering for particle: 49
Particle 49:
eta 4.8179319725603404, phi -2.5171067629810424,
p 54.06646959219071, q -1.60217662e-19,
brem = False
output State:
[[ 0.00096044]
 [ 0.00105296]
 [-0.00945313]
 [-0.01311654]
 [-0.00554518]]
Data added to pickle list for particle: 49
Particle 50:
eta 4.525236165849586, phi -2.8330303797646645,
p 54.99999999999999, q 1.60217662e-19,
brem = False
input State:
[[ 0.001     ]
 [ 0.001     ]
 [-0.00657999]
 [-0.02064355]
 [ 0.00545106]]

Simulating particle
Initiating Kalman filtering for particle: 50
Particle 50:
eta 4.525331500145976, phi -2.831793031353013,
p 55.13130024143885, q 1.60217662e-19,
brem = False
output State:
[[ 0.00100935]
 [ 0.0009852 ]
 [-0.0066049 ]
 [-0.02063343]
 [ 0.00543808]]
Data added to pickle list for particle: 50
Particle 51:
eta 4.7272303559537105, phi 2.957820874785078,
p 54.99999999999999, q -1.60217662e-19,
brem = False
input State:
[[ 0.001     ]
 [-0.001     ]
 [ 0.00323508]
 [-0.01740519]
 [-0.00545106]]

Simulating particle
Initiating Kalman filtering for particle: 51
Particle 51:
eta 4.727138224969801, phi 2.9575260519223066,
p 54.978909030741555, q -1.60217662e-19,
brem = False
output State:
[[ 0.00099568]
 [-0.00101054]
 [ 0.00324051]
 [-0.01740584]
 [-0.00545315]]
Data added to pickle list for particle: 51
Particle 52:
eta 4.775662428730621, phi -2.266414809621128,
p 56.0, q 1.60217662e-19,
brem = False
input State:
[[ 0.001     ]
 [-0.001     ]
 [-0.01294746]
 [-0.01080887]
 [ 0.00535372]]

Simulating particle
Initiating Kalman filtering for particle: 52
Particle 52:
eta 4.782649720348008, phi -2.2583544475766355,
p 56.05051895570411, q 1.60217662e-19,
brem = False
output State:
[[ 0.00099775]
 [-0.00109181]
 [-0.01294339]
 [-0.01062962]
 [ 0.0053489 ]]
Data added to pickle list for particle: 52
Particle 53:
eta 3.6739961973120923, phi -2.774838594944827,
p 56.0, q -1.60217662e-19,
brem = False
input State:
[[-0.001     ]
 [-0.001     ]
 [-0.01820993]
 [-0.0474052 ]
 [-0.00535372]]

Simulating particle
Initiating Kalman filtering for particle: 53
Particle 53:
eta 3.6743001151353547, phi -2.7745937311726525,
p 55.95183827715088, q -1.60217662e-19,
brem = False
output State:
[[-0.00100434]
 [-0.00100825]
 [-0.01821599]
 [-0.04738632]
 [-0.00535833]]
Data added to pickle list for particle: 53
Particle 54:
eta 4.928086270550329, phi 0.23072990601240054,
p 57.00000000000001, q 1.60217662e-19,
brem = False
input State:
[[ 0.001     ]
 [-0.001     ]
 [ 0.00331174]
 [ 0.01409769]
 [ 0.0052598 ]]

Simulating particle
Initiating Kalman filtering for particle: 54
Particle 54:
eta 4.927415509487787, phi 0.23197457045216494,
p 56.90397032275797, q 1.60217662e-19,
brem = False
output State:
[[ 0.00100648]
 [-0.00099338]
 [ 0.00333151]
 [ 0.01410301]
 [ 0.00526867]]
Data added to pickle list for particle: 54
Particle 55:
eta 4.904067721951563, phi 1.6440613676903018,
p 57.00000000000001, q -1.60217662e-19,
brem = False
input State:
[[ 0.001     ]
 [-0.001     ]
 [ 0.01479373]
 [-0.00108581]
 [-0.0052598 ]]

Simulating particle
Initiating Kalman filtering for particle: 55
Particle 55:
eta 4.901995370578402, phi 1.639350029542946,
p 57.17480015680144, q -1.60217662e-19,
brem = False
output State:
[[ 0.00095746]
 [-0.00105363]
 [ 0.01482938]
 [-0.0010182 ]
 [-0.00524372]]
Data added to pickle list for particle: 55
Particle 56:
eta 3.624068732214728, phi -2.755392752035441,
p 58.0, q 1.60217662e-19,
brem = False
input State:
[[-0.001     ]
 [ 0.001     ]
 [-0.02010889]
 [-0.04945382]
 [ 0.00516911]]

Simulating particle
Initiating Kalman filtering for particle: 56
Particle 56:
eta 3.623729501335147, phi -2.755023816723854,
p 58.14136969846451, q 1.60217662e-19,
brem = False
output State:
[[-0.000985  ]
 [ 0.00099989]
 [-0.02013398]
 [-0.04946319]
 [ 0.00515654]]
Data added to pickle list for particle: 56
Particle 57:
eta 4.655921206869091, phi 3.099248777027033,
p 58.0, q -1.60217662e-19,
brem = False
input State:
[[ 0.001     ]
 [ 0.001     ]
 [ 0.0008048 ]
 [-0.01899498]
 [-0.00516911]]

Simulating particle
Initiating Kalman filtering for particle: 57
Particle 57:
eta 4.65624518544722, phi 3.1008772913912055,
p 57.83044560537547, q -1.60217662e-19,
brem = False
output State:
[[ 0.00102516]
 [ 0.00098904]
 [ 0.00077362]
 [-0.01899011]
 [-0.00518427]]
Data added to pickle list for particle: 57
Particle 58:
eta 3.938138651772489, phi 1.4982912751534772,
p 59.0, q 1.60217662e-19,
brem = False
input State:
[[0.001     ]
 [0.001     ]
 [0.03888127]
 [0.00282404]
 [0.0050815 ]]

Simulating particle
Initiating Kalman filtering for particle: 58
Particle 58:
eta 3.9381350162981983, phi 1.498202130495827,
p 59.00320271427228, q 1.60217662e-19,
brem = False
output State:
[[0.00100452]
 [0.00101185]
 [0.03888116]
 [0.00282752]
 [0.00508122]]
Data added to pickle list for particle: 58
Particle 59:
eta 4.230860165513354, phi 1.0645530126654479,
p 59.0, q -1.60217662e-19,
brem = False
input State:
[[ 0.001     ]
 [ 0.001     ]
 [ 0.02543773]
 [ 0.01410362]
 [-0.0050815 ]]

Simulating particle
Initiating Kalman filtering for particle: 59
Particle 59:
eta 4.229799359559682, phi 1.0645385263929046,
p 59.20424457623075, q -1.60217662e-19,
brem = False
output State:
[[ 0.00098079]
 [ 0.00099467]
 [ 0.02546453]
 [ 0.01411896]
 [-0.00506397]]
Data added to pickle list for particle: 59
Particle 60:
eta 4.666852099127535, phi 0.7695291515316287,
p 60.00000000000001, q 1.60217662e-19,
brem = False
input State:
[[-0.001     ]
 [ 0.001     ]
 [ 0.01308467]
 [ 0.01350669]
 [ 0.00499681]]

Simulating particle
Initiating Kalman filtering for particle: 60
Particle 60:
eta 4.66636094844908, phi 0.7658128989626413,
p 60.266615946683146, q 1.60217662e-19,
brem = False
output State:
[[-0.00095754]
 [ 0.00096116]
 [ 0.01304079]
 [ 0.01356188]
 [ 0.0049747 ]]
Data added to pickle list for particle: 60
Particle 61:
eta 3.8335441111257405, phi 3.049185287074932,
p 60.00000000000001, q -1.60217662e-19,
brem = False
input State:
[[ 0.001     ]
 [ 0.001     ]
 [ 0.00399424]
 [-0.0431012 ]
 [-0.00499681]]

Simulating particle
Initiating Kalman filtering for particle: 61
Particle 61:
eta 3.834371776345569, phi 3.0485452532195003,
p 60.138227252453895, q -1.60217662e-19,
brem = False
output State:
[[ 0.00097841]
 [ 0.00097575]
 [ 0.0040185 ]
 [-0.04306294]
 [-0.00498532]]
Data added to pickle list for particle: 61
Particle 62:
eta 4.811384077109476, phi -3.111810440875082,
p 61.0, q 1.60217662e-19,
brem = False
input State:
[[ 0.001     ]
 [-0.001     ]
 [-0.00048461]
 [-0.01626704]
 [ 0.00491489]]

Simulating particle
Initiating Kalman filtering for particle: 62
Particle 62:
eta 4.815271032939511, phi -3.1117998679707037,
p 60.96549173392716, q 1.60217662e-19,
brem = False
output State:
[[ 0.00099303]
 [-0.00105089]
 [-0.0004829 ]
 [-0.01620392]
 [ 0.00491768]]
Data added to pickle list for particle: 62
Particle 63:
eta 4.672469622349198, phi -1.3391508621815869,
p 61.0, q -1.60217662e-19,
brem = False
input State:
[[ 0.001     ]
 [ 0.001     ]
 [-0.01820046]
 [ 0.00429312]
 [-0.00491489]]

Simulating particle
Initiating Kalman filtering for particle: 63
Particle 63:
eta 4.671981083915837, phi -1.3384407872712436,
p 60.955574415296866, q -1.60217662e-19,
brem = False
output State:
[[ 0.00099771]
 [ 0.00098602]
 [-0.0182063 ]
 [ 0.00430815]
 [-0.00491848]]
Data added to pickle list for particle: 63
Particle 64:
eta 4.81006579587199, phi 1.9892371180302344,
p 62.0, q 1.60217662e-19,
brem = False
input State:
[[-0.001     ]
 [ 0.001     ]
 [ 0.01488979]
 [-0.00662155]
 [ 0.00483562]]

Simulating particle
Initiating Kalman filtering for particle: 64
Particle 64:
eta 4.810984689480145, phi 1.987273902918145,
p 62.08654103960598, q 1.60217662e-19,
brem = False
output State:
[[-0.00099532]
 [ 0.00095859]
 [ 0.01488907]
 [-0.00658625]
 [ 0.00482888]]
Data added to pickle list for particle: 64
Particle 65:
eta 4.041393611827938, phi -2.2396761291916514,
p 62.0, q -1.60217662e-19,
brem = False
input State:
[[-0.001     ]
 [ 0.001     ]
 [-0.02758109]
 [-0.02180099]
 [-0.00483562]]

Simulating particle
Initiating Kalman filtering for particle: 65
Particle 65:
eta 4.04078468470322, phi -2.2399321168689506,
p 61.81880319794486, q -1.60217662e-19,
brem = False
output State:
[[-0.00099429]
 [ 0.00101636]
 [-0.02759232]
 [-0.02182134]
 [-0.00484979]]
Data added to pickle list for particle: 65
Particle 66:
eta 4.550045475449782, phi 2.2247464687686422,
p 62.99999999999999, q 1.60217662e-19,
brem = False
input State:
[[ 0.001     ]
 [ 0.001     ]
 [ 0.01677522]
 [-0.01285747]
 [ 0.00475887]]

Simulating particle
Initiating Kalman filtering for particle: 66
Particle 66:
eta 4.5492921170037945, phi 2.2259225554235114,
p 62.98463736376085, q 1.60217662e-19,
brem = False
output State:
[[ 0.00100517]
 [ 0.00102015]
 [ 0.01677272]
 [-0.0128869 ]
 [ 0.00476003]]
Data added to pickle list for particle: 66
Particle 67:
eta 3.71407241153072, phi 2.4086720588002892,
p 62.99999999999999, q -1.60217662e-19,
brem = False
input State:
[[ 0.001     ]
 [ 0.001     ]
 [ 0.03263932]
 [-0.03625822]
 [-0.00475887]]

Simulating particle
Initiating Kalman filtering for particle: 67
Particle 67:
eta 3.7138964756287605, phi 2.408691711395494,
p 62.982340156749366, q -1.60217662e-19,
brem = False
output State:
[[ 0.00099037]
 [ 0.00100393]
 [ 0.03264436]
 [-0.03626525]
 [-0.0047602 ]]
Data added to pickle list for particle: 67
Particle 68:
eta 4.88918934006693, phi -0.05179303140411911,
p 64.0, q 1.60217662e-19,
brem = False
input State:
[[-0.001     ]
 [ 0.001     ]
 [-0.00077944]
 [ 0.01503571]
 [ 0.00468451]]

Simulating particle
Initiating Kalman filtering for particle: 68
Particle 68:
eta 4.887250033633222, phi -0.05104020880986723,
p 63.938827710795024, q 1.60217662e-19,
brem = False
output State:
[[-0.001032  ]
 [ 0.00097706]
 [-0.00076961]
 [ 0.01506548]
 [ 0.00468899]]
Data added to pickle list for particle: 68
Particle 69:
eta 4.210545536631698, phi -2.4475207591064096,
p 64.0, q -1.60217662e-19,
brem = False
input State:
[[ 0.001     ]
 [-0.001     ]
 [-0.01898744]
 [-0.02281583]
 [-0.00468451]]

Simulating particle
Initiating Kalman filtering for particle: 69
Particle 69:
eta 4.209932761902635, phi -2.446401134652683,
p 63.68175033868858, q -1.60217662e-19,
brem = False
output State:
[[ 0.00101687]
 [-0.00101134]
 [-0.01902464]
 [-0.02280854]
 [-0.00470792]]
Data added to pickle list for particle: 69
Particle 70:
eta 4.287981459551923, phi 1.6940204654569535,
p 65.0, q 1.60217662e-19,
brem = False
input State:
[[ 0.001     ]
 [ 0.001     ]
 [ 0.02726212]
 [-0.00337646]
 [ 0.00461244]]

Simulating particle
Initiating Kalman filtering for particle: 70
Particle 70:
eta 4.287653086395051, phi 1.6941779462042927,
p 65.0337929325464, q 1.60217662e-19,
brem = False
output State:
[[ 0.00101476]
 [ 0.00100209]
 [ 0.02727055]
 [-0.00338186]
 [ 0.00461004]]
Data added to pickle list for particle: 70
Particle 71:
eta 4.830935303908984, phi 0.7423342080498894,
p 65.0, q -1.60217662e-19,
brem = False
input State:
[[-0.001     ]
 [-0.001     ]
 [ 0.01078853]
 [ 0.01176016]
 [-0.00461244]]

Simulating particle
Initiating Kalman filtering for particle: 71
Particle 71:
eta 4.8333306945905665, phi 0.745339283432583,
p 64.9970503100297, q -1.60217662e-19,
brem = False
output State:
[[-0.00101206]
 [-0.00095984]
 [ 0.01079792]
 [ 0.01169963]
 [-0.00461265]]
Data added to pickle list for particle: 71
Particle 72:
eta 3.7337510779857506, phi -2.494888743309138,
p 66.0, q 1.60217662e-19,
brem = False
input State:
[[-0.001     ]
 [-0.001     ]
 [-0.02882242]
 [-0.03817456]
 [ 0.00454255]]

Simulating particle
Initiating Kalman filtering for particle: 72
Particle 72:
eta 3.7328730208674665, phi -2.4951160572997457,
p 66.20640405539122, q 1.60217662e-19,
brem = False
output State:
[[-0.00099457]
 [-0.00098081]
 [-0.02883908]
 [-0.03821469]
 [ 0.00452839]]
Data added to pickle list for particle: 72
Particle 73:
eta 4.264970481922075, phi -2.734362755641366,
p 66.0, q -1.60217662e-19,
brem = False
input State:
[[ 0.001     ]
 [-0.001     ]
 [-0.0111335 ]
 [-0.02581131]
 [-0.00454255]]

Simulating particle
Initiating Kalman filtering for particle: 73
Particle 73:
eta 4.263060005168217, phi -2.735361034299133,
p 66.08333369439, q -1.60217662e-19,
brem = False
output State:
[[ 0.00098265]
 [-0.00096765]
 [-0.01112897]
 [-0.02587181]
 [-0.00453682]]
Data added to pickle list for particle: 73
Particle 74:
eta 3.7684437682359526, phi 0.41445584192679286,
p 67.0, q 1.60217662e-19,
brem = False
input State:
[[-0.001     ]
 [-0.001     ]
 [ 0.01860459]
 [ 0.04228902]
 [ 0.00447475]]

Simulating particle
Initiating Kalman filtering for particle: 74
Particle 74:
eta 3.767989454041423, phi 0.41376207359819145,
p 67.17672430161164, q 1.60217662e-19,
brem = False
output State:
[[-0.00098317]
 [-0.00101581]
 [ 0.0185837 ]
 [ 0.04232116]
 [ 0.00446298]]
Data added to pickle list for particle: 74
Particle 75:
eta 4.945755916371859, phi -1.5198853628603843,
p 67.0, q -1.60217662e-19,
brem = False
input State:
[[ 0.001     ]
 [-0.001     ]
 [-0.01420936]
 [ 0.00072404]
 [-0.00447475]]

Simulating particle
Initiating Kalman filtering for particle: 75
Particle 75:
eta 4.946738098406155, phi -1.5117064031093208,
p 67.22164078488768, q -1.60217662e-19,
brem = False
output State:
[[ 0.00098754]
 [-0.00109247]
 [-0.01418901]
 [ 0.0008394 ]
 [-0.00446   ]]
Data added to pickle list for particle: 75
Particle 76:
eta 3.762510926248476, phi 0.5328303889609012,
p 68.0, q 1.60217662e-19,
brem = False
input State:
[[-0.001     ]
 [-0.001     ]
 [ 0.02360845]
 [ 0.04003296]
 [ 0.00440895]]

Simulating particle
Initiating Kalman filtering for particle: 76
Particle 76:
eta 3.762444195579999, phi 0.5329731606705281,
p 67.94663390601062, q 1.60217662e-19,
brem = False
output State:
[[-0.00100374]
 [-0.00100557]
 [ 0.02361575]
 [ 0.04003227]
 [ 0.00441241]]
Data added to pickle list for particle: 76
Particle 77:
eta 4.014063783079336, phi -1.3703177136776694,
p 68.0, q -1.60217662e-19,
brem = False
input State:
[[-0.001     ]
 [-0.001     ]
 [-0.03540783]
 [ 0.00719517]
 [-0.00440895]]

Simulating particle
Initiating Kalman filtering for particle: 77
Particle 77:
eta 4.014352743879995, phi -1.3703397563710618,
p 68.16862840281554, q -1.60217662e-19,
brem = False
output State:
[[-0.00100147]
 [-0.00100048]
 [-0.03539775]
 [ 0.00719231]
 [-0.00439804]]
Data added to pickle list for particle: 77
Particle 78:
eta 4.672429717123461, phi 1.268095967254261,
p 69.0, q 1.60217662e-19,
brem = False
input State:
[[ 0.001     ]
 [-0.001     ]
 [ 0.01785046]
 [ 0.00557465]
 [ 0.00434505]]

Simulating particle
Initiating Kalman filtering for particle: 78
Particle 78:
eta 4.671626783525679, phi 1.2721434151901385,
p 68.58022428650146, q 1.60217662e-19,
brem = False
output State:
[[ 0.00096775]
 [-0.00096398]
 [ 0.01788723]
 [ 0.00550678]
 [ 0.00437165]]
Data added to pickle list for particle: 78
Particle 79:
eta 4.386277982107067, phi -2.998325190244833,
p 69.0, q -1.60217662e-19,
brem = False
input State:
[[ 0.001     ]
 [-0.001     ]
 [-0.00355485]
 [-0.02464272]
 [-0.00434505]]

Simulating particle
Initiating Kalman filtering for particle: 79
Particle 79:
eta 4.3857032465488315, phi -2.9984651240767133,
p 68.8618104441699, q -1.60217662e-19,
brem = False
output State:
[[ 0.00100554]
 [-0.00098662]
 [-0.00355345]
 [-0.02465738]
 [-0.00435377]]
Data added to pickle list for particle: 79
Particle 80:
eta 4.0180479806711675, phi -2.2004478770574476,
p 70.0, q 1.60217662e-19,
brem = False
input State:
[[-0.001     ]
 [ 0.001     ]
 [-0.02908646]
 [-0.02119185]
 [ 0.00428298]]

Simulating particle
Initiating Kalman filtering for particle: 80
Particle 80:
eta 4.019674141802397, phi -2.199955699024757,
p 69.69071237015399, q 1.60217662e-19,
brem = False
output State:
[[-0.00102746]
 [ 0.00097118]
 [-0.02904958]
 [-0.0211431 ]
 [ 0.00430199]]
Data added to pickle list for particle: 80
Particle 81:
eta 3.7745851273419015, phi 3.132808757362417,
p 70.0, q -1.60217662e-19,
brem = False
input State:
[[ 0.001     ]
 [ 0.001     ]
 [ 0.00040333]
 [-0.04591562]
 [-0.00428298]]

Simulating particle
Initiating Kalman filtering for particle: 81
Particle 81:
eta 3.7734809121225066, phi 3.132903683551533,
p 69.91854566040236, q -1.60217662e-19,
brem = False
output State:
[[ 0.00100811]
 [ 0.00102056]
 [ 0.00039941]
 [-0.04596644]
 [-0.00428797]]
Data added to pickle list for particle: 81
Particle 82:
eta 3.6659198518280647, phi 1.9754764773717801,
p 71.0, q 1.60217662e-19,
brem = False
input State:
[[-0.001     ]
 [-0.001     ]
 [ 0.04705968]
 [-0.02015665]
 [ 0.00422265]]

Simulating particle
Initiating Kalman filtering for particle: 82
Particle 82:
eta 3.6659908714030984, phi 1.974485964880668,
p 70.87571897787942, q 1.60217662e-19,
brem = False
output State:
[[-0.00101517]
 [-0.00100303]
 [ 0.04707627]
 [-0.02010859]
 [ 0.00423006]]
Data added to pickle list for particle: 82
Particle 83:
eta 3.584525312286525, phi -0.1559005649412101,
p 71.0, q -1.60217662e-19,
brem = False
input State:
[[ 0.001     ]
 [ 0.001     ]
 [-0.00862406]
 [ 0.05486883]
 [-0.00422265]]

Simulating particle
Initiating Kalman filtering for particle: 83
Particle 83:
eta 3.585819606252597, phi -0.15596636523339913,
p 70.91434663712714, q -1.60217662e-19,
brem = False
output State:
[[ 0.000992  ]
 [ 0.00103584]
 [-0.0086165 ]
 [ 0.05479719]
 [-0.00422776]]
Data added to pickle list for particle: 83
Particle 84:
eta 3.9671164269622388, phi 3.0658957936764883,
p 72.0, q 1.60217662e-19,
brem = False
input State:
[[-0.001     ]
 [ 0.001     ]
 [ 0.00286386]
 [-0.03776099]
 [ 0.00416401]]

Simulating particle
Initiating Kalman filtering for particle: 84
Particle 84:
eta 3.9678359185015197, phi 3.0655418695114007,
p 71.89297105579591, q 1.60217662e-19,
brem = False
output State:
[[-0.00101675]
 [ 0.00099963]
 [ 0.00287515]
 [-0.0377328 ]
 [ 0.00417021]]
Data added to pickle list for particle: 84
Particle 85:
eta 3.5834432661621043, phi -0.8739076161575288,
p 72.0, q -1.60217662e-19,
brem = False
input State:
[[ 0.001     ]
 [-0.001     ]
 [-0.04263851]
 [ 0.03568774]
 [-0.00416401]]

Simulating particle
Initiating Kalman filtering for particle: 85
Particle 85:
eta 3.5835120479766456, phi -0.8743864843627982,
p 71.94315087470561, q -1.60217662e-19,
brem = False
output State:
[[ 0.00100733]
 [-0.00098522]
 [-0.04265265]
 [ 0.03566486]
 [-0.0041673 ]]
Data added to pickle list for particle: 85
Particle 86:
eta 4.944299695852305, phi 3.1389360065410883,
p 73.0, q 1.60217662e-19,
brem = False
input State:
[[ 1.00000000e-03]
 [-1.00000000e-03]
 [ 3.78532620e-05]
 [-1.42484765e-02]
 [ 4.10696574e-03]]

Simulating particle
Initiating Kalman filtering for particle: 86
Particle 86:
eta 4.943847523277485, phi 3.1382624330244315,
p 72.98772079664447, q 1.60217662e-19,
brem = False
output State:
[[ 9.91248474e-04]
 [-1.00111530e-03]
 [ 4.74721120e-05]
 [-1.42548926e-02]
 [ 4.10765668e-03]]
Data added to pickle list for particle: 86
Particle 87:
eta 4.875914778343897, phi 1.456887928572143,
p 73.0, q -1.60217662e-19,
brem = False
input State:
[[ 0.001     ]
 [-0.001     ]
 [ 0.01515824]
 [ 0.00173416]
 [-0.00410697]]

Simulating particle
Initiating Kalman filtering for particle: 87
Particle 87:
eta 4.871014013880312, phi 1.4513869358299494,
p 73.7534475984326, q -1.60217662e-19,
brem = False
output State:
[[ 0.00095331]
 [-0.00105304]
 [ 0.0152229 ]
 [ 0.00182645]
 [-0.00406501]]
Data added to pickle list for particle: 87
Particle 88:
eta 4.383566193545828, phi -2.3400232095175153,
p 73.99999999999999, q 1.60217662e-19,
brem = False
input State:
[[ 0.001     ]
 [-0.001     ]
 [-0.01793638]
 [-0.01736545]
 [ 0.00405147]]

Simulating particle
Initiating Kalman filtering for particle: 88
Particle 88:
eta 4.385087893837078, phi -2.3389813991222503,
p 73.89749981395434, q 1.60217662e-19,
brem = False
output State:
[[ 0.00100177]
 [-0.00101134]
 [-0.01792715]
 [-0.01732037]
 [ 0.00405709]]
Data added to pickle list for particle: 88
Particle 89:
eta 3.6383978474096397, phi -0.1274662287969308,
p 73.99999999999999, q -1.60217662e-19,
brem = False
input State:
[[ 0.001     ]
 [ 0.001     ]
 [-0.00668979]
 [ 0.05219832]
 [-0.00405147]]

Simulating particle
Initiating Kalman filtering for particle: 89
Particle 89:
eta 3.6386088482829417, phi -0.12757656147240867,
p 73.89591076261276, q -1.60217662e-19,
brem = False
output State:
[[ 0.00100169]
 [ 0.00100592]
 [-0.00669414]
 [ 0.05218656]
 [-0.00405717]]
Data added to pickle list for particle: 89
Particle 90:
eta 3.509010280913555, phi -2.99049062802973,
p 75.0, q 1.60217662e-19,
brem = False
input State:
[[ 0.001     ]
 [-0.001     ]
 [-0.00901762]
 [-0.0592241 ]
 [ 0.00399745]]

Simulating particle
Initiating Kalman filtering for particle: 90
Particle 90:
eta 3.508965167681348, phi -2.990969281006456,
p 74.62997613181756, q 1.60217662e-19,
brem = False
output State:
[[ 0.0009828 ]
 [-0.00100306]
 [-0.00898967]
 [-0.05923109]
 [ 0.00401727]]
Data added to pickle list for particle: 90
Particle 91:
eta 4.1387432244050935, phi -0.950834288521562,
p 75.0, q -1.60217662e-19,
brem = False
input State:
[[-0.001     ]
 [ 0.001     ]
 [-0.02595843]
 [ 0.01853047]
 [-0.00399745]]

Simulating particle
Initiating Kalman filtering for particle: 91
Particle 91:
eta 4.139261817711127, phi -0.9511804611660233,
p 75.09398987321664, q -1.60217662e-19,
brem = False
output State:
[[-0.00101146]
 [ 0.0010159 ]
 [-0.02595137]
 [ 0.01851187]
 [-0.00399244]]
Data added to pickle list for particle: 91
Particle 92:
eta 3.5437930065817, phi 0.5514440220743709,
p 76.0, q 1.60217662e-19,
brem = False
input State:
[[0.001     ]
 [0.001     ]
 [0.03031142]
 [0.04927935]
 [0.00394485]]

Simulating particle
Initiating Kalman filtering for particle: 92
Particle 92:
eta 3.5436989816683178, phi 0.5511981206446086,
p 75.98931217537142, q 1.60217662e-19,
brem = False
output State:
[[0.00100571]
 [0.00099548]
 [0.03030216]
 [0.04929144]
 [0.0039454 ]]
Data added to pickle list for particle: 92
Particle 93:
eta 3.567289904951494, phi -2.0219510919077854,
p 76.0, q -1.60217662e-19,
brem = False
input State:
[[-0.001     ]
 [-0.001     ]
 [-0.05085546]
 [-0.02463846]
 [-0.00394485]]

Simulating particle
Initiating Kalman filtering for particle: 93
Particle 93:
eta 3.56726392698093, phi -2.0218834216276127,
p 76.05430622566072, q -1.60217662e-19,
brem = False
output State:
[[-0.00100207]
 [-0.00099415]
 [-0.05085845]
 [-0.02463566]
 [-0.00394203]]
Data added to pickle list for particle: 93
Particle 94:
eta 4.453158693315304, phi 0.11048196772173201,
p 77.0, q 1.60217662e-19,
brem = False
input State:
[[-0.001     ]
 [-0.001     ]
 [ 0.00256752]
 [ 0.02314465]
 [ 0.00389362]]

Simulating particle
Initiating Kalman filtering for particle: 94
Particle 94:
eta 4.455410244628423, phi 0.11120442307377017,
p 76.97619753833361, q 1.60217662e-19,
brem = False
output State:
[[-0.00099366]
 [-0.00093479]
 [ 0.00257843]
 [ 0.02309073]
 [ 0.00389482]]
Data added to pickle list for particle: 94
Particle 95:
eta 4.972851999055518, phi 1.4247118220949353,
p 77.0, q -1.60217662e-19,
brem = False
input State:
[[ 0.001     ]
 [ 0.001     ]
 [ 0.01369992]
 [ 0.00201571]
 [-0.00389362]]

Simulating particle
Initiating Kalman filtering for particle: 95
Particle 95:
eta 4.973766900325098, phi 1.4275848079650653,
p 76.91546756367686, q -1.60217662e-19,
brem = False
output State:
[[ 0.00101593]
 [ 0.00103947]
 [ 0.01369312]
 [ 0.00197453]
 [-0.0038979 ]]
Data added to pickle list for particle: 95
Particle 96:
eta 4.189485799889017, phi -3.0501189148384706,
p 78.0, q 1.60217662e-19,
brem = False
input State:
[[-0.001     ]
 [ 0.001     ]
 [-0.00276917]
 [-0.03018837]
 [ 0.0038437 ]]

Simulating particle
Initiating Kalman filtering for particle: 96
Particle 96:
eta 4.186765681073539, phi -3.0500004675540753,
p 78.00968615819141, q 1.60217662e-19,
brem = False
output State:
[[-0.00098937]
 [ 0.0010409 ]
 [-0.0027803 ]
 [-0.03027031]
 [ 0.00384322]]
Data added to pickle list for particle: 96
Particle 97:
eta 4.618725042491825, phi 1.8288218393397884,
p 78.0, q -1.60217662e-19,
brem = False
input State:
[[-0.001     ]
 [-0.001     ]
 [ 0.01907942]
 [-0.00503522]
 [-0.0038437 ]]

Simulating particle
Initiating Kalman filtering for particle: 97
Particle 97:
eta 4.617307825229137, phi 1.8329381495537196,
p 77.92131782090274, q -1.60217662e-19,
brem = False
output State:
[[-0.00100572]
 [-0.00093662]
 [ 0.01908556]
 [-0.00512097]
 [-0.00384758]]
Data added to pickle list for particle: 97
Particle 98:
eta 4.277474405876254, phi 0.947621518663875,
p 79.0, q 1.60217662e-19,
brem = False
input State:
[[ 0.001     ]
 [-0.001     ]
 [ 0.0225425 ]
 [ 0.01620158]
 [ 0.00379504]]

Simulating particle
Initiating Kalman filtering for particle: 98
Particle 98:
eta 4.27723882049836, phi 0.9476186961447316,
p 78.91646289654888, q 1.60217662e-19,
brem = False
output State:
[[ 0.00099561]
 [-0.00100129]
 [ 0.02254776]
 [ 0.01620546]
 [ 0.00379906]]
Data added to pickle list for particle: 98
Particle 99:
eta 4.575233900200276, phi -1.9396789642959966,
p 79.0, q -1.60217662e-19,
brem = False
input State:
[[ 0.001     ]
 [-0.001     ]
 [-0.01922355]
 [-0.00743141]
 [-0.00379504]]

Simulating particle
Initiating Kalman filtering for particle: 99
Particle 99:
eta 4.576225832856021, phi -1.9335765006349739,
p 78.70000209083118, q -1.60217662e-19,
brem = False
output State:
[[ 0.00101615]
 [-0.00108541]
 [-0.01924943]
 [-0.00730671]
 [-0.00380951]]
Data added to pickle list for particle: 99
Particle 100:
eta 4.916140937227558, phi 1.0993558802306085,
p 80.0, q 1.60217662e-19,
brem = False
input State:
[[-0.001     ]
 [-0.001     ]
 [ 0.0130568 ]
 [ 0.00665609]
 [ 0.00374761]]

Simulating particle
Initiating Kalman filtering for particle: 100
Particle 100:
eta 4.917523291423955, phi 1.100563677047174,
p 80.16814101878549, q 1.60217662e-19,
brem = False
output State:
[[-0.00097962]
 [-0.00097472]
 [ 0.01304678]
 [ 0.00663114]
 [ 0.00373975]]
Data added to pickle list for particle: 100
Particle 101:
eta 3.9279989672034605, phi -2.2390439274125096,
p 80.0, q -1.60217662e-19,
brem = False
input State:
[[ 0.001     ]
 [ 0.001     ]
 [-0.03091072]
 [-0.0244011 ]
 [-0.00374761]]

Simulating particle
Initiating Kalman filtering for particle: 101
Particle 101:
eta 3.9283456749865975, phi -2.23903895276714,
p 80.05683451928229, q -1.60217662e-19,
brem = False
output State:
[[ 0.00100103]
 [ 0.00097902]
 [-0.03090012]
 [-0.02439248]
 [-0.00374495]]
Data added to pickle list for particle: 101
Particle 102:
eta 3.654733078786959, phi -0.9915006144069799,
p 81.0, q 1.60217662e-19,
brem = False
input State:
[[-0.001     ]
 [-0.001     ]
 [-0.04332485]
 [ 0.02834149]
 [ 0.00370134]]

Simulating particle
Initiating Kalman filtering for particle: 102
Particle 102:
eta 3.654336317187749, phi -0.9908321203944825,
p 80.81553466595561, q 1.60217662e-19,
brem = False
output State:
[[-0.00098905]
 [-0.00101658]
 [-0.04332311]
 [ 0.02838172]
 [ 0.00370979]]
Data added to pickle list for particle: 102
Particle 103:
eta 4.138450083501461, phi 0.04167865890796134,
p 81.0, q -1.60217662e-19,
brem = False
input State:
[[-0.001     ]
 [ 0.001     ]
 [ 0.0013293 ]
 [ 0.03187551]
 [-0.00370134]]

Simulating particle
Initiating Kalman filtering for particle: 103
Particle 103:
eta 4.139073242256429, phi 0.042179034681441505,
p 81.19827243940607, q -1.60217662e-19,
brem = False
output State:
[[-0.00101542]
 [ 0.00100064]
 [ 0.00134441]
 [ 0.03185497]
 [-0.0036923 ]]
Data added to pickle list for particle: 103
Particle 104:
eta 4.398589487263381, phi -1.1170195178695976,
p 82.0, q 1.60217662e-19,
brem = False
input State:
[[ 0.001     ]
 [-0.001     ]
 [-0.02210419]
 [ 0.01078069]
 [ 0.0036562 ]]

Simulating particle
Initiating Kalman filtering for particle: 104
Particle 104:
eta 4.399153676640269, phi -1.1160908411418988,
p 81.83794516836771, q 1.60217662e-19,
brem = False
output State:
[[ 0.0009896 ]
 [-0.0009989 ]
 [-0.0220817 ]
 [ 0.01079512]
 [ 0.00366344]]
Data added to pickle list for particle: 104
Particle 105:
eta 4.573750005409729, phi 2.259833178719062,
p 82.0, q -1.60217662e-19,
brem = False
input State:
[[ 0.001     ]
 [-0.001     ]
 [ 0.01593161]
 [-0.01312316]
 [-0.0036562 ]]

Simulating particle
Initiating Kalman filtering for particle: 105
Particle 105:
eta 4.578411911608914, phi 2.255627694653176,
p 81.72826897689895, q -1.60217662e-19,
brem = False
output State:
[[ 0.00100149]
 [-0.00108847]
 [ 0.01591229]
 [-0.0129953 ]
 [-0.00366836]]
Data added to pickle list for particle: 105
Particle 106:
eta 4.383956942443115, phi 2.5387408785696666,
p 83.0, q 1.60217662e-19,
brem = False
input State:
[[ 0.001     ]
 [-0.001     ]
 [ 0.01414971]
 [-0.02055654]
 [ 0.00361215]]

Simulating particle
Initiating Kalman filtering for particle: 106
Particle 106:
eta 4.382396845925344, phi 2.5388235618468347,
p 82.7500711164411, q 1.60217662e-19,
brem = False
output State:
[[ 0.00099092]
 [-0.00098474]
 [ 0.01417011]
 [-0.02058981]
 [ 0.00362306]]
Data added to pickle list for particle: 106
Particle 107:
eta 3.5193688679451025, phi -1.9623742955193408,
p 83.0, q -1.60217662e-19,
brem = False
input State:
[[-0.001     ]
 [ 0.001     ]
 [-0.05480061]
 [-0.02262721]
 [-0.00361215]]

Simulating particle
Initiating Kalman filtering for particle: 107
Particle 107:
eta 3.519757326489383, phi -1.9621127566462278,
p 83.21171654921632, q -1.60217662e-19,
brem = False
output State:
[[-0.00099904]
 [ 0.00100386]
 [-0.0547852 ]
 [-0.02260408]
 [-0.00360296]]
Data added to pickle list for particle: 107
Particle 108:
eta 4.48708848158258, phi -1.2157240976809884,
p 84.0, q 1.60217662e-19,
brem = False
input State:
[[-0.001     ]
 [-0.001     ]
 [-0.02110546]
 [ 0.00782563]
 [ 0.00356915]]

Simulating particle
Initiating Kalman filtering for particle: 108
Particle 108:
eta 4.486795760808304, phi -1.214586983486929,
p 83.8184930347049, q 1.60217662e-19,
brem = False
output State:
[[-0.00100646]
 [-0.0010315 ]
 [-0.02110272]
 [ 0.00785193]
 [ 0.00357688]]
Data added to pickle list for particle: 108
Particle 109:
eta 3.849906162684767, phi -1.9578556480015248,
p 84.0, q -1.60217662e-19,
brem = False
input State:
[[-0.001     ]
 [ 0.001     ]
 [-0.03943261]
 [-0.01607358]
 [-0.00356915]]

Simulating particle
Initiating Kalman filtering for particle: 109
Particle 109:
eta 3.85047485707687, phi -1.9571359650049516,
p 84.49665901462204, q -1.60217662e-19,
brem = False
output State:
[[-0.00100355]
 [ 0.00098175]
 [-0.03942172]
 [-0.01603607]
 [-0.00354817]]
Data added to pickle list for particle: 109
Particle 110:
eta 4.187062752985157, phi 3.0030688731296893,
p 85.0, q 1.60217662e-19,
brem = False
input State:
[[-0.001     ]
 [ 0.001     ]
 [ 0.00419611]
 [-0.03009759]
 [ 0.00352716]]

Simulating particle
Initiating Kalman filtering for particle: 110
Particle 110:
eta 4.188549232230436, phi 3.003219864205671,
p 85.1625842410883, q 1.60217662e-19,
brem = False
output State:
[[-0.00098167]
 [ 0.00096893]
 [ 0.00418533]
 [-0.0300535 ]
 [ 0.00352043]]
Data added to pickle list for particle: 110
Particle 111:
eta 4.66532812470067, phi 1.781909860391106,
p 85.0, q -1.60217662e-19,
brem = False
input State:
[[ 0.001     ]
 [ 0.001     ]
 [ 0.01841584]
 [-0.00394664]
 [-0.00352716]]

Simulating particle
Initiating Kalman filtering for particle: 111
Particle 111:
eta 4.663861219291389, phi 1.7815897633674036,
p 85.25366188271656, q -1.60217662e-19,
brem = False
output State:
[[ 0.00098412]
 [ 0.00101181]
 [ 0.01844414]
 [-0.00394653]
 [-0.00351666]]
Data added to pickle list for particle: 111
Particle 112:
eta 3.736228952580509, phi 2.050732353431571,
p 86.0, q 1.60217662e-19,
brem = False
input State:
[[-0.001     ]
 [ 0.001     ]
 [ 0.04232422]
 [-0.02203101]
 [ 0.00348615]]

Simulating particle
Initiating Kalman filtering for particle: 112
Particle 112:
eta 3.7370554339584303, phi 2.0496147653857664,
p 86.15902320003241, q 1.60217662e-19,
brem = False
output State:
[[-0.00099573]
 [ 0.00095302]
 [ 0.04231379]
 [-0.02196551]
 [ 0.00347971]]
Data added to pickle list for particle: 112
Particle 113:
eta 4.050892096732731, phi 1.6329613244576733,
p 86.0, q -1.60217662e-19,
brem = False
input State:
[[ 0.001     ]
 [-0.001     ]
 [ 0.03475696]
 [-0.00216345]
 [-0.00348615]]

Simulating particle
Initiating Kalman filtering for particle: 113
Particle 113:
eta 4.050619493775664, phi 1.6331203614986434,
p 86.04144349325699, q -1.60217662e-19,
brem = False
output State:
[[ 0.00099088]
 [-0.00098316]
 [ 0.0347661 ]
 [-0.00216957]
 [-0.00348447]]
Data added to pickle list for particle: 113
Particle 114:
eta 3.54757783967027, phi -0.6900050631848677,
p 87.0, q 1.60217662e-19,
brem = False
input State:
[[-0.001     ]
 [-0.001     ]
 [-0.03668793]
 [ 0.04445165]
 [ 0.00344607]]

Simulating particle
Initiating Kalman filtering for particle: 114
Particle 114:
eta 3.547656602402216, phi -0.6909435703047805,
p 87.46944375795493, q 1.60217662e-19,
brem = False
output State:
[[-0.0009894 ]
 [-0.0009862 ]
 [-0.03672673]
 [ 0.04441369]
 [ 0.00342758]]
Data added to pickle list for particle: 114
Particle 115:
eta 3.8856654141907194, phi 1.9212072763766246,
p 87.0, q -1.60217662e-19,
brem = False
input State:
[[-0.001     ]
 [-0.001     ]
 [ 0.03858894]
 [-0.01410404]
 [-0.00344607]]

Simulating particle
Initiating Kalman filtering for particle: 115
Particle 115:
eta 3.8856733227827926, phi 1.9211951009260981,
p 86.92756914252813, q -1.60217662e-19,
brem = False
output State:
[[-0.00099346]
 [-0.00100114]
 [ 0.03858881]
 [-0.01410346]
 [-0.00344895]]
Data added to pickle list for particle: 115
Particle 116:
eta 4.698018162174532, phi 0.4932053988501038,
p 88.0, q 1.60217662e-19,
brem = False
input State:
[[ 0.001     ]
 [-0.001     ]
 [ 0.00863015]
 [ 0.01605572]
 [ 0.00340691]]

Simulating particle
Initiating Kalman filtering for particle: 116
Particle 116:
eta 4.701957446389011, phi 0.4945486409323303,
p 88.24653407664277, q 1.60217662e-19,
brem = False
output State:
[[ 0.00100105]
 [-0.00095515]
 [ 0.00861769]
 [ 0.01598102]
 [ 0.0033974 ]]
Data added to pickle list for particle: 116
Particle 117:
eta 4.245401593254416, phi 2.993406210243856,
p 88.0, q -1.60217662e-19,
brem = False
input State:
[[-0.001     ]
 [-0.001     ]
 [ 0.00423236]
 [-0.02835168]
 [-0.00340691]]

Simulating particle
Initiating Kalman filtering for particle: 117
Particle 117:
eta 4.246778657375239, phi 2.9943929046949247,
p 87.47470354860903, q -1.60217662e-19,
brem = False
output State:
[[-0.00098517]
 [-0.001026  ]
 [ 0.00419859]
 [-0.0283168 ]
 [-0.00342737]]
Data added to pickle list for particle: 117
Particle 118:
eta 3.8858410878912863, phi 0.5267755607353943,
p 89.0, q 1.60217662e-19,
brem = False
input State:
[[-0.001     ]
 [ 0.001     ]
 [ 0.02065212]
 [ 0.03550953]
 [ 0.00336863]]

Simulating particle
Initiating Kalman filtering for particle: 118
Particle 118:
eta 3.885409822867756, phi 0.5275566017429757,
p 88.56080360411963, q 1.60217662e-19,
brem = False
output State:
[[-0.00102003]
 [ 0.00099283]
 [ 0.02068878]
 [ 0.03550871]
 [ 0.00338534]]
Data added to pickle list for particle: 118
Particle 119:
eta 4.670090929686593, phi -0.39547179088505474,
p 89.0, q -1.60217662e-19,
brem = False
input State:
[[ 0.001     ]
 [ 0.001     ]
 [-0.00722119]
 [ 0.01729769]
 [-0.00336863]]

Simulating particle
Initiating Kalman filtering for particle: 119
Particle 119:
eta 4.670352946995351, phi -0.39564143916312444,
p 88.86290883572194, q -1.60217662e-19,
brem = False
output State:
[[ 0.00100226]
 [ 0.00100948]
 [-0.00722223]
 [ 0.01729193]
 [-0.00337383]]
Data added to pickle list for particle: 119
Particle 120:
eta 3.9823554593821098, phi -0.11066288695827883,
p 90.0, q 1.60217662e-19,
brem = False
input State:
[[-0.001     ]
 [-0.001     ]
 [-0.0041189 ]
 [ 0.03706818]
 [ 0.00333121]]

Simulating particle
Initiating Kalman filtering for particle: 120
Particle 120:
eta 3.982043345352914, phi -0.11057887919895074,
p 89.93405502395352, q 1.60217662e-19,
brem = False
output State:
[[-0.0010102 ]
 [-0.00100998]
 [-0.00411707]
 [ 0.0370801 ]
 [ 0.00333365]]
Data added to pickle list for particle: 120
Particle 121:
eta 4.9473932494351915, phi 2.060361455748836,
p 90.0, q -1.60217662e-19,
brem = False
input State:
[[-0.001     ]
 [-0.001     ]
 [ 0.01253601]
 [-0.00667956]
 [-0.00333121]]

Simulating particle
Initiating Kalman filtering for particle: 121
Particle 121:
eta 4.9497905657365076, phi 2.0559962706143904,
p 90.03911142767875, q -1.60217662e-19,
brem = False
output State:
[[-0.00100563]
 [-0.00105783]
 [ 0.01253496]
 [-0.00660891]
 [-0.00332976]]
Data added to pickle list for particle: 121
Particle 122:
eta 4.771953752476483, phi -0.9014421936201967,
p 91.0, q 1.60217662e-19,
brem = False
input State:
[[ 0.001     ]
 [-0.001     ]
 [-0.013276  ]
 [ 0.01050402]
 [ 0.0032946 ]]

Simulating particle
Initiating Kalman filtering for particle: 122
Particle 122:
eta 4.772971034934457, phi -0.9027544742599929,
p 90.94451898235937, q 1.60217662e-19,
brem = False
output State:
[[ 0.00100374]
 [-0.0009827 ]
 [-0.01327626]
 [ 0.01047592]
 [ 0.00329661]]
Data added to pickle list for particle: 122
Particle 123:
eta 4.499538950800239, phi 0.3621684193129944,
p 91.0, q -1.60217662e-19,
brem = False
input State:
[[-0.001     ]
 [-0.001     ]
 [ 0.0078765 ]
 [ 0.02078888]
 [-0.0032946 ]]

Simulating particle
Initiating Kalman filtering for particle: 123
Particle 123:
eta 4.5017437843535415, phi 0.36225319675684703,
p 90.7803708370265, q -1.60217662e-19,
brem = False
output State:
[[-0.00097435]
 [-0.00096715]
 [ 0.00786091]
 [ 0.02074241]
 [-0.00330257]]
Data added to pickle list for particle: 123
Particle 124:
eta 4.22010332283516, phi -1.4263371391166304,
p 92.0, q 1.60217662e-19,
brem = False
input State:
[[-0.001     ]
 [-0.001     ]
 [-0.02909436]
 [ 0.00423243]
 [ 0.00325879]]

Simulating particle
Initiating Kalman filtering for particle: 124
Particle 124:
eta 4.220065113386888, phi -1.428190708784142,
p 92.34290905644372, q 1.60217662e-19,
brem = False
output State:
[[-0.00098934]
 [-0.00098352]
 [-0.02910327]
 [ 0.00417865]
 [ 0.00324669]]
Data added to pickle list for particle: 124
Particle 125:
eta 4.346887269968779, phi -0.46582308513889076,
p 92.0, q -1.60217662e-19,
brem = False
input State:
[[-0.001     ]
 [ 0.001     ]
 [-0.0116325 ]
 [ 0.02313902]
 [-0.00325879]]

Simulating particle
Initiating Kalman filtering for particle: 125
Particle 125:
eta 4.346755906978103, phi -0.46548224743305033,
p 92.09352363856468, q -1.60217662e-19,
brem = False
output State:
[[-0.00101343]
 [ 0.00100329]
 [-0.01162614]
 [ 0.02314602]
 [-0.00325548]]
Data added to pickle list for particle: 125
Particle 126:
eta 3.8674511333547565, phi 1.3480693193660356,
p 93.0, q 1.60217662e-19,
brem = False
input State:
[[ 0.001     ]
 [-0.001     ]
 [ 0.04080796]
 [ 0.00924237]
 [ 0.00322375]]

Simulating particle
Initiating Kalman filtering for particle: 126
Particle 126:
eta 3.867639214158697, phi 1.3484882404304315,
p 93.27773490857818, q 1.60217662e-19,
brem = False
output State:
[[ 0.00100185]
 [-0.00099458]
 [ 0.04080415]
 [ 0.00922354]
 [ 0.00321415]]
Data added to pickle list for particle: 126
Particle 127:
eta 4.591276062722997, phi 2.10433492429149,
p 93.0, q -1.60217662e-19,
brem = False
input State:
[[ 0.001     ]
 [ 0.001     ]
 [ 0.01746298]
 [-0.01031504]
 [-0.00322375]]

Simulating particle
Initiating Kalman filtering for particle: 127
Particle 127:
eta 4.5885360030192315, phi 2.107809295996932,
p 93.1000048142114, q -1.60217662e-19,
brem = False
output State:
[[ 0.00097677]
 [ 0.00107065]
 [ 0.01747486]
 [-0.01040412]
 [-0.00322028]]
Data added to pickle list for particle: 127
Particle 128:
eta 4.41321679710676, phi 1.6884061448045613,
p 94.0, q 1.60217662e-19,
brem = False
input State:
[[ 0.001     ]
 [ 0.001     ]
 [ 0.02406842]
 [-0.00284381]
 [ 0.00318945]]

Simulating particle
Initiating Kalman filtering for particle: 128
Particle 128:
eta 4.412535276075995, phi 1.6864264169830572,
p 93.77669775804219, q 1.60217662e-19,
brem = False
output State:
[[ 0.00097419]
 [ 0.00093798]
 [ 0.02409042]
 [-0.00279806]
 [ 0.00319705]]
Data added to pickle list for particle: 128
Particle 129:
eta 4.75965032187181, phi 0.5502779640972472,
p 94.0, q -1.60217662e-19,
brem = False
input State:
[[-0.001     ]
 [-0.001     ]
 [ 0.00896212]
 [ 0.01460847]
 [-0.00318945]]

Simulating particle
Initiating Kalman filtering for particle: 129
Particle 129:
eta 4.762723583717745, phi 0.5506504061203389,
p 93.72153412817741, q -1.60217662e-19,
brem = False
output State:
[[-0.000983  ]
 [-0.0009666 ]
 [ 0.00894004]
 [ 0.01456031]
 [-0.00319893]]
Data added to pickle list for particle: 129
Particle 130:
eta 4.135738345045661, phi -3.14046540702749,
p 95.0, q 1.60217662e-19,
brem = False
input State:
[[ 1.00000000e-03]
 [ 1.00000000e-03]
 [-3.60604837e-05]
 [-3.19898677e-02]
 [ 3.15587894e-03]]

Simulating particle
Initiating Kalman filtering for particle: 130
Particle 130:
eta 4.135763584089121, phi -3.139418017358001,
p 95.61612855996219, q 1.60217662e-19,
brem = False
output State:
[[ 1.04182859e-03]
 [ 9.95358461e-04]
 [-6.95645581e-05]
 [-3.19890046e-02]
 [ 3.13554317e-03]]
Data added to pickle list for particle: 130
Particle 131:
eta 3.9557857646835033, phi -1.291030263147507,
p 95.0, q -1.60217662e-19,
brem = False
input State:
[[-0.001     ]
 [-0.001     ]
 [-0.03681213]
 [ 0.01057616]
 [-0.00315588]]

Simulating particle
Initiating Kalman filtering for particle: 131
Particle 131:
eta 3.956325575502915, phi -1.2903874692116362,
p 95.50461139759196, q -1.60217662e-19,
brem = False
output State:
[[-0.00101387]
 [-0.00101494]
 [-0.03678544]
 [ 0.0105941 ]
 [-0.0031392 ]]
Data added to pickle list for particle: 131
Particle 132:
eta 4.885293168302868, phi -2.296957023724598,
p 96.0, q 1.60217662e-19,
brem = False
input State:
[[ 0.001     ]
 [ 0.001     ]
 [-0.01130169]
 [-0.0100362 ]
 [ 0.00312301]]

Simulating particle
Initiating Kalman filtering for particle: 132
Particle 132:
eta 4.885128407990949, phi -2.2964523180635243,
p 96.12943089169345, q 1.60217662e-19,
brem = False
output State:
[[ 0.00100086]
 [ 0.00100318]
 [-0.01130861]
 [-0.01003215]
 [ 0.0031188 ]]
Data added to pickle list for particle: 132
Particle 133:
eta 3.668215267057393, phi -2.758492141547895,
p 96.0, q -1.60217662e-19,
brem = False
input State:
[[ 0.001     ]
 [ 0.001     ]
 [-0.01909257]
 [-0.04737465]
 [-0.00312301]]

Simulating particle
Initiating Kalman filtering for particle: 133
Particle 133:
eta 3.6680060201071045, phi -2.7583014613514223,
p 95.95546796174281, q -1.60217662e-19,
brem = False
output State:
[[ 0.00102281]
 [ 0.00099368]
 [-0.0191056 ]
 [-0.04738093]
 [-0.00312445]]
Data added to pickle list for particle: 133
Particle 134:
eta 3.642909024347574, phi -1.8860070573330758,
p 97.0, q 1.60217662e-19,
brem = False
input State:
[[ 0.001     ]
 [-0.001     ]
 [-0.04980696]
 [-0.01624118]
 [ 0.00309081]]

Simulating particle
Initiating Kalman filtering for particle: 134
Particle 134:
eta 3.642474205245369, phi -1.8859138808374458,
p 97.58809239308123, q 1.60217662e-19,
brem = False
output State:
[[ 0.00101335]
 [-0.00100162]
 [-0.04983017]
 [-0.01624361]
 [ 0.00307218]]
Data added to pickle list for particle: 134
Particle 135:
eta 4.9608964138731695, phi -1.0996110235680683,
p 97.0, q -1.60217662e-19,
brem = False
input State:
[[-0.001     ]
 [ 0.001     ]
 [-0.01248689]
 [ 0.00636154]
 [-0.00309081]]

Simulating particle
Initiating Kalman filtering for particle: 135
Particle 135:
eta 4.962896238028419, phi -1.1042524327199599,
p 96.71849207072121, q -1.60217662e-19,
brem = False
output State:
[[-0.00099718]
 [ 0.00105846]
 [-0.01249127]
 [ 0.00629092]
 [-0.00309981]]
Data added to pickle list for particle: 135
Particle 136:
eta 3.603476589232704, phi -1.4513075548179177,
p 98.0, q 1.60217662e-19,
brem = False
input State:
[[ 0.001     ]
 [-0.001     ]
 [-0.05410961]
 [ 0.00649644]
 [ 0.00305927]]

Simulating particle
Initiating Kalman filtering for particle: 136
Particle 136:
eta 3.60371830774139, phi -1.4513011507868603,
p 97.65624392107209, q 1.60217662e-19,
brem = False
output State:
[[ 0.00099611]
 [-0.00099746]
 [-0.05409647]
 [ 0.00649521]
 [ 0.00307004]]
Data added to pickle list for particle: 136
Particle 137:
eta 4.3529645732803335, phi -1.0459454664514052,
p 98.0, q -1.60217662e-19,
brem = False
input State:
[[ 0.001     ]
 [-0.001     ]
 [-0.02227664]
 [ 0.01289864]
 [-0.00305927]]

Simulating particle
Initiating Kalman filtering for particle: 137
Particle 137:
eta 4.3556142491303085, phi -1.0474040515712806,
p 98.59055396817499, q -1.60217662e-19,
brem = False
output State:
[[ 0.0009629 ]
 [-0.00095617]
 [-0.02223641]
 [ 0.01283208]
 [-0.00304095]]
Data added to pickle list for particle: 137
Particle 138:
eta 4.947204051036452, phi 0.5120061674543505,
p 99.00000000000001, q 1.60217662e-19,
brem = False
input State:
[[-0.001     ]
 [-0.001     ]
 [ 0.00696049]
 [ 0.01238532]
 [ 0.00302837]]

Simulating particle
Initiating Kalman filtering for particle: 138
Particle 138:
eta 4.950164073503149, phi 0.5154596063247492,
p 98.51366231381743, q 1.60217662e-19,
brem = False
output State:
[[-0.00101502]
 [-0.0009273 ]
 [ 0.00698252]
 [ 0.01232467]
 [ 0.00304332]]
Data added to pickle list for particle: 138
Particle 139:
eta 4.747059077941088, phi -0.1990705110818818,
p 99.00000000000001, q -1.60217662e-19,
brem = False
input State:
[[ 0.001     ]
 [-0.001     ]
 [-0.00343223]
 [ 0.0170129 ]
 [-0.00302837]]

Simulating particle
Initiating Kalman filtering for particle: 139
Particle 139:
eta 4.7475904163521845, phi -0.19851571154973208,
p 99.31286632000668, q -1.60217662e-19,
brem = False
output State:
[[ 0.00100599]
 [-0.00099844]
 [-0.00342097]
 [ 0.01700576]
 [-0.00301883]]
Data added to pickle list for particle: 139