This is the start of the log file generated at 12_01_15h24m56s

magfield_ shape: cs, sim_stepsize: 0.001, detector_length: 11
15 VELO-type subdetectors added at z-locations: [20, 50, 80, 110, 140, 170, 200, 230, 260, 290, 450, 600, 650, 700, 750]
4 TT-type subdetectors added at z-locations: [2330, 2370, 2600, 2640]
24 OT-type subdetectors added at z-locations: [7860, 7870, 7910, 7920, 7980, 7990, 8030, 8040, 8540, 8550, 8590, 8600, 8660, 8670, 8710, 8720, 9230, 9240, 9280, 9290, 9350, 9360, 9400, 9410]
The detector is built.
Generating 140 particles, from 30 to 100 GeV. Brem = False, ms = False

Particle 0:
eta 2.0141521807334395, phi -1.2388081346511066,
p 30.000000000000004, q 1.60217662e-19,
brem = False
input State:
[[ 0.001     ]
 [-0.001     ]
 [-0.25686843]
 [ 0.08855484]
 [ 0.00999362]]

Simulating particle
Initiating Kalman filtering for particle: 0
Particle 0:
eta 2.014450169310367, phi -1.2391407527974712,
p 29.49423915581257, q 1.60217662e-19,
brem = False
output State:
[[ 0.00098919]
 [-0.00100539]
 [-0.25681856]
 [ 0.08844208]
 [ 0.01016499]]
Data added to pickle list for particle: 0
Particle 1:
eta 3.8215934072782343, phi 0.7569141262301539,
p 30.000000000000004, q -1.60217662e-19,
brem = False
input State:
[[ 0.001     ]
 [ 0.001     ]
 [ 0.0300813 ]
 [ 0.03184571]
 [-0.00999362]]

Simulating particle
Initiating Kalman filtering for particle: 1
Particle 1:
eta 3.820749801054627, phi 0.7554746568520464,
p 29.898861824178702, q -1.60217662e-19,
brem = False
output State:
[[ 0.00102502]
 [ 0.00097595]
 [ 0.0300608 ]
 [ 0.03191591]
 [-0.01002742]]
Data added to pickle list for particle: 1
Particle 2:
eta 4.9394699802354545, phi 1.984716378896022,
p 31.0, q 1.60217662e-19,
brem = False
input State:
[[-0.001     ]
 [ 0.001     ]
 [ 0.01310842]
 [-0.00575853]
 [ 0.00967124]]

Simulating particle
Initiating Kalman filtering for particle: 2
Particle 2:
eta 4.940224020615178, phi 1.9869893147283821,
p 31.04140357640827, q 1.60217662e-19,
brem = False
output State:
[[-0.00094504]
 [ 0.0010257 ]
 [ 0.01308543]
 [-0.00578394]
 [ 0.00965834]]
Data added to pickle list for particle: 2
Particle 3:
eta 2.2907694396497806, phi 0.3285632883903981,
p 31.0, q -1.60217662e-19,
brem = False
input State:
[[-0.001     ]
 [ 0.001     ]
 [ 0.06597934]
 [ 0.19353298]
 [-0.00967124]]

Simulating particle
Initiating Kalman filtering for particle: 3
Particle 3:
eta 2.290922281809843, phi 0.3284694389515432,
p 30.615387031140532, q -1.60217662e-19,
brem = False
output State:
[[-0.0009865 ]
 [ 0.00099415]
 [ 0.06595089]
 [ 0.19350898]
 [-0.00979274]]
Data added to pickle list for particle: 3
Particle 4:
eta 3.569785273621352, phi -2.506132209255329,
p 32.0, q 1.60217662e-19,
brem = False
input State:
[[ 0.001     ]
 [-0.001     ]
 [-0.03345742]
 [-0.04536529]
 [ 0.00936902]]

Simulating particle
Initiating Kalman filtering for particle: 4
Particle 4:
eta 3.568981678748119, phi -2.5066905015752585,
p 32.14711327641991, q 1.60217662e-19,
brem = False
output State:
[[ 0.00100385]
 [-0.00098928]
 [-0.03345901]
 [-0.0454205 ]
 [ 0.00932614]]
Data added to pickle list for particle: 4
Particle 5:
eta 3.168235383403799, phi 2.204458333597685,
p 32.0, q -1.60217662e-19,
brem = False
input State:
[[ 0.001     ]
 [ 0.001     ]
 [ 0.06793828]
 [-0.04991687]
 [-0.00936902]]

Simulating particle
Initiating Kalman filtering for particle: 5
Particle 5:
eta 3.1682981759868567, phi 2.20487758412285,
p 32.039021748390084, q -1.60217662e-19,
brem = False
output State:
[[ 0.00101403]
 [ 0.00099766]
 [ 0.06791307]
 [-0.04994221]
 [-0.0093576 ]]
Data added to pickle list for particle: 5
Particle 6:
eta 3.391018617490911, phi -0.44903658277700303,
p 33.0, q 1.60217662e-19,
brem = False
input State:
[[-0.001     ]
 [-0.001     ]
 [-0.02926912]
 [ 0.06074103]
 [ 0.00908511]]

Simulating particle
Initiating Kalman filtering for particle: 6
Particle 6:
eta 3.3913615722477752, phi -0.4486704596673124,
p 32.80762583708636, q 1.60217662e-19,
brem = False
output State:
[[-0.00102098]
 [-0.0009878 ]
 [-0.02923683]
 [ 0.06073086]
 [ 0.00913838]]
Data added to pickle list for particle: 6
Particle 7:
eta 3.8236782988517546, phi 1.058234085660432,
p 33.0, q -1.60217662e-19,
brem = False
input State:
[[ 0.001     ]
 [ 0.001     ]
 [ 0.03809761]
 [ 0.02143857]
 [-0.00908511]]

Simulating particle
Initiating Kalman filtering for particle: 7
Particle 7:
eta 3.823581615901758, phi 1.059134296791442,
p 33.14469309760278, q -1.60217662e-19,
brem = False
output State:
[[ 0.00098363]
 [ 0.00101015]
 [ 0.03812059]
 [ 0.02140634]
 [-0.00904545]]
Data added to pickle list for particle: 7
Particle 8:
eta 3.7308337590965714, phi -1.7604131864478996,
p 34.0, q 1.60217662e-19,
brem = False
input State:
[[-0.001     ]
 [ 0.001     ]
 [-0.0471134 ]
 [-0.00904212]
 [ 0.0088179 ]]

Simulating particle
Initiating Kalman filtering for particle: 8
Particle 8:
eta 3.730874106500922, phi -1.7609636917130842,
p 33.84934071025687, q 1.60217662e-19,
brem = False
output State:
[[-0.00099722]
 [ 0.00100555]
 [-0.04710651]
 [-0.00906769]
 [ 0.00885714]]
Data added to pickle list for particle: 8
Particle 9:
eta 2.3778459083973655, phi 0.8686369960119474,
p 34.0, q -1.60217662e-19,
brem = False
input State:
[[-0.001     ]
 [ 0.001     ]
 [ 0.14284896]
 [ 0.12084827]
 [-0.0088179 ]]

Simulating particle
Initiating Kalman filtering for particle: 9
Particle 9:
eta 2.3779680134209222, phi 0.8688656983172218,
p 33.91866710634214, q -1.60217662e-19,
brem = False
output State:
[[-0.00100099]
 [ 0.00099993]
 [ 0.14285884]
 [ 0.12080059]
 [-0.00883904]]
Data added to pickle list for particle: 9
Particle 10:
eta 4.621686053964053, phi -2.587860420776233,
p 35.0, q 1.60217662e-19,
brem = False
input State:
[[ 0.001     ]
 [-0.001     ]
 [-0.01034603]
 [-0.01673433]
 [ 0.00856596]]

Simulating particle
Initiating Kalman filtering for particle: 10
Particle 10:
eta 4.621078936293805, phi -2.5899440993393275,
p 34.89486925818809, q 1.60217662e-19,
brem = False
output State:
[[ 0.00098696]
 [-0.00099581]
 [-0.0103174 ]
 [-0.01676602]
 [ 0.00859176]]
Data added to pickle list for particle: 10
Particle 11:
eta 2.1185000413906536, phi 1.1604049447981821,
p 35.0, q -1.60217662e-19,
brem = False
input State:
[[-0.001     ]
 [-0.001     ]
 [ 0.22369253]
 [ 0.09732786]
 [-0.00856596]]

Simulating particle
Initiating Kalman filtering for particle: 11
Particle 11:
eta 2.118349286601718, phi 1.1604619134300524,
p 35.11011489217551, q -1.60217662e-19,
brem = False
output State:
[[-0.00102421]
 [-0.00098484]
 [ 0.22373279]
 [ 0.09733022]
 [-0.00853909]]
Data added to pickle list for particle: 11
Particle 12:
eta 3.047756471085023, phi 1.326858604081645,
p 36.0, q 1.60217662e-19,
brem = False
input State:
[[-0.001     ]
 [-0.001     ]
 [ 0.09232813]
 [ 0.02297994]
 [ 0.00832801]]

Simulating particle
Initiating Kalman filtering for particle: 12
Particle 12:
eta 3.0478975862934665, phi 1.3267549124082403,
p 35.939260479574976, q 1.60217662e-19,
brem = False
output State:
[[-0.00097564]
 [-0.00099747]
 [ 0.09231266]
 [ 0.02298626]
 [ 0.00834209]]
Data added to pickle list for particle: 12
Particle 13:
eta 2.4442330092493583, phi 0.4499584234188203,
p 36.0, q -1.60217662e-19,
brem = False
input State:
[[ 0.001     ]
 [ 0.001     ]
 [ 0.07607018]
 [ 0.15749397]
 [-0.00832801]]

Simulating particle
Initiating Kalman filtering for particle: 13
Particle 13:
eta 2.4441906897159287, phi 0.45010451363258813,
p 35.792082632837854, q -1.60217662e-19,
brem = False
output State:
[[ 0.00098396]
 [ 0.00099998]
 [ 0.07609646]
 [ 0.15748962]
 [-0.00837639]]
Data added to pickle list for particle: 13
Particle 14:
eta 4.377307325405794, phi -2.9778493256258334,
p 36.99999999999999, q 1.60217662e-19,
brem = False
input State:
[[ 0.001     ]
 [-0.001     ]
 [-0.00409524]
 [-0.02478619]
 [ 0.00810293]]

Simulating particle
Initiating Kalman filtering for particle: 14
Particle 14:
eta 4.377898141522854, phi -2.9777833430862097,
p 37.142306124568314, q 1.60217662e-19,
brem = False
output State:
[[ 0.00100447]
 [-0.00101243]
 [-0.00409445]
 [-0.02477127]
 [ 0.00807189]]
Data added to pickle list for particle: 14
Particle 15:
eta 3.250004580922548, phi -1.1738958639770654,
p 36.99999999999999, q -1.60217662e-19,
brem = False
input State:
[[ 0.001     ]
 [ 0.001     ]
 [-0.07162744]
 [ 0.03002224]
 [-0.00810293]]

Simulating particle
Initiating Kalman filtering for particle: 15
Particle 15:
eta 3.249827204409283, phi -1.1725346050234073,
p 36.943652934063124, q -1.60217662e-19,
brem = False
output State:
[[ 0.00099164]
 [ 0.00097108]
 [-0.07159924]
 [ 0.03012507]
 [-0.00811529]]
Data added to pickle list for particle: 15
Particle 16:
eta 2.806006789593885, phi -2.2656278150463636,
p 38.0, q 1.60217662e-19,
brem = False
input State:
[[-0.001     ]
 [ 0.001     ]
 [-0.09320496]
 [-0.07768552]
 [ 0.0078897 ]]

Simulating particle
Initiating Kalman filtering for particle: 16
Particle 16:
eta 2.8059654254695765, phi -2.265852344961323,
p 37.60990790003937, q 1.60217662e-19,
brem = False
output State:
[[-0.00099488]
 [ 0.00100872]
 [-0.0931914 ]
 [-0.07770968]
 [ 0.00797153]]
Data added to pickle list for particle: 16
Particle 17:
eta 2.057056564140621, phi 1.0781209415675892,
p 38.0, q -1.60217662e-19,
brem = False
input State:
[[-0.001     ]
 [-0.001     ]
 [ 0.22899583]
 [ 0.12293174]
 [-0.0078897 ]]

Simulating particle
Initiating Kalman filtering for particle: 17
Particle 17:
eta 2.057215509942831, phi 1.0781302905098378,
p 37.46688930434338, q -1.60217662e-19,
brem = False
output State:
[[-0.00097348]
 [-0.00100923]
 [ 0.22895937]
 [ 0.12290941]
 [-0.00800196]]
Data added to pickle list for particle: 17
Particle 18:
eta 3.2358403676440455, phi -0.28586408977417677,
p 39.0, q 1.60217662e-19,
brem = False
input State:
[[-0.001     ]
 [-0.001     ]
 [-0.02221381]
 [ 0.07557926]
 [ 0.0076874 ]]

Simulating particle
Initiating Kalman filtering for particle: 18
Particle 18:
eta 3.2353430395278733, phi -0.2860550839703483,
p 39.097474220023614, q 1.60217662e-19,
brem = False
output State:
[[-0.00099897]
 [-0.0010011 ]
 [-0.02223934]
 [ 0.07561272]
 [ 0.00766823]]
Data added to pickle list for particle: 18
Particle 19:
eta 4.117319321366557, phi 0.6863274161941009,
p 39.0, q -1.60217662e-19,
brem = False
input State:
[[-0.001     ]
 [-0.001     ]
 [ 0.02064905]
 [ 0.02520697]
 [-0.0076874 ]]

Simulating particle
Initiating Kalman filtering for particle: 19
Particle 19:
eta 4.11786503154671, phi 0.6874316628342626,
p 38.884448332675944, q -1.60217662e-19,
brem = False
output State:
[[-0.00101094]
 [-0.00099859]
 [ 0.02066559]
 [ 0.0251704 ]
 [-0.00771024]]
Data added to pickle list for particle: 19
Particle 20:
eta 4.668228837722413, phi 2.6228318980952854,
p 40.0, q 1.60217662e-19,
brem = False
input State:
[[ 0.001     ]
 [ 0.001     ]
 [ 0.00931092]
 [-0.01630869]
 [ 0.00749521]]

Simulating particle
Initiating Kalman filtering for particle: 20
Particle 20:
eta 4.668156209613805, phi 2.6267040684321654,
p 40.36339422522996, q 1.60217662e-19,
brem = False
output State:
[[ 0.00104159]
 [ 0.00101479]
 [ 0.00924837]
 [-0.01634581]
 [ 0.00742773]]
Data added to pickle list for particle: 20
Particle 21:
eta 4.532784831349615, phi 0.33711893329897513,
p 40.0, q -1.60217662e-19,
brem = False
input State:
[[-0.001     ]
 [-0.001     ]
 [ 0.00711283]
 [ 0.02029346]
 [-0.00749521]]

Simulating particle
Initiating Kalman filtering for particle: 21
Particle 21:
eta 4.535159040328005, phi 0.3386374429097642,
p 40.02582660577089, q -1.60217662e-19,
brem = False
output State:
[[-0.00100093]
 [-0.00095669]
 [ 0.00712669]
 [ 0.02023452]
 [-0.00749038]]
Data added to pickle list for particle: 21
Particle 22:
eta 4.4662190408925735, phi 2.9176225809850336,
p 41.0, q 1.60217662e-19,
brem = False
input State:
[[ 0.001     ]
 [ 0.001     ]
 [ 0.00510489]
 [-0.02241032]
 [ 0.0073124 ]]

Simulating particle
Initiating Kalman filtering for particle: 22
Particle 22:
eta 4.468455939420141, phi 2.914132205261849,
p 40.84107527609783, q 1.60217662e-19,
brem = False
output State:
[[ 0.00093993]
 [ 0.00096009]
 [ 0.00517149]
 [-0.02234232]
 [ 0.00734086]]
Data added to pickle list for particle: 22
Particle 23:
eta 4.904937377143649, phi 0.8463298935770446,
p 41.0, q -1.60217662e-19,
brem = False
input State:
[[ 0.001     ]
 [-0.001     ]
 [ 0.01109847]
 [ 0.00982216]
 [-0.0073124 ]]

Simulating particle
Initiating Kalman filtering for particle: 23
Particle 23:
eta 4.907318344658037, phi 0.8485511899740137,
p 41.098342895116524, q -1.60217662e-19,
brem = False
output State:
[[ 0.00100398]
 [-0.00100262]
 [ 0.01109382]
 [ 0.00977418]
 [-0.0072949 ]]
Data added to pickle list for particle: 23
Particle 24:
eta 4.2878463617810985, phi 2.176619210611463,
p 42.0, q 1.60217662e-19,
brem = False
input State:
[[-0.001     ]
 [ 0.001     ]
 [ 0.02258466]
 [-0.01564483]
 [ 0.0071383 ]]

Simulating particle
Initiating Kalman filtering for particle: 24
Particle 24:
eta 4.287907767567658, phi 2.176282852071782,
p 41.752238023347765, q 1.60217662e-19,
brem = False
output State:
[[-0.00098717]
 [ 0.00099231]
 [ 0.02258853]
 [-0.01563627]
 [ 0.00718066]]
Data added to pickle list for particle: 24
Particle 25:
eta 2.3722287199920973, phi -3.065377575965714,
p 42.0, q -1.60217662e-19,
brem = False
input State:
[[-0.001     ]
 [-0.001     ]
 [-0.01432845]
 [-0.18763609]
 [-0.0071383 ]]

Simulating particle
Initiating Kalman filtering for particle: 25
Particle 25:
eta 2.372106336880305, phi -3.065443996830356,
p 42.283104078630494, q -1.60217662e-19,
brem = False
output State:
[[-0.00100571]
 [-0.00099666]
 [-0.01431777]
 [-0.18766041]
 [-0.0070905 ]]
Data added to pickle list for particle: 25
Particle 26:
eta 2.878531040754637, phi 2.2395380725344642,
p 43.0, q 1.60217662e-19,
brem = False
input State:
[[ 0.001     ]
 [ 0.001     ]
 [ 0.08849611]
 [-0.06993035]
 [ 0.00697229]]

Simulating particle
Initiating Kalman filtering for particle: 26
Particle 26:
eta 2.8783230705806893, phi 2.239577489183639,
p 42.79558026306919, q 1.60217662e-19,
brem = False
output State:
[[ 0.00098723]
 [ 0.00101549]
 [ 0.08851188]
 [-0.06994848]
 [ 0.00700559]]
Data added to pickle list for particle: 26
Particle 27:
eta 3.2400523278715307, phi -2.961575360827951,
p 43.0, q -1.60217662e-19,
brem = False
input State:
[[ 0.001     ]
 [ 0.001     ]
 [-0.01404513]
 [-0.07717639]
 [-0.00697229]]

Simulating particle
Initiating Kalman filtering for particle: 27
Particle 27:
eta 3.2397636973333093, phi -2.9621107052687377,
p 43.24688658508699, q -1.60217662e-19,
brem = False
output State:
[[ 0.00097451]
 [ 0.00102081]
 [-0.01400787]
 [-0.07720625]
 [-0.00693249]]
Data added to pickle list for particle: 27
Particle 28:
eta 2.971367505769147, phi 2.892619554767884,
p 44.0, q 1.60217662e-19,
brem = False
input State:
[[ 0.001     ]
 [ 0.001     ]
 [ 0.02531508]
 [-0.0995683 ]
 [ 0.00681383]]

Simulating particle
Initiating Kalman filtering for particle: 28
Particle 28:
eta 2.970928625765168, phi 2.8926608371317695,
p 43.85069287483694, q 1.60217662e-19,
brem = False
output State:
[[ 0.00098734]
 [ 0.00100867]
 [ 0.02532214]
 [-0.09961328]
 [ 0.00683703]]
Data added to pickle list for particle: 28
Particle 29:
eta 4.204611313729025, phi -0.38640557718308577,
p 44.0, q -1.60217662e-19,
brem = False
input State:
[[-0.001     ]
 [ 0.001     ]
 [-0.01125302]
 [ 0.02765825]
 [-0.00681383]]

Simulating particle
Initiating Kalman filtering for particle: 29
Particle 29:
eta 4.2053320308229045, phi -0.38577384135039194,
p 44.23712673156747, q -1.60217662e-19,
brem = False
output State:
[[-0.00101759]
 [ 0.00099219]
 [-0.01122744]
 [ 0.02764541]
 [-0.0067773 ]]
Data added to pickle list for particle: 29
Particle 30:
eta 2.7601426779211815, phi 0.2741925184950556,
p 45.0, q 1.60217662e-19,
brem = False
input State:
[[-0.001     ]
 [ 0.001     ]
 [ 0.03440789]
 [ 0.1223274 ]
 [ 0.00666241]]

Simulating particle
Initiating Kalman filtering for particle: 30
Particle 30:
eta 2.7603787202575476, phi 0.2742115896616824,
p 45.03857353436427, q 1.60217662e-19,
brem = False
output State:
[[-0.0010029 ]
 [ 0.00099979]
 [ 0.03440204]
 [ 0.12229764]
 [ 0.00665671]]
Data added to pickle list for particle: 30
Particle 31:
eta 4.129527651646562, phi 1.2566729726307946,
p 45.0, q -1.60217662e-19,
brem = False
input State:
[[-0.001     ]
 [ 0.001     ]
 [ 0.03061419]
 [ 0.00994594]
 [-0.00666241]]

Simulating particle
Initiating Kalman filtering for particle: 31
Particle 31:
eta 4.129598200208922, phi 1.2566494592935675,
p 44.76299090218798, q -1.60217662e-19,
brem = False
output State:
[[-0.0010019 ]
 [ 0.00099796]
 [ 0.0306118 ]
 [ 0.00994596]
 [-0.00669769]]
Data added to pickle list for particle: 31
Particle 32:
eta 2.956028351486527, phi 1.1045652655463936,
p 46.0, q 1.60217662e-19,
brem = False
input State:
[[0.001     ]
 [0.001     ]
 [0.09319711]
 [0.04689991]
 [0.00651758]]

Simulating particle
Initiating Kalman filtering for particle: 32
Particle 32:
eta 2.956115639199047, phi 1.1046851904174362,
p 46.29567706933713, q 1.60217662e-19,
brem = False
output State:
[[0.00100031]
 [0.00100041]
 [0.09319455]
 [0.04688462]
 [0.00647595]]
Data added to pickle list for particle: 32
Particle 33:
eta 4.558910813469194, phi 0.8333554380302443,
p 46.0, q -1.60217662e-19,
brem = False
input State:
[[-0.001     ]
 [-0.001     ]
 [ 0.01550644]
 [ 0.01408617]
 [-0.00651758]]

Simulating particle
Initiating Kalman filtering for particle: 33
Particle 33:
eta 4.557364204833437, phi 0.8342409399062294,
p 46.00219130311128, q -1.60217662e-19,
brem = False
output State:
[[-0.00102034]
 [-0.00099056]
 [ 0.01554293]
 [ 0.01409422]
 [-0.00651727]]
Data added to pickle list for particle: 33
Particle 34:
eta 2.7767630245723662, phi 0.9864651602653991,
p 47.0, q 1.60217662e-19,
brem = False
input State:
[[ 0.001     ]
 [-0.001     ]
 [ 0.10422961]
 [ 0.068935  ]
 [ 0.0063789 ]]

Simulating particle
Initiating Kalman filtering for particle: 34
Particle 34:
eta 2.7765604980228185, phi 0.9864982738206687,
p 46.83505246755027, q 1.60217662e-19,
brem = False
output State:
[[ 0.00095958]
 [-0.00100112]
 [ 0.10425317]
 [ 0.06894562]
 [ 0.00640137]]
Data added to pickle list for particle: 34
Particle 35:
eta 3.560687091451942, phi 1.7145879612521544,
p 47.0, q -1.60217662e-19,
brem = False
input State:
[[-0.001     ]
 [ 0.001     ]
 [ 0.05629747]
 [-0.00815136]
 [-0.0063789 ]]

Simulating particle
Initiating Kalman filtering for particle: 35
Particle 35:
eta 3.5608498537828654, phi 1.7152359734136853,
p 46.96491270125773, q -1.60217662e-19,
brem = False
output State:
[[-0.0010004 ]
 [ 0.00102384]
 [ 0.05628299]
 [-0.00818651]
 [-0.00638367]]
Data added to pickle list for particle: 35
Particle 36:
eta 4.681837592448758, phi 0.4879152502368716,
p 48.0, q 1.60217662e-19,
brem = False
input State:
[[-0.001     ]
 [-0.001     ]
 [ 0.00868451]
 [ 0.01636384]
 [ 0.00624601]]

Simulating particle
Initiating Kalman filtering for particle: 36
Particle 36:
eta 4.681469785370349, phi 0.48784841296036563,
p 47.85475285905941, q 1.60217662e-19,
brem = False
output State:
[[-0.00099897]
 [-0.00099675]
 [ 0.00868661]
 [ 0.01637044]
 [ 0.00626497]]
Data added to pickle list for particle: 36
Particle 37:
eta 3.786746647208403, phi 0.6332245823029383,
p 48.0, q -1.60217662e-19,
brem = False
input State:
[[-0.001     ]
 [ 0.001     ]
 [ 0.02684271]
 [ 0.0365672 ]
 [-0.00624601]]

Simulating particle
Initiating Kalman filtering for particle: 37
Particle 37:
eta 3.7862146076553946, phi 0.632975347592088,
p 48.15635051799205, q -1.60217662e-19,
brem = False
output State:
[[-0.00098418]
 [ 0.00100357]
 [ 0.02684789]
 [ 0.03659337]
 [-0.00622573]]
Data added to pickle list for particle: 37
Particle 38:
eta 4.7446450117550985, phi 2.554369849344053,
p 49.0, q 1.60217662e-19,
brem = False
input State:
[[-0.001     ]
 [-0.001     ]
 [ 0.00963917]
 [-0.01448321]
 [ 0.00611854]]

Simulating particle
Initiating Kalman filtering for particle: 38
Particle 38:
eta 4.7487678769569746, phi 2.552519193442967,
p 48.97992528485945, q 1.60217662e-19,
brem = False
output State:
[[-0.00098804]
 [-0.00107285]
 [ 0.00962618]
 [-0.01440582]
 [ 0.00612105]]
Data added to pickle list for particle: 38
Particle 39:
eta 4.039998915228814, phi 0.17018024856805614,
p 49.0, q -1.60217662e-19,
brem = False
input State:
[[-0.001     ]
 [ 0.001     ]
 [ 0.00596247]
 [ 0.03469731]
 [-0.00611854]]

Simulating particle
Initiating Kalman filtering for particle: 39
Particle 39:
eta 4.038940150860211, phi 0.1700273976973441,
p 48.91077986301096, q -1.60217662e-19,
brem = False
output State:
[[-0.00100456]
 [ 0.00099007]
 [ 0.00596348]
 [ 0.034735  ]
 [-0.0061297 ]]
Data added to pickle list for particle: 39
Particle 40:
eta 2.2641237199869164, phi 1.4955114836090022,
p 50.0, q 1.60217662e-19,
brem = False
input State:
[[-0.001     ]
 [ 0.001     ]
 [ 0.20951608]
 [ 0.01580325]
 [ 0.00599617]]

Simulating particle
Initiating Kalman filtering for particle: 40
Particle 40:
eta 2.2641930075380525, phi 1.4956942888578684,
p 50.21373204583528, q 1.60217662e-19,
brem = False
output State:
[[-0.00097897]
 [ 0.00101422]
 [ 0.20950413]
 [ 0.01576384]
 [ 0.00597065]]
Data added to pickle list for particle: 40
Particle 41:
eta 4.458101395317818, phi -0.7259539076118637,
p 50.0, q -1.60217662e-19,
brem = False
input State:
[[-0.001     ]
 [-0.001     ]
 [-0.01538257]
 [ 0.0173294 ]
 [-0.00599617]]

Simulating particle
Initiating Kalman filtering for particle: 41
Particle 41:
eta 4.455603366569176, phi -0.7235326971161942,
p 50.33046777544222, q -1.60217662e-19,
brem = False
output State:
[[-0.00101981]
 [-0.00106298]
 [-0.01537894]
 [ 0.01741004]
 [-0.0059568 ]]
Data added to pickle list for particle: 41
Particle 42:
eta 2.8334561992076717, phi 0.055791971843511506,
p 51.0, q 1.60217662e-19,
brem = False
input State:
[[0.001     ]
 [0.001     ]
 [0.00658153]
 [0.11784304]
 [0.0058786 ]]

Simulating particle
Initiating Kalman filtering for particle: 42
Particle 42:
eta 2.8326978618411895, phi 0.055729035600361604,
p 50.801039526539284, q 1.60217662e-19,
brem = False
output State:
[[0.00099752]
 [0.00098586]
 [0.00657913]
 [0.11793348]
 [0.00590162]]
Data added to pickle list for particle: 42
Particle 43:
eta 3.6639294752122193, phi -1.4654786284381767,
p 51.0, q -1.60217662e-19,
brem = False
input State:
[[-0.001     ]
 [ 0.001     ]
 [-0.05101267]
 [ 0.00539249]
 [-0.0058786 ]]

Simulating particle
Initiating Kalman filtering for particle: 43
Particle 43:
eta 3.6639508342486895, phi -1.4652735646896062,
p 51.51063638885341, q -1.60217662e-19,
brem = False
output State:
[[-0.00098337]
 [ 0.00098928]
 [-0.05101047]
 [ 0.00540283]
 [-0.00582032]]
Data added to pickle list for particle: 43
Particle 44:
eta 2.2111985100142406, phi -1.9309202363729667,
p 51.99999999999999, q 1.60217662e-19,
brem = False
input State:
[[ 0.001     ]
 [-0.001     ]
 [-0.20757347]
 [-0.07816061]
 [ 0.00576555]]

Simulating particle
Initiating Kalman filtering for particle: 44
Particle 44:
eta 2.211185239325238, phi -1.9310322920935452,
p 51.8989901519534, q 1.60217662e-19,
brem = False
output State:
[[ 0.00097064]
 [-0.00100267]
 [-0.20756753]
 [-0.07818493]
 [ 0.00577677]]
Data added to pickle list for particle: 44
Particle 45:
eta 4.131713871430825, phi 0.3891775692851713,
p 51.99999999999999, q -1.60217662e-19,
brem = False
input State:
[[-0.001     ]
 [-0.001     ]
 [ 0.01218682]
 [ 0.02971715]
 [-0.00576555]]

Simulating particle
Initiating Kalman filtering for particle: 45
Particle 45:
eta 4.132724393834701, phi 0.38922570697244424,
p 52.100119779610885, q -1.60217662e-19,
brem = False
output State:
[[-0.00100014]
 [-0.00100005]
 [ 0.01217593]
 [ 0.02968653]
 [-0.00575447]]
Data added to pickle list for particle: 45
Particle 46:
eta 3.721971245869817, phi -1.5502863527928123,
p 53.0, q 1.60217662e-19,
brem = False
input State:
[[ 0.001     ]
 [-0.001     ]
 [-0.04839062]
 [ 0.00099263]
 [ 0.00565676]]

Simulating particle
Initiating Kalman filtering for particle: 46
Particle 46:
eta 3.721713248858425, phi -1.5490405559651357,
p 53.07364296727108, q 1.60217662e-19,
brem = False
output State:
[[ 0.00100966]
 [-0.0010467 ]
 [-0.04840185]
 [ 0.00105319]
 [ 0.00564892]]
Data added to pickle list for particle: 46
Particle 47:
eta 2.160410960097895, phi -2.80731840760671,
p 53.0, q -1.60217662e-19,
brem = False
input State:
[[-0.001     ]
 [-0.001     ]
 [-0.07666022]
 [-0.22072715]
 [-0.00565676]]

Simulating particle
Initiating Kalman filtering for particle: 47
Particle 47:
eta 2.1604697876816967, phi -2.807140122128623,
p 52.053397253591505, q -1.60217662e-19,
brem = False
output State:
[[-0.00098379]
 [-0.00099309]
 [-0.07669494]
 [-0.22070015]
 [-0.00575963]]
Data added to pickle list for particle: 47
Particle 48:
eta 3.9242906966066533, phi -0.3326454036537465,
p 54.0, q 1.60217662e-19,
brem = False
input State:
[[-0.001     ]
 [-0.001     ]
 [-0.01290756]
 [ 0.03736088]
 [ 0.00555201]]

Simulating particle
Initiating Kalman filtering for particle: 48
Particle 48:
eta 3.9250371207382124, phi -0.33344331830638363,
p 54.34615434464096, q 1.60217662e-19,
brem = False
output State:
[[-0.00097384]
 [-0.000979  ]
 [-0.01292771]
 [ 0.03732268]
 [ 0.00551665]]
Data added to pickle list for particle: 48
Particle 49:
eta 3.9758990388228956, phi 2.613630033936297,
p 54.0, q -1.60217662e-19,
brem = False
input State:
[[-0.001     ]
 [-0.001     ]
 [ 0.01891072]
 [-0.0324267 ]
 [-0.00555201]]

Simulating particle
Initiating Kalman filtering for particle: 49
Particle 49:
eta 3.976179959918152, phi 2.613533660497854,
p 54.25407024656876, q -1.60217662e-19,
brem = False
output State:
[[-0.00099585]
 [-0.00100931]
 [ 0.01890853]
 [-0.03241577]
 [-0.00552601]]
Data added to pickle list for particle: 49
Particle 50:
eta 3.100849579934733, phi 0.7008722790304017,
p 54.99999999999999, q 1.60217662e-19,
brem = False
input State:
[[ 0.001     ]
 [-0.001     ]
 [ 0.05817159]
 [ 0.0689416 ]
 [ 0.00545106]]

Simulating particle
Initiating Kalman filtering for particle: 50
Particle 50:
eta 3.100684867733546, phi 0.7004994926911978,
p 55.30566058372208, q 1.60217662e-19,
brem = False
output State:
[[ 0.00101194]
 [-0.00100101]
 [ 0.0581555 ]
 [ 0.06897469]
 [ 0.00542094]]
Data added to pickle list for particle: 50
Particle 51:
eta 2.6877903474315845, phi 2.721646023684863,
p 54.99999999999999, q -1.60217662e-19,
brem = False
input State:
[[ 0.001     ]
 [-0.001     ]
 [ 0.05573209]
 [-0.12481753]
 [-0.00545106]]

Simulating particle
Initiating Kalman filtering for particle: 51
Particle 51:
eta 2.6882581339092724, phi 2.721463901965218,
p 54.31232996541382, q -1.60217662e-19,
brem = False
output State:
[[ 0.00099286]
 [-0.00101302]
 [ 0.05572851]
 [-0.12474847]
 [-0.00552008]]
Data added to pickle list for particle: 51
Particle 52:
eta 4.584109904733636, phi -2.4903815284760205,
p 56.0, q 1.60217662e-19,
brem = False
input State:
[[ 0.001     ]
 [ 0.001     ]
 [-0.01238232]
 [-0.01624726]
 [ 0.00535372]]

Simulating particle
Initiating Kalman filtering for particle: 52
Particle 52:
eta 4.587562853946733, phi -2.4886192695283382,
p 55.89843381226704, q 1.60217662e-19,
brem = False
output State:
[[ 0.00099188]
 [ 0.00093833]
 [-0.01236814]
 [-0.01616947]
 [ 0.00536345]]
Data added to pickle list for particle: 52
Particle 53:
eta 4.8881309126441, phi -0.750760635017746,
p 56.0, q -1.60217662e-19,
brem = False
input State:
[[ 0.001     ]
 [-0.001     ]
 [-0.01028194]
 [ 0.01102008]
 [-0.00535372]]

Simulating particle
Initiating Kalman filtering for particle: 53
Particle 53:
eta 4.893610746636626, phi -0.7543388971526231,
p 56.00161795876889, q -1.60217662e-19,
brem = False
output State:
[[ 0.00096737]
 [-0.00094618]
 [-0.01026489]
 [ 0.01092319]
 [-0.00535357]]
Data added to pickle list for particle: 53
Particle 54:
eta 4.655121515401931, phi -0.2779233411368032,
p 57.00000000000001, q 1.60217662e-19,
brem = False
input State:
[[-0.001     ]
 [-0.001     ]
 [-0.0052203 ]
 [ 0.01829711]
 [ 0.0052598 ]]

Simulating particle
Initiating Kalman filtering for particle: 54
Particle 54:
eta 4.6578966413121305, phi -0.2781628809853779,
p 57.06170356500874, q 1.60217662e-19,
brem = False
output State:
[[-0.00098858]
 [-0.00096465]
 [-0.0052102 ]
 [ 0.01824515]
 [ 0.00525411]]
Data added to pickle list for particle: 54
Particle 55:
eta 3.224894111854487, phi 2.9932579276059776,
p 57.00000000000001, q -1.60217662e-19,
brem = False
input State:
[[-0.001     ]
 [-0.001     ]
 [ 0.01177097]
 [-0.07877127]
 [-0.0052598 ]]

Simulating particle
Initiating Kalman filtering for particle: 55
Particle 55:
eta 3.224391516052338, phi 2.9934536924656903,
p 56.368268960343485, q -1.60217662e-19,
brem = False
output State:
[[-0.00099731]
 [-0.00097601]
 [ 0.01176148]
 [-0.07881329]
 [-0.00531875]]
Data added to pickle list for particle: 55
Particle 56:
eta 4.373514497477572, phi 1.2695447277469127,
p 58.0, q 1.60217662e-19,
brem = False
input State:
[[-0.001     ]
 [ 0.001     ]
 [ 0.02408206]
 [ 0.00748249]
 [ 0.00516911]]

Simulating particle
Initiating Kalman filtering for particle: 56
Particle 56:
eta 4.374285723259744, phi 1.2705291023759506,
p 58.097994838005334, q 1.60217662e-19,
brem = False
output State:
[[-0.00100742]
 [ 0.00102503]
 [ 0.02407084]
 [ 0.00745303]
 [ 0.00516039]]
Data added to pickle list for particle: 56
Particle 57:
eta 3.2291439558613457, phi -1.5179460730784546,
p 58.0, q -1.60217662e-19,
brem = False
input State:
[[-0.001     ]
 [-0.001     ]
 [-0.07919633]
 [ 0.00418945]
 [-0.00516911]]

Simulating particle
Initiating Kalman filtering for particle: 57
Particle 57:
eta 3.2288587587822635, phi -1.518322157460126,
p 58.65664940822851, q -1.60217662e-19,
brem = False
output State:
[[-0.00097073]
 [-0.00097965]
 [-0.07922056]
 [ 0.00416085]
 [-0.00511124]]
Data added to pickle list for particle: 57
Particle 58:
eta 3.349223187105878, phi -2.4090589833247957,
p 59.0, q 1.60217662e-19,
brem = False
input State:
[[ 0.001     ]
 [ 0.001     ]
 [-0.04702015]
 [-0.05227418]
 [ 0.0050815 ]]

Simulating particle
Initiating Kalman filtering for particle: 58
Particle 58:
eta 3.348602079191894, phi -2.4097141966941047,
p 59.20940047194996, q 1.60217662e-19,
brem = False
output State:
[[ 0.00100571]
 [ 0.0010219 ]
 [-0.04701515]
 [-0.05233756]
 [ 0.00506353]]
Data added to pickle list for particle: 58
Particle 59:
eta 3.6528502422822293, phi -2.8248906676196546,
p 59.0, q -1.60217662e-19,
brem = False
input State:
[[ 0.001     ]
 [-0.001     ]
 [-0.01615383]
 [-0.04928957]
 [-0.0050815 ]]

Simulating particle
Initiating Kalman filtering for particle: 59
Particle 59:
eta 3.652590889577134, phi -2.824321525531955,
p 58.778351648941324, q -1.60217662e-19,
brem = False
output State:
[[ 0.00102853]
 [-0.000996  ]
 [-0.01618608]
 [-0.04929317]
 [-0.00510066]]
Data added to pickle list for particle: 59
Particle 60:
eta 3.8043745173056105, phi -1.236070893129284,
p 60.00000000000001, q 1.60217662e-19,
brem = False
input State:
[[-0.001     ]
 [-0.001     ]
 [-0.04209484]
 [ 0.01464114]
 [ 0.00499681]]

Simulating particle
Initiating Kalman filtering for particle: 60
Particle 60:
eta 3.80448406703724, phi -1.2351618613307132,
p 59.69950806134679, q 1.60217662e-19,
brem = False
output State:
[[-0.00100785]
 [-0.00101145]
 [-0.0420769 ]
 [ 0.01467779]
 [ 0.00502196]]
Data added to pickle list for particle: 60
Particle 61:
eta 3.590482121911156, phi 1.1692555041577435,
p 60.00000000000001, q -1.60217662e-19,
brem = False
input State:
[[-0.001     ]
 [-0.001     ]
 [ 0.05082049]
 [ 0.02157892]
 [-0.00499681]]

Simulating particle
Initiating Kalman filtering for particle: 61
Particle 61:
eta 3.5907745159479556, phi 1.1698354855097344,
p 60.09283153582088, q -1.60217662e-19,
brem = False
output State:
[[-0.00098922]
 [-0.0009841 ]
 [ 0.05081812]
 [ 0.02154313]
 [-0.00498909]]
Data added to pickle list for particle: 61
Particle 62:
eta 3.9582688359970857, phi -1.9026447997112472,
p 61.0, q 1.60217662e-19,
brem = False
input State:
[[ 0.001     ]
 [-0.001     ]
 [-0.03612176]
 [-0.01244725]
 [ 0.00491489]]

Simulating particle
Initiating Kalman filtering for particle: 62
Particle 62:
eta 3.957941126868231, phi -1.9038676785640327,
p 61.28153135740616, q 1.60217662e-19,
brem = False
output State:
[[ 0.0009871 ]
 [-0.00099134]
 [-0.03611835]
 [-0.01249551]
 [ 0.00489231]]
Data added to pickle list for particle: 62
Particle 63:
eta 4.7647518629826955, phi 1.8697294474810642,
p 61.0, q -1.60217662e-19,
brem = False
input State:
[[-0.001     ]
 [-0.001     ]
 [ 0.01629504]
 [-0.00502161]
 [-0.00491489]]

Simulating particle
Initiating Kalman filtering for particle: 63
Particle 63:
eta 4.763530493875576, phi 1.8696607768637625,
p 61.49766288498864, q -1.60217662e-19,
brem = False
output State:
[[-0.00100857]
 [-0.00099872]
 [ 0.01631531]
 [-0.00502662]
 [-0.00487512]]
Data added to pickle list for particle: 63
Particle 64:
eta 4.384389546698419, phi 0.4695960789015424,
p 62.0, q 1.60217662e-19,
brem = False
input State:
[[ 0.001     ]
 [-0.001     ]
 [ 0.01128821]
 [ 0.02224462]
 [ 0.00483562]]

Simulating particle
Initiating Kalman filtering for particle: 64
Particle 64:
eta 4.384680998706646, phi 0.47115935532688263,
p 61.490061104292145, q 1.60217662e-19,
brem = False
output State:
[[ 0.00097276]
 [-0.00098003]
 [ 0.01131967]
 [ 0.02222047]
 [ 0.00487572]]
Data added to pickle list for particle: 64
Particle 65:
eta 4.3553126082764875, phi 0.27571665455214983,
p 62.0, q -1.60217662e-19,
brem = False
input State:
[[-0.001     ]
 [ 0.001     ]
 [ 0.00699133]
 [ 0.02471112]
 [-0.00483562]]

Simulating particle
Initiating Kalman filtering for particle: 65
Particle 65:
eta 4.355382788102257, phi 0.27544063583766204,
p 61.66278728241561, q -1.60217662e-19,
brem = False
output State:
[[-0.00101178]
 [ 0.00099365]
 [ 0.00698402]
 [ 0.02471131]
 [-0.00486207]]
Data added to pickle list for particle: 65
Particle 66:
eta 2.794170827329011, phi 1.1575857489884864,
p 62.99999999999999, q 1.60217662e-19,
brem = False
input State:
[[-0.001     ]
 [-0.001     ]
 [ 0.11245603]
 [ 0.04930675]
 [ 0.00475887]]

Simulating particle
Initiating Kalman filtering for particle: 66
Particle 66:
eta 2.7940854752059714, phi 1.157829922806392,
p 62.18803315551169, q 1.60217662e-19,
brem = False
output State:
[[-0.00099524]
 [-0.00098774]
 [ 0.11247773]
 [ 0.04928353]
 [ 0.004821  ]]
Data added to pickle list for particle: 66
Particle 67:
eta 3.7446634344502243, phi 2.087882900357878,
p 62.99999999999999, q -1.60217662e-19,
brem = False
input State:
[[-0.001     ]
 [ 0.001     ]
 [ 0.04112798]
 [-0.02338947]
 [-0.00475887]]

Simulating particle
Initiating Kalman filtering for particle: 67
Particle 67:
eta 3.7449042139716036, phi 2.0874801545382193,
p 63.02588045318107, q -1.60217662e-19,
brem = False
output State:
[[-0.00100704]
 [ 0.0009867 ]
 [ 0.04112749]
 [-0.02336727]
 [-0.00475691]]
Data added to pickle list for particle: 67
Particle 68:
eta 4.906014020360366, phi -1.4962683173063456,
p 64.0, q 1.60217662e-19,
brem = False
input State:
[[ 0.001     ]
 [ 0.001     ]
 [-0.01476358]
 [ 0.00110234]
 [ 0.00468451]]

Simulating particle
Initiating Kalman filtering for particle: 68
Particle 68:
eta 4.904329437013475, phi -1.4947982793659418,
p 63.928500110665475, q 1.60217662e-19,
brem = False
output State:
[[ 0.00103286]
 [ 0.00098424]
 [-0.01478684]
 [ 0.00112594]
 [ 0.00468975]]
Data added to pickle list for particle: 68
Particle 69:
eta 3.83700193505761, phi 2.709701713057971,
p 64.0, q -1.60217662e-19,
brem = False
input State:
[[ 0.001     ]
 [-0.001     ]
 [ 0.01805638]
 [-0.03917537]
 [-0.00468451]]

Simulating particle
Initiating Kalman filtering for particle: 69
Particle 69:
eta 3.837095392942318, phi 2.709435232453947,
p 64.60140373912651, q -1.60217662e-19,
brem = False
output State:
[[ 0.00098577]
 [-0.00099252]
 [ 0.01806513]
 [-0.03916689]
 [-0.0046409 ]]
Data added to pickle list for particle: 69
Particle 70:
eta 4.1183922318036945, phi -0.32787889163329914,
p 65.0, q 1.60217662e-19,
brem = False
input State:
[[-0.001     ]
 [ 0.001     ]
 [-0.01048224]
 [ 0.03081591]
 [ 0.00461244]]

Simulating particle
Initiating Kalman filtering for particle: 70
Particle 70:
eta 4.119521391101251, phi -0.32822007712545287,
p 64.23636238710412, q 1.60217662e-19,
brem = False
output State:
[[-0.00097078]
 [ 0.00101179]
 [-0.0104809 ]
 [ 0.03077754]
 [ 0.00466727]]
Data added to pickle list for particle: 70
Particle 71:
eta 2.1077479387943345, phi -0.5351650802921646,
p 65.0, q -1.60217662e-19,
brem = False
input State:
[[ 0.001     ]
 [ 0.001     ]
 [-0.12579478]
 [ 0.21217707]
 [-0.00461244]]

Simulating particle
Initiating Kalman filtering for particle: 71
Particle 71:
eta 2.1076391633519824, phi -0.5351388216194753,
p 65.48675086126883, q -1.60217662e-19,
brem = False
output State:
[[ 0.00097712]
 [ 0.00099244]
 [-0.1258033 ]
 [ 0.21220415]
 [-0.00457816]]
Data added to pickle list for particle: 71
Particle 72:
eta 2.937853928531323, phi -2.4092018655328604,
p 66.0, q 1.60217662e-19,
brem = False
input State:
[[-0.001     ]
 [-0.001     ]
 [-0.07104857]
 [-0.07901025]
 [ 0.00454255]]

Simulating particle
Initiating Kalman filtering for particle: 72
Particle 72:
eta 2.938774067876143, phi -2.408487972817491,
p 66.40055557979555, q 1.60217662e-19,
brem = False
output State:
[[-0.00101999]
 [-0.00101798]
 [-0.07103919]
 [-0.07888648]
 [ 0.00451515]]
Data added to pickle list for particle: 72
Particle 73:
eta 3.7848080922444445, phi 0.08476052746925665,
p 66.0, q -1.60217662e-19,
brem = False
input State:
[[-0.001     ]
 [-0.001     ]
 [ 0.00384775]
 [ 0.04528672]
 [-0.00454255]]

Simulating particle
Initiating Kalman filtering for particle: 73
Particle 73:
eta 3.784579498988793, phi 0.08439666772703917,
p 66.56854064035356, q -1.60217662e-19,
brem = False
output State:
[[-0.00097895]
 [-0.00100333]
 [ 0.00383214]
 [ 0.04529848]
 [-0.00450376]]
Data added to pickle list for particle: 73
Particle 74:
eta 4.099421230671023, phi -0.04583691443436132,
p 67.0, q 1.60217662e-19,
brem = False
input State:
[[ 0.001     ]
 [-0.001     ]
 [-0.00152005]
 [ 0.03313882]
 [ 0.00447475]]

Simulating particle
Initiating Kalman filtering for particle: 74
Particle 74:
eta 4.099498096716643, phi -0.045813510834400974,
p 66.70306130961164, q 1.60217662e-19,
brem = False
output State:
[[ 0.00099135]
 [-0.00099366]
 [-0.00151915]
 [ 0.03313631]
 [ 0.00449467]]
Data added to pickle list for particle: 74
Particle 75:
eta 3.0241915540179085, phi 1.3213818881580357,
p 67.0, q -1.60217662e-19,
brem = False
input State:
[[-0.001     ]
 [-0.001     ]
 [ 0.09440968]
 [ 0.02404787]
 [-0.00447475]]

Simulating particle
Initiating Kalman filtering for particle: 75
Particle 75:
eta 3.0242257966200974, phi 1.3222714162495472,
p 67.1316478093828, q -1.60217662e-19,
brem = False
output State:
[[-0.00101905]
 [-0.00096993]
 [ 0.09442779]
 [ 0.02396306]
 [-0.00446598]]
Data added to pickle list for particle: 75
Particle 76:
eta 2.506030083363701, phi -1.3182160397928504,
p 68.0, q 1.60217662e-19,
brem = False
input State:
[[ 0.001     ]
 [ 0.001     ]
 [-0.15906427]
 [ 0.04105326]
 [ 0.00440895]]

Simulating particle
Initiating Kalman filtering for particle: 76
Particle 76:
eta 2.5061219165364093, phi -1.3185070189280172,
p 68.18803953741637, q 1.60217662e-19,
brem = False
output State:
[[ 0.00098612]
 [ 0.00101542]
 [-0.15906141]
 [ 0.04100316]
 [ 0.00439679]]
Data added to pickle list for particle: 76
Particle 77:
eta 4.892683835203825, phi -2.8434989878013828,
p 68.0, q -1.60217662e-19,
brem = False
input State:
[[ 0.001     ]
 [-0.001     ]
 [-0.00440647]
 [-0.01434169]
 [-0.00440895]]

Simulating particle
Initiating Kalman filtering for particle: 77
Particle 77:
eta 4.895552750717614, phi -2.8422532324545875,
p 67.53647493752223, q -1.60217662e-19,
brem = False
output State:
[[ 0.00099957]
 [-0.00102871]
 [-0.00441165]
 [-0.01429512]
 [-0.00443921]]
Data added to pickle list for particle: 77
Particle 78:
eta 3.7324221675747307, phi -2.491887589082107,
p 69.0, q 1.60217662e-19,
brem = False
input State:
[[-0.001     ]
 [-0.001     ]
 [-0.02897538]
 [-0.03813859]
 [ 0.00434505]]

Simulating particle
Initiating Kalman filtering for particle: 78
Particle 78:
eta 3.7331305321517063, phi -2.4920569150529177,
p 67.75035227233865, q 1.60217662e-19,
brem = False
output State:
[[-0.00100579]
 [-0.00101516]
 [-0.02894838]
 [-0.03811646]
 [ 0.00442519]]
Data added to pickle list for particle: 78
Particle 79:
eta 3.413095559571512, phi -2.29617160517804,
p 69.0, q -1.60217662e-19,
brem = False
input State:
[[-0.001     ]
 [ 0.001     ]
 [-0.0493469 ]
 [-0.04375211]
 [-0.00434505]]

Simulating particle
Initiating Kalman filtering for particle: 79
Particle 79:
eta 3.4128791367486597, phi -2.2958587115120257,
p 69.13767421766894, q -1.60217662e-19,
brem = False
output State:
[[-0.00097579]
 [ 0.00100826]
 [-0.0493713 ]
 [-0.04374616]
 [-0.0043364 ]]
Data added to pickle list for particle: 79
Particle 80:
eta 2.7381623753896958, phi -1.4802444455323243,
p 70.0, q 1.60217662e-19,
brem = False
input State:
[[ 0.001     ]
 [ 0.001     ]
 [-0.12938961]
 [ 0.0117486 ]
 [ 0.00428298]]

Simulating particle
Initiating Kalman filtering for particle: 80
Particle 80:
eta 2.7380024259199245, phi -1.4801575151527822,
p 70.71234698923755, q 1.60217662e-19,
brem = False
output State:
[[ 0.00100445]
 [ 0.0009926 ]
 [-0.12940946]
 [ 0.01176175]
 [ 0.00423983]]
Data added to pickle list for particle: 80
Particle 81:
eta 2.620429732339695, phi -0.8889016777292544,
p 70.0, q -1.60217662e-19,
brem = False
input State:
[[-0.001     ]
 [-0.001     ]
 [-0.11359839]
 [ 0.09221915]
 [-0.00428298]]

Simulating particle
Initiating Kalman filtering for particle: 81
Particle 81:
eta 2.620263184894549, phi -0.8888962986593787,
p 70.35369626734519, q -1.60217662e-19,
brem = False
output State:
[[-0.00098454]
 [-0.0010012 ]
 [-0.11361701]
 [ 0.09223528]
 [-0.00426145]]
Data added to pickle list for particle: 81
Particle 82:
eta 3.640946961249846, phi -2.0550920569539777,
p 71.0, q 1.60217662e-19,
brem = False
input State:
[[ 0.001     ]
 [-0.001     ]
 [-0.04645478]
 [-0.02443908]
 [ 0.00422265]]

Simulating particle
Initiating Kalman filtering for particle: 82
Particle 82:
eta 3.6408211111530826, phi -2.055331497203843,
p 71.56396089820464, q 1.60217662e-19,
brem = False
output State:
[[ 0.00097845]
 [-0.00098842]
 [-0.04645478]
 [-0.02445328]
 [ 0.00418938]]
Data added to pickle list for particle: 82
Particle 83:
eta 4.020073567300528, phi -1.928061664933685,
p 71.0, q -1.60217662e-19,
brem = False
input State:
[[ 0.001     ]
 [-0.001     ]
 [-0.03364708]
 [-0.01255991]
 [-0.00422265]]

Simulating particle
Initiating Kalman filtering for particle: 83
Particle 83:
eta 4.0199897501565856, phi -1.928578214450254,
p 70.91722914282133, q -1.60217662e-19,
brem = False
output State:
[[ 0.00099492]
 [-0.00097846]
 [-0.03364341]
 [-0.01257835]
 [-0.00422758]]
Data added to pickle list for particle: 83
Particle 84:
eta 4.876319022876643, phi -2.4451810752045007,
p 72.0, q 1.60217662e-19,
brem = False
input State:
[[-0.001     ]
 [-0.001     ]
 [-0.00978301]
 [-0.01169975]
 [ 0.00416401]]

Simulating particle
Initiating Kalman filtering for particle: 84
Particle 84:
eta 4.877145723259675, phi -2.444680766862168,
p 72.23450590029283, q 1.60217662e-19,
brem = False
output State:
[[-0.00101091]
 [-0.00101776]
 [-0.00978077]
 [-0.01168519]
 [ 0.00415049]]
Data added to pickle list for particle: 84
Particle 85:
eta 4.420869359254611, phi -1.785535135165532,
p 72.0, q -1.60217662e-19,
brem = False
input State:
[[ 0.001     ]
 [-0.001     ]
 [-0.02349862]
 [-0.00512509]
 [-0.00416401]]

Simulating particle
Initiating Kalman filtering for particle: 85
Particle 85:
eta 4.420912031635483, phi -1.7866489195619937,
p 72.750315365836, q -1.60217662e-19,
brem = False
output State:
[[ 0.00100331]
 [-0.0009741 ]
 [-0.0234919 ]
 [-0.00515104]
 [-0.00412106]]
Data added to pickle list for particle: 85
Particle 86:
eta 4.479352765774535, phi -1.2632286493200553,
p 73.0, q 1.60217662e-19,
brem = False
input State:
[[ 0.001     ]
 [ 0.001     ]
 [-0.0216199 ]
 [ 0.00686751]
 [ 0.00410697]]

Simulating particle
Initiating Kalman filtering for particle: 86
Particle 86:
eta 4.4806420710248895, phi -1.2640859468226822,
p 72.65805082735467, q 1.60217662e-19,
brem = False
output State:
[[ 0.00100585]
 [ 0.00102016]
 [-0.02159791]
 [ 0.00684015]
 [ 0.00412629]]
Data added to pickle list for particle: 86
Particle 87:
eta 2.658337801616682, phi 3.0064084605172963,
p 73.0, q -1.60217662e-19,
brem = False
input State:
[[ 0.001     ]
 [-0.001     ]
 [ 0.01897877]
 [-0.13953569]
 [-0.00410697]]

Simulating particle
Initiating Kalman filtering for particle: 87
Particle 87:
eta 2.6583690516559724, phi 3.0064884230533977,
p 73.46928371421268, q -1.60217662e-19,
brem = False
output State:
[[ 0.00100346]
 [-0.00099885]
 [ 0.01896702]
 [-0.13953281]
 [-0.00408073]]
Data added to pickle list for particle: 87
Particle 88:
eta 2.613548045867338, phi 1.7707145832249047,
p 73.99999999999999, q 1.60217662e-19,
brem = False
input State:
[[-0.001     ]
 [-0.001     ]
 [ 0.1444047 ]
 [-0.02925999]
 [ 0.00405147]]

Simulating particle
Initiating Kalman filtering for particle: 88
Particle 88:
eta 2.613714971867893, phi 1.7714939844148219,
p 73.62269235482692, q 1.60217662e-19,
brem = False
output State:
[[-0.00099074]
 [-0.00100238]
 [ 0.14435749]
 [-0.02936758]
 [ 0.00407223]]
Data added to pickle list for particle: 88
Particle 89:
eta 4.9183317274101075, phi -0.9721792355604468,
p 73.99999999999999, q -1.60217662e-19,
brem = False
input State:
[[ 0.001     ]
 [ 0.001     ]
 [-0.01208063]
 [ 0.0082403 ]
 [-0.00405147]]

Simulating particle
Initiating Kalman filtering for particle: 89
Particle 89:
eta 4.9162250199295325, phi -0.9700016485595852,
p 74.41068758514844, q -1.60217662e-19,
brem = False
output State:
[[ 0.00101162]
 [ 0.00097599]
 [-0.0120881 ]
 [ 0.00828403]
 [-0.00402911]]
Data added to pickle list for particle: 89
Particle 90:
eta 4.773845187749096, phi 2.256844232374068,
p 75.0, q 1.60217662e-19,
brem = False
input State:
[[ 0.001     ]
 [-0.001     ]
 [ 0.01307405]
 [-0.0107039 ]
 [ 0.00399745]]

Simulating particle
Initiating Kalman filtering for particle: 90
Particle 90:
eta 4.7786995717214396, phi 2.254489947752129,
p 76.36006990626728, q 1.60217662e-19,
brem = False
output State:
[[ 0.00104123]
 [-0.00106616]
 [ 0.01303577]
 [-0.0106214 ]
 [ 0.00392625]]
Data added to pickle list for particle: 90
Particle 91:
eta 2.260088535611766, phi 2.0214999100229583,
p 75.0, q -1.60217662e-19,
brem = False
input State:
[[ 0.001     ]
 [ 0.001     ]
 [ 0.18991122]
 [-0.09190243]
 [-0.00399745]]

Simulating particle
Initiating Kalman filtering for particle: 91
Particle 91:
eta 2.260357975867477, phi 2.0215656837184706,
p 70.43120834052093, q -1.60217662e-19,
brem = False
output State:
[[ 0.0010149 ]
 [ 0.00100483]
 [ 0.18985288]
 [-0.09188961]
 [-0.00425676]]
Data added to pickle list for particle: 91
Particle 92:
eta 2.1427642386572896, phi 2.696731435765886,
p 76.0, q 1.60217662e-19,
brem = False
input State:
[[ 0.001     ]
 [ 0.001     ]
 [ 0.10239146]
 [-0.21477745]
 [ 0.00394485]]

Simulating particle
Initiating Kalman filtering for particle: 92
Particle 92:
eta 2.1428483804871927, phi 2.6968921786485796,
p 79.02258594812878, q 1.60217662e-19,
brem = False
output State:
[[ 0.00099578]
 [ 0.00100182]
 [ 0.10234809]
 [-0.21477533]
 [ 0.00379396]]
Data added to pickle list for particle: 92
Particle 93:
eta 4.4947219338955176, phi -0.39997067338314213,
p 76.0, q -1.60217662e-19,
brem = False
input State:
[[-0.001     ]
 [ 0.001     ]
 [-0.00869836]
 [ 0.02057524]
 [-0.00394485]]

Simulating particle
Initiating Kalman filtering for particle: 93
Particle 93:
eta 4.491832656644948, phi -0.39908367639500136,
p 76.36896497808199, q -1.60217662e-19,
brem = False
output State:
[[-0.00100279]
 [ 0.00095753]
 [-0.00870523]
 [ 0.02064252]
 [-0.00392579]]
Data added to pickle list for particle: 93
Particle 94:
eta 2.092805791138245, phi 0.8630998695017106,
p 77.0, q 1.60217662e-19,
brem = False
input State:
[[-0.001     ]
 [ 0.001     ]
 [ 0.1903391 ]
 [ 0.16284104]
 [ 0.00389362]]

Simulating particle
Initiating Kalman filtering for particle: 94
Particle 94:
eta 2.092825285769819, phi 0.8629767693586184,
p 79.52868929854795, q 1.60217662e-19,
brem = False
output State:
[[-0.00100577]
 [ 0.00099872]
 [ 0.19031523]
 [ 0.1628612 ]
 [ 0.00376982]]
Data added to pickle list for particle: 94
Particle 95:
eta 2.7194735816569477, phi 2.6212671448251172,
p 77.0, q -1.60217662e-19,
brem = False
input State:
[[ 0.001     ]
 [ 0.001     ]
 [ 0.06582135]
 [-0.11487264]
 [-0.00389362]]

Simulating particle
Initiating Kalman filtering for particle: 95
Particle 95:
eta 2.719798516419519, phi 2.6210418004253895,
p 76.56815010194966, q -1.60217662e-19,
brem = False
output State:
[[ 0.00099473]
 [ 0.00099389]
 [ 0.06582565]
 [-0.11482017]
 [-0.00391558]]
Data added to pickle list for particle: 95
Particle 96:
eta 4.00849685167649, phi -2.7175495268632126,
p 78.0, q 1.60217662e-19,
brem = False
input State:
[[-0.001     ]
 [-0.001     ]
 [-0.01494931]
 [-0.03311539]
 [ 0.0038437 ]]

Simulating particle
Initiating Kalman filtering for particle: 96
Particle 96:
eta 4.0091011567095345, phi -2.718291677248384,
p 77.16108415338039, q 1.60217662e-19,
brem = False
output State:
[[-0.00101862]
 [-0.00100367]
 [-0.0149157 ]
 [-0.03310645]
 [ 0.00388549]]
Data added to pickle list for particle: 96
Particle 97:
eta 4.241707081569868, phi 1.3402266926867674,
p 78.0, q -1.60217662e-19,
brem = False
input State:
[[-0.001     ]
 [-0.001     ]
 [ 0.02801058]
 [ 0.00657532]
 [-0.0038437 ]]

Simulating particle
Initiating Kalman filtering for particle: 97
Particle 97:
eta 4.241270563567935, phi 1.3423835388138954,
p 77.65967440916101, q -1.60217662e-19,
brem = False
output State:
[[-0.00101666]
 [-0.00095669]
 [ 0.02803693]
 [ 0.00651774]
 [-0.00386054]]
Data added to pickle list for particle: 97
Particle 98:
eta 4.4961706818160225, phi 1.3325950291688125,
p 79.0, q 1.60217662e-19,
brem = False
input State:
[[0.001     ]
 [0.001     ]
 [0.02167618]
 [0.00526322]
 [0.00379504]]

Simulating particle
Initiating Kalman filtering for particle: 98
Particle 98:
eta 4.498661972217903, phi 1.3359920667216703,
p 80.85852541221618, q 1.60217662e-19,
brem = False
output State:
[[0.00102243]
 [0.00106674]
 [0.02163994]
 [0.00517664]
 [0.00370782]]
Data added to pickle list for particle: 98
Particle 99:
eta 2.702196047250155, phi -1.704112512745154,
p 79.0, q -1.60217662e-19,
brem = False
input State:
[[-0.001     ]
 [ 0.001     ]
 [-0.13352654]
 [-0.01790747]
 [-0.00379504]]

Simulating particle
Initiating Kalman filtering for particle: 99
Particle 99:
eta 2.7019966561184683, phi -1.7042297475155255,
p 78.44842877743038, q -1.60217662e-19,
brem = False
output State:
[[-0.00099326]
 [ 0.00099886]
 [-0.13355131]
 [-0.01792673]
 [-0.00382173]]
Data added to pickle list for particle: 99
Particle 100:
eta 3.9525023155083088, phi -2.87582187731791,
p 80.0, q 1.60217662e-19,
brem = False
input State:
[[ 0.001     ]
 [-0.001     ]
 [-0.01009306]
 [-0.03707817]
 [ 0.00374761]]

Simulating particle
Initiating Kalman filtering for particle: 100
Particle 100:
eta 3.9523421115170274, phi -2.8761676787356323,
p 80.5877694807379, q 1.60217662e-19,
brem = False
output State:
[[ 0.00100052]
 [-0.00100122]
 [-0.01008185]
 [-0.0370876 ]
 [ 0.00372027]]
Data added to pickle list for particle: 100
Particle 101:
eta 2.6189122722192377, phi 1.6730749078003144,
p 80.0, q -1.60217662e-19,
brem = False
input State:
[[-0.001     ]
 [-0.001     ]
 [ 0.14577678]
 [-0.01496205]
 [-0.00374761]]

Simulating particle
Initiating Kalman filtering for particle: 101
Particle 101:
eta 2.618911668055653, phi 1.6734272823126668,
p 80.42971242983775, q -1.60217662e-19,
brem = False
output State:
[[-0.00103791]
 [-0.00097484]
 [ 0.14577159]
 [-0.01501343]
 [-0.00372758]]
Data added to pickle list for particle: 101
Particle 102:
eta 2.929777454815496, phi -1.5128641218791656,
p 81.0, q 1.60217662e-19,
brem = False
input State:
[[-0.001     ]
 [ 0.001     ]
 [-0.10694371]
 [ 0.00620242]
 [ 0.00370134]]

Simulating particle
Initiating Kalman filtering for particle: 102
Particle 102:
eta 2.9297919509193155, phi -1.5126416057502357,
p 80.17710603223362, q 1.60217662e-19,
brem = False
output State:
[[-0.00100754]
 [ 0.00100039]
 [-0.10694076]
 [ 0.00622613]
 [ 0.00373933]]
Data added to pickle list for particle: 102
Particle 103:
eta 2.5417791710400346, phi -1.547282063730846,
p 81.0, q -1.60217662e-19,
brem = False
input State:
[[ 0.001     ]
 [-0.001     ]
 [-0.15839056]
 [ 0.00372512]
 [-0.00370134]]

Simulating particle
Initiating Kalman filtering for particle: 103
Particle 103:
eta 2.541790441980703, phi -1.5476306141457614,
p 80.86653626256904, q -1.60217662e-19,
brem = False
output State:
[[ 0.00101525]
 [-0.00099023]
 [-0.15839004]
 [ 0.00366987]
 [-0.00370745]]
Data added to pickle list for particle: 103
Particle 104:
eta 4.938782825134806, phi -2.6240837582451206,
p 82.0, q 1.60217662e-19,
brem = False
input State:
[[ 0.001     ]
 [ 0.001     ]
 [-0.00708798]
 [-0.01245125]
 [ 0.0036562 ]]

Simulating particle
Initiating Kalman filtering for particle: 104
Particle 104:
eta 4.945914511057288, phi -2.6187321741532434,
p 82.44818604635623, q 1.60217662e-19,
brem = False
output State:
[[ 0.00101241]
 [ 0.00089427]
 [-0.00710367]
 [-0.01232492]
 [ 0.00363633]]
Data added to pickle list for particle: 104
Particle 105:
eta 2.109078746229189, phi -3.1093635575483343,
p 82.0, q -1.60217662e-19,
brem = False
input State:
[[ 0.001     ]
 [-0.001     ]
 [-0.00793751]
 [-0.24619884]
 [-0.0036562 ]]

Simulating particle
Initiating Kalman filtering for particle: 105
Particle 105:
eta 2.1090318376043085, phi -3.109376273554228,
p 82.83011899269364, q -1.60217662e-19,
brem = False
output State:
[[ 0.00098059]
 [-0.0010091 ]
 [-0.00793477]
 [-0.24621084]
 [-0.00361956]]
Data added to pickle list for particle: 105
Particle 106:
eta 2.309779904223082, phi -0.2994752398286203,
p 83.0, q 1.60217662e-19,
brem = False
input State:
[[ 0.001     ]
 [-0.001     ]
 [-0.05916396]
 [ 0.1916171 ]
 [ 0.00361215]]

Simulating particle
Initiating Kalman filtering for particle: 106
Particle 106:
eta 2.3096110291532, phi -0.2992590825711308,
p 80.49533012748559, q 1.60217662e-19,
brem = False
output State:
[[ 0.00100407]
 [-0.00100819]
 [-0.05913272]
 [ 0.19166289]
 [ 0.00372455]]
Data added to pickle list for particle: 106
Particle 107:
eta 4.661735476530238, phi 2.0194371896807244,
p 83.0, q -1.60217662e-19,
brem = False
input State:
[[-0.001     ]
 [ 0.001     ]
 [ 0.01703121]
 [-0.00819848]
 [-0.00361215]]

Simulating particle
Initiating Kalman filtering for particle: 107
Particle 107:
eta 4.662625807612467, phi 2.0186577625075914,
p 84.13437725181946, q -1.60217662e-19,
brem = False
output State:
[[-0.00099125]
 [ 0.00097726]
 [ 0.01702243]
 [-0.00817792]
 [-0.00356345]]
Data added to pickle list for particle: 107
Particle 108:
eta 4.745537400050217, phi -0.2520868986854387,
p 84.0, q 1.60217662e-19,
brem = False
input State:
[[-0.001     ]
 [-0.001     ]
 [-0.00433554]
 [ 0.01683272]
 [ 0.00356915]]

Simulating particle
Initiating Kalman filtering for particle: 108
Particle 108:
eta 4.7461042745590785, phi -0.25180613434677085,
p 83.71943200575406, q 1.60217662e-19,
brem = False
output State:
[[-0.00100678]
 [-0.00100126]
 [-0.00432836]
 [ 0.01682439]
 [ 0.00358111]]
Data added to pickle list for particle: 108
Particle 109:
eta 3.387314729508912, phi -0.843975579416285,
p 84.0, q -1.60217662e-19,
brem = False
input State:
[[-0.001     ]
 [-0.001     ]
 [-0.05057361]
 [ 0.04497047]
 [-0.00356915]]

Simulating particle
Initiating Kalman filtering for particle: 109
Particle 109:
eta 3.3874506462980922, phi -0.845057887013532,
p 84.31045015338827, q -1.60217662e-19,
brem = False
output State:
[[-0.0010182 ]
 [-0.00098876]
 [-0.05061536]
 [ 0.04490959]
 [-0.00355601]]
Data added to pickle list for particle: 109
Particle 110:
eta 2.70899996954742, phi 1.5190765742923031,
p 85.0, q 1.60217662e-19,
brem = False
input State:
[[ 0.001     ]
 [-0.001     ]
 [ 0.13362138]
 [ 0.00691703]
 [ 0.00352716]]

Simulating particle
Initiating Kalman filtering for particle: 110
Particle 110:
eta 2.7088492386521237, phi 1.5185684348223996,
p 84.60551903570557, q 1.60217662e-19,
brem = False
output State:
[[ 0.00098995]
 [-0.00101452]
 [ 0.13363817]
 [ 0.00698599]
 [ 0.0035436 ]]
Data added to pickle list for particle: 110
Particle 111:
eta 2.8602723041351537, phi 0.061808677351906406,
p 85.0, q -1.60217662e-19,
brem = False
input State:
[[-0.001     ]
 [-0.001     ]
 [ 0.00709624]
 [ 0.11466354]
 [-0.00352716]]

Simulating particle
Initiating Kalman filtering for particle: 111
Particle 111:
eta 2.8603534735571836, phi 0.061849807440272186,
p 84.98482237062214, q -1.60217662e-19,
brem = False
output State:
[[-0.00098543]
 [-0.00099996]
 [ 0.00710038]
 [ 0.11465388]
 [-0.00352779]]
Data added to pickle list for particle: 111
Particle 112:
eta 4.130966117491027, phi -2.5079452673397173,
p 86.0, q 1.60217662e-19,
brem = False
input State:
[[ 0.001     ]
 [ 0.001     ]
 [-0.01903148]
 [-0.02590318]
 [ 0.00348615]]

Simulating particle
Initiating Kalman filtering for particle: 112
Particle 112:
eta 4.131784922441506, phi -2.507019288004759,
p 86.99973745837325, q 1.60217662e-19,
brem = False
output State:
[[ 0.00100444]
 [ 0.0009793 ]
 [-0.01903986]
 [-0.02586435]
 [ 0.00344609]]
Data added to pickle list for particle: 112
Particle 113:
eta 2.555261139519344, phi -0.6621799183202204,
p 86.0, q -1.60217662e-19,
brem = False
input State:
[[-0.001     ]
 [-0.001     ]
 [-0.09609096]
 [ 0.12325615]
 [-0.00348615]]

Simulating particle
Initiating Kalman filtering for particle: 113
Particle 113:
eta 2.5553468433383424, phi -0.6621894935947568,
p 87.15018910664938, q -1.60217662e-19,
brem = False
output State:
[[-0.00100413]
 [-0.00099053]
 [-0.09608381]
 [ 0.12324454]
 [-0.00344014]]
Data added to pickle list for particle: 113
Particle 114:
eta 3.4192920832191835, phi -0.8456377568072898,
p 87.0, q 1.60217662e-19,
brem = False
input State:
[[ 0.001     ]
 [-0.001     ]
 [-0.04905084]
 [ 0.04347063]
 [ 0.00344607]]

Simulating particle
Initiating Kalman filtering for particle: 114
Particle 114:
eta 3.4192995767178807, phi -0.8456081531071972,
p 87.06595610200101, q 1.60217662e-19,
brem = False
output State:
[[ 0.00100048]
 [-0.0010082 ]
 [-0.04904918]
 [ 0.04347175]
 [ 0.00344346]]
Data added to pickle list for particle: 114
Particle 115:
eta 2.362529861569292, phi -0.5342228719606686,
p 87.0, q -1.60217662e-19,
brem = False
input State:
[[-0.001     ]
 [-0.001     ]
 [-0.09676774]
 [ 0.16356851]
 [-0.00344607]]

Simulating particle
Initiating Kalman filtering for particle: 115
Particle 115:
eta 2.3627972384396103, phi -0.5344971968300894,
p 85.12374263034975, q -1.60217662e-19,
brem = False
output State:
[[-0.00100432]
 [-0.0009868 ]
 [-0.09678626]
 [ 0.16349746]
 [-0.00352203]]
Data added to pickle list for particle: 115
Particle 116:
eta 2.6916329598787665, phi 0.6025926797900836,
p 88.0, q 1.60217662e-19,
brem = False
input State:
[[0.001     ]
 [0.001     ]
 [0.07717608]
 [0.11218273]
 [0.00340691]]

Simulating particle
Initiating Kalman filtering for particle: 116
Particle 116:
eta 2.691718140374429, phi 0.6025144782616533,
p 89.55215357795053, q 1.60217662e-19,
brem = False
output State:
[[0.00097533]
 [0.00099777]
 [0.07716067]
 [0.11217912]
 [0.00334786]]
Data added to pickle list for particle: 116
Particle 117:
eta 2.856595591837721, phi -0.6931858712112776,
p 88.0, q -1.60217662e-19,
brem = False
input State:
[[-0.001     ]
 [-0.001     ]
 [-0.07368134]
 [ 0.08869723]
 [-0.00340691]]

Simulating particle
Initiating Kalman filtering for particle: 117
Particle 117:
eta 2.856273818806164, phi -0.6926676208597311,
p 88.39624633122094, q -1.60217662e-19,
brem = False
output State:
[[-0.00100817]
 [-0.00101197]
 [-0.07365922]
 [ 0.08876415]
 [-0.00339164]]
Data added to pickle list for particle: 117
Particle 118:
eta 2.206551492081482, phi 1.1433824644309007,
p 89.0, q 1.60217662e-19,
brem = False
input State:
[[-0.001     ]
 [-0.001     ]
 [ 0.20281143]
 [ 0.09237952]
 [ 0.00336863]]

Simulating particle
Initiating Kalman filtering for particle: 118
Particle 118:
eta 2.206536673687782, phi 1.1434418770802377,
p 88.10773156822377, q 1.60217662e-19,
brem = False
output State:
[[-0.0010075 ]
 [-0.00099842]
 [ 0.20282   ]
 [ 0.09236887]
 [ 0.00340275]]
Data added to pickle list for particle: 118
Particle 119:
eta 2.3746751932563734, phi -0.4136086466358311,
p 89.0, q -1.60217662e-19,
brem = False
input State:
[[ 0.001     ]
 [-0.001     ]
 [-0.07544552]
 [ 0.17188575]
 [-0.00336863]]

Simulating particle
Initiating Kalman filtering for particle: 119
Particle 119:
eta 2.374848230629865, phi -0.4133953144901611,
p 91.90991902809048, q -1.60217662e-19,
brem = False
output State:
[[ 0.00096257]
 [-0.00100668]
 [-0.07539558]
 [ 0.17187158]
 [-0.00326198]]
Data added to pickle list for particle: 119
Particle 120:
eta 2.7022344261186335, phi -1.1272555892842089,
p 90.0, q 1.60217662e-19,
brem = False
input State:
[[-0.001     ]
 [-0.001     ]
 [-0.12168129]
 [ 0.05781239]
 [ 0.00333121]]

Simulating particle
Initiating Kalman filtering for particle: 120
Particle 120:
eta 2.702308852694136, phi -1.127554973858234,
p 91.19513363293528, q 1.60217662e-19,
brem = False
output State:
[[-0.00100238]
 [-0.00099957]
 [-0.12168945]
 [ 0.05777162]
 [ 0.00328755]]
Data added to pickle list for particle: 120
Particle 121:
eta 4.739053677493368, phi 1.7655654331367268,
p 90.0, q -1.60217662e-19,
brem = False
input State:
[[ 0.001     ]
 [-0.001     ]
 [ 0.01716439]
 [-0.00338602]
 [-0.00333121]]

Simulating particle
Initiating Kalman filtering for particle: 121
Particle 121:
eta 4.739794821883636, phi 1.7673339173427172,
p 90.63244572819032, q -1.60217662e-19,
brem = False
output State:
[[ 0.00105402]
 [-0.00097834]
 [ 0.01714566]
 [-0.00341384]
 [-0.00330796]]
Data added to pickle list for particle: 121
Particle 122:
eta 4.489402008472009, phi -2.044597928724886,
p 91.0, q 1.60217662e-19,
brem = False
input State:
[[ 0.001     ]
 [-0.001     ]
 [-0.01998362]
 [-0.01024676]
 [ 0.0032946 ]]

Simulating particle
Initiating Kalman filtering for particle: 122
Particle 122:
eta 4.487476327866279, phi -2.0486695065115623,
p 90.78610200426093, q 1.60217662e-19,
brem = False
output State:
[[ 0.00098938]
 [-0.00093491]
 [-0.01998018]
 [-0.01034795]
 [ 0.00330236]]
Data added to pickle list for particle: 122
Particle 123:
eta 4.5622016062206985, phi -0.5301588584512795,
p 91.0, q -1.60217662e-19,
brem = False
input State:
[[ 0.001     ]
 [-0.001     ]
 [-0.01055859]
 [ 0.01801406]
 [-0.0032946 ]]

Simulating particle
Initiating Kalman filtering for particle: 123
Particle 123:
eta 4.567341851847065, phi -0.5323800959371822,
p 90.3093621589801, q -1.60217662e-19,
brem = False
output State:
[[ 0.00098121]
 [-0.00093267]
 [-0.01054422]
 [ 0.0178983 ]
 [-0.00331979]]
Data added to pickle list for particle: 123
Particle 124:
eta 3.5266281518810576, phi 3.1192900370146157,
p 92.0, q 1.60217662e-19,
brem = False
input State:
[[-0.001     ]
 [ 0.001     ]
 [ 0.00131259]
 [-0.05884404]
 [ 0.00325879]]

Simulating particle
Initiating Kalman filtering for particle: 124
Particle 124:
eta 3.5268231911787122, phi 3.119343541021624,
p 90.0057247553395, q 1.60217662e-19,
brem = False
output State:
[[-0.00097983]
 [ 0.00099595]
 [ 0.00130919]
 [-0.05883261]
 [ 0.00333099]]
Data added to pickle list for particle: 124
Particle 125:
eta 4.2590675793458805, phi 1.0605218747505476,
p 92.0, q -1.60217662e-19,
brem = False
input State:
[[-0.001     ]
 [ 0.001     ]
 [ 0.02467446]
 [ 0.01381077]
 [-0.00325879]]

Simulating particle
Initiating Kalman filtering for particle: 125
Particle 125:
eta 4.2583810062447345, phi 1.0608050950586057,
p 93.68145844877644, q -1.60217662e-19,
brem = False
output State:
[[-0.00100852]
 [ 0.00098975]
 [ 0.02469533]
 [ 0.01381326]
 [-0.0032003 ]]
Data added to pickle list for particle: 125
Particle 126:
eta 4.885613844761981, phi -0.16978737458005996,
p 93.0, q 1.60217662e-19,
brem = False
input State:
[[-0.001     ]
 [-0.001     ]
 [-0.00255315]
 [ 0.01489256]
 [ 0.00322375]]

Simulating particle
Initiating Kalman filtering for particle: 126
Particle 126:
eta 4.883121148148443, phi -0.17040638950588752,
p 93.02399944733001, q 1.60217662e-19,
brem = False
output State:
[[-0.00098393]
 [-0.001003  ]
 [-0.00256876]
 [ 0.01492815]
 [ 0.00322292]]
Data added to pickle list for particle: 126
Particle 127:
eta 3.5572479529912213, phi 1.255550756790876,
p 93.0, q -1.60217662e-19,
brem = False
input State:
[[ 0.001     ]
 [-0.001     ]
 [ 0.05426789]
 [ 0.0176979 ]
 [-0.00322375]]

Simulating particle
Initiating Kalman filtering for particle: 127
Particle 127:
eta 3.557110374536762, phi 1.2556734671989187,
p 93.38064027738913, q -1.60217662e-19,
brem = False
output State:
[[ 0.00100505]
 [-0.00099863]
 [ 0.05427754]
 [ 0.01769368]
 [-0.00321061]]
Data added to pickle list for particle: 127
Particle 128:
eta 4.5235046249709905, phi -0.7912652497188104,
p 94.0, q 1.60217662e-19,
brem = False
input State:
[[ 0.001     ]
 [-0.001     ]
 [-0.01543712]
 [ 0.01525703]
 [ 0.00318945]]

Simulating particle
Initiating Kalman filtering for particle: 128
Particle 128:
eta 4.525413974862822, phi -0.7921844747890806,
p 94.01459449123101, q 1.60217662e-19,
brem = False
output State:
[[ 0.00098239]
 [-0.00096171]
 [-0.01542165]
 [ 0.01521375]
 [ 0.00318896]]
Data added to pickle list for particle: 128
Particle 129:
eta 3.709223336423076, phi -0.49558578140086246,
p 94.0, q -1.60217662e-19,
brem = False
input State:
[[-0.001     ]
 [ 0.001     ]
 [-0.0233125 ]
 [ 0.04312462]
 [-0.00318945]]

Simulating particle
Initiating Kalman filtering for particle: 129
Particle 129:
eta 3.707597960420026, phi -0.49493334818203844,
p 93.83957153000867, q -1.60217662e-19,
brem = False
output State:
[[-0.00100206]
 [ 0.00096942]
 [-0.02332229]
 [ 0.04321008]
 [-0.0031949 ]]
Data added to pickle list for particle: 129
Particle 130:
eta 2.101916980077219, phi -0.5149448155541707,
p 95.0, q 1.60217662e-19,
brem = False
input State:
[[-0.001     ]
 [ 0.001     ]
 [-0.12221097]
 [ 0.21597053]
 [ 0.00315588]]

Simulating particle
Initiating Kalman filtering for particle: 130
Particle 130:
eta 2.1016024558647475, phi -0.5149551385879894,
p 98.84554175778257, q 1.60217662e-19,
brem = False
output State:
[[-0.00101144]
 [ 0.00101134]
 [-0.12225281]
 [ 0.21603926]
 [ 0.0030331 ]]
Data added to pickle list for particle: 130
Particle 131:
eta 4.444564683214535, phi 3.069126058079277,
p 95.0, q -1.60217662e-19,
brem = False
input State:
[[-0.001     ]
 [-0.001     ]
 [ 0.00170058]
 [-0.02342603]
 [-0.00315588]]

Simulating particle
Initiating Kalman filtering for particle: 131
Particle 131:
eta 4.442553374701687, phi 3.0701654699040355,
p 95.11507806273781, q -1.60217662e-19,
brem = False
output State:
[[-0.0010051 ]
 [-0.00093881]
 [ 0.00167961]
 [-0.02347496]
 [-0.00315206]]
Data added to pickle list for particle: 131
Particle 132:
eta 2.5356091890233996, phi 0.607428959593982,
p 96.0, q 1.60217662e-19,
brem = False
input State:
[[-0.001     ]
 [ 0.001     ]
 [ 0.09099442]
 [ 0.13090863]
 [ 0.00312301]]

Simulating particle
Initiating Kalman filtering for particle: 132
Particle 132:
eta 2.535864117795648, phi 0.6075156293109503,
p 98.10025154479128, q 1.60217662e-19,
brem = False
output State:
[[-0.00100394]
 [ 0.00100701]
 [ 0.09098228]
 [ 0.13086695]
 [ 0.00305614]]
Data added to pickle list for particle: 132
Particle 133:
eta 2.027111738871543, phi -2.6555637059787403,
p 96.0, q -1.60217662e-19,
brem = False
input State:
[[-0.001     ]
 [ 0.001     ]
 [-0.12522591]
 [-0.23703647]
 [-0.00312301]]

Simulating particle
Initiating Kalman filtering for particle: 133
Particle 133:
eta 2.0268376727129, phi -2.655582664005768,
p 92.59922687057653, q -1.60217662e-19,
brem = False
output State:
[[-0.00099574]
 [ 0.00100397]
 [-0.12525695]
 [-0.23710611]
 [-0.0032377 ]]
Data added to pickle list for particle: 133
Particle 134:
eta 4.868655861631482, phi 0.1893944983848121,
p 97.0, q 1.60217662e-19,
brem = False
input State:
[[-0.001     ]
 [-0.001     ]
 [ 0.0028933 ]
 [ 0.01509347]
 [ 0.00309081]]

Simulating particle
Initiating Kalman filtering for particle: 134
Particle 134:
eta 4.8643975425659205, phi 0.18932466853865962,
p 97.00731405712628, q 1.60217662e-19,
brem = False
output State:
[[-0.00102394]
 [-0.00102823]
 [ 0.00290459]
 [ 0.01515809]
 [ 0.00309058]]
Data added to pickle list for particle: 134
Particle 135:
eta 3.5372468087253637, phi 1.8723304923073418,
p 97.0, q -1.60217662e-19,
brem = False
input State:
[[ 0.001     ]
 [-0.001     ]
 [ 0.05560844]
 [-0.01729523]
 [-0.00309081]]

Simulating particle
Initiating Kalman filtering for particle: 135
Particle 135:
eta 3.5375362563694877, phi 1.8728810273258951,
p 96.34176288358705, q -1.60217662e-19,
brem = False
output State:
[[ 0.00101676]
 [-0.00099333]
 [ 0.05558279]
 [-0.01732081]
 [-0.00311193]]
Data added to pickle list for particle: 135
Particle 136:
eta 4.154757118555006, phi -2.156964278533431,
p 98.0, q 1.60217662e-19,
brem = False
input State:
[[-0.001     ]
 [ 0.001     ]
 [-0.0261474 ]
 [-0.01736239]
 [ 0.00305927]]

Simulating particle
Initiating Kalman filtering for particle: 136
Particle 136:
eta 4.15436576451957, phi -2.1586876112588644,
p 97.1575962335191, q 1.60217662e-19,
brem = False
output State:
[[-0.00102728]
 [ 0.0010201 ]
 [-0.02612767]
 [-0.01741425]
 [ 0.0030858 ]]
Data added to pickle list for particle: 136
Particle 137:
eta 2.004730651350144, phi 0.3062181611051318,
p 98.0, q -1.60217662e-19,
brem = False
input State:
[[-0.001     ]
 [ 0.001     ]
 [ 0.08271051]
 [ 0.26160748]
 [-0.00305927]]

Simulating particle
Initiating Kalman filtering for particle: 137
Particle 137:
eta 2.0046892390001094, phi 0.3061580949191567,
p 95.21410043482942, q -1.60217662e-19,
brem = False
output State:
[[-0.00100032]
 [ 0.00099909]
 [ 0.08269835]
 [ 0.26162368]
 [-0.00314878]]
Data added to pickle list for particle: 137
Particle 138:
eta 2.017321881997756, phi 0.41507462010631047,
p 99.00000000000001, q 1.60217662e-19,
brem = False
input State:
[[-0.001     ]
 [-0.001     ]
 [ 0.10920783]
 [ 0.24781784]
 [ 0.00302837]]

Simulating particle
Initiating Kalman filtering for particle: 138
Particle 138:
eta 2.0174242560712137, phi 0.4149717306004087,
p 105.91256884095988, q 1.60217662e-19,
brem = False
output State:
[[-0.0009967 ]
 [-0.00099974]
 [ 0.10917075]
 [ 0.24780279]
 [ 0.00283072]]
Data added to pickle list for particle: 138
Particle 139:
eta 4.400002604841355, phi 3.0828128581680643,
p 99.00000000000001, q -1.60217662e-19,
brem = False
input State:
[[-0.001     ]
 [-0.001     ]
 [ 0.0014427 ]
 [-0.0245159 ]
 [-0.00302837]]

Simulating particle
Initiating Kalman filtering for particle: 139
Particle 139:
eta 4.3990142857054995, phi 3.0816183698483304,
p 97.90534834453456, q -1.60217662e-19,
brem = False
output State:
[[-0.00104611]
 [-0.00097693]
 [ 0.00147344]
 [-0.02453841]
 [-0.00306223]]
Data added to pickle list for particle: 139