This is the start of the log file generated at 01_29_17h45m31s

magfield_ shape: cs, sim_stepsize: 0.01, detector_length: 11
15 VELO-type subdetectors added at z-locations: [20, 50, 80, 110, 140, 170, 200, 230, 260, 290, 450, 600, 650, 700, 750]
4 TT-type subdetectors added at z-locations: [2330, 2370, 2600, 2640]
24 OT-type subdetectors added at z-locations: [7860, 7870, 7910, 7920, 7980, 7990, 8030, 8040, 8540, 8550, 8590, 8600, 8660, 8670, 8710, 8720, 9230, 9240, 9280, 9290, 9350, 9360, 9400, 9410]
The detector is built.
Generating 196 particles, from 2 to 100 GeV. Brem = False, ms = True

Particle 0:
eta 4.436787045472801, phi 1.3946759962657778,
p 2.0, q 1.60217662e-19,
brem = False
input State:
[[0.001     ]
 [0.001     ]
 [0.02330494]
 [0.00414745]
 [0.14990425]]

Simulating particle
Initiating Kalman filtering for particle: 0
Particle 0:
eta 4.45958962864634, phi 1.3884675665423714,
p 1.994477287706917, q 1.60217662e-19,
brem = False
output State:
[[0.00104226]
 [0.00101306]
 [0.02275379]
 [0.00419526]
 [0.15031933]]
Data added to pickle list for particle: 0
Particle 1:
eta 4.256189344171425, phi 2.0047781582723725,
p 2.0, q -1.60217662e-19,
brem = False
input State:
[[ 0.001     ]
 [ 0.001     ]
 [ 0.0257293 ]
 [-0.01192422]
 [-0.14990425]]

Simulating particle
Initiating Kalman filtering for particle: 1
Particle 1:
eta 4.233410718371413, phi 2.0249827502154942,
p 1.8985814038216509, q -1.60217662e-19,
brem = False
output State:
[[ 0.00099778]
 [ 0.00103886]
 [ 0.02607052]
 [-0.01272838]
 [-0.15791185]]
Data added to pickle list for particle: 1
Particle 2:
eta 3.3067327567109004, phi 0.9089382815047622,
p 3.0, q 1.60217662e-19,
brem = False
input State:
[[0.001     ]
 [0.001     ]
 [0.05787791]
 [0.0450919 ]
 [0.09993617]]

Simulating particle
Initiating Kalman filtering for particle: 2
Particle 2:
eta 3.3135609750818813, phi 0.9096178161167708,
p 2.9987704595417366, q 1.60217662e-19,
brem = False
output State:
[[0.00102332]
 [0.00102459]
 [0.05751343]
 [0.04474516]
 [0.09997714]]
Data added to pickle list for particle: 2
Particle 3:
eta 4.207912160486059, phi -0.94066103736948,
p 3.0, q -1.60217662e-19,
brem = False
input State:
[[ 0.001     ]
 [ 0.001     ]
 [-0.02404564]
 [ 0.01753702]
 [-0.09993617]]

Simulating particle
Initiating Kalman filtering for particle: 3
Particle 3:
eta 4.184696684821506, phi -0.9456848127714516,
p 2.9931680564282153, q -1.60217662e-19,
brem = False
output State:
[[ 0.00103198]
 [ 0.00098217]
 [-0.02470052]
 [ 0.01782523]
 [-0.10016427]]
Data added to pickle list for particle: 3
Particle 4:
eta 4.241233595422866, phi -1.836935447885278,
p 4.0, q 1.60217662e-19,
brem = False
input State:
[[ 0.001     ]
 [ 0.001     ]
 [-0.02777218]
 [-0.00757086]
 [ 0.07495212]]

Simulating particle
Initiating Kalman filtering for particle: 4
Particle 4:
eta 4.249019785737234, phi -1.8369652829000358,
p 4.020462166893358, q 1.60217662e-19,
brem = False
output State:
[[ 0.0010142 ]
 [ 0.00099814]
 [-0.02755647]
 [-0.00751294]
 [ 0.07457066]]
Data added to pickle list for particle: 4
Particle 5:
eta 3.181704382935155, phi 2.9092664089679463,
p 4.0, q -1.60217662e-19,
brem = False
input State:
[[ 0.001     ]
 [ 0.001     ]
 [ 0.01914991]
 [-0.08093845]
 [-0.07495212]]

Simulating particle
Initiating Kalman filtering for particle: 5
Particle 5:
eta 3.182972514264003, phi 2.9085302325992415,
p 4.0015652125491625, q -1.60217662e-19,
brem = False
output State:
[[ 0.0009953 ]
 [ 0.00101538]
 [ 0.01918507]
 [-0.08082142]
 [-0.07492281]]
Data added to pickle list for particle: 5
Particle 6:
eta 2.2523400380365226, phi 1.1853032219511461,
p 5.0, q 1.60217662e-19,
brem = False
input State:
[[0.001     ]
 [0.001     ]
 [0.19705089]
 [0.0799625 ]
 [0.0599617 ]]

Simulating particle
Initiating Kalman filtering for particle: 6
Particle 6:
eta 2.2529065883555472, phi 1.1876150204338003,
p 5.000593832099336, q 1.60217662e-19,
brem = False
output State:
[[0.00100173]
 [0.00101458]
 [0.19712101]
 [0.07946071]
 [0.05995458]]
Data added to pickle list for particle: 6
Particle 7:
eta 3.0348757007271003, phi 1.0679053258255211,
p 5.0, q -1.60217662e-19,
brem = False
input State:
[[ 0.001     ]
 [ 0.001     ]
 [ 0.08445106]
 [ 0.04645334]
 [-0.0599617 ]]

Simulating particle
Initiating Kalman filtering for particle: 7
Particle 7:
eta 3.0348221382214797, phi 1.0670040509338001,
p 4.987837722918768, q -1.60217662e-19,
brem = False
output State:
[[ 0.00099815]
 [ 0.00098866]
 [ 0.0844137 ]
 [ 0.04653194]
 [-0.06010791]]
Data added to pickle list for particle: 7
Particle 8:
eta 3.7438465912224346, phi 0.7989887547183998,
p 6.0, q 1.60217662e-19,
brem = False
input State:
[[0.001     ]
 [0.001     ]
 [0.0339351 ]
 [0.03302502]
 [0.04996808]]

Simulating particle
Initiating Kalman filtering for particle: 8
Particle 8:
eta 3.742576129261924, phi 0.798301600507429,
p 6.012477449264967, q 1.60217662e-19,
brem = False
output State:
[[0.00098841]
 [0.00101217]
 [0.03395556]
 [0.03309039]
 [0.04986439]]
Data added to pickle list for particle: 8
Particle 9:
eta 3.637867672811499, phi 1.3476417251603106,
p 6.0, q -1.60217662e-19,
brem = False
input State:
[[ 0.001     ]
 [ 0.001     ]
 [ 0.05134763]
 [ 0.01165253]
 [-0.04996808]]

Simulating particle
Initiating Kalman filtering for particle: 9
Particle 9:
eta 3.6383293675643484, phi 1.3481468865606778,
p 6.0008810193851145, q -1.60217662e-19,
brem = False
output State:
[[ 0.00099518]
 [ 0.00100145]
 [ 0.05132977]
 [ 0.01162121]
 [-0.04996075]]
Data added to pickle list for particle: 9
Particle 10:
eta 3.735757168386147, phi -1.4633627734502017,
p 7.0, q 1.60217662e-19,
brem = False
input State:
[[ 0.001     ]
 [ 0.001     ]
 [-0.04746214]
 [ 0.00511874]
 [ 0.04282979]]

Simulating particle
Initiating Kalman filtering for particle: 10
Particle 10:
eta 3.7396446867470354, phi -1.4602019961536634,
p 6.975242517163351, q 1.60217662e-19,
brem = False
output State:
[[ 0.00100172]
 [ 0.00096693]
 [-0.04726143]
 [ 0.00524826]
 [ 0.0429818 ]]
Data added to pickle list for particle: 10
Particle 11:
eta 3.090128933421279, phi 2.9856783009319376,
p 7.0, q -1.60217662e-19,
brem = False
input State:
[[ 0.001     ]
 [ 0.001     ]
 [ 0.01415888]
 [-0.09007488]
 [-0.04282979]]

Simulating particle
Initiating Kalman filtering for particle: 11
Particle 11:
eta 3.090297747909643, phi 2.986685383208758,
p 6.966661991531319, q -1.60217662e-19,
brem = False
output State:
[[ 0.00099697]
 [ 0.00099104]
 [ 0.01406578]
 [-0.09007383]
 [-0.04303474]]
Data added to pickle list for particle: 11
Particle 12:
eta 4.399143578481711, phi 3.120193489184212,
p 8.0, q 1.60217662e-19,
brem = False
input State:
[[ 0.001     ]
 [ 0.001     ]
 [ 0.00052594]
 [-0.0245738 ]
 [ 0.03747606]]

Simulating particle
Initiating Kalman filtering for particle: 12
Particle 12:
eta 4.3932124042614875, phi 3.113466216059821,
p 7.992846605378837, q 1.60217662e-19,
brem = False
output State:
[[ 0.00099111]
 [ 0.00102324]
 [ 0.00069535]
 [-0.02471591]
 [ 0.0375096 ]]
Data added to pickle list for particle: 12
Particle 13:
eta 2.3480952195874627, phi 1.6710594773282899,
p 8.0, q -1.60217662e-19,
brem = False
input State:
[[ 0.001     ]
 [ 0.001     ]
 [ 0.19189424]
 [-0.01930465]
 [-0.03747606]]

Simulating particle
Initiating Kalman filtering for particle: 13
Particle 13:
eta 2.348534354331582, phi 1.6696645312730456,
p 7.959550519651363, q -1.60217662e-19,
brem = False
output State:
[[ 0.00101727]
 [ 0.00098516]
 [ 0.19183517]
 [-0.01902844]
 [-0.03766651]]
Data added to pickle list for particle: 13
Particle 14:
eta 4.269141851655012, phi 3.002668029220023,
p 9.0, q 1.60217662e-19,
brem = False
input State:
[[ 0.001     ]
 [ 0.001     ]
 [ 0.00387643]
 [-0.02772336]
 [ 0.03331206]]

Simulating particle
Initiating Kalman filtering for particle: 14
Particle 14:
eta 4.279417574966448, phi 3.0024122237773296,
p 9.001576876914923, q 1.60217662e-19,
brem = False
output State:
[[ 0.00100291]
 [ 0.00097608]
 [ 0.0038438 ]
 [-0.02743885]
 [ 0.03330622]]
Data added to pickle list for particle: 14
Particle 15:
eta 3.7347631743606446, phi 2.5170823487946996,
p 9.0, q -1.60217662e-19,
brem = False
input State:
[[ 0.001     ]
 [ 0.001     ]
 [ 0.02793983]
 [-0.03876548]
 [-0.03331206]]

Simulating particle
Initiating Kalman filtering for particle: 15
Particle 15:
eta 3.7359406502529033, phi 2.505801006972047,
p 8.971995371620249, q -1.60217662e-19,
brem = False
output State:
[[ 0.00097265]
 [ 0.00096197]
 [ 0.02834194]
 [-0.03840252]
 [-0.03341603]]
Data added to pickle list for particle: 15
Particle 16:
eta 4.632115047084995, phi -2.83663591278318,
p 10.0, q 1.60217662e-19,
brem = False
input State:
[[ 0.001     ]
 [ 0.001     ]
 [-0.00584595]
 [-0.01857179]
 [ 0.02998085]]

Simulating particle
Initiating Kalman filtering for particle: 16
Particle 16:
eta 4.624333958859987, phi -2.844843917567573,
p 9.9832122290861, q 1.60217662e-19,
brem = False
output State:
[[ 0.0009831 ]
 [ 0.00100049]
 [-0.0057378 ]
 [-0.01876462]
 [ 0.03003127]]
Data added to pickle list for particle: 16
Particle 17:
eta 4.326744945778382, phi -2.8780773720228083,
p 10.0, q -1.60217662e-19,
brem = False
input State:
[[ 0.001     ]
 [ 0.001     ]
 [-0.00688323]
 [-0.02551337]
 [-0.02998085]]

Simulating particle
Initiating Kalman filtering for particle: 17
Particle 17:
eta 4.303490930921716, phi -2.882224714837725,
p 9.971722592004868, q -1.60217662e-19,
brem = False
output State:
[[ 0.0009992 ]
 [ 0.00104596]
 [-0.00693686]
 [-0.02614282]
 [-0.03006587]]
Data added to pickle list for particle: 17
Particle 18:
eta 3.4547344358848378, phi 1.6042384569156483,
p 11.0, q 1.60217662e-19,
brem = False
input State:
[[ 0.001     ]
 [ 0.001     ]
 [ 0.06321917]
 [-0.00211497]
 [ 0.02725532]]

Simulating particle
Initiating Kalman filtering for particle: 18
Particle 18:
eta 3.4563310049579865, phi 1.6044072128777362,
p 10.942228078598035, q 1.60217662e-19,
brem = False
output State:
[[ 0.00100766]
 [ 0.00099423]
 [ 0.06311775]
 [-0.00212224]
 [ 0.02739922]]
Data added to pickle list for particle: 18
Particle 19:
eta 2.4114808479081944, phi 0.5499529116019615,
p 11.0, q -1.60217662e-19,
brem = False
input State:
[[ 0.001     ]
 [ 0.001     ]
 [ 0.09450457]
 [ 0.15415716]
 [-0.02725532]]

Simulating particle
Initiating Kalman filtering for particle: 19
Particle 19:
eta 2.410918591257714, phi 0.5509982858588657,
p 11.064541255270722, q -1.60217662e-19,
brem = False
output State:
[[ 0.0009949 ]
 [ 0.00101042]
 [ 0.09471978]
 [ 0.15414634]
 [-0.02709633]]
Data added to pickle list for particle: 19
Particle 20:
eta 4.958346296657698, phi 0.3105242399069094,
p 12.0, q 1.60217662e-19,
brem = False
input State:
[[0.001     ]
 [0.001     ]
 [0.00429302]
 [0.01337781]
 [0.02498404]]

Simulating particle
Initiating Kalman filtering for particle: 20
Particle 20:
eta 4.985221893936445, phi 0.3371772216310423,
p 12.00744633480128, q 1.60217662e-19,
brem = False
output State:
[[0.00096992]
 [0.00105927]
 [0.00452474]
 [0.01290703]
 [0.02496855]]
Data added to pickle list for particle: 20
Particle 21:
eta 3.390807919976532, phi 0.8075924429435328,
p 12.0, q -1.60217662e-19,
brem = False
input State:
[[ 0.001     ]
 [ 0.001     ]
 [ 0.04873341]
 [ 0.04661683]
 [-0.02498404]]

Simulating particle
Initiating Kalman filtering for particle: 21
Particle 21:
eta 3.3927147301877816, phi 0.8094384764113526,
p 11.963697543824592, q -1.60217662e-19,
brem = False
output State:
[[ 0.0009853 ]
 [ 0.00100949]
 [ 0.04872617]
 [ 0.04643796]
 [-0.02505985]]
Data added to pickle list for particle: 21
Particle 22:
eta 3.048777953385149, phi -2.7291973503836138,
p 12.999999999999998, q 1.60217662e-19,
brem = False
input State:
[[ 0.001     ]
 [ 0.001     ]
 [-0.03809546]
 [-0.08707892]
 [ 0.02306219]]

Simulating particle
Initiating Kalman filtering for particle: 22
Particle 22:
eta 3.0493593879050946, phi -2.72997911254738,
p 13.005449479978397, q 1.60217662e-19,
brem = False
output State:
[[ 0.00100197]
 [ 0.00099538]
 [-0.03800517]
 [-0.08705782]
 [ 0.02305253]]
Data added to pickle list for particle: 22
Particle 23:
eta 4.628042507979446, phi 1.113068462456001,
p 12.999999999999998, q -1.60217662e-19,
brem = False
input State:
[[ 0.001     ]
 [ 0.001     ]
 [ 0.01753715]
 [ 0.00863919]
 [-0.02306219]]

Simulating particle
Initiating Kalman filtering for particle: 23
Particle 23:
eta 4.6184064261852935, phi 1.1023146703663502,
p 12.951349477746923, q -1.60217662e-19,
brem = False
output State:
[[ 0.00098755]
 [ 0.0009737 ]
 [ 0.01761217]
 [ 0.00891276]
 [-0.02314882]]
Data added to pickle list for particle: 23
Particle 24:
eta 2.4399974980659573, phi -0.014743111432145253,
p 14.0, q 1.60217662e-19,
brem = False
input State:
[[ 0.001     ]
 [ 0.001     ]
 [-0.00258963]
 [ 0.17563752]
 [ 0.02141489]]

Simulating particle
Initiating Kalman filtering for particle: 24
Particle 24:
eta 2.4402786154199876, phi -0.01434675517312549,
p 13.160910923517362, q 1.60217662e-19,
brem = False
output State:
[[ 0.00099467]
 [ 0.00100427]
 [-0.0025193 ]
 [ 0.17558841]
 [ 0.02278022]]
Data added to pickle list for particle: 24
Particle 25:
eta 2.554358359815314, phi -1.384960637343667,
p 14.0, q -1.60217662e-19,
brem = False
input State:
[[ 0.001     ]
 [ 0.001     ]
 [-0.15373626]
 [ 0.02890317]
 [-0.02141489]]

Simulating particle
Initiating Kalman filtering for particle: 25
Particle 25:
eta 2.554416433638784, phi -1.38343649804528,
p 13.97937355576329, q -1.60217662e-19,
brem = False
output State:
[[ 0.000981  ]
 [ 0.0009734 ]
 [-0.15368299]
 [ 0.02913574]
 [-0.02144649]]
Data added to pickle list for particle: 25
Particle 26:
eta 4.123629694808497, phi -1.2615071200171466,
p 15.000000000000002, q 1.60217662e-19,
brem = False
input State:
[[ 0.001     ]
 [ 0.001     ]
 [-0.03084338]
 [ 0.00985582]
 [ 0.01998723]]

Simulating particle
Initiating Kalman filtering for particle: 26
Particle 26:
eta 4.116953380558947, phi -1.2626579415986983,
p 15.030708170025664, q 1.60217662e-19,
brem = False
output State:
[[ 0.00102364]
 [ 0.00099135]
 [-0.0310615 ]
 [ 0.00988613]
 [ 0.0199464 ]]
Data added to pickle list for particle: 26
Particle 27:
eta 3.0196262899753408, phi -1.1152611607792753,
p 15.000000000000002, q -1.60217662e-19,
brem = False
input State:
[[ 0.001     ]
 [ 0.001     ]
 [-0.08789174]
 [ 0.04305818]
 [-0.01998723]]

Simulating particle
Initiating Kalman filtering for particle: 27
Particle 27:
eta 3.0187254065161917, phi -1.1121069900671272,
p 14.900742216329082, q -1.60217662e-19,
brem = False
output State:
[[ 0.00099703]
 [ 0.00095043]
 [-0.08783496]
 [ 0.04337443]
 [-0.02012037]]
Data added to pickle list for particle: 27
Particle 28:
eta 2.080750198375877, phi -1.0805763426954782,
p 16.0, q 1.60217662e-19,
brem = False
input State:
[[ 0.001     ]
 [ 0.001     ]
 [-0.22375593]
 [ 0.11941199]
 [ 0.01873803]]

Simulating particle
Initiating Kalman filtering for particle: 28
Particle 28:
eta 2.080937639102561, phi -1.0801839794760566,
p 15.987625373592204, q 1.60217662e-19,
brem = False
output State:
[[ 0.00097785]
 [ 0.00098585]
 [-0.2236658 ]
 [ 0.11947667]
 [ 0.01875253]]
Data added to pickle list for particle: 28
Particle 29:
eta 2.6098743383870358, phi 2.0973613475918036,
p 16.0, q -1.60217662e-19,
brem = False
input State:
[[ 0.001     ]
 [ 0.001     ]
 [ 0.12785439]
 [-0.0743233 ]
 [-0.01873803]]

Simulating particle
Initiating Kalman filtering for particle: 29
Particle 29:
eta 2.61039502316156, phi 2.0943173571088307,
p 15.930038578095843, q -1.60217662e-19,
brem = False
output State:
[[ 0.00100068]
 [ 0.0009678 ]
 [ 0.12801264]
 [-0.07389486]
 [-0.01882032]]
Data added to pickle list for particle: 29
Particle 30:
eta 3.10804965380695, phi 2.2024236029922877,
p 17.0, q 1.60217662e-19,
brem = False
input State:
[[ 0.001     ]
 [ 0.001     ]
 [ 0.07227687]
 [-0.05287848]
 [ 0.01763579]]

Simulating particle
Initiating Kalman filtering for particle: 30
Particle 30:
eta 3.107478834929095, phi 2.201545495704824,
p 16.9489011424853, q 1.60217662e-19,
brem = False
output State:
[[ 0.00099828]
 [ 0.00099253]
 [ 0.07236473]
 [-0.05284527]
 [ 0.01768896]]
Data added to pickle list for particle: 30
Particle 31:
eta 3.901349511581244, phi 0.05660643727078264,
p 17.0, q -1.60217662e-19,
brem = False
input State:
[[ 0.001     ]
 [ 0.001     ]
 [ 0.00228827]
 [ 0.04038097]
 [-0.01763579]]

Simulating particle
Initiating Kalman filtering for particle: 31
Skip particle 31 because:('overflow encountered in double_scalars',)
Data added to pickle list for particle: 31
Particle 32:
eta 4.914576579246976, phi 1.869922983781389,
p 18.0, q 1.60217662e-19,
brem = False
input State:
[[ 0.001     ]
 [ 0.001     ]
 [ 0.01402663]
 [-0.00432553]
 [ 0.01665603]]

Simulating particle
Initiating Kalman filtering for particle: 32
Particle 32:
eta 4.91728723607318, phi 1.870686423147155,
p 18.006259546136064, q 1.60217662e-19,
brem = False
output State:
[[ 0.00100487]
 [ 0.00099309]
 [ 0.01398536]
 [-0.0043245 ]
 [ 0.01665024]]
Data added to pickle list for particle: 32
Particle 33:
eta 2.6023891960041547, phi -2.290250801913987,
p 18.0, q -1.60217662e-19,
brem = False
input State:
[[ 0.001     ]
 [ 0.001     ]
 [-0.11208074]
 [-0.0981943 ]
 [-0.01665603]]

Simulating particle
Initiating Kalman filtering for particle: 33
Particle 33:
eta 2.600522150523336, phi -2.292161364463595,
p 17.976219404076048, q -1.60217662e-19,
brem = False
output State:
[[ 0.00100579]
 [ 0.00104407]
 [-0.11210435]
 [-0.0985942 ]
 [-0.01667806]]
Data added to pickle list for particle: 33
Particle 34:
eta 2.6282885280959456, phi 1.5204578016558625,
p 19.0, q 1.60217662e-19,
brem = False
input State:
[[0.001     ]
 [0.001     ]
 [0.14497672]
 [0.00730408]
 [0.01577939]]

Simulating particle
Initiating Kalman filtering for particle: 34
Particle 34:
eta 2.6287909620928747, phi 1.5195234073383437,
p 19.013806199329853, q 1.60217662e-19,
brem = False
output State:
[[0.00101507]
 [0.00098137]
 [0.14489625]
 [0.00743577]
 [0.01576794]]
Data added to pickle list for particle: 34
Particle 35:
eta 4.57415059620369, phi -2.3402161055476416,
p 19.0, q -1.60217662e-19,
brem = False
input State:
[[ 0.001     ]
 [ 0.001     ]
 [-0.01482049]
 [-0.01435428]
 [-0.01577939]]

Simulating particle
Initiating Kalman filtering for particle: 35
Particle 35:
eta 4.578235891775007, phi -2.3531932375768236,
p 18.895173545074822, q -1.60217662e-19,
brem = False
output State:
[[ 0.00099421]
 [ 0.00101465]
 [-0.0145733 ]
 [-0.01448608]
 [-0.01586694]]
Data added to pickle list for particle: 35
Particle 36:
eta 2.6816638502617614, phi -2.07261517051719,
p 20.0, q 1.60217662e-19,
brem = False
input State:
[[ 0.001     ]
 [ 0.001     ]
 [-0.120585  ]
 [-0.06616095]
 [ 0.01499042]]

Simulating particle
Initiating Kalman filtering for particle: 36
Particle 36:
eta 2.680951087394914, phi -2.0744833040988855,
p 19.94130445500166, q 1.60217662e-19,
brem = False
output State:
[[ 0.00100113]
 [ 0.00102582]
 [-0.12054789]
 [-0.06643388]
 [ 0.01503455]]
Data added to pickle list for particle: 36
Particle 37:
eta 3.933348313549589, phi -1.2227574093916145,
p 20.0, q -1.60217662e-19,
brem = False
input State:
[[ 0.001     ]
 [ 0.001     ]
 [-0.03682247]
 [ 0.01335948]
 [-0.01499042]]

Simulating particle
Initiating Kalman filtering for particle: 37
Particle 37:
eta 3.933449533441553, phi -1.2273685141245865,
p 20.06347776207257, q -1.60217662e-19,
brem = False
output State:
[[ 0.00100149]
 [ 0.00100484]
 [-0.03687994]
 [ 0.01318821]
 [-0.014943  ]]
Data added to pickle list for particle: 37
Particle 38:
eta 4.107341125714281, phi 2.2582970370122966,
p 21.0, q 1.60217662e-19,
brem = False
input State:
[[ 0.001     ]
 [ 0.001     ]
 [ 0.02543539]
 [-0.0208861 ]
 [ 0.0142766 ]]

Simulating particle
Initiating Kalman filtering for particle: 38
Particle 38:
eta 4.107153683285562, phi 2.2550547431446266,
p 20.931343621803745, q 1.60217662e-19,
brem = False
output State:
[[ 0.00098905]
 [ 0.00098408]
 [ 0.02550776]
 [-0.02080742]
 [ 0.01432342]]
Data added to pickle list for particle: 38
Particle 39:
eta 2.6738263480823843, phi -0.5696717956910847,
p 21.0, q -1.60217662e-19,
brem = False
input State:
[[ 0.001     ]
 [ 0.001     ]
 [-0.07477374]
 [ 0.11674175]
 [-0.0142766 ]]

Simulating particle
Initiating Kalman filtering for particle: 39
Particle 39:
eta 2.6722271948391016, phi -0.5697842523455768,
p 21.21708118891465, q -1.60217662e-19,
brem = False
output State:
[[ 0.00101384]
 [ 0.00096213]
 [-0.07490771]
 [ 0.11692195]
 [-0.01413053]]
Data added to pickle list for particle: 39
Particle 40:
eta 2.746710248559332, phi 0.5116756519447364,
p 22.0, q 1.60217662e-19,
brem = False
input State:
[[0.001     ]
 [0.001     ]
 [0.06306888]
 [0.11231   ]
 [0.01362766]]

Simulating particle
Initiating Kalman filtering for particle: 40
Particle 40:
eta 2.7468554219860475, phi 0.5121398756445903,
p 22.061262438284402, q 1.60217662e-19,
brem = False
output State:
[[0.00100349]
 [0.0009988 ]
 [0.06311177]
 [0.11226427]
 [0.01358982]]
Data added to pickle list for particle: 40
Particle 41:
eta 2.742354262806342, phi -2.282260919089531,
p 22.0, q -1.60217662e-19,
brem = False
input State:
[[ 0.001     ]
 [ 0.001     ]
 [-0.09798861]
 [-0.08447387]
 [-0.01362766]]

Simulating particle
Initiating Kalman filtering for particle: 41
Particle 41:
eta 2.740979376743241, phi -2.2862945925803815,
p 22.061148825405922, q -1.60217662e-19,
brem = False
output State:
[[ 0.00099591]
 [ 0.00105178]
 [-0.09778254]
 [-0.08498618]
 [-0.01358989]]
Data added to pickle list for particle: 41
Particle 42:
eta 2.0536133505468124, phi 2.918755999694376,
p 23.0, q 1.60217662e-19,
brem = False
input State:
[[ 0.001     ]
 [ 0.001     ]
 [ 0.05764326]
 [-0.2543835 ]
 [ 0.01303515]]

Simulating particle
Initiating Kalman filtering for particle: 42
Particle 42:
eta 2.053407913285403, phi 2.920044018807337,
p 23.109950390604396, q 1.60217662e-19,
brem = False
output State:
[[ 0.00103936]
 [ 0.00101283]
 [ 0.05732773]
 [-0.25451157]
 [ 0.01297313]]
Data added to pickle list for particle: 42
Particle 43:
eta 3.236990071936458, phi 2.7710000069613203,
p 23.0, q -1.60217662e-19,
brem = False
input State:
[[ 0.001     ]
 [ 0.001     ]
 [ 0.0284973 ]
 [-0.0733436 ]
 [-0.01303515]]

Simulating particle
Initiating Kalman filtering for particle: 43
Particle 43:
eta 3.2359391168000085, phi 2.773580394444484,
p 23.081427894659033, q -1.60217662e-19,
brem = False
output State:
[[ 0.00099586]
 [ 0.00102258]
 [ 0.02833781]
 [-0.07349433]
 [-0.01298917]]
Data added to pickle list for particle: 43
Particle 44:
eta 4.557593837634873, phi -0.9300195845879635,
p 24.0, q 1.60217662e-19,
brem = False
input State:
[[ 0.001     ]
 [ 0.001     ]
 [-0.01681569]
 [ 0.01254033]
 [ 0.01249202]]

Simulating particle
Initiating Kalman filtering for particle: 44
Particle 44:
eta 4.566778596052684, phi -0.9399760031910908,
p 24.073971684141615, q 1.60217662e-19,
brem = False
output State:
[[ 0.00099124]
 [ 0.00102898]
 [-0.01678481]
 [ 0.01225915]
 [ 0.01245364]]
Data added to pickle list for particle: 44
Particle 45:
eta 3.773079729653058, phi -2.0268121915424295,
p 24.0, q -1.60217662e-19,
brem = False
input State:
[[ 0.001     ]
 [ 0.001     ]
 [-0.04128746]
 [-0.02025135]
 [-0.01249202]]

Simulating particle
Initiating Kalman filtering for particle: 45
Particle 45:
eta 3.782525029673449, phi -2.013397594128652,
p 24.083925031167016, q -1.60217662e-19,
brem = False
output State:
[[ 0.00098342]
 [ 0.0009315 ]
 [-0.04116434]
 [-0.01951034]
 [-0.01244849]]
Data added to pickle list for particle: 45
Particle 46:
eta 4.246848571887894, phi 2.5997325785497556,
p 25.0, q 1.60217662e-19,
brem = False
input State:
[[ 0.001     ]
 [ 0.001     ]
 [ 0.01476246]
 [-0.02452396]
 [ 0.01199234]]

Simulating particle
Initiating Kalman filtering for particle: 46
Particle 46:
eta 4.231207326081861, phi 2.5921542320090105,
p 25.011326592871125, q 1.60217662e-19,
brem = False
output State:
[[ 0.00096907]
 [ 0.00103   ]
 [ 0.01518363]
 [-0.02479637]
 [ 0.01198691]]
Data added to pickle list for particle: 46
Particle 47:
eta 2.0900684682060766, phi -1.3685183054683354,
p 25.0, q -1.60217662e-19,
brem = False
input State:
[[ 0.001     ]
 [ 0.001     ]
 [-0.24607819]
 [ 0.0504664 ]
 [-0.01199234]]

Simulating particle
Initiating Kalman filtering for particle: 47
Particle 47:
eta 2.089246600189893, phi -1.368553943576831,
p 24.815450203276313, q -1.60217662e-19,
brem = False
output State:
[[ 0.00101617]
 [ 0.0009957 ]
 [-0.24628861]
 [ 0.0505004 ]
 [-0.01208153]]
Data added to pickle list for particle: 47
Particle 48:
eta 3.1711801284033974, phi -0.9269609200276294,
p 25.999999999999996, q 1.60217662e-19,
brem = False
input State:
[[ 0.001     ]
 [ 0.001     ]
 [-0.06722799]
 [ 0.05045612]
 [ 0.0115311 ]]

Simulating particle
Initiating Kalman filtering for particle: 48
Particle 48:
eta 3.1723376306661244, phi -0.9257819460470209,
p 26.040864419851534, q 1.60217662e-19,
brem = False
output State:
[[ 0.00097533]
 [ 0.00099646]
 [-0.06709048]
 [ 0.05047667]
 [ 0.011513  ]]
Data added to pickle list for particle: 48
Particle 49:
eta 2.0713191418317893, phi -2.6097525958427226,
p 25.999999999999996, q -1.60217662e-19,
brem = False
input State:
[[ 0.001     ]
 [ 0.001     ]
 [-0.12987653]
 [-0.22073152]
 [-0.0115311 ]]

Simulating particle
Initiating Kalman filtering for particle: 49
Particle 49:
eta 2.0718874831801877, phi -2.608422319643001,
p 26.175444820119182, q -1.60217662e-19,
brem = False
output State:
[[ 0.00102746]
 [ 0.0009642 ]
 [-0.13009371]
 [-0.22042919]
 [-0.01145381]]
Data added to pickle list for particle: 49
Particle 50:
eta 2.7654530272262545, phi 2.240249058487199,
p 27.0, q 1.60217662e-19,
brem = False
input State:
[[ 0.001     ]
 [ 0.001     ]
 [ 0.09911485]
 [-0.0784359 ]
 [ 0.01110402]]

Simulating particle
Initiating Kalman filtering for particle: 50
Particle 50:
eta 2.7651031467120193, phi 2.235868887870054,
p 27.022589790137882, q 1.60217662e-19,
brem = False
output State:
[[ 0.00097354]
 [ 0.00095273]
 [ 0.09949254]
 [-0.07802853]
 [ 0.01109474]]
Data added to pickle list for particle: 50
Particle 51:
eta 4.05259780845991, phi 1.4282139461867396,
p 27.0, q -1.60217662e-19,
brem = False
input State:
[[ 0.001     ]
 [ 0.001     ]
 [ 0.03441206]
 [ 0.00494008]
 [-0.01110402]]

Simulating particle
Initiating Kalman filtering for particle: 51
Particle 51:
eta 4.052566460996179, phi 1.4285234580405832,
p 26.900550612035104, q -1.60217662e-19,
brem = False
output State:
[[ 0.00098831]
 [ 0.00098844]
 [ 0.03441467]
 [ 0.00492958]
 [-0.01114507]]
Data added to pickle list for particle: 51
Particle 52:
eta 3.4065288916212038, phi -1.8343670215800048,
p 28.0, q 1.60217662e-19,
brem = False
input State:
[[ 0.001     ]
 [ 0.001     ]
 [-0.0640926 ]
 [-0.0172953 ]
 [ 0.01070745]]

Simulating particle
Initiating Kalman filtering for particle: 52
Particle 52:
eta 3.4044887708552056, phi -1.8344623849923765,
p 28.179940800222216, q 1.60217662e-19,
brem = False
output State:
[[ 0.0010159 ]
 [ 0.00100196]
 [-0.06422213]
 [-0.01733682]
 [ 0.01063907]]
Data added to pickle list for particle: 52
Particle 53:
eta 4.911596846420938, phi 2.8283749653633916,
p 28.0, q -1.60217662e-19,
brem = False
input State:
[[ 0.001     ]
 [ 0.001     ]
 [ 0.00453624]
 [-0.01400597]
 [-0.01070745]]

Simulating particle
Initiating Kalman filtering for particle: 53
Particle 53:
eta 4.907926817758479, phi 2.8270304295453,
p 28.062660496410597, q -1.60217662e-19,
brem = False
output State:
[[ 0.00099266]
 [ 0.00099386]
 [ 0.00457182]
 [-0.01405134]
 [-0.01068354]]
Data added to pickle list for particle: 53
Particle 54:
eta 3.053049140035258, phi -1.0904913778949554,
p 29.0, q 1.60217662e-19,
brem = False
input State:
[[ 0.001     ]
 [ 0.001     ]
 [-0.08393227]
 [ 0.04372859]
 [ 0.01033822]]

Simulating particle
Initiating Kalman filtering for particle: 54
Particle 54:
eta 3.0547254495414293, phi -1.0897581935276077,
p 28.766612118480463, q 1.60217662e-19,
brem = False
output State:
[[ 0.00098739]
 [ 0.00103222]
 [-0.08375904]
 [ 0.04371644]
 [ 0.0104221 ]]
Data added to pickle list for particle: 54
Particle 55:
eta 2.0956744823106557, phi 2.9025940186142654,
p 29.0, q -1.60217662e-19,
brem = False
input State:
[[ 0.001     ]
 [ 0.001     ]
 [ 0.05912381]
 [-0.24265317]
 [-0.01033822]]

Simulating particle
Initiating Kalman filtering for particle: 55
Particle 55:
eta 2.095901252409905, phi 2.902908786642424,
p 28.885449391049807, q -1.60217662e-19,
brem = False
output State:
[[ 0.00102063]
 [ 0.00100341]
 [ 0.05903363]
 [-0.24261505]
 [-0.01037922]]
Data added to pickle list for particle: 55
Particle 56:
eta 2.7170801195047565, phi 3.009755516691585,
p 30.000000000000004, q 1.60217662e-19,
brem = False
input State:
[[ 0.001     ]
 [ 0.001     ]
 [ 0.017446  ]
 [-0.13156236]
 [ 0.00999362]]

Simulating particle
Initiating Kalman filtering for particle: 56
Particle 56:
eta 2.7175420953873983, phi 3.0095886298567742,
p 30.006963291264213, q 1.60217662e-19,
brem = False
output State:
[[ 0.00098691]
 [ 0.00099191]
 [ 0.01745982]
 [-0.13149815]
 [ 0.0099913 ]]
Data added to pickle list for particle: 56
Particle 57:
eta 4.377156341117529, phi -0.18489320928484815,
p 30.000000000000004, q -1.60217662e-19,
brem = False
input State:
[[ 0.001     ]
 [ 0.001     ]
 [-0.00461921]
 [ 0.02469777]
 [-0.00999362]]

Simulating particle
Initiating Kalman filtering for particle: 57
Particle 57:
eta 4.365266402412733, phi -0.19102493339605747,
p 23.72529915491135, q -1.60217662e-19,
brem = False
output State:
[[ 0.00102065]
 [ 0.00097019]
 [-0.00482764]
 [ 0.02496414]
 [-0.01263666]]
Data added to pickle list for particle: 57
Particle 58:
eta 3.834549104894542, phi 2.668030101851528,
p 31.0, q 1.60217662e-19,
brem = False
input State:
[[ 0.001     ]
 [ 0.001     ]
 [ 0.01972109]
 [-0.0384835 ]
 [ 0.00967124]]

Simulating particle
Initiating Kalman filtering for particle: 58
Particle 58:
eta 3.8442580946014324, phi 2.660278569601952,
p 31.17736455457132, q 1.60217662e-19,
brem = False
output State:
[[ 0.00097888]
 [ 0.00096249]
 [ 0.01982521]
 [-0.0379588 ]
 [ 0.00961622]]
Data added to pickle list for particle: 58
Particle 59:
eta 3.3957069838361056, phi -2.035634634235484,
p 31.0, q -1.60217662e-19,
brem = False
input State:
[[ 0.001     ]
 [ 0.001     ]
 [-0.05998842]
 [-0.03008355]
 [-0.00967124]]

Simulating particle
Initiating Kalman filtering for particle: 59
Particle 59:
eta 3.3970575550673097, phi -2.0329914083005414,
p 31.032064863597327, q -1.60217662e-19,
brem = False
output State:
[[ 0.00100285]
 [ 0.00096058]
 [-0.05998647]
 [-0.0298844 ]
 [-0.00966125]]
Data added to pickle list for particle: 59
Particle 60:
eta 3.404621056634808, phi 2.676084900159363,
p 32.0, q 1.60217662e-19,
brem = False
input State:
[[ 0.001     ]
 [ 0.001     ]
 [ 0.02985577]
 [-0.0594349 ]
 [ 0.00936902]]

Simulating particle
Initiating Kalman filtering for particle: 60
Particle 60:
eta 3.4033774402210626, phi 2.6779547692652916,
p 32.03605602737936, q 1.60217662e-19,
brem = False
output State:
[[ 0.00099955]
 [ 0.00102326]
 [ 0.02978168]
 [-0.05956481]
 [ 0.00935847]]
Data added to pickle list for particle: 60
Particle 61:
eta 3.0400809022368502, phi 0.5395926228283078,
p 32.0, q -1.60217662e-19,
brem = False
input State:
[[ 0.001     ]
 [ 0.001     ]
 [ 0.04926257]
 [ 0.08225838]
 [-0.00936902]]

Simulating particle
Initiating Kalman filtering for particle: 61
Particle 61:
eta 3.039150284575973, phi 0.5390898936087322,
p 32.0854409377251, q -1.60217662e-19,
brem = False
output State:
[[ 0.00101507]
 [ 0.00098828]
 [ 0.04926725]
 [ 0.0823601 ]
 [-0.00934407]]
Data added to pickle list for particle: 61
Particle 62:
eta 2.7947850861992305, phi 2.013387651914861,
p 33.0, q 1.60217662e-19,
brem = False
input State:
[[ 0.001     ]
 [ 0.001     ]
 [ 0.11089038]
 [-0.0525565 ]
 [ 0.00908511]]

Simulating particle
Initiating Kalman filtering for particle: 62
Particle 62:
eta 2.7956020746112555, phi 2.014934341461247,
p 139.78548332643453, q 1.60217662e-19,
brem = False
output State:
[[ 0.00101972]
 [ 0.00101494]
 [ 0.11071779]
 [-0.05268457]
 [ 0.00214478]]
Data added to pickle list for particle: 62
Particle 63:
eta 4.2824661690582895, phi -1.0707322201532905,
p 33.0, q -1.60217662e-19,
brem = False
input State:
[[ 0.001     ]
 [ 0.001     ]
 [-0.02424009]
 [ 0.01324444]
 [-0.00908511]]

Simulating particle
Initiating Kalman filtering for particle: 63
Particle 63:
eta 4.283985888493705, phi -1.0642369226147605,
p 32.77220766109247, q -1.60217662e-19,
brem = False
output State:
[[ 0.00097925]
 [ 0.00098963]
 [-0.02411686]
 [ 0.01338124]
 [-0.00914825]]
Data added to pickle list for particle: 63
Particle 64:
eta 3.93346826836937, phi 1.770949345796648,
p 34.0, q 1.60217662e-19,
brem = False
input State:
[[ 0.001     ]
 [ 0.001     ]
 [ 0.03838442]
 [-0.00778702]
 [ 0.0088179 ]]

Simulating particle
Initiating Kalman filtering for particle: 64
Particle 64:
eta 3.936994696994891, phi 1.7688891334290755,
p 33.64153275283997, q 1.60217662e-19,
brem = False
output State:
[[ 0.00100502]
 [ 0.00097906]
 [ 0.0382651 ]
 [-0.00768077]
 [ 0.00891186]]
Data added to pickle list for particle: 64
Particle 65:
eta 3.9985629237530413, phi -0.5743002976061764,
p 34.0, q -1.60217662e-19,
brem = False
input State:
[[ 0.001     ]
 [ 0.001     ]
 [-0.01993517]
 [ 0.03080921]
 [-0.0088179 ]]

Simulating particle
Initiating Kalman filtering for particle: 65
Particle 65:
eta 4.000986789164404, phi -0.5780866052751017,
p 33.87949224319682, q -1.60217662e-19,
brem = False
output State:
[[ 0.00101209]
 [ 0.00101836]
 [-0.02000311]
 [ 0.03065906]
 [-0.00884926]]
Data added to pickle list for particle: 65
Particle 66:
eta 4.532550057813142, phi -1.8631007114618239,
p 35.0, q 1.60217662e-19,
brem = False
input State:
[[ 0.001     ]
 [ 0.001     ]
 [-0.02059657]
 [-0.006198  ]
 [ 0.00856596]]

Simulating particle
Initiating Kalman filtering for particle: 66
Particle 66:
eta 4.532926664675209, phi -1.8767004406370407,
p 35.38137123646934, q 1.60217662e-19,
brem = False
output State:
[[ 0.00098977]
 [ 0.0010111 ]
 [-0.02050265]
 [-0.00647509]
 [ 0.00847363]]
Data added to pickle list for particle: 66
Particle 67:
eta 4.34802673107637, phi -0.3954775696795759,
p 35.0, q -1.60217662e-19,
brem = False
input State:
[[ 0.001     ]
 [ 0.001     ]
 [-0.00996598]
 [ 0.02387219]
 [-0.00856596]]

Simulating particle
Initiating Kalman filtering for particle: 67
Particle 67:
eta 4.349660743488298, phi -0.38471665895570506,
p 35.00908195885156, q -1.60217662e-19,
brem = False
output State:
[[ 0.00098091]
 [ 0.00098898]
 [-0.00969267]
 [ 0.02393888]
 [-0.00856373]]
Data added to pickle list for particle: 67
Particle 68:
eta 4.124076212597598, phi 1.9386024985447092,
p 36.0, q 1.60217662e-19,
brem = False
input State:
[[ 0.001     ]
 [ 0.001     ]
 [ 0.03020069]
 [-0.01163758]
 [ 0.00832801]]

Simulating particle
Initiating Kalman filtering for particle: 68
Particle 68:
eta 4.125054641037682, phi 1.9451822505810246,
p 36.16212488771104, q 1.60217662e-19,
brem = False
output State:
[[ 0.00101382]
 [ 0.00101242]
 [ 0.03009399]
 [-0.01182446]
 [ 0.00829068]]
Data added to pickle list for particle: 68
Particle 69:
eta 4.692555641616634, phi -1.98769219520729,
p 36.0, q -1.60217662e-19,
brem = False
input State:
[[ 0.001     ]
 [ 0.001     ]
 [-0.01675823]
 [-0.00742146]
 [-0.00832801]]

Simulating particle
Initiating Kalman filtering for particle: 69
Particle 69:
eta 4.693688003825207, phi -1.9842610473303979,
p 36.09076251504397, q -1.60217662e-19,
brem = False
output State:
[[ 0.00100459]
 [ 0.00101234]
 [-0.01676459]
 [-0.00735558]
 [-0.00830707]]
Data added to pickle list for particle: 69
Particle 70:
eta 2.7149640000350472, phi -2.693835894927837,
p 36.99999999999999, q 1.60217662e-19,
brem = False
input State:
[[ 0.001     ]
 [ 0.001     ]
 [-0.05758061]
 [-0.11988682]
 [ 0.00810293]]

Simulating particle
Initiating Kalman filtering for particle: 70
Particle 70:
eta 2.712292350815573, phi -2.6929143433595453,
p 37.24242153346674, q 1.60217662e-19,
brem = False
output State:
[[ 0.00103676]
 [ 0.00102723]
 [-0.05784676]
 [-0.12015712]
 [ 0.00805019]]
Data added to pickle list for particle: 70
Particle 71:
eta 4.460048082301655, phi -1.0194001442526883,
p 36.99999999999999, q -1.60217662e-19,
brem = False
input State:
[[ 0.001     ]
 [ 0.001     ]
 [-0.01969919]
 [ 0.01211555]
 [-0.00810293]]

Simulating particle
Initiating Kalman filtering for particle: 71
Particle 71:
eta 4.460192449243337, phi -1.015179549764417,
p 36.76466287261617, q -1.60217662e-19,
brem = False
output State:
[[ 0.00099596]
 [ 0.0010057 ]
 [-0.01964504]
 [ 0.01219682]
 [-0.0081548 ]]
Data added to pickle list for particle: 71
Particle 72:
eta 3.0184164160189866, phi -2.6014492698966207,
p 38.0, q 1.60217662e-19,
brem = False
input State:
[[ 0.001     ]
 [ 0.001     ]
 [-0.05039287]
 [-0.08404071]
 [ 0.0078897 ]]

Simulating particle
Initiating Kalman filtering for particle: 72
Particle 72:
eta 3.018258790945222, phi -2.6003398510827984,
p 38.05671532739726, q 1.60217662e-19,
brem = False
output State:
[[ 0.00101353]
 [ 0.00100596]
 [-0.05049407]
 [-0.08399805]
 [ 0.00787794]]
Data added to pickle list for particle: 72
Particle 73:
eta 4.163582895386358, phi -2.963127776109753,
p 38.0, q -1.60217662e-19,
brem = False
input State:
[[ 0.001     ]
 [ 0.001     ]
 [-0.00552279]
 [-0.03061688]
 [-0.0078897 ]]

Simulating particle
Initiating Kalman filtering for particle: 73
Particle 73:
eta 4.163785422313033, phi -2.959496767890626,
p 38.60480063201135, q -1.60217662e-19,
brem = False
output State:
[[ 0.00100895]
 [ 0.00099633]
 [-0.00563279]
 [-0.03059042]
 [-0.00776609]]
Data added to pickle list for particle: 73
Particle 74:
eta 2.9601678243066876, phi -2.9509930068350974,
p 39.0, q 1.60217662e-19,
brem = False
input State:
[[ 0.001     ]
 [ 0.001     ]
 [-0.01968349]
 [-0.10201781]
 [ 0.0076874 ]]

Simulating particle
Initiating Kalman filtering for particle: 74
Particle 74:
eta 2.9578809041227845, phi -2.951473126413717,
p 38.97482250403452, q 1.60217662e-19,
brem = False
output State:
[[ 0.00100018]
 [ 0.00101473]
 [-0.01967971]
 [-0.1022621 ]
 [ 0.00769236]]
Data added to pickle list for particle: 74
Particle 75:
eta 4.6824579450964, phi 2.1173331652874747,
p 39.0, q -1.60217662e-19,
brem = False
input State:
[[ 0.001     ]
 [ 0.001     ]
 [ 0.0158171 ]
 [-0.00962234]
 [-0.0076874 ]]

Simulating particle
Initiating Kalman filtering for particle: 75
Particle 75:
eta 4.6906114802709595, phi 2.1139575535716464,
p 38.52090406028635, q -1.60217662e-19,
brem = False
output State:
[[ 0.00099527]
 [ 0.00098174]
 [ 0.01572077]
 [-0.00949118]
 [-0.00778301]]
Data added to pickle list for particle: 75
Particle 76:
eta 3.475611488637909, phi -0.5677608369152548,
p 40.0, q 1.60217662e-19,
brem = False
input State:
[[ 0.001     ]
 [ 0.001     ]
 [-0.03331071]
 [ 0.05222638]
 [ 0.00749521]]

Simulating particle
Initiating Kalman filtering for particle: 76
Particle 76:
eta 3.475492612151751, phi -0.5673868097480443,
p 40.123238908678736, q 1.60217662e-19,
brem = False
output State:
[[ 0.00100472]
 [ 0.0009983 ]
 [-0.03329514]
 [ 0.05224506]
 [ 0.00747219]]
Data added to pickle list for particle: 76
Particle 77:
eta 3.355712422915257, phi -3.0917598089428546,
p 40.0, q -1.60217662e-19,
brem = False
input State:
[[ 0.001     ]
 [ 0.001     ]
 [-0.00347958]
 [-0.06976731]
 [-0.00749521]]

Simulating particle
Initiating Kalman filtering for particle: 77
Particle 77:
eta 3.3552558170088944, phi -3.0917222272046874,
p 2.337973254117347, q 1.60217662e-19,
brem = False
output State:
[[ 0.00099757]
 [ 0.00099924]
 [-0.0034838 ]
 [-0.06979912]
 [ 0.12823436]]
Data added to pickle list for particle: 77
Particle 78:
eta 3.6600772495913367, phi 1.4193110220277136,
p 41.0, q 1.60217662e-19,
brem = False
input State:
[[0.001     ]
 [0.001     ]
 [0.05090542]
 [0.00777096]
 [0.0073124 ]]

Simulating particle
Initiating Kalman filtering for particle: 78
Particle 78:
eta 3.6578971248865098, phi 1.42266917674383,
p 41.3397916574835, q 1.60217662e-19,
brem = False
output State:
[[0.00098038]
 [0.00100937]
 [0.05104254]
 [0.00761657]
 [0.0072523 ]]
Data added to pickle list for particle: 78
Particle 79:
eta 2.0809347608346935, phi 2.4083898423571046,
p 41.0, q -1.60217662e-19,
brem = False
input State:
[[ 0.001     ]
 [ 0.001     ]
 [ 0.16970734]
 [-0.18841674]
 [-0.0073124 ]]

Simulating particle
Initiating Kalman filtering for particle: 79
Particle 79:
eta 2.0807053598887886, phi 2.408656633175694,
p 40.95005523901824, q -1.60217662e-19,
brem = False
output State:
[[ 0.00100481]
 [ 0.00102386]
 [ 0.16969722]
 [-0.18850662]
 [-0.00732132]]
Data added to pickle list for particle: 79
Particle 80:
eta 3.326139837789965, phi 2.184842002270947,
p 42.0, q 1.60217662e-19,
brem = False
input State:
[[ 0.001     ]
 [ 0.001     ]
 [ 0.05881133]
 [-0.04145951]
 [ 0.0071383 ]]

Simulating particle
Initiating Kalman filtering for particle: 80
Particle 80:
eta 3.323148607241705, phi 2.1928236598416677,
p 42.87407393473229, q 1.60217662e-19,
brem = False
output State:
[[ 0.00100296]
 [ 0.00103447]
 [ 0.05865418]
 [-0.04205352]
 [ 0.00699277]]
Data added to pickle list for particle: 80
Particle 81:
eta 2.081408534558773, phi -0.7771739811361383,
p 42.0, q -1.60217662e-19,
brem = False
input State:
[[ 0.001     ]
 [ 0.001     ]
 [-0.17773864]
 [ 0.18068646]
 [-0.0071383 ]]

Simulating particle
Initiating Kalman filtering for particle: 81
Particle 81:
eta 2.0810232736572987, phi -0.7774083464567241,
p 42.13774368095908, q -1.60217662e-19,
brem = False
output State:
[[ 0.00100144]
 [ 0.00100406]
 [-0.17785166]
 [ 0.18071661]
 [-0.00711496]]
Data added to pickle list for particle: 81
Particle 82:
eta 3.6508356208601445, phi -2.931966671341894,
p 43.0, q 1.60217662e-19,
brem = False
input State:
[[ 0.001     ]
 [ 0.001     ]
 [-0.01081546]
 [-0.05083612]
 [ 0.00697229]]

Simulating particle
Initiating Kalman filtering for particle: 82
Particle 82:
eta 3.655654336287237, phi -2.9319178238897456,
p 42.969921601828986, q 1.60217662e-19,
brem = False
output State:
[[ 0.00099299]
 [ 0.00096624]
 [-0.01076587]
 [-0.05059089]
 [ 0.00697717]]
Data added to pickle list for particle: 82
Particle 83:
eta 3.5922167728619745, phi 2.0783802588651206,
p 43.0, q -1.60217662e-19,
brem = False
input State:
[[ 0.001     ]
 [ 0.001     ]
 [ 0.04816726]
 [-0.02679019]
 [-0.00697229]]

Simulating particle
Initiating Kalman filtering for particle: 83
Particle 83:
eta 3.586786199934162, phi 2.0821591374061024,
p 43.280133002207606, q -1.60217662e-19,
brem = False
output State:
[[ 0.00099918]
 [ 0.00100778]
 [ 0.04832781]
 [-0.02711912]
 [-0.00692716]]
Data added to pickle list for particle: 83
Particle 84:
eta 3.883970142313606, phi 1.368032442457675,
p 44.0, q 1.60217662e-19,
brem = False
input State:
[[0.001     ]
 [0.001     ]
 [0.04031229]
 [0.00828777]
 [0.00681383]]

Simulating particle
Initiating Kalman filtering for particle: 84
Particle 84:
eta 3.8799038491025803, phi 1.365229568238444,
p 24.41997756241477, q 1.60217662e-19,
brem = False
output State:
[[0.00099173]
 [0.00097304]
 [0.04045321]
 [0.00843498]
 [0.01227718]]
Data added to pickle list for particle: 84
Particle 85:
eta 2.635279194650388, phi -1.2316025701768745,
p 44.0, q -1.60217662e-19,
brem = False
input State:
[[ 0.001     ]
 [ 0.001     ]
 [-0.13592631]
 [ 0.04795888]
 [-0.00681383]]

Simulating particle
Initiating Kalman filtering for particle: 85
Particle 85:
eta 2.634157091743603, phi -1.230665278008523,
p 44.824055669301025, q -1.60217662e-19,
brem = False
output State:
[[ 0.00101003]
 [ 0.00098148]
 [-0.13603544]
 [ 0.04814081]
 [-0.00668856]]
Data added to pickle list for particle: 85
Particle 86:
eta 3.029925535053965, phi 2.0562789086059077,
p 45.0, q 1.60217662e-19,
brem = False
input State:
[[ 0.001     ]
 [ 0.001     ]
 [ 0.08567191]
 [-0.04520045]
 [ 0.00666241]]

Simulating particle
Initiating Kalman filtering for particle: 86
Particle 86:
eta 3.031577791385804, phi 2.0581974216147216,
p 45.42288648121785, q 1.60217662e-19,
brem = False
output State:
[[ 0.0010382 ]
 [ 0.00100627]
 [ 0.08544308]
 [-0.04528949]
 [ 0.00660038]]
Data added to pickle list for particle: 86
Particle 87:
eta 2.7890051558542006, phi 0.6679876816493372,
p 45.0, q -1.60217662e-19,
brem = False
input State:
[[ 0.001     ]
 [ 0.001     ]
 [ 0.07645425]
 [ 0.09690216]
 [-0.00666241]]

Simulating particle
Initiating Kalman filtering for particle: 87
Particle 87:
eta 2.788893970223192, phi 0.6700337853737071,
p 45.39655551639855, q -1.60217662e-19,
brem = False
output State:
[[ 0.00098844]
 [ 0.00099508]
 [ 0.07666095]
 [ 0.09675636]
 [-0.00660421]]
Data added to pickle list for particle: 87
Particle 88:
eta 4.943394078762819, phi -1.5858236167657433,
p 46.0, q 1.60217662e-19,
brem = False
input State:
[[ 0.001     ]
 [ 0.001     ]
 [-0.01425983]
 [-0.0002143 ]
 [ 0.00651758]]

Simulating particle
Initiating Kalman filtering for particle: 88
Particle 88:
eta 4.934037733307362, phi -1.578885163419124,
p 46.56255742263755, q 1.60217662e-19,
brem = False
output State:
[[ 0.00100958]
 [ 0.00099758]
 [-0.01439504]
 [-0.00011644]
 [ 0.00643883]]
Data added to pickle list for particle: 88
Particle 89:
eta 4.406628755152342, phi 1.531043960388056,
p 46.0, q -1.60217662e-19,
brem = False
input State:
[[ 0.001     ]
 [ 0.001     ]
 [ 0.02437681]
 [ 0.00096955]
 [-0.00651758]]

Simulating particle
Initiating Kalman filtering for particle: 89
Particle 89:
eta 4.417037617712157, phi 1.5366185317677286,
p 41.3785533807055, q -1.60217662e-19,
brem = False
output State:
[[ 0.00100749]
 [ 0.00102373]
 [ 0.02412929]
 [ 0.00082501]
 [-0.0072455 ]]
Data added to pickle list for particle: 89
Particle 90:
eta 2.1954339293658807, phi -0.3863942360372351,
p 47.0, q 1.60217662e-19,
brem = False
input State:
[[ 0.001     ]
 [ 0.001     ]
 [-0.08494724]
 [ 0.20879452]
 [ 0.0063789 ]]

Simulating particle
Initiating Kalman filtering for particle: 90
Particle 90:
eta 2.1941376290513297, phi -0.38656658216526624,
p 47.037522597458285, q 1.60217662e-19,
brem = False
output State:
[[ 0.00100604]
 [ 0.00097888]
 [-0.08509623]
 [ 0.2090575 ]
 [ 0.00637382]]
Data added to pickle list for particle: 90
Particle 91:
eta 2.217184042259204, phi 0.22063935087211703,
p 47.0, q -1.60217662e-19,
brem = False
input State:
[[ 0.001     ]
 [ 0.001     ]
 [ 0.04824534]
 [ 0.2151017 ]
 [-0.0063789 ]]

Simulating particle
Initiating Kalman filtering for particle: 91
Particle 91:
eta 2.2163311642832513, phi 0.2203466010579237,
p 47.247694088082476, q -1.60217662e-19,
brem = False
output State:
[[ 0.00100567]
 [ 0.0009803 ]
 [ 0.04822447]
 [ 0.21530377]
 [-0.00634546]]
Data added to pickle list for particle: 91
Particle 92:
eta 3.004902447711687, phi -2.638080059994709,
p 48.0, q 1.60217662e-19,
brem = False
input State:
[[ 0.001     ]
 [ 0.001     ]
 [-0.04792772]
 [-0.08700333]
 [ 0.00624601]]

Simulating particle
Initiating Kalman filtering for particle: 92
Particle 92:
eta 3.0044163090384015, phi -2.6382940991702215,
p 48.57314506938877, q 1.60217662e-19,
brem = False
output State:
[[ 0.00099779]
 [ 0.00101685]
 [-0.0479325 ]
 [-0.08705611]
 [ 0.00617231]]
Data added to pickle list for particle: 92
Particle 93:
eta 3.8041414574494867, phi -0.9834608282324986,
p 48.0, q -1.60217662e-19,
brem = False
input State:
[[ 0.001     ]
 [ 0.001     ]
 [-0.03710826]
 [ 0.0247031 ]
 [-0.00624601]]

Simulating particle
Initiating Kalman filtering for particle: 93
Particle 93:
eta 3.809435725902953, phi -0.9838238390819193,
p 49.45163832061651, q -1.60217662e-19,
brem = False
output State:
[[ 0.00098201]
 [ 0.00101444]
 [-0.03692104]
 [ 0.02455913]
 [-0.00606266]]
Data added to pickle list for particle: 93
Particle 94:
eta 4.61790995097951, phi 0.3436502053133246,
p 49.0, q 1.60217662e-19,
brem = False
input State:
[[0.001     ]
 [0.001     ]
 [0.00665387]
 [0.01859406]
 [0.00611854]]

Simulating particle
Initiating Kalman filtering for particle: 94
Particle 94:
eta 4.620619931616211, phi 0.3325146164223425,
p 48.38193673758596, q 1.60217662e-19,
brem = False
output State:
[[0.00102813]
 [0.00099466]
 [0.00642895]
 [0.01861647]
 [0.0061967 ]]
Data added to pickle list for particle: 94
Particle 95:
eta 4.716362147131284, phi 2.219983578198405,
p 49.0, q -1.60217662e-19,
brem = False
input State:
[[ 0.001     ]
 [ 0.001     ]
 [ 0.01425613]
 [-0.0108193 ]
 [-0.00611854]]

Simulating particle
Initiating Kalman filtering for particle: 95
Particle 95:
eta 4.734312196161493, phi 2.2035720095462503,
p 48.501188208377854, q -1.60217662e-19,
brem = False
output State:
[[ 0.00099792]
 [ 0.00095611]
 [ 0.01417498]
 [-0.01039557]
 [-0.00618147]]
Data added to pickle list for particle: 95
Particle 96:
eta 2.297254173847559, phi -2.6290786488349545,
p 50.0, q 1.60217662e-19,
brem = False
input State:
[[ 0.001     ]
 [ 0.001     ]
 [-0.0996049 ]
 [-0.17702378]
 [ 0.00599617]]

Simulating particle
Initiating Kalman filtering for particle: 96
Particle 96:
eta 2.2973007071702667, phi -2.6290938761330382,
p 49.745353760581125, q 1.60217662e-19,
brem = False
output State:
[[ 0.00100831]
 [ 0.00098196]
 [-0.09959748]
 [-0.17701689]
 [ 0.00602686]]
Data added to pickle list for particle: 96
Particle 97:
eta 2.5042745022834323, phi -1.8857531195755837,
p 50.0, q -1.60217662e-19,
brem = False
input State:
[[ 0.001     ]
 [ 0.001     ]
 [-0.15647397]
 [-0.05097948]
 [-0.00599617]]

Simulating particle
Initiating Kalman filtering for particle: 97
Particle 97:
eta 2.505140389319213, phi -1.8870504569670685,
p 50.317338593151696, q -1.60217662e-19,
brem = False
output State:
[[ 0.00097662]
 [ 0.00101311]
 [-0.15627051]
 [-0.05113754]
 [-0.00595835]]
Data added to pickle list for particle: 97
Particle 98:
eta 4.077705043018081, phi -1.4044131729477876,
p 51.0, q 1.60217662e-19,
brem = False
input State:
[[ 0.001     ]
 [ 0.001     ]
 [-0.03343418]
 [ 0.00561479]
 [ 0.0058786 ]]

Simulating particle
Initiating Kalman filtering for particle: 98
Particle 98:
eta 4.0830090656868565, phi -1.4032625941775747,
p 49.680391726443204, q 1.60217662e-19,
brem = False
output State:
[[ 0.00096946]
 [ 0.00100159]
 [-0.03325076]
 [ 0.00562333]
 [ 0.00603475]]
Data added to pickle list for particle: 98
Particle 99:
eta 3.860311436087282, phi -2.3439184424534014,
p 51.0, q -1.60217662e-19,
brem = False
input State:
[[ 0.001     ]
 [ 0.001     ]
 [-0.03016215]
 [-0.02943055]
 [-0.0058786 ]]

Simulating particle
Initiating Kalman filtering for particle: 99
Particle 99:
eta 3.86501825972779, phi -2.339765624779517,
p 51.425254613246956, q -1.60217662e-19,
brem = False
output State:
[[ 0.00099289]
 [ 0.00098012]
 [-0.03014177]
 [-0.0291673 ]
 [-0.00582999]]
Data added to pickle list for particle: 99
Particle 100:
eta 4.128424128939914, phi -3.0795898019671286,
p 51.99999999999999, q 1.60217662e-19,
brem = False
input State:
[[ 0.001     ]
 [ 0.001     ]
 [-0.00199675]
 [-0.03216293]
 [ 0.00576555]]

Simulating particle
Initiating Kalman filtering for particle: 100
Particle 100:
eta 4.132818522167098, phi -3.084836602391964,
p 52.1900159681081, q 1.60217662e-19,
brem = False
output State:
[[ 0.00099244]
 [ 0.00096071]
 [-0.00181995]
 [-0.03203182]
 [ 0.00574456]]
Data added to pickle list for particle: 100
Particle 101:
eta 4.805965828739244, phi -1.1246499574766298,
p 51.99999999999999, q -1.60217662e-19,
brem = False
input State:
[[ 0.001     ]
 [ 0.001     ]
 [-0.01476105]
 [ 0.00706037]
 [-0.00576555]]

Simulating particle
Initiating Kalman filtering for particle: 101
Particle 101:
eta 4.800038730941915, phi -1.1293442170523917,
p 52.753834714381455, q -1.60217662e-19,
brem = False
output State:
[[ 0.00100464]
 [ 0.00100886]
 [-0.01488199]
 [ 0.00703257]
 [-0.00568316]]
Data added to pickle list for particle: 101
Particle 102:
eta 3.0422291349547237, phi 0.002606060357877504,
p 53.0, q 1.60217662e-19,
brem = False
input State:
[[0.001     ]
 [0.001     ]
 [0.00024933]
 [0.09567438]
 [0.00565676]]

Simulating particle
Initiating Kalman filtering for particle: 102
Particle 102:
eta 3.043475498783958, phi 0.0006455171736749838,
p 53.84628514727837, q 1.60217662e-19,
brem = False
output State:
[[1.02521698e-03]
 [1.02047531e-03]
 [6.16823815e-05]
 [9.55549682e-02]
 [5.56785855e-03]]
Data added to pickle list for particle: 102
Particle 103:
eta 3.1103280448334614, phi -3.118190271435602,
p 53.0, q -1.60217662e-19,
brem = False
input State:
[[ 0.001     ]
 [ 0.001     ]
 [-0.00209082]
 [-0.08932581]
 [-0.00565676]]

Simulating particle
Initiating Kalman filtering for particle: 103
Particle 103:
eta 3.1087319056384346, phi -3.1162017289851502,
p 53.49186492824455, q -1.60217662e-19,
brem = False
output State:
[[ 0.00101842]
 [ 0.00100523]
 [-0.00227208]
 [-0.08946473]
 [-0.00560475]]
Data added to pickle list for particle: 103
Particle 104:
eta 4.026416408214218, phi -2.173738106207877,
p 54.0, q 1.60217662e-19,
brem = False
input State:
[[ 0.001     ]
 [ 0.001     ]
 [-0.02939487]
 [-0.02023732]
 [ 0.00555201]]

Simulating particle
Initiating Kalman filtering for particle: 104
Particle 104:
eta 4.02374793249373, phi -2.173302737471915,
p 53.34894629707249, q 1.60217662e-19,
brem = False
output State:
[[ 0.00101609]
 [ 0.00100709]
 [-0.0294823 ]
 [-0.02027859]
 [ 0.00561976]]
Data added to pickle list for particle: 104
Particle 105:
eta 3.003770082337012, phi 0.21431820901434215,
p 54.0, q -1.60217662e-19,
brem = False
input State:
[[ 0.001     ]
 [ 0.001     ]
 [ 0.0211499 ]
 [ 0.09716897]
 [-0.00555201]]

Simulating particle
Initiating Kalman filtering for particle: 105
Particle 105:
eta 3.0050709082495084, phi 0.2127584091566767,
p 54.03946744313623, q -1.60217662e-19,
brem = False
output State:
[[ 0.00100417]
 [ 0.00102264]
 [ 0.02097087]
 [ 0.09707486]
 [-0.00554795]]
Data added to pickle list for particle: 105
Particle 106:
eta 2.475793114585189, phi 1.1420100448478114,
p 54.99999999999999, q 1.60217662e-19,
brem = False
input State:
[[0.001     ]
 [0.001     ]
 [0.15405575]
 [0.07042702]
 [0.00545106]]

Simulating particle
Initiating Kalman filtering for particle: 106
Particle 106:
eta 2.4768590971728615, phi 1.1430309770892209,
p 54.926430498402276, q 1.60217662e-19,
brem = False
output State:
[[0.00099904]
 [0.00102362]
 [0.15396102]
 [0.07019377]
 [0.00545836]]
Data added to pickle list for particle: 106
Particle 107:
eta 3.666037619968263, phi -3.0253883457936444,
p 54.99999999999999, q -1.60217662e-19,
brem = False
input State:
[[ 0.001     ]
 [ 0.001     ]
 [-0.00593497]
 [-0.0508435 ]
 [-0.00545106]]

Simulating particle
Initiating Kalman filtering for particle: 107
Particle 107:
eta 3.6698215733586195, phi -3.02306454835106,
p 56.50791264546602, q -1.60217662e-19,
brem = False
output State:
[[ 0.0010102 ]
 [ 0.0009728 ]
 [-0.00603021]
 [-0.05063735]
 [-0.0053056 ]]
Data added to pickle list for particle: 107
Particle 108:
eta 4.861549688627284, phi 1.9998361060748004,
p 56.0, q 1.60217662e-19,
brem = False
input State:
[[ 0.001     ]
 [ 0.001     ]
 [ 0.01407506]
 [-0.00643877]
 [ 0.00535372]]

Simulating particle
Initiating Kalman filtering for particle: 108
Particle 108:
eta 4.865714748287057, phi 2.009373963544187,
p 55.41871724651193, q 1.60217662e-19,
brem = False
output State:
[[ 0.00099254]
 [ 0.00101538]
 [ 0.01395476]
 [-0.0065454 ]
 [ 0.00540988]]
Data added to pickle list for particle: 108
Particle 109:
eta 3.4217029421888028, phi 2.1694611070628405,
p 56.0, q -1.60217662e-19,
brem = False
input State:
[[ 0.001     ]
 [ 0.001     ]
 [ 0.05401239]
 [-0.03684609]
 [-0.00535372]]

Simulating particle
Initiating Kalman filtering for particle: 109
Particle 109:
eta 3.420850809909822, phi 2.1614061262838433,
p 56.741488179031435, q -1.60217662e-19,
brem = False
output State:
[[ 0.00098006]
 [ 0.0009645 ]
 [ 0.05435383]
 [-0.03644094]
 [-0.00528376]]
Data added to pickle list for particle: 109
Particle 110:
eta 4.411636840006105, phi 0.918131439269523,
p 57.00000000000001, q 1.60217662e-19,
brem = False
input State:
[[0.001     ]
 [0.001     ]
 [0.01928506]
 [0.01474184]
 [0.0052598 ]]

Simulating particle
Initiating Kalman filtering for particle: 110
Particle 110:
eta 4.412439945563561, phi 0.9223770942687883,
p 56.027746275842084, q 1.60217662e-19,
brem = False
output State:
[[0.00099433]
 [0.00100309]
 [0.01933194]
 [0.01464806]
 [0.00535107]]
Data added to pickle list for particle: 110
Particle 111:
eta 3.354143527949352, phi 0.4987476379854896,
p 57.00000000000001, q -1.60217662e-19,
brem = False
input State:
[[ 0.001     ]
 [ 0.001     ]
 [ 0.03346559]
 [ 0.06144112]
 [-0.0052598 ]]

Simulating particle
Initiating Kalman filtering for particle: 111
Particle 111:
eta 3.3555447520712063, phi 0.5010713931521705,
p 57.44838340098044, q -1.60217662e-19,
brem = False
output State:
[[ 0.00098878]
 [ 0.00101529]
 [ 0.0335611 ]
 [ 0.06127706]
 [-0.00521875]]
Data added to pickle list for particle: 111
Particle 112:
eta 2.47594290890863, phi 0.4844486245210907,
p 58.0, q 1.60217662e-19,
brem = False
input State:
[[0.001     ]
 [0.001     ]
 [0.07887664]
 [0.14987627]
 [0.00516911]]

Simulating particle
Initiating Kalman filtering for particle: 112
Particle 112:
eta 2.476157468835704, phi 0.4846574872029912,
p 57.0797321004598, q 1.60217662e-19,
brem = False
output State:
[[0.00099721]
 [0.00099438]
 [0.07889077]
 [0.14982719]
 [0.00525245]]
Data added to pickle list for particle: 112
Particle 113:
eta 2.289576598369495, phi 2.2836648573205642,
p 58.0, q -1.60217662e-19,
brem = False
input State:
[[ 0.001     ]
 [ 0.001     ]
 [ 0.15486831]
 [-0.13388811]
 [-0.00516911]]

Simulating particle
Initiating Kalman filtering for particle: 113
Particle 113:
eta 2.290175838845815, phi 2.2846759824328684,
p 57.13094942391551, q -1.60217662e-19,
brem = False
output State:
[[ 0.0010299 ]
 [ 0.00100967]
 [ 0.15463824]
 [-0.13396267]
 [-0.00524774]]
Data added to pickle list for particle: 113
Particle 114:
eta 4.7430361465107405, phi 0.981560511076999,
p 59.0, q 1.60217662e-19,
brem = False
input State:
[[0.001     ]
 [0.001     ]
 [0.01448707]
 [0.00968387]
 [0.0050815 ]]

Simulating particle
Initiating Kalman filtering for particle: 114
Particle 114:
eta 4.7213722317895215, phi 0.9739862143083989,
p 58.95514365319291, q 1.60217662e-19,
brem = False
output State:
[[0.00097703]
 [0.00097248]
 [0.01472901]
 [0.01000784]
 [0.00508537]]
Data added to pickle list for particle: 114
Particle 115:
eta 4.662538712759564, phi -2.366915183881771,
p 59.0, q -1.60217662e-19,
brem = False
input State:
[[ 0.001     ]
 [ 0.001     ]
 [-0.01321091]
 [-0.01349725]
 [-0.0050815 ]]

Simulating particle
Initiating Kalman filtering for particle: 115
Particle 115:
eta 4.647613753839656, phi -2.38296621726383,
p 58.79081889502175, q -1.60217662e-19,
brem = False
output State:
[[ 0.00099711]
 [ 0.00102169]
 [-0.01318797]
 [-0.01391371]
 [-0.00509958]]
Data added to pickle list for particle: 115
Particle 116:
eta 2.673722066153376, phi -1.036190137097628,
p 60.00000000000001, q 1.60217662e-19,
brem = False
input State:
[[ 0.001     ]
 [ 0.001     ]
 [-0.11930399]
 [ 0.07064243]
 [ 0.00499681]]

Simulating particle
Initiating Kalman filtering for particle: 116
Particle 116:
eta 2.6746261190595217, phi -1.0351739937384832,
p 60.45079340398107, q 1.60217662e-19,
brem = False
output State:
[[ 0.00097634]
 [ 0.00099313]
 [-0.11912337]
 [ 0.07069907]
 [ 0.00495955]]
Data added to pickle list for particle: 116
Particle 117:
eta 2.9923075340097003, phi -0.33771394300498403,
p 60.00000000000001, q -1.60217662e-19,
brem = False
input State:
[[ 0.001     ]
 [ 0.001     ]
 [-0.03333067]
 [ 0.09491406]
 [-0.00499681]]

Simulating particle
Initiating Kalman filtering for particle: 117
Particle 117:
eta 2.990399999772646, phi -0.33782864812192687,
p 58.658526735667195, q -1.60217662e-19,
brem = False
output State:
[[ 0.00099985]
 [ 0.00098241]
 [-0.03340554]
 [ 0.09509237]
 [-0.00511108]]
Data added to pickle list for particle: 117
Particle 118:
eta 4.993351239183372, phi 0.7343549534432051,
p 61.0, q 1.60217662e-19,
brem = False
input State:
[[0.001     ]
 [0.001     ]
 [0.00909097]
 [0.01006985]
 [0.00491489]]

Simulating particle
Initiating Kalman filtering for particle: 118
Particle 118:
eta 5.0037750917099855, phi 0.7243330206561199,
p 59.72765822967776, q 1.60217662e-19,
brem = False
output State:
[[0.00102408]
 [0.00099417]
 [0.00889637]
 [0.01005508]
 [0.00501959]]
Data added to pickle list for particle: 118
Particle 119:
eta 2.0406449021779425, phi 0.7126960973829258,
p 61.0, q -1.60217662e-19,
brem = False
input State:
[[ 0.001     ]
 [ 0.001     ]
 [ 0.17285445]
 [ 0.20001035]
 [-0.00491489]]

Simulating particle
Initiating Kalman filtering for particle: 119
Particle 119:
eta 2.040031040417871, phi 0.7114395754300197,
p 60.98936175346104, q -1.60217662e-19,
brem = False
output State:
[[ 0.00101125]
 [ 0.00096729]
 [ 0.17271262]
 [ 0.20035457]
 [-0.00491575]]
Data added to pickle list for particle: 119
Particle 120:
eta 2.5082811363770587, phi -0.7572282557322347,
p 62.0, q 1.60217662e-19,
brem = False
input State:
[[ 0.001     ]
 [ 0.001     ]
 [-0.1125861 ]
 [ 0.11911482]
 [ 0.00483562]]

Simulating particle
Initiating Kalman filtering for particle: 120
Particle 120:
eta 2.5085231833851864, phi -0.7567895849768512,
p 62.30586429591565, q 1.60217662e-19,
brem = False
output State:
[[ 0.00100664]
 [ 0.00099641]
 [-0.11250624]
 [ 0.11913497]
 [ 0.00481188]]
Data added to pickle list for particle: 120
Particle 121:
eta 2.9126523958829216, phi 2.471037540336909,
p 62.0, q -1.60217662e-19,
brem = False
input State:
[[ 0.001     ]
 [ 0.001     ]
 [ 0.0677253 ]
 [-0.08538689]
 [-0.00483562]]

Simulating particle
Initiating Kalman filtering for particle: 121
Particle 121:
eta 2.9152334315383355, phi 2.470848170991067,
p 60.97990780613113, q -1.60217662e-19,
brem = False
output State:
[[ 0.00100051]
 [ 0.00097253]
 [ 0.06756582]
 [-0.08515269]
 [-0.00491651]]
Data added to pickle list for particle: 121
Particle 122:
eta 3.2800796480084324, phi 0.03185859754857312,
p 62.99999999999999, q 1.60217662e-19,
brem = False
input State:
[[0.001     ]
 [0.001     ]
 [0.00240037]
 [0.07531896]
 [0.00475887]]

Simulating particle
Initiating Kalman filtering for particle: 122
Particle 122:
eta 3.2778055164900364, phi 0.037560597465505635,
p 62.55462830647817, q 1.60217662e-19,
brem = False
output State:
[[0.00097762]
 [0.00095512]
 [0.00283626]
 [0.07547598]
 [0.00479275]]
Data added to pickle list for particle: 122
Particle 123:
eta 3.8457118826796695, phi 1.4298985205453705,
p 62.99999999999999, q -1.60217662e-19,
brem = False
input State:
[[ 0.001     ]
 [ 0.001     ]
 [ 0.04233814]
 [ 0.00600514]
 [-0.00475887]]

Simulating particle
Initiating Kalman filtering for particle: 123
Particle 123:
eta 3.8478154785655234, phi 1.4241875336842162,
p 63.31966440642066, q -1.60217662e-19,
brem = False
output State:
[[ 0.00100902]
 [ 0.00097799]
 [ 0.04221418]
 [ 0.0062337 ]
 [-0.00473484]]
Data added to pickle list for particle: 123
Particle 124:
eta 4.321353330441713, phi 1.9520218801739169,
p 64.0, q 1.60217662e-19,
brem = False
input State:
[[ 0.001     ]
 [ 0.001     ]
 [ 0.02466111]
 [-0.00988502]
 [ 0.00468451]]

Simulating particle
Initiating Kalman filtering for particle: 124
Particle 124:
eta 4.317954730553414, phi 1.9567325865248946,
p 63.58495708059622, q 1.60217662e-19,
brem = False
output State:
[[ 0.00100636]
 [ 0.0010241 ]
 [ 0.0246981 ]
 [-0.01003514]
 [ 0.00471509]]
Data added to pickle list for particle: 124
Particle 125:
eta 4.626822868031886, phi 0.4999453882574901,
p 64.0, q -1.60217662e-19,
brem = False
input State:
[[ 0.001     ]
 [ 0.001     ]
 [ 0.00938309]
 [ 0.01717785]
 [-0.00468451]]

Simulating particle
Initiating Kalman filtering for particle: 125
Particle 125:
eta 4.618963164549532, phi 0.5016597440051624,
p 63.81998678119573, q -1.60217662e-19,
brem = False
output State:
[[ 0.00100744]
 [ 0.00098764]
 [ 0.00948681]
 [ 0.01729719]
 [-0.00469772]]
Data added to pickle list for particle: 125
Particle 126:
eta 3.525303081408274, phi -2.1942523369449733,
p 65.0, q 1.60217662e-19,
brem = False
input State:
[[ 0.001     ]
 [ 0.001     ]
 [-0.0478488 ]
 [-0.03440996]
 [ 0.00461244]]

Simulating particle
Initiating Kalman filtering for particle: 126
Particle 126:
eta 3.5291039021120243, phi -2.194730147049453,
p 64.53337392267213, q 1.60217662e-19,
brem = False
output State:
[[ 0.00098473]
 [ 0.00098554]
 [-0.04765059]
 [-0.03430197]
 [ 0.00464579]]
Data added to pickle list for particle: 126
Particle 127:
eta 4.104637715418404, phi 1.399612571483131,
p 65.0, q -1.60217662e-19,
brem = False
input State:
[[ 0.001     ]
 [ 0.001     ]
 [ 0.03251862]
 [ 0.00562168]
 [-0.00461244]]

Simulating particle
Initiating Kalman filtering for particle: 127
Particle 127:
eta 4.106612235864173, phi 1.4087199156648478,
p 65.32766735053337, q -1.60217662e-19,
brem = False
output State:
[[ 0.00100402]
 [ 0.00101982]
 [ 0.03250419]
 [ 0.00531478]
 [-0.0045893 ]]
Data added to pickle list for particle: 127
Particle 128:
eta 2.74836432503677, phi 2.9333933141186477,
p 66.0, q 1.60217662e-19,
brem = False
input State:
[[ 0.001     ]
 [ 0.001     ]
 [ 0.02657982]
 [-0.12581528]
 [ 0.00454255]]

Simulating particle
Initiating Kalman filtering for particle: 128
Particle 128:
eta 2.7467212391324187, phi 2.9310509327457908,
p 67.43504040172313, q 1.60217662e-19,
brem = False
output State:
[[ 0.00096348]
 [ 0.00101786]
 [ 0.02691902]
 [-0.12596118]
 [ 0.00444589]]
Data added to pickle list for particle: 128
Particle 129:
eta 3.2035659891791, phi 1.4521866350711141,
p 66.0, q -1.60217662e-19,
brem = False
input State:
[[ 0.001     ]
 [ 0.001     ]
 [ 0.08079676]
 [ 0.00962847]
 [-0.00454255]]

Simulating particle
Initiating Kalman filtering for particle: 129
Particle 129:
eta 3.2029216626752803, phi 1.447707082151819,
p 66.02161369032018, q -1.60217662e-19,
brem = False
output State:
[[ 0.0010052 ]
 [ 0.0009681 ]
 [ 0.08080504]
 [ 0.00999677]
 [-0.00454107]]
Data added to pickle list for particle: 129
Particle 130:
eta 2.34171872358213, phi 2.812230134350165,
p 67.0, q 1.60217662e-19,
brem = False
input State:
[[ 0.001     ]
 [ 0.001     ]
 [ 0.06278599]
 [-0.18368533]
 [ 0.00447475]]

Simulating particle
Initiating Kalman filtering for particle: 130
Particle 130:
eta 2.3420041564300944, phi 2.812757634412684,
p 66.95129199340126, q 1.60217662e-19,
brem = False
output State:
[[ 0.00102534]
 [ 0.00100256]
 [ 0.06267086]
 [-0.18366501]
 [ 0.00447801]]
Data added to pickle list for particle: 130
Particle 131:
eta 3.103213867349893, phi -2.303152118011193,
p 67.0, q -1.60217662e-19,
brem = False
input State:
[[ 0.001     ]
 [ 0.001     ]
 [-0.06691725]
 [-0.06016992]
 [-0.00447475]]

Simulating particle
Initiating Kalman filtering for particle: 131
Particle 131:
eta 3.1004019588832823, phi -2.3038190764488404,
p 66.98776832570589, q -1.60217662e-19,
brem = False
output State:
[[ 0.00100324]
 [ 0.00101504]
 [-0.06706619]
 [-0.06038478]
 [-0.00447557]]
Data added to pickle list for particle: 131
Particle 132:
eta 4.027902335704031, phi 2.765718343712993,
p 68.0, q 1.60217662e-19,
brem = False
input State:
[[ 0.001     ]
 [ 0.001     ]
 [ 0.01308097]
 [-0.03314685]
 [ 0.00440895]]

Simulating particle
Initiating Kalman filtering for particle: 132
Particle 132:
eta 4.0245467715609315, phi 2.756480271101369,
p 66.61847514381968, q 1.60217662e-19,
brem = False
output State:
[[ 0.00098054]
 [ 0.00100738]
 [ 0.01343164]
 [-0.03313567]
 [ 0.00450038]]
Data added to pickle list for particle: 132
Particle 133:
eta 3.676611680300016, phi 0.6899554035396984,
p 68.0, q -1.60217662e-19,
brem = False
input State:
[[ 0.001     ]
 [ 0.001     ]
 [ 0.03223862]
 [ 0.03906475]
 [-0.00440895]]

Simulating particle
Initiating Kalman filtering for particle: 133
Particle 133:
eta 3.672009379934178, phi 0.6888259361074297,
p 68.25294555213314, q -1.60217662e-19,
brem = False
output State:
[[ 0.00098615]
 [ 0.00098082]
 [ 0.03234318]
 [ 0.03928174]
 [-0.00439261]]
Data added to pickle list for particle: 133
Particle 134:
eta 2.9411705388163485, phi -1.5761588985413344,
p 69.0, q 1.60217662e-19,
brem = False
input State:
[[ 0.001     ]
 [ 0.001     ]
 [-0.10590153]
 [-0.00056791]
 [ 0.00434505]]

Simulating particle
Initiating Kalman filtering for particle: 134
Particle 134:
eta 2.9401681110287696, phi -1.5725758124780675,
p 69.29984602202157, q 1.60217662e-19,
brem = False
output State:
[[ 0.00101148]
 [ 0.00096781]
 [-0.10600969]
 [-0.00018864]
 [ 0.00432625]]
Data added to pickle list for particle: 134
Particle 135:
eta 3.405261526456959, phi -0.3251639179069608,
p 69.0, q -1.60217662e-19,
brem = False
input State:
[[ 0.001     ]
 [ 0.001     ]
 [-0.02123463]
 [ 0.06298642]
 [-0.00434505]]

Simulating particle
Initiating Kalman filtering for particle: 135
Particle 135:
eta 3.406754338814157, phi -0.32589502062879766,
p 68.45519963213374, q -1.60217662e-19,
brem = False
output State:
[[ 0.00099662]
 [ 0.00101386]
 [-0.02124886]
 [ 0.06287674]
 [-0.00437963]]
Data added to pickle list for particle: 135
Particle 136:
eta 3.1848835007693603, phi -1.643642913399292,
p 70.0, q 1.60217662e-19,
brem = False
input State:
[[ 0.001     ]
 [ 0.001     ]
 [-0.08268823]
 [-0.00603423]
 [ 0.00428298]]

Simulating particle
Initiating Kalman filtering for particle: 136
Particle 136:
eta 3.18331619788756, phi -1.6424896927417638,
p 69.88864011258448, q 1.60217662e-19,
brem = False
output State:
[[ 0.00099849]
 [ 0.00099278]
 [-0.08282529]
 [-0.00594822]
 [ 0.0042898 ]]
Data added to pickle list for particle: 136
Particle 137:
eta 3.8750446721803753, phi 2.4348990410211337,
p 70.0, q -1.60217662e-19,
brem = False
input State:
[[ 0.001     ]
 [ 0.001     ]
 [ 0.02696294]
 [-0.03158008]
 [-0.00428298]]

Simulating particle
Initiating Kalman filtering for particle: 137
Particle 137:
eta 3.871198884282234, phi 2.4329697670112838,
p 70.00012334624665, q -1.60217662e-19,
brem = False
output State:
[[ 0.00100068]
 [ 0.00100225]
 [ 0.02712803]
 [-0.03164959]
 [-0.00428297]]
Data added to pickle list for particle: 137
Particle 138:
eta 2.1056709360542687, phi -2.332991998515051,
p 71.0, q 1.60217662e-19,
brem = False
input State:
[[ 0.001     ]
 [ 0.001     ]
 [-0.17879997]
 [-0.17068949]
 [ 0.00422265]]

Simulating particle
Initiating Kalman filtering for particle: 138
Particle 138:
eta 2.1048683937748867, phi -2.3322830963038568,
p 69.84651098712853, q 1.60217662e-19,
brem = False
output State:
[[ 0.00102431]
 [ 0.00101174]
 [-0.1790689 ]
 [-0.17070376]
 [ 0.00429239]]
Data added to pickle list for particle: 138
Particle 139:
eta 2.269233887097013, phi -0.6562779487466092,
p 71.0, q -1.60217662e-19,
brem = False
input State:
[[ 0.001     ]
 [ 0.001     ]
 [-0.12753641]
 [ 0.1655977 ]
 [-0.00422265]]

Simulating particle
Initiating Kalman filtering for particle: 139
Particle 139:
eta 2.2696008714445624, phi -0.658351185421363,
p 72.16972951316362, q -1.60217662e-19,
brem = False
output State:
[[ 0.00103181]
 [ 0.00101175]
 [-0.12783152]
 [ 0.16527096]
 [-0.00415421]]
Data added to pickle list for particle: 139
Particle 140:
eta 4.408124369246056, phi 1.505841954260497,
p 72.0, q 1.60217662e-19,
brem = False
input State:
[[0.001     ]
 [0.001     ]
 [0.02430824]
 [0.00158115]
 [0.00416401]]

Simulating particle
Initiating Kalman filtering for particle: 140
Particle 140:
eta 4.395981170496637, phi 1.514923394743968,
p 72.03171726173339, q 1.60217662e-19,
brem = False
output State:
[[0.00098908]
 [0.00101995]
 [0.02461883]
 [0.00137696]
 [0.00416217]]
Data added to pickle list for particle: 140
Particle 141:
eta 4.01421351251253, phi 1.860244207672805,
p 72.0, q -1.60217662e-19,
brem = False
input State:
[[ 0.001     ]
 [ 0.001     ]
 [ 0.03462329]
 [-0.01031122]
 [-0.00416401]]

Simulating particle
Initiating Kalman filtering for particle: 141
Particle 141:
eta 4.01473170068576, phi 1.8543160270192456,
p 72.0128193232362, q -1.60217662e-19,
brem = False
output State:
[[ 0.00099316]
 [ 0.00096865]
 [ 0.03466583]
 [-0.01010055]
 [-0.00416327]]
Data added to pickle list for particle: 141
Particle 142:
eta 2.822584685941013, phi -0.9055100787093682,
p 73.0, q 1.60217662e-19,
brem = False
input State:
[[ 0.001     ]
 [ 0.001     ]
 [-0.09387849]
 [ 0.07365803]
 [ 0.00410697]]

Simulating particle
Initiating Kalman filtering for particle: 142
Particle 142:
eta 2.8222438821865445, phi -0.9049502842024136,
p 73.37756599694897, q 1.60217662e-19,
brem = False
output State:
[[ 0.0009995 ]
 [ 0.00098423]
 [-0.09386945]
 [ 0.07373587]
 [ 0.00408583]]
Data added to pickle list for particle: 142
Particle 143:
eta 4.622344368380398, phi -2.813489860269714,
p 73.0, q -1.60217662e-19,
brem = False
input State:
[[ 0.001     ]
 [ 0.001     ]
 [-0.00633582]
 [-0.01861252]
 [-0.00410697]]

Simulating particle
Initiating Kalman filtering for particle: 143
Particle 143:
eta 4.616835199104267, phi -2.8236876923758225,
p 72.5908112817786, q -1.60217662e-19,
brem = False
output State:
[[ 0.00098427]
 [ 0.00099999]
 [-0.00617965]
 [-0.01877936]
 [-0.00413012]]
Data added to pickle list for particle: 143
Particle 144:
eta 2.9821492007171932, phi -0.16854106317436238,
p 73.99999999999999, q 1.60217662e-19,
brem = False
input State:
[[ 0.001     ]
 [ 0.001     ]
 [-0.01704762]
 [ 0.10018862]
 [ 0.00405147]]

Simulating particle
Initiating Kalman filtering for particle: 144
Particle 144:
eta 2.9831110620740096, phi -0.17032802088692617,
p 75.74386448819591, q 1.60217662e-19,
brem = False
output State:
[[ 0.00100941]
 [ 0.00100614]
 [-0.01720998]
 [ 0.10006121]
 [ 0.00395819]]
Data added to pickle list for particle: 144
Particle 145:
eta 2.642967770675415, phi 3.0367998031560273,
p 73.99999999999999, q -1.60217662e-19,
brem = False
input State:
[[ 0.001     ]
 [ 0.001     ]
 [ 0.01496044]
 [-0.14223904]
 [-0.00405147]]

Simulating particle
Initiating Kalman filtering for particle: 145
Particle 145:
eta 2.641235860978303, phi 3.0363486613157824,
p 73.88459094267559, q -1.60217662e-19,
brem = False
output State:
[[ 0.00099821]
 [ 0.00102097]
 [ 0.01505091]
 [-0.14248133]
 [-0.00405779]]
Data added to pickle list for particle: 145
Particle 146:
eta 2.504670777583569, phi -2.62846569845756,
p 75.0, q 1.60217662e-19,
brem = False
input State:
[[ 0.001     ]
 [ 0.001     ]
 [-0.08075521]
 [-0.14331735]
 [ 0.00399745]]

Simulating particle
Initiating Kalman filtering for particle: 146
Particle 146:
eta 2.5044386803579073, phi -2.628955760521111,
p 76.94990538986538, q 1.60217662e-19,
brem = False
output State:
[[ 0.00099669]
 [ 0.0009987 ]
 [-0.08070394]
 [-0.14339063]
 [ 0.00389615]]
Data added to pickle list for particle: 146
Particle 147:
eta 4.317269022218733, phi 2.3505232687589332,
p 75.0, q -1.60217662e-19,
brem = False
input State:
[[ 0.001     ]
 [ 0.001     ]
 [ 0.01897034]
 [-0.01875638]
 [-0.00399745]]

Simulating particle
Initiating Kalman filtering for particle: 147
Particle 147:
eta 4.3042511736327285, phi 2.362220725427966,
p 74.7850200535924, q -1.60217662e-19,
brem = False
output State:
[[ 0.00099446]
 [ 0.00104556]
 [ 0.01899541]
 [-0.01922575]
 [-0.00400894]]
Data added to pickle list for particle: 147
Particle 148:
eta 2.961647255111544, phi 0.21221040916049808,
p 76.0, q 1.60217662e-19,
brem = False
input State:
[[0.001     ]
 [0.001     ]
 [0.02185088]
 [0.10141768]
 [0.00394485]]

Simulating particle
Initiating Kalman filtering for particle: 148
Particle 148:
eta 2.964670653160331, phi 0.2128498972006031,
p 78.0666373489269, q 1.60217662e-19,
brem = False
output State:
[[0.00098264]
 [0.00103575]
 [0.02184922]
 [0.10109593]
 [0.00384042]]
Data added to pickle list for particle: 148
Particle 149:
eta 3.7220528845781136, phi -1.1975628179548075,
p 76.0, q -1.60217662e-19,
brem = False
input State:
[[ 0.001     ]
 [ 0.001     ]
 [-0.04506488]
 [ 0.01764686]
 [-0.00394485]]

Simulating particle
Initiating Kalman filtering for particle: 149
Particle 149:
eta 3.720412996421877, phi -1.190774541767654,
p 75.20258131988443, q -1.60217662e-19,
brem = False
output State:
[[ 0.00098726]
 [ 0.00097698]
 [-0.0450179 ]
 [ 0.01798186]
 [-0.00398668]]
Data added to pickle list for particle: 149
Particle 150:
eta 2.5241989507639224, phi 0.8331896646074997,
p 77.0, q 1.60217662e-19,
brem = False
input State:
[[0.001     ]
 [0.001     ]
 [0.11936036]
 [0.10846399]
 [0.00389362]]

Simulating particle
Initiating Kalman filtering for particle: 150
Particle 150:
eta 2.5244183454185465, phi 0.8344622037268646,
p 77.15873061696468, q 1.60217662e-19,
brem = False
output State:
[[0.00098844]
 [0.0010116 ]
 [0.11947173]
 [0.10828795]
 [0.00388561]]
Data added to pickle list for particle: 150
Particle 151:
eta 4.876639421432441, phi -0.5005538098841052,
p 77.0, q -1.60217662e-19,
brem = False
input State:
[[ 0.001     ]
 [ 0.001     ]
 [-0.00731676]
 [ 0.01337563]
 [-0.00389362]]

Simulating particle
Initiating Kalman filtering for particle: 151
Particle 151:
eta 4.876031870897381, phi -0.49005451402282774,
p 77.00942096870384, q -1.60217662e-19,
brem = False
output State:
[[ 0.00098887]
 [ 0.00098528]
 [-0.00718029]
 [ 0.01345989]
 [-0.00389314]]
Data added to pickle list for particle: 151
Particle 152:
eta 4.659114107585869, phi -2.3364732826113195,
p 78.0, q 1.60217662e-19,
brem = False
input State:
[[ 0.001     ]
 [ 0.001     ]
 [-0.01366232]
 [-0.0131338 ]
 [ 0.0038437 ]]

Simulating particle
Initiating Kalman filtering for particle: 152
Particle 152:
eta 4.664881174134912, phi -2.3266044124363563,
p 79.94051677419215, q 1.60217662e-19,
brem = False
output State:
[[ 0.00099707]
 [ 0.00098533]
 [-0.01371195]
 [-0.01292357]
 [ 0.00375039]]
Data added to pickle list for particle: 152
Particle 153:
eta 2.2327653276951045, phi -0.48576163739705747,
p 78.0, q -1.60217662e-19,
brem = False
input State:
[[ 0.001     ]
 [ 0.001     ]
 [-0.10129364]
 [ 0.19185994]
 [-0.0038437 ]]

Simulating particle
Initiating Kalman filtering for particle: 153
Particle 153:
eta 2.2316518755354537, phi -0.4863380224258507,
p 82.10281685216574, q -1.60217662e-19,
brem = False
output State:
[[ 0.00102548]
 [ 0.00098346]
 [-0.10151982]
 [ 0.19202018]
 [-0.00365162]]
Data added to pickle list for particle: 153
Particle 154:
eta 4.508475463073153, phi 2.4380745136498168,
p 79.0, q 1.60217662e-19,
brem = False
input State:
[[ 0.001     ]
 [ 0.001     ]
 [ 0.01425335]
 [-0.01680184]
 [ 0.00379504]]

Simulating particle
Initiating Kalman filtering for particle: 154
Particle 154:
eta 4.494002338165628, phi 2.4446270167027504,
p 78.5793003407779, q 1.60217662e-19,
brem = False
output State:
[[ 0.00100248]
 [ 0.00103158]
 [ 0.01434918]
 [-0.01714124]
 [ 0.00381536]]
Data added to pickle list for particle: 154
Particle 155:
eta 3.481512331816443, phi 2.8072387429969563,
p 79.0, q -1.60217662e-19,
brem = False
input State:
[[ 0.001     ]
 [ 0.001     ]
 [ 0.02020802]
 [-0.05816984]
 [-0.00379504]]

Simulating particle
Initiating Kalman filtering for particle: 155
Particle 155:
eta 3.4848512442092616, phi 2.8076936187938326,
p 80.36862885022985, q -1.60217662e-19,
brem = False
output State:
[[ 0.00100952]
 [ 0.00098137]
 [ 0.02011416]
 [-0.05798473]
 [-0.00373042]]
Data added to pickle list for particle: 155
Particle 156:
eta 4.478357367529285, phi 1.8279588634967108,
p 80.0, q 1.60217662e-19,
brem = False
input State:
[[ 0.001     ]
 [ 0.001     ]
 [ 0.02196031]
 [-0.00577524]
 [ 0.00374761]]

Simulating particle
Initiating Kalman filtering for particle: 156
Particle 156:
eta 4.479672695061961, phi 1.809111127641411,
p 80.01715266035202, q 1.60217662e-19,
brem = False
output State:
[[ 0.00099078]
 [ 0.00096928]
 [ 0.02203624]
 [-0.00535329]
 [ 0.0037468 ]]
Data added to pickle list for particle: 156
Particle 157:
eta 3.460217157820582, phi 2.3582655038803932,
p 80.0, q -1.60217662e-19,
brem = False
input State:
[[ 0.001     ]
 [ 0.001     ]
 [ 0.04439045]
 [-0.0445747 ]
 [-0.00374761]]

Simulating particle
Initiating Kalman filtering for particle: 157
Particle 157:
eta 3.453424035905428, phi 2.3582430185653465,
p 80.80205160163055, q -1.60217662e-19,
brem = False
output State:
[[ 0.00098047]
 [ 0.00102653]
 [ 0.04469464]
 [-0.04487813]
 [-0.00371041]]
Data added to pickle list for particle: 157
Particle 158:
eta 4.921711788130807, phi -1.2664881439981721,
p 81.0, q 1.60217662e-19,
brem = False
input State:
[[ 0.001     ]
 [ 0.001     ]
 [-0.01390445]
 [ 0.00436687]
 [ 0.00370134]]

Simulating particle
Initiating Kalman filtering for particle: 158
Particle 158:
eta 4.919535637790691, phi -1.2574047791053728,
p 81.77397887138159, q 1.60217662e-19,
brem = False
output State:
[[ 0.00100277]
 [ 0.00098681]
 [-0.01389442]
 [ 0.00450278]
 [ 0.00366631]]
Data added to pickle list for particle: 158
Particle 159:
eta 4.4108460827886, phi 0.8051749431264748,
p 81.0, q -1.60217662e-19,
brem = False
input State:
[[ 0.001     ]
 [ 0.001     ]
 [ 0.01751436]
 [ 0.01683495]
 [-0.00370134]]

Simulating particle
Initiating Kalman filtering for particle: 159
Particle 159:
eta 4.408341075551217, phi 0.8009561126916755,
p 81.12137204997998, q -1.60217662e-19,
brem = False
output State:
[[ 0.00099662]
 [ 0.00099346]
 [ 0.01748694]
 [ 0.01695111]
 [-0.0036958 ]]
Data added to pickle list for particle: 159
Particle 160:
eta 2.8518696905020695, phi -2.2884046608648907,
p 82.0, q 1.60217662e-19,
brem = False
input State:
[[ 0.001     ]
 [ 0.001     ]
 [-0.08728574]
 [-0.07618695]
 [ 0.0036562 ]]

Simulating particle
Initiating Kalman filtering for particle: 160
Particle 160:
eta 2.8519873916993643, phi -2.286079676325107,
p 83.52730763959497, q 1.60217662e-19,
brem = False
output State:
[[ 0.00101394]
 [ 0.00098515]
 [-0.08745227]
 [-0.0759748 ]
 [ 0.00358935]]
Data added to pickle list for particle: 160
Particle 161:
eta 3.6790878751340634, phi -0.00864231611888835,
p 82.0, q -1.60217662e-19,
brem = False
input State:
[[ 0.001     ]
 [ 0.001     ]
 [-0.00043664]
 [ 0.0505223 ]
 [-0.0036562 ]]

Simulating particle
Initiating Kalman filtering for particle: 161
Particle 161:
eta 3.6755916694843322, phi -0.00649501823917925,
p 83.1489270111315, q -1.60217662e-19,
brem = False
output State:
[[ 0.00098368]
 [ 0.00097307]
 [-0.0003293 ]
 [ 0.0507003 ]
 [-0.00360568]]
Data added to pickle list for particle: 161
Particle 162:
eta 3.9342783053376764, phi 2.6452948272122967,
p 83.0, q 1.60217662e-19,
brem = False
input State:
[[ 0.001     ]
 [ 0.001     ]
 [ 0.01863485]
 [-0.03441306]
 [ 0.00361215]]

Simulating particle
Initiating Kalman filtering for particle: 162
Particle 162:
eta 3.9342015797223704, phi 2.6440760020816017,
p 83.45641925496864, q 1.60217662e-19,
brem = False
output State:
[[ 0.0009775 ]
 [ 0.00099835]
 [ 0.01867821]
 [-0.03439296]
 [ 0.0035924 ]]
Data added to pickle list for particle: 162
Particle 163:
eta 2.3501578988441647, phi -2.9827792071804424,
p 83.0, q -1.60217662e-19,
brem = False
input State:
[[ 0.001     ]
 [ 0.001     ]
 [-0.03043662]
 [-0.19003615]
 [-0.00361215]]

Simulating particle
Initiating Kalman filtering for particle: 163
Particle 163:
eta 2.3505544334289032, phi -2.9831967900606293,
p 83.93037219818594, q -1.60217662e-19,
brem = False
output State:
[[ 0.00099018]
 [ 0.00098498]
 [-0.030345  ]
 [-0.18997212]
 [-0.00357211]]
Data added to pickle list for particle: 163
Particle 164:
eta 3.3166607944098705, phi 1.4148752575490586,
p 84.0, q 1.60217662e-19,
brem = False
input State:
[[0.001     ]
 [0.001     ]
 [0.07176185]
 [0.01128075]
 [0.00356915]]

Simulating particle
Initiating Kalman filtering for particle: 164
Particle 164:
eta 3.3188290879884432, phi 1.4147931407152816,
p 85.53415121818009, q 1.60217662e-19,
brem = False
output State:
[[0.00100889]
 [0.00100521]
 [0.07160509]
 [0.01126213]
 [0.00350513]]
Data added to pickle list for particle: 164
Particle 165:
eta 3.7688674405095375, phi 1.5535618188725107,
p 84.0, q -1.60217662e-19,
brem = False
input State:
[[ 0.001     ]
 [ 0.001     ]
 [ 0.04617411]
 [ 0.00079587]
 [-0.00356915]]

Simulating particle
Initiating Kalman filtering for particle: 165
Particle 165:
eta 3.7651687211595295, phi 1.545142646884743,
p 84.74383068066854, q -1.60217662e-19,
brem = False
output State:
[[ 0.00098518]
 [ 0.00095442]
 [ 0.04633703]
 [ 0.00118898]
 [-0.00353782]]
Data added to pickle list for particle: 165
Particle 166:
eta 2.9675837081741236, phi 1.0882437508386997,
p 85.0, q 1.60217662e-19,
brem = False
input State:
[[0.001     ]
 [0.001     ]
 [0.0913518 ]
 [0.04785552]
 [0.00352716]]

Simulating particle
Initiating Kalman filtering for particle: 166
Particle 166:
eta 2.967655645996327, phi 1.0869872088412953,
p 87.19656461343462, q 1.60217662e-19,
brem = False
output State:
[[0.00100572]
 [0.0009965 ]
 [0.09128499]
 [0.0479668 ]
 [0.00343831]]
Data added to pickle list for particle: 166
Particle 167:
eta 3.787217476187994, phi -2.671497939659062,
p 85.0, q -1.60217662e-19,
brem = False
input State:
[[ 0.001     ]
 [ 0.001     ]
 [-0.02053788]
 [-0.04042212]
 [-0.00352716]]

Simulating particle
Initiating Kalman filtering for particle: 167
Particle 167:
eta 3.7911564670362936, phi -2.6724509154993923,
p 82.2678147559044, q -1.60217662e-19,
brem = False
output State:
[[ 0.00098447]
 [ 0.00097855]
 [-0.02041867]
 [-0.04028253]
 [-0.0036443 ]]
Data added to pickle list for particle: 167
Particle 168:
eta 3.5092622062563765, phi -1.8036058018046095,
p 86.0, q 1.60217662e-19,
brem = False
input State:
[[ 0.001     ]
 [ 0.001     ]
 [-0.05827582]
 [-0.01381771]
 [ 0.00348615]]

Simulating particle
Initiating Kalman filtering for particle: 168
Particle 168:
eta 3.5085098128280077, phi -1.806169000956395,
p 85.32265152025563, q 1.60217662e-19,
brem = False
output State:
[[ 0.00101165]
 [ 0.00101145]
 [-0.05828413]
 [-0.01397757]
 [ 0.00351382]]
Data added to pickle list for particle: 168
Particle 169:
eta 4.8185866265251835, phi -0.052057241320294226,
p 86.0, q -1.60217662e-19,
brem = False
input State:
[[ 0.001     ]
 [ 0.001     ]
 [-0.00084073]
 [ 0.01613556]
 [-0.00348615]]

Simulating particle
Initiating Kalman filtering for particle: 169
Particle 169:
eta 4.810939962982881, phi -0.06673736050687788,
p 86.41198038120945, q -1.60217662e-19,
brem = False
output State:
[[ 0.00103436]
 [ 0.00100129]
 [-0.00108578]
 [ 0.01624524]
 [-0.00346952]]
Data added to pickle list for particle: 169
Particle 170:
eta 4.652159640288601, phi -1.2413734593972712,
p 87.0, q 1.60217662e-19,
brem = False
input State:
[[ 0.001     ]
 [ 0.001     ]
 [-0.01805754]
 [ 0.00617351]
 [ 0.00344607]]

Simulating particle
Initiating Kalman filtering for particle: 170
Particle 170:
eta 4.673444660744519, phi -1.2406646334215987,
p 87.42261067082492, q 1.60217662e-19,
brem = False
output State:
[[ 0.00095615]
 [ 0.00100026]
 [-0.01767289]
 [ 0.00605601]
 [ 0.00342942]]
Data added to pickle list for particle: 170
Particle 171:
eta 3.3535620108468094, phi -3.0694579093142016,
p 87.0, q -1.60217662e-19,
brem = False
input State:
[[ 0.001     ]
 [ 0.001     ]
 [-0.0050454 ]
 [-0.06982272]
 [-0.00344607]]

Simulating particle
Initiating Kalman filtering for particle: 171
Particle 171:
eta 3.3568604480259916, phi -3.0704882514525216,
p 87.4570964277698, q -1.60217662e-19,
brem = False
output State:
[[ 0.00098668]
 [ 0.00097964]
 [-0.00495704]
 [-0.06959737]
 [-0.00342806]]
Data added to pickle list for particle: 171
Particle 172:
eta 4.24763828779635, phi 0.39966109603114836,
p 88.0, q 1.60217662e-19,
brem = False
input State:
[[0.001     ]
 [0.001     ]
 [0.01112913]
 [0.02634775]
 [0.00340691]]

Simulating particle
Initiating Kalman filtering for particle: 172
Particle 172:
eta 4.2429795518261315, phi 0.3959108571996942,
p 88.06111289235928, q 1.60217662e-19,
brem = False
output State:
[[0.00098856]
 [0.00100009]
 [0.01108177]
 [0.02651258]
 [0.00340455]]
Data added to pickle list for particle: 172
Particle 173:
eta 3.7452976456910045, phi 2.372283752732731,
p 88.0, q -1.60217662e-19,
brem = False
input State:
[[ 0.001     ]
 [ 0.001     ]
 [ 0.03289231]
 [-0.03396813]
 [-0.00340691]]

Simulating particle
Initiating Kalman filtering for particle: 173
Particle 173:
eta 3.748346949588996, phi 2.376959585790518,
p 89.6149093633205, q -1.60217662e-19,
brem = False
output State:
[[ 0.00103162]
 [ 0.00100199]
 [ 0.03263334]
 [-0.03401756]
 [-0.00334552]]
Data added to pickle list for particle: 173
Particle 174:
eta 3.8336827964821585, phi 0.48314995980093395,
p 89.0, q 1.60217662e-19,
brem = False
input State:
[[0.001     ]
 [0.001     ]
 [0.02010657]
 [0.03832588]
 [0.00336863]]

Simulating particle
Initiating Kalman filtering for particle: 174
Particle 174:
eta 3.8365776740903197, phi 0.4774925835763102,
p 86.49968233257604, q 1.60217662e-19,
brem = False
output State:
[[0.00103338]
 [0.00100751]
 [0.01983187]
 [0.0383278 ]
 [0.00346601]]
Data added to pickle list for particle: 174
Particle 175:
eta 3.697578490285178, phi 3.1063460963838017,
p 89.0, q -1.60217662e-19,
brem = False
input State:
[[ 0.001     ]
 [ 0.001     ]
 [ 0.00174778]
 [-0.04956659]
 [-0.00336863]]

Simulating particle
Initiating Kalman filtering for particle: 175
Particle 175:
eta 3.69559610174846, phi 3.105769452124105,
p 86.78091333598869, q -1.60217662e-19,
brem = False
output State:
[[ 0.00099408]
 [ 0.00100536]
 [ 0.00177989]
 [-0.04966405]
 [-0.00345477]]
Data added to pickle list for particle: 175
Particle 176:
eta 4.4317449535447, phi 1.132824177143165,
p 90.0, q 1.60217662e-19,
brem = False
input State:
[[0.001     ]
 [0.001     ]
 [0.02154527]
 [0.01008977]
 [0.00333121]]

Simulating particle
Initiating Kalman filtering for particle: 176
Particle 176:
eta 4.434474020274256, phi 1.1127471760474505,
p 89.75830575586942, q 1.60217662e-19,
brem = False
output State:
[[0.00102867]
 [0.00095055]
 [0.0212802 ]
 [0.01049159]
 [0.00334018]]
Data added to pickle list for particle: 176
Particle 177:
eta 3.8254289576641853, phi -1.4474304536420137,
p 90.0, q -1.60217662e-19,
brem = False
input State:
[[ 0.001     ]
 [ 0.001     ]
 [-0.04330726]
 [ 0.00536991]
 [-0.00333121]]

Simulating particle
Initiating Kalman filtering for particle: 177
Particle 177:
eta 3.8285053186138454, phi -1.444067778402342,
p 91.69436895770988, q -1.60217662e-19,
brem = False
output State:
[[ 0.00098326]
 [ 0.00098532]
 [-0.04315586]
 [ 0.00549855]
 [-0.00326965]]
Data added to pickle list for particle: 177
Particle 178:
eta 2.7160156135890143, phi -1.1121250989069382,
p 91.0, q 1.60217662e-19,
brem = False
input State:
[[ 0.001     ]
 [ 0.001     ]
 [-0.11912479]
 [ 0.05882322]
 [ 0.0032946 ]]

Simulating particle
Initiating Kalman filtering for particle: 178
Particle 178:
eta 2.7173842136489417, phi -1.1128130290916112,
p 88.1583138874096, q 1.60217662e-19,
brem = False
output State:
[[ 0.00099814]
 [ 0.00100672]
 [-0.11900082]
 [ 0.05866021]
 [ 0.0034008 ]]
Data added to pickle list for particle: 178
Particle 179:
eta 4.812491788062633, phi 0.8068464529047827,
p 91.0, q -1.60217662e-19,
brem = False
input State:
[[ 0.001     ]
 [ 0.001     ]
 [ 0.01173878]
 [ 0.01124573]
 [-0.0032946 ]]

Simulating particle
Initiating Kalman filtering for particle: 179
Particle 179:
eta 4.803652445966791, phi 0.8120960825963123,
p 91.0352051055147, q -1.60217662e-19,
brem = False
output State:
[[ 0.00099347]
 [ 0.00098455]
 [ 0.01190241]
 [ 0.01128326]
 [-0.00329332]]
Data added to pickle list for particle: 179
Particle 180:
eta 3.621062914075338, phi 2.4706666835554154,
p 92.0, q 1.60217662e-19,
brem = False
input State:
[[ 0.001     ]
 [ 0.001     ]
 [ 0.03329065]
 [-0.04194032]
 [ 0.00325879]]

Simulating particle
Initiating Kalman filtering for particle: 180
Particle 180:
eta 3.614028017950092, phi 2.473144829925213,
p 94.51659649472079, q 1.60217662e-19,
brem = False
output State:
[[ 0.00098882]
 [ 0.00103988]
 [ 0.03342124]
 [-0.04231978]
 [ 0.00317202]]
Data added to pickle list for particle: 180
Particle 181:
eta 4.774290249333943, phi 1.284771727845264,
p 92.0, q -1.60217662e-19,
brem = False
input State:
[[ 0.001     ]
 [ 0.001     ]
 [ 0.01620319]
 [ 0.00476517]
 [-0.00325879]]

Simulating particle
Initiating Kalman filtering for particle: 181
Particle 181:
eta 4.77588502017833, phi 1.2864151152053989,
p 91.70805355743728, q -1.60217662e-19,
brem = False
output State:
[[ 0.00099602]
 [ 0.00101796]
 [ 0.01618517]
 [ 0.00473099]
 [-0.00326916]]
Data added to pickle list for particle: 181
Particle 182:
eta 4.011695890195164, phi -2.9111384559327,
p 93.0, q 1.60217662e-19,
brem = False
input State:
[[ 0.001     ]
 [ 0.001     ]
 [-0.00827272]
 [-0.03525972]
 [ 0.00322375]]

Simulating particle
Initiating Kalman filtering for particle: 182
Particle 182:
eta 4.016131538346929, phi -2.910933057924641,
p 94.09687119033637, q 1.60217662e-19,
brem = False
output State:
[[ 0.00099945]
 [ 0.00098817]
 [-0.0082433 ]
 [-0.03510188]
 [ 0.00318617]]
Data added to pickle list for particle: 182
Particle 183:
eta 4.5439861672622, phi 1.1290164187386356,
p 93.0, q -1.60217662e-19,
brem = False
input State:
[[ 0.001     ]
 [ 0.001     ]
 [ 0.01922275]
 [ 0.00909153]
 [-0.00322375]]

Simulating particle
Initiating Kalman filtering for particle: 183
Particle 183:
eta 4.550339309270656, phi 1.1160854005503649,
p 95.37143738533752, q -1.60217662e-19,
brem = False
output State:
[[ 0.00101514]
 [ 0.00098112]
 [ 0.01898258]
 [ 0.00928017]
 [-0.00314359]]
Data added to pickle list for particle: 183
Particle 184:
eta 4.511227792605815, phi 1.9078723694096347,
p 94.0, q 1.60217662e-19,
brem = False
input State:
[[ 0.001     ]
 [ 0.001     ]
 [ 0.02073609]
 [-0.00726697]
 [ 0.00318945]]

Simulating particle
Initiating Kalman filtering for particle: 184
Particle 184:
eta 4.518167514909968, phi 1.9126860074744103,
p 91.8944129899925, q 1.60217662e-19,
brem = False
output State:
[[ 0.00101988]
 [ 0.00100989]
 [ 0.02055767]
 [-0.00731575]
 [ 0.00326253]]
Data added to pickle list for particle: 184
Particle 185:
eta 2.259860783815721, phi -0.34394308400573487,
p 94.0, q -1.60217662e-19,
brem = False
input State:
[[ 0.001     ]
 [ 0.001     ]
 [-0.07115922]
 [ 0.19866912]
 [-0.00318945]]

Simulating particle
Initiating Kalman filtering for particle: 185
Particle 185:
eta 2.25868901549919, phi -0.3451239563610902,
p 96.36635709612625, q -1.60217662e-19,
brem = False
output State:
[[ 0.00102298]
 [ 0.00097163]
 [-0.07147933]
 [ 0.19882292]
 [-0.00311113]]
Data added to pickle list for particle: 185
Particle 186:
eta 3.2557733832003275, phi 3.131626188873449,
p 95.0, q 1.60217662e-19,
brem = False
input State:
[[ 0.001     ]
 [ 0.001     ]
 [ 0.00076957]
 [-0.07721291]
 [ 0.00315588]]

Simulating particle
Initiating Kalman filtering for particle: 186
Particle 186:
eta 3.258253756752778, phi 3.1296013973447354,
p 97.35246913270521, q 1.60217662e-19,
brem = False
output State:
[[ 0.00098866]
 [ 0.00098431]
 [ 0.0009236 ]
 [-0.07701935]
 [ 0.00307962]]
Data added to pickle list for particle: 186
Particle 187:
eta 4.647242386706649, phi -0.9449597788934551,
p 95.0, q -1.60217662e-19,
brem = False
input State:
[[ 0.001     ]
 [ 0.001     ]
 [-0.01554308]
 [ 0.01123387]
 [-0.00315588]]

Simulating particle
Initiating Kalman filtering for particle: 187
Particle 187:
eta 4.651783736971843, phi -0.9454280589065726,
p 96.75382072015604, q -1.60217662e-19,
brem = False
output State:
[[ 0.00098906]
 [ 0.00100656]
 [-0.01547787]
 [ 0.01117571]
 [-0.00309867]]
Data added to pickle list for particle: 187
Particle 188:
eta 2.647069113283493, phi 1.4652183939023298,
p 96.0, q 1.60217662e-19,
brem = False
input State:
[[0.001     ]
 [0.001     ]
 [0.14163923]
 [0.01500979]
 [0.00312301]]

Simulating particle
Initiating Kalman filtering for particle: 188
Particle 188:
eta 2.6487810914672214, phi 1.465585809748324,
p 95.73557699519351, q 1.60217662e-19,
brem = False
output State:
[[0.00101921]
 [0.00100998]
 [0.14140001]
 [0.0149319 ]
 [0.00313163]]
Data added to pickle list for particle: 188
Particle 189:
eta 2.144209601817768, phi 1.9728751014947161,
p 96.0, q -1.60217662e-19,
brem = False
input State:
[[ 0.001     ]
 [ 0.001     ]
 [ 0.21863509]
 [-0.09297364]
 [-0.00312301]]

Simulating particle
Initiating Kalman filtering for particle: 189
Particle 189:
eta 2.143880613999618, phi 1.9725308612225723,
p 96.74295062934677, q -1.60217662e-19,
brem = False
output State:
[[ 0.00098923]
 [ 0.00099087]
 [ 0.21874104]
 [-0.09292979]
 [-0.00309902]]
Data added to pickle list for particle: 189
Particle 190:
eta 3.8265440482116655, phi 1.795986787260407,
p 97.0, q 1.60217662e-19,
brem = False
input State:
[[ 0.001     ]
 [ 0.001     ]
 [ 0.04248965]
 [-0.00973335]
 [ 0.00309081]]

Simulating particle
Initiating Kalman filtering for particle: 190
Particle 190:
eta 3.830227845444965, phi 1.7987770849487095,
p 98.41987302467734, q 1.60217662e-19,
brem = False
output State:
[[ 0.00099658]
 [ 0.0010327 ]
 [ 0.04230604]
 [-0.00981561]
 [ 0.00304622]]
Data added to pickle list for particle: 190
Particle 191:
eta 4.017998384084686, phi -0.7460009267633438,
p 97.0, q -1.60217662e-19,
brem = False
input State:
[[ 0.001     ]
 [ 0.001     ]
 [-0.02442635]
 [ 0.02643102]
 [-0.00309081]]

Simulating particle
Initiating Kalman filtering for particle: 191
Particle 191:
eta 4.022406286419491, phi -0.7509634118384587,
p 98.1510944563289, q -1.60217662e-19,
brem = False
output State:
[[ 0.00102239]
 [ 0.00102951]
 [-0.02444913]
 [ 0.02619369]
 [-0.00305456]]
Data added to pickle list for particle: 191
Particle 192:
eta 4.433228954981753, phi 2.6505595320713833,
p 98.0, q 1.60217662e-19,
brem = False
input State:
[[ 0.001     ]
 [ 0.001     ]
 [ 0.01120161]
 [-0.02094871]
 [ 0.00305927]]

Simulating particle
Initiating Kalman filtering for particle: 192
Particle 192:
eta 4.420795691759105, phi 2.649216805786329,
p 97.5542233653963, q 1.60217662e-19,
brem = False
output State:
[[ 0.00098345]
 [ 0.0010078 ]
 [ 0.01137026]
 [-0.02119562]
 [ 0.00307325]]
Data added to pickle list for particle: 192
Particle 193:
eta 3.2404176734209766, phi 2.0650275960330977,
p 98.0, q -1.60217662e-19,
brem = False
input State:
[[ 0.001     ]
 [ 0.001     ]
 [ 0.06903159]
 [-0.03719667]
 [-0.00305927]]

Simulating particle
Initiating Kalman filtering for particle: 193
Particle 193:
eta 3.2399928629625974, phi 2.0663804162464716,
p 98.4079964075305, q -1.60217662e-19,
brem = False
output State:
[[ 0.00099539]
 [ 0.00101983]
 [ 0.0690106 ]
 [-0.03730592]
 [-0.00304659]]
Data added to pickle list for particle: 193
Particle 194:
eta 2.9710624769737044, phi -1.8162210629277247,
p 99.00000000000001, q 1.60217662e-19,
brem = False
input State:
[[ 0.001     ]
 [ 0.001     ]
 [-0.09968806]
 [-0.02496927]
 [ 0.00302837]]

Simulating particle
Initiating Kalman filtering for particle: 194
Particle 194:
eta 2.972673955608017, phi -1.8186789877600813,
p 96.3604412838501, q 1.60217662e-19,
brem = False
output State:
[[ 0.00096243]
 [ 0.00102557]
 [-0.09946513]
 [-0.02517341]
 [ 0.00311132]]
Data added to pickle list for particle: 194
Particle 195:
eta 4.0751638547442335, phi -1.795280030459955,
p 99.00000000000001, q -1.60217662e-19,
brem = False
input State:
[[ 0.001     ]
 [ 0.001     ]
 [-0.03313587]
 [-0.00756598]
 [-0.00302837]]

Simulating particle
Initiating Kalman filtering for particle: 195
Particle 195:
eta 4.073318309758209, phi -1.7908170889335602,
p 100.37784581972693, q -1.60217662e-19,
brem = False
output State:
[[ 0.00100668]
 [ 0.00098051]
 [-0.03323061]
 [-0.00743173]
 [-0.0029868 ]]
Data added to pickle list for particle: 195
1 particles skipped because: FloatingPointError