This is the start of the log file generated at 02_03_09h53m31s

magfield_ shape: cs, sim_stepsize: 0.001, detector_length: 11
15 VELO-type subdetectors added at z-locations: [20, 50, 80, 110, 140, 170, 200, 230, 260, 290, 450, 600, 650, 700, 750]
4 TT-type subdetectors added at z-locations: [2330, 2370, 2600, 2640]
24 OT-type subdetectors added at z-locations: [7860, 7870, 7910, 7920, 7980, 7990, 8030, 8040, 8540, 8550, 8590, 8600, 8660, 8670, 8710, 8720, 9230, 9240, 9280, 9290, 9350, 9360, 9400, 9410]
The detector is built.
Generating 196 particles, from 2 to 100 GeV. Brem = False, ms = True

Particle 0:
eta 2.793261254536089, phi -1.944797706046174,
p 2.0, q 1.60217662e-19,
brem = False
input State:
[[ 0.001     ]
 [ 0.001     ]
 [-0.11440717]
 [-0.0449018 ]
 [ 0.14990425]]

Simulating particle
Initiating Kalman filtering for particle: 0
Skip particle 0 because:too many refits
Data added to pickle list for particle: 0
Particle 1:
eta 3.6929254849315925, phi 1.8241737038746357,
p 2.0, q -1.60217662e-19,
brem = False
input State:
[[ 0.001     ]
 [ 0.001     ]
 [ 0.04823803]
 [-0.01249088]
 [-0.14990425]]

Simulating particle
Initiating Kalman filtering for particle: 1
Skip particle 1 because:too many refits
Data added to pickle list for particle: 1
Particle 2:
eta 4.9527443458672575, phi -0.3831048238328863,
p 3.0, q 1.60217662e-19,
brem = False
input State:
[[ 0.001     ]
 [ 0.001     ]
 [-0.00528134]
 [ 0.01310449]
 [ 0.09993617]]

Simulating particle
Initiating Kalman filtering for particle: 2
Particle 2:
eta 5.063351259542782, phi -0.39239778159967414,
p 3.0032288580267363, q 1.60217662e-19,
brem = False
output State:
[[ 0.00099724]
 [ 0.00102237]
 [-0.0048371 ]
 [ 0.01168776]
 [ 0.09982872]]
Data added to pickle list for particle: 2
Particle 3:
eta 4.602589719518041, phi -1.9732728734230507,
p 3.0, q -1.60217662e-19,
brem = False
input State:
[[ 0.001     ]
 [ 0.001     ]
 [-0.01845128]
 [-0.00785499]
 [-0.09993617]]

Simulating particle
Initiating Kalman filtering for particle: 3
Particle 3:
eta 4.637017489364018, phi -2.044830325443096,
p 3.010941412348965, q -1.60217662e-19,
brem = False
output State:
[[ 0.00098132]
 [ 0.00103957]
 [-0.01723852]
 [-0.00884424]
 [-0.09957301]]
Data added to pickle list for particle: 3
Particle 4:
eta 2.1729833373572167, phi -1.139833570782535,
p 4.0, q 1.60217662e-19,
brem = False
input State:
[[ 0.001     ]
 [ 0.001     ]
 [-0.20957315]
 [ 0.09635897]
 [ 0.07495212]]

Simulating particle
Initiating Kalman filtering for particle: 4
Particle 4:
eta 2.1731244604959032, phi -1.1447938995804177,
p 3.9458951842908427, q 1.60217662e-19,
brem = False
output State:
[[ 0.00102908]
 [ 0.00103778]
 [-0.21001812]
 [ 0.09530443]
 [ 0.07597984]]
Data added to pickle list for particle: 4
Particle 5:
eta 3.1015746556236397, phi -0.3507367816522666,
p 4.0, q -1.60217662e-19,
brem = False
input State:
[[ 0.001     ]
 [ 0.001     ]
 [-0.03097084]
 [ 0.08465132]
 [-0.07495212]]

Simulating particle
Initiating Kalman filtering for particle: 5
Particle 5:
eta 3.0866135548391718, phi -0.3585392502074356,
p 4.005470605719069, q -1.60217662e-19,
brem = False
output State:
[[ 0.00104358]
 [ 0.0009715 ]
 [-0.03210914]
 [ 0.08568469]
 [-0.07484976]]
Data added to pickle list for particle: 5
Particle 6:
eta 4.601865339300853, phi -2.408819940534939,
p 5.0, q 1.60217662e-19,
brem = False
input State:
[[ 0.001     ]
 [ 0.001     ]
 [-0.0134243 ]
 [-0.01491716]
 [ 0.0599617 ]]

Simulating particle
Initiating Kalman filtering for particle: 6
Particle 6:
eta 4.638698792757166, phi -2.380796378205936,
p 4.969668404167357, q 1.60217662e-19,
brem = False
output State:
[[ 0.001002  ]
 [ 0.00095937]
 [-0.01333652]
 [-0.01400942]
 [ 0.06032767]]
Data added to pickle list for particle: 6
Particle 7:
eta 4.70852364988821, phi 2.466133335169869,
p 5.0, q -1.60217662e-19,
brem = False
input State:
[[ 0.001     ]
 [ 0.001     ]
 [ 0.01127813]
 [-0.01407692]
 [-0.0599617 ]]

Simulating particle
Initiating Kalman filtering for particle: 7
Skip particle 7 because:too many refits
Data added to pickle list for particle: 7
Particle 8:
eta 4.2294918546776925, phi 0.9395732004397493,
p 6.0, q 1.60217662e-19,
brem = False
input State:
[[0.001     ]
 [0.001     ]
 [0.0235134 ]
 [0.01718805]
 [0.04996808]]

Simulating particle
Initiating Kalman filtering for particle: 8
Particle 8:
eta 4.2523475219568025, phi 0.9407017816245302,
p 5.98937141578701, q 1.60217662e-19,
brem = False
output State:
[[0.00102548]
 [0.00102655]
 [0.02300081]
 [0.01677356]
 [0.05005676]]
Data added to pickle list for particle: 8
Particle 9:
eta 3.2820815520916913, phi -0.4346827411571424,
p 6.0, q -1.60217662e-19,
brem = False
input State:
[[ 0.001     ]
 [ 0.001     ]
 [-0.03167098]
 [ 0.06821218]
 [-0.04996808]]

Simulating particle
Initiating Kalman filtering for particle: 9
Particle 9:
eta 3.2658043662479663, phi -0.4201000407641013,
p 5.888791698298002, q -1.60217662e-19,
brem = False
output State:
[[ 0.0010038 ]
 [ 0.0009148 ]
 [-0.03117774]
 [ 0.06979687]
 [-0.05091172]]
Data added to pickle list for particle: 9
Particle 10:
eta 3.863731006426254, phi -1.3411817798897612,
p 7.0, q 1.60217662e-19,
brem = False
input State:
[[ 0.001     ]
 [ 0.001     ]
 [-0.04089532]
 [ 0.00955874]
 [ 0.04282979]]

Simulating particle
Initiating Kalman filtering for particle: 10
Particle 10:
eta 3.8696585780403217, phi -1.337927783866549,
p 7.01346393789666, q 1.60217662e-19,
brem = False
output State:
[[ 0.00098434]
 [ 0.00097905]
 [-0.04062229]
 [ 0.00963444]
 [ 0.04274756]]
Data added to pickle list for particle: 10
Particle 11:
eta 3.939602643453406, phi 3.003075362857269,
p 7.0, q -1.60217662e-19,
brem = False
input State:
[[ 0.001     ]
 [ 0.001     ]
 [ 0.00537478]
 [-0.03855378]
 [-0.04282979]]

Simulating particle
Initiating Kalman filtering for particle: 11
Particle 11:
eta 3.9366096605954635, phi 3.0190912480731735,
p 6.971670354439083, q -1.60217662e-19,
brem = False
output State:
[[ 0.00103232]
 [ 0.00101341]
 [ 0.00477092]
 [-0.03875081]
 [-0.04300383]]
Data added to pickle list for particle: 11
Particle 12:
eta 3.4052434427081346, phi 2.893017385091426,
p 8.0, q 1.60217662e-19,
brem = False
input State:
[[ 0.001     ]
 [ 0.001     ]
 [ 0.01635335]
 [-0.06442769]
 [ 0.03747606]]

Simulating particle
Initiating Kalman filtering for particle: 12
Particle 12:
eta 3.4046167719536737, phi 2.8975682495762536,
p 7.901457180450506, q 1.60217662e-19,
brem = False
output State:
[[ 0.00101195]
 [ 0.00101074]
 [ 0.01607007]
 [-0.06454196]
 [ 0.03794344]]
Data added to pickle list for particle: 12
Particle 13:
eta 2.4251534490178615, phi -1.8513518906138826,
p 8.0, q -1.60217662e-19,
brem = False
input State:
[[ 0.001     ]
 [ 0.001     ]
 [-0.17135247]
 [-0.04937623]
 [-0.03747606]]

Simulating particle
Initiating Kalman filtering for particle: 13
Particle 13:
eta 2.421497852558391, phi -1.8548918686859615,
p 8.086634166527515, q -1.60217662e-19,
brem = False
output State:
[[ 0.00101006]
 [ 0.00103547]
 [-0.17181345]
 [-0.05016846]
 [-0.03707457]]
Data added to pickle list for particle: 13
Particle 14:
eta 3.0725812404401, phi -2.3506551677685703,
p 9.0, q 1.60217662e-19,
brem = False
input State:
[[ 0.001     ]
 [ 0.001     ]
 [-0.06598335]
 [-0.06525637]
 [ 0.03331206]]

Simulating particle
Initiating Kalman filtering for particle: 14
Particle 14:
eta 3.0762378006790763, phi -2.353605133340443,
p 8.981328631923034, q 1.60217662e-19,
brem = False
output State:
[[ 0.0009678 ]
 [ 0.00100604]
 [-0.06554941]
 [-0.06521082]
 [ 0.03338131]]
Data added to pickle list for particle: 14
Particle 15:
eta 3.0309043277059513, phi 0.6473895346927759,
p 9.0, q -1.60217662e-19,
brem = False
input State:
[[ 0.001     ]
 [ 0.001     ]
 [ 0.05836224]
 [ 0.07718918]
 [-0.03331206]]

Simulating particle
Initiating Kalman filtering for particle: 15
Particle 15:
eta 3.0323078795757072, phi 0.6482213118285055,
p 8.912344708401603, q -1.60217662e-19,
brem = False
output State:
[[ 0.00102246]
 [ 0.00100178]
 [ 0.05834409]
 [ 0.07703191]
 [-0.03363969]]
Data added to pickle list for particle: 15
Particle 16:
eta 4.270572234972057, phi 3.1336387649747275,
p 10.0, q 1.60217662e-19,
brem = False
input State:
[[ 0.001     ]
 [ 0.001     ]
 [ 0.00022233]
 [-0.02795214]
 [ 0.02998085]]

Simulating particle
Initiating Kalman filtering for particle: 16
Particle 16:
eta 4.267314108201283, phi 3.1191674325916954,
p 10.081171127303262, q 1.60217662e-19,
brem = False
output State:
[[ 0.00101294]
 [ 0.00098821]
 [ 0.00062885]
 [-0.02803723]
 [ 0.02973945]]
Data added to pickle list for particle: 16
Particle 17:
eta 3.1861688718393797, phi -3.0161180852116813,
p 10.0, q -1.60217662e-19,
brem = False
input State:
[[ 0.001     ]
 [ 0.001     ]
 [-0.01036221]
 [-0.0821503 ]
 [-0.02998085]]

Simulating particle
Initiating Kalman filtering for particle: 17
Particle 17:
eta 3.181441285989814, phi -3.0139036115705875,
p 10.107981493858535, q -1.60217662e-19,
brem = False
output State:
[[ 0.00100767]
 [ 0.00101223]
 [-0.01059424]
 [-0.08251768]
 [-0.02966057]]
Data added to pickle list for particle: 17
Particle 18:
eta 4.2051620888036725, phi -2.426436615441038,
p 11.0, q 1.60217662e-19,
brem = False
input State:
[[ 0.001     ]
 [ 0.001     ]
 [-0.01956935]
 [-0.02253148]
 [ 0.02725532]]

Simulating particle
Initiating Kalman filtering for particle: 18
Particle 18:
eta 4.224448263003891, phi -2.4384597238664507,
p 11.005564776984441, q 1.60217662e-19,
brem = False
output State:
[[ 0.00098689]
 [ 0.00098705]
 [-0.01892829]
 [-0.0223301 ]
 [ 0.02724154]]
Data added to pickle list for particle: 18
Particle 19:
eta 3.4736608603305155, phi 0.3581089962554634,
p 11.0, q -1.60217662e-19,
brem = False
input State:
[[ 0.001     ]
 [ 0.001     ]
 [ 0.02175448]
 [ 0.0581289 ]
 [-0.02725532]]

Simulating particle
Initiating Kalman filtering for particle: 19
Skip particle 19 because:('overflow encountered in double_scalars',)
Data added to pickle list for particle: 19
Particle 20:
eta 4.3029978186866025, phi 1.9064795836035717,
p 12.0, q 1.60217662e-19,
brem = False
input State:
[[ 0.001     ]
 [ 0.001     ]
 [ 0.02555045]
 [-0.00891423]
 [ 0.02498404]]

Simulating particle
Initiating Kalman filtering for particle: 20
Particle 20:
eta 4.293095632467769, phi 1.9240147541113077,
p 12.107501668092338, q 1.60217662e-19,
brem = False
output State:
[[ 0.00098915]
 [ 0.00104338]
 [ 0.02564298]
 [-0.00945406]
 [ 0.02476221]]
Data added to pickle list for particle: 20
Particle 21:
eta 3.194154363369979, phi 1.6122333558406343,
p 12.0, q -1.60217662e-19,
brem = False
input State:
[[ 0.001     ]
 [ 0.001     ]
 [ 0.08206994]
 [-0.00340268]
 [-0.02498404]]

Simulating particle
Initiating Kalman filtering for particle: 21
Particle 21:
eta 3.1945293787916405, phi 1.6114950413026041,
p 12.10984636414146, q -1.60217662e-19,
brem = False
output State:
[[ 0.00099166]
 [ 0.00100161]
 [ 0.08204156]
 [-0.00334083]
 [-0.02475742]]
Data added to pickle list for particle: 21
Particle 22:
eta 2.991419413131683, phi -2.455586436622961,
p 12.999999999999998, q 1.60217662e-19,
brem = False
input State:
[[ 0.001     ]
 [ 0.001     ]
 [-0.06377981]
 [-0.07790911]
 [ 0.02306219]]

Simulating particle
Initiating Kalman filtering for particle: 22
Particle 22:
eta 2.9954710241131304, phi -2.4519896397579632,
p 13.103126165957809, q 1.60217662e-19,
brem = False
output State:
[[ 0.00098775]
 [ 0.00099419]
 [-0.0637993 ]
 [-0.07736353]
 [ 0.02288068]]
Data added to pickle list for particle: 22
Particle 23:
eta 3.4739047961928176, phi -1.3146281941799793,
p 12.999999999999998, q -1.60217662e-19,
brem = False
input State:
[[ 0.001     ]
 [ 0.001     ]
 [-0.06002628]
 [ 0.01572224]
 [-0.02306219]]

Simulating particle
Initiating Kalman filtering for particle: 23
Particle 23:
eta 3.4827153440426386, phi -1.311143163403803,
p 12.844047949937275, q -1.60217662e-19,
brem = False
output State:
[[ 0.00096571]
 [ 0.00098713]
 [-0.05944407]
 [ 0.01579133]
 [-0.02334221]]
Data added to pickle list for particle: 23
Particle 24:
eta 4.699625122946022, phi 0.586738505023972,
p 14.0, q 1.60217662e-19,
brem = False
input State:
[[0.001     ]
 [0.001     ]
 [0.01007577]
 [0.01515513]
 [0.02141489]]

Simulating particle
Initiating Kalman filtering for particle: 24
Skip particle 24 because:too many refits
Data added to pickle list for particle: 24
Particle 25:
eta 3.228949314984992, phi -0.2752855869446213,
p 14.0, q -1.60217662e-19,
brem = False
input State:
[[ 0.001     ]
 [ 0.001     ]
 [-0.0215616 ]
 [ 0.07633587]
 [-0.02141489]]

Simulating particle
Initiating Kalman filtering for particle: 25
Particle 25:
eta 3.22927560307975, phi -0.2715306762420504,
p 13.900535190651992, q -1.60217662e-19,
brem = False
output State:
[[ 0.00097204]
 [ 0.00101675]
 [-0.02126785]
 [ 0.07639128]
 [-0.02156813]]
Data added to pickle list for particle: 25
Particle 26:
eta 3.5779465628153977, phi -0.9784979107435067,
p 15.000000000000002, q 1.60217662e-19,
brem = False
input State:
[[ 0.001     ]
 [ 0.001     ]
 [-0.04638596]
 [ 0.03121263]
 [ 0.01998723]]

Simulating particle
Initiating Kalman filtering for particle: 26
Particle 26:
eta 3.5801738774405267, phi -0.9759852651076928,
p 15.110789103804287, q 1.60217662e-19,
brem = False
output State:
[[ 0.00098601]
 [ 0.00097506]
 [-0.0462042 ]
 [ 0.03125927]
 [ 0.01984069]]
Data added to pickle list for particle: 26
Particle 27:
eta 3.496769390191499, phi 2.9895681659899913,
p 15.000000000000002, q -1.60217662e-19,
brem = False
input State:
[[ 0.001     ]
 [ 0.001     ]
 [ 0.00918418]
 [-0.0599464 ]
 [-0.01998723]]

Simulating particle
Initiating Kalman filtering for particle: 27
Particle 27:
eta 3.49663251114067, phi 2.9948809874717575,
p 15.035604318076498, q -1.60217662e-19,
brem = False
output State:
[[ 0.00101169]
 [ 0.00101976]
 [ 0.00886679]
 [-0.06000257]
 [-0.0199399 ]]
Data added to pickle list for particle: 27
Particle 28:
eta 2.7160996267614976, phi 1.1748668993711844,
p 16.0, q 1.60217662e-19,
brem = False
input State:
[[0.001     ]
 [0.001     ]
 [0.12256826]
 [0.05123393]
 [0.01873803]]

Simulating particle
Initiating Kalman filtering for particle: 28
Particle 28:
eta 2.717051221577869, phi 1.1750279275712958,
p 15.91048661121316, q 1.60217662e-19,
brem = False
output State:
[[0.00099968]
 [0.00102301]
 [0.1224589 ]
 [0.05116505]
 [0.01884345]]
Data added to pickle list for particle: 28
Particle 29:
eta 2.614361298135486, phi -2.551953686040059,
p 16.0, q -1.60217662e-19,
brem = False
input State:
[[ 0.001     ]
 [ 0.001     ]
 [-0.08186231]
 [-0.12235917]
 [-0.01873803]]

Simulating particle
Initiating Kalman filtering for particle: 29
Particle 29:
eta 2.6142691902567727, phi -2.5487518371920337,
p 16.115255153129883, q -1.60217662e-19,
brem = False
output State:
[[ 0.00101666]
 [ 0.00097753]
 [-0.08226132]
 [-0.1221078 ]
 [-0.01860402]]
Data added to pickle list for particle: 29
Particle 30:
eta 2.691509146872955, phi 2.4465151725768592,
p 17.0, q 1.60217662e-19,
brem = False
input State:
[[ 0.001     ]
 [ 0.001     ]
 [ 0.08721756]
 [-0.10458892]
 [ 0.01763579]]

Simulating particle
Initiating Kalman filtering for particle: 30
Particle 30:
eta 2.6908709392845696, phi 2.4453208888742397,
p 17.055538427896565, q 1.60217662e-19,
brem = False
output State:
[[ 0.00101521]
 [ 0.00100449]
 [ 0.08739868]
 [-0.104552  ]
 [ 0.01757837]]
Data added to pickle list for particle: 30
Particle 31:
eta 3.7240520888532673, phi 1.4514336571497297,
p 17.0, q -1.60217662e-19,
brem = False
input State:
[[ 0.001     ]
 [ 0.001     ]
 [ 0.04795641]
 [ 0.00575155]
 [-0.01763579]]

Simulating particle
Initiating Kalman filtering for particle: 31
Particle 31:
eta 3.7264973061588993, phi 1.4499224828978432,
p 16.941548737122844, q -1.60217662e-19,
brem = False
output State:
[[ 0.00100387]
 [ 0.00101435]
 [ 0.04783042]
 [ 0.00580977]
 [-0.01769664]]
Data added to pickle list for particle: 31
Particle 32:
eta 3.246254092473122, phi -0.982920682922772,
p 18.0, q 1.60217662e-19,
brem = False
input State:
[[ 0.001     ]
 [ 0.001     ]
 [-0.06487008]
 [ 0.04323482]
 [ 0.01665603]]

Simulating particle
Initiating Kalman filtering for particle: 32
Particle 32:
eta 3.246502835687189, phi -0.9807082943075022,
p 17.959108728673126, q 1.60217662e-19,
brem = False
output State:
[[ 0.00098843]
 [ 0.00099744]
 [-0.06475811]
 [ 0.04336742]
 [ 0.01669395]]
Data added to pickle list for particle: 32
Particle 33:
eta 4.430778755836006, phi -1.9762680151224712,
p 18.0, q -1.60217662e-19,
brem = False
input State:
[[ 0.001     ]
 [ 0.001     ]
 [-0.0218829 ]
 [-0.00939341]
 [-0.01665603]]

Simulating particle
Initiating Kalman filtering for particle: 33
Particle 33:
eta 4.432413089393362, phi -1.966870774394732,
p 18.265377659924127, q -1.60217662e-19,
brem = False
output State:
[[ 0.00098946]
 [ 0.00095517]
 [-0.02193431]
 [-0.00917235]
 [-0.01641403]]
Data added to pickle list for particle: 33
Particle 34:
eta 3.7224002563338807, phi -1.218938143865189,
p 19.0, q 1.60217662e-19,
brem = False
input State:
[[ 0.001     ]
 [ 0.001     ]
 [-0.04541596]
 [ 0.01667382]
 [ 0.01577939]]

Simulating particle
Initiating Kalman filtering for particle: 34
Particle 34:
eta 3.722496639835708, phi -1.2302199219290177,
p 18.889066451108388, q 1.60217662e-19,
brem = False
output State:
[[ 0.00100255]
 [ 0.00101366]
 [-0.04559678]
 [ 0.01615884]
 [ 0.01587207]]
Data added to pickle list for particle: 34
Particle 35:
eta 3.36374026043382, phi -1.7403386121253253,
p 19.0, q -1.60217662e-19,
brem = False
input State:
[[ 0.001     ]
 [ 0.001     ]
 [-0.06830062]
 [-0.01169209]
 [-0.01577939]]

Simulating particle
Initiating Kalman filtering for particle: 35
Particle 35:
eta 3.35929123341853, phi -1.7333307693003852,
p 18.94582861492111, q -1.60217662e-19,
brem = False
output State:
[[ 0.00102381]
 [ 0.00097273]
 [-0.06868652]
 [-0.01126328]
 [-0.01582451]]
Data added to pickle list for particle: 35
Particle 36:
eta 4.888915672599679, phi -2.569201126458144,
p 20.0, q 1.60217662e-19,
brem = False
input State:
[[ 0.001     ]
 [ 0.001     ]
 [-0.00815717]
 [-0.01265957]
 [ 0.01499042]]

Simulating particle
Initiating Kalman filtering for particle: 36
Particle 36:
eta 4.884303671187368, phi -2.5606558397503165,
p 19.65410367681688, q 1.60217662e-19,
brem = False
output State:
[[ 0.00100933]
 [ 0.00099737]
 [-0.00830326]
 [-0.01264761]
 [ 0.01525424]]
Data added to pickle list for particle: 36
Particle 37:
eta 2.3792037456843995, phi 1.1205008796650437,
p 20.0, q -1.60217662e-19,
brem = False
input State:
[[ 0.001     ]
 [ 0.001     ]
 [ 0.16822601]
 [ 0.08132373]
 [-0.01499042]]

Simulating particle
Initiating Kalman filtering for particle: 37
Particle 37:
eta 2.3800172249451803, phi 1.1199629088969032,
p 19.64506979204671, q -1.60217662e-19,
brem = False
output State:
[[ 0.00099965]
 [ 0.0009965 ]
 [ 0.16804311]
 [ 0.08134688]
 [-0.01526126]]
Data added to pickle list for particle: 37
Particle 38:
eta 2.3595079329444477, phi 1.5424570412620624,
p 21.0, q 1.60217662e-19,
brem = False
input State:
[[0.001     ]
 [0.001     ]
 [0.19055806]
 [0.00540173]
 [0.0142766 ]]

Simulating particle
Initiating Kalman filtering for particle: 38
Particle 38:
eta 2.3597534680615824, phi 1.5410050356267713,
p 21.029502128699512, q 1.60217662e-19,
brem = False
output State:
[[0.00100425]
 [0.00097493]
 [0.19050239]
 [0.00567699]
 [0.01425657]]
Data added to pickle list for particle: 38
Particle 39:
eta 3.3022615347222506, phi -0.3346447552610281,
p 21.0, q -1.60217662e-19,
brem = False
input State:
[[ 0.001     ]
 [ 0.001     ]
 [-0.0242054 ]
 [ 0.06961117]
 [-0.0142766 ]]

Simulating particle
Initiating Kalman filtering for particle: 39
Particle 39:
eta 3.3082878677709076, phi -0.335840309526247,
p 21.176457736798476, q -1.60217662e-19,
brem = False
output State:
[[ 0.00099959]
 [ 0.00104452]
 [-0.02414228]
 [ 0.069163  ]
 [-0.01415763]]
Data added to pickle list for particle: 39
Particle 40:
eta 3.825928132485937, phi -1.323178883734018,
p 22.0, q 1.60217662e-19,
brem = False
input State:
[[ 0.001     ]
 [ 0.001     ]
 [-0.04228675]
 [ 0.01069033]
 [ 0.01362766]]

Simulating particle
Initiating Kalman filtering for particle: 40
Particle 40:
eta 3.8220657270076255, phi -1.3210675845212587,
p 21.970514581931933, q 1.60217662e-19,
brem = False
output State:
[[ 0.00102346]
 [ 0.00099694]
 [-0.0424278 ]
 [ 0.01082134]
 [ 0.01364595]]
Data added to pickle list for particle: 40
Particle 41:
eta 2.858754799833102, phi -2.6137817927885894,
p 22.0, q -1.60217662e-19,
brem = False
input State:
[[ 0.001     ]
 [ 0.001     ]
 [-0.05794846]
 [-0.09940041]
 [-0.01362766]]

Simulating particle
Initiating Kalman filtering for particle: 41
Particle 41:
eta 2.8589486787958127, phi -2.615573514982129,
p 21.952548991162764, q -1.60217662e-19,
brem = False
output State:
[[ 0.00098426]
 [ 0.00099967]
 [-0.057759  ]
 [-0.09948466]
 [-0.01365712]]
Data added to pickle list for particle: 41
Particle 42:
eta 4.983418411081015, phi 1.8118007256327477,
p 23.0, q 1.60217662e-19,
brem = False
input State:
[[ 0.001     ]
 [ 0.001     ]
 [ 0.01330585]
 [-0.00327033]
 [ 0.01303515]]

Simulating particle
Initiating Kalman filtering for particle: 42
Particle 42:
eta 5.0000000557857875, phi 1.7967598085745138,
p 22.888601838701064, q 1.60217662e-19,
brem = False
output State:
[[ 0.0010143 ]
 [ 0.00097465]
 [ 0.01313391]
 [-0.00301935]
 [ 0.01309859]]
Data added to pickle list for particle: 42
Particle 43:
eta 3.2676073230419216, phi -1.4429327420910691,
p 23.0, q -1.60217662e-19,
brem = False
input State:
[[ 0.001     ]
 [ 0.001     ]
 [-0.07568278]
 [ 0.00973016]
 [-0.01303515]]

Simulating particle
Initiating Kalman filtering for particle: 43
Particle 43:
eta 3.27037506288724, phi -1.4397877037846043,
p 22.951360088808954, q -1.60217662e-19,
brem = False
output State:
[[ 0.00098272]
 [ 0.00099876]
 [-0.07544211]
 [ 0.0099405 ]
 [-0.01306278]]
Data added to pickle list for particle: 43
Particle 44:
eta 2.528270175584224, phi 2.3536728511284446,
p 24.0, q 1.60217662e-19,
brem = False
input State:
[[ 0.001     ]
 [ 0.001     ]
 [ 0.11385912]
 [-0.11328634]
 [ 0.01249202]]

Simulating particle
Initiating Kalman filtering for particle: 44
Particle 44:
eta 2.5282495487999093, phi 2.3536084884507136,
p 24.48478735545596, q 1.60217662e-19,
brem = False
output State:
[[ 0.00099037]
 [ 0.0009998 ]
 [ 0.11386879]
 [-0.11328138]
 [ 0.01224468]]
Data added to pickle list for particle: 44
Particle 45:
eta 2.920026667422685, phi 0.6295454380956126,
p 24.0, q -1.60217662e-19,
brem = False
input State:
[[ 0.001     ]
 [ 0.001     ]
 [ 0.06369344]
 [ 0.0874407 ]
 [-0.01249202]]

Simulating particle
Initiating Kalman filtering for particle: 45
Particle 45:
eta 2.9199714923549394, phi 0.6311594593903737,
p 23.996110378327835, q -1.60217662e-19,
brem = False
output State:
[[ 0.00100515]
 [ 0.00101593]
 [ 0.06383803]
 [ 0.08734263]
 [-0.01249405]]
Data added to pickle list for particle: 45
Particle 46:
eta 3.6186999381002285, phi 2.648996273489668,
p 25.0, q 1.60217662e-19,
brem = False
input State:
[[ 0.001     ]
 [ 0.001     ]
 [ 0.02538308]
 [-0.04729227]
 [ 0.01199234]]

Simulating particle
Initiating Kalman filtering for particle: 46
Particle 46:
eta 3.6211839422517818, phi 2.6478396450860635,
p 29.430249702968506, q 1.60217662e-19,
brem = False
output State:
[[ 0.00100126]
 [ 0.00100466]
 [ 0.02537456]
 [-0.04714546]
 [ 0.01018709]]
Data added to pickle list for particle: 46
Particle 47:
eta 3.3672651387912444, phi -0.9099316353947042,
p 25.0, q -1.60217662e-19,
brem = False
input State:
[[ 0.001     ]
 [ 0.001     ]
 [-0.05451213]
 [ 0.04238271]
 [-0.01199234]]

Simulating particle
Initiating Kalman filtering for particle: 47
Particle 47:
eta 3.36104339156575, phi -0.9086775960551157,
p 24.81057041115369, q -1.60217662e-19,
brem = False
output State:
[[ 0.00101894]
 [ 0.00096758]
 [-0.05479964]
 [ 0.04271662]
 [-0.0120839 ]]
Data added to pickle list for particle: 47
Particle 48:
eta 4.0048305038466205, phi -0.9990973189915442,
p 25.999999999999996, q 1.60217662e-19,
brem = False
input State:
[[ 0.001     ]
 [ 0.001     ]
 [-0.03066802]
 [ 0.01973083]
 [ 0.0115311 ]]

Simulating particle
Initiating Kalman filtering for particle: 48
Particle 48:
eta 4.009139529734153, phi -0.9949540722485062,
p 25.71049822982075, q 1.60217662e-19,
brem = False
output State:
[[ 0.00098354]
 [ 0.00100477]
 [-0.03045441]
 [ 0.01977228]
 [ 0.01166094]]
Data added to pickle list for particle: 48
Particle 49:
eta 4.73777273522664, phi 2.1255612024700956,
p 25.999999999999996, q -1.60217662e-19,
brem = False
input State:
[[ 0.001     ]
 [ 0.001     ]
 [ 0.01489039]
 [-0.00922728]
 [-0.0115311 ]]

Simulating particle
Initiating Kalman filtering for particle: 49
Particle 49:
eta 4.734586227057562, phi 2.1424681955194163,
p 26.188296762101995, q -1.60217662e-19,
brem = False
output State:
[[ 0.00102409]
 [ 0.00102016]
 [ 0.01477929]
 [-0.00950796]
 [-0.01144819]]
Data added to pickle list for particle: 49
Particle 50:
eta 2.9299982822734734, phi 3.1185640585280834,
p 27.0, q 1.60217662e-19,
brem = False
input State:
[[ 0.001     ]
 [ 0.001     ]
 [ 0.00246614]
 [-0.10707123]
 [ 0.01110402]]

Simulating particle
Initiating Kalman filtering for particle: 50
Particle 50:
eta 2.9315859934328463, phi 3.119245100523892,
p 27.273522054899345, q 1.60217662e-19,
brem = False
output State:
[[ 0.00101354]
 [ 0.00099281]
 [ 0.0023894 ]
 [-0.10690205]
 [ 0.01099266]]
Data added to pickle list for particle: 50
Particle 51:
eta 2.8078033207279263, phi -2.7579148226910926,
p 27.0, q -1.60217662e-19,
brem = False
input State:
[[ 0.001     ]
 [ 0.001     ]
 [-0.04533766]
 [-0.11230989]
 [-0.01110402]]

Simulating particle
Initiating Kalman filtering for particle: 51
Particle 51:
eta 2.8092353036846256, phi -2.7572151971219148,
p 27.090640210726765, q -1.60217662e-19,
brem = False
output State:
[[ 0.00101197]
 [ 0.00098303]
 [-0.04535076]
 [-0.11211631]
 [-0.01106687]]
Data added to pickle list for particle: 51
Particle 52:
eta 4.188116157867387, phi -2.8774499592321527,
p 28.0, q 1.60217662e-19,
brem = False
input State:
[[ 0.001     ]
 [ 0.001     ]
 [-0.00792558]
 [-0.02930381]
 [ 0.01070745]]

Simulating particle
Initiating Kalman filtering for particle: 52
Particle 52:
eta 4.1954594683373365, phi -2.8665605406509527,
p 28.163366274696987, q 1.60217662e-19,
brem = False
output State:
[[ 0.00100752]
 [ 0.00096859]
 [-0.00818386]
 [-0.02900192]
 [ 0.01064534]]
Data added to pickle list for particle: 52
Particle 53:
eta 3.8021906734446693, phi -1.1040759106561289,
p 28.0, q -1.60217662e-19,
brem = False
input State:
[[ 0.001     ]
 [ 0.001     ]
 [-0.03988882]
 [ 0.02009786]
 [-0.01070745]]

Simulating particle
Initiating Kalman filtering for particle: 53
Particle 53:
eta 3.7993812379349814, phi -1.1129736061454285,
p 28.309983527193577, q -1.60217662e-19,
brem = False
output State:
[[ 0.00101224]
 [ 0.00103501]
 [-0.0401789 ]
 [ 0.01979775]
 [-0.0105902 ]]
Data added to pickle list for particle: 53
Particle 54:
eta 2.5463018080563624, phi 1.5917201400479795,
p 29.0, q 1.60217662e-19,
brem = False
input State:
[[ 0.001     ]
 [ 0.001     ]
 [ 0.15767606]
 [-0.00329967]
 [ 0.01033822]]

Simulating particle
Initiating Kalman filtering for particle: 54
Particle 54:
eta 2.5456793335707326, phi 1.5902769867098256,
p 29.0865784774385, q 1.60217662e-19,
brem = False
output State:
[[ 0.00097719]
 [ 0.00097615]
 [ 0.15778006]
 [-0.00307405]
 [ 0.01030745]]
Data added to pickle list for particle: 54
Particle 55:
eta 3.530292954192273, phi 0.95282220915443,
p 29.0, q -1.60217662e-19,
brem = False
input State:
[[ 0.001     ]
 [ 0.001     ]
 [ 0.0477972 ]
 [ 0.03397688]
 [-0.01033822]]

Simulating particle
Initiating Kalman filtering for particle: 55
Skip particle 55 because:('overflow encountered in double_scalars',)
Data added to pickle list for particle: 55
Particle 56:
eta 2.733452412533811, phi -2.9539238489772357,
p 30.000000000000004, q 1.60217662e-19,
brem = False
input State:
[[ 0.001     ]
 [ 0.001     ]
 [-0.02435482]
 [-0.12824842]
 [ 0.00999362]]

Simulating particle
Initiating Kalman filtering for particle: 56
Particle 56:
eta 2.732686012526172, phi -2.95429867858592,
p 30.12198450869452, q 1.60217662e-19,
brem = False
output State:
[[ 0.00099026]
 [ 0.00098981]
 [-0.02432554]
 [-0.12835671]
 [ 0.00995315]]
Data added to pickle list for particle: 56
Particle 57:
eta 4.410588162646105, phi -2.9285687524142094,
p 30.000000000000004, q -1.60217662e-19,
brem = False
input State:
[[ 0.001     ]
 [ 0.001     ]
 [-0.00513734]
 [-0.02375038]
 [-0.00999362]]

Simulating particle
Initiating Kalman filtering for particle: 57
Particle 57:
eta 4.421862834421003, phi -2.9149342054029397,
p 29.953629607705796, q -1.60217662e-19,
brem = False
output State:
[[ 0.00102036]
 [ 0.00096903]
 [-0.00539944]
 [-0.02341259]
 [-0.01000909]]
Data added to pickle list for particle: 57
Particle 58:
eta 2.0450933634922004, phi -1.8595214961344537,
p 31.0, q 1.60217662e-19,
brem = False
input State:
[[ 0.001     ]
 [ 0.001     ]
 [-0.25224817]
 [-0.074924  ]
 [ 0.00967124]]

Simulating particle
Initiating Kalman filtering for particle: 58
Particle 58:
eta 2.044350604260029, phi -1.8587354035490973,
p 30.19246238533016, q 1.60217662e-19,
brem = False
output State:
[[ 0.00101696]
 [ 0.00098098]
 [-0.25250085]
 [-0.07478311]
 [ 0.00992991]]
Data added to pickle list for particle: 58
Particle 59:
eta 2.846635485869264, phi 2.818299048948722,
p 31.0, q -1.60217662e-19,
brem = False
input State:
[[ 0.001     ]
 [ 0.001     ]
 [ 0.03700178]
 [-0.11043701]
 [-0.00967124]]

Simulating particle
Initiating Kalman filtering for particle: 59
Particle 59:
eta 2.846400362730373, phi 2.819484956809131,
p 31.474967928344793, q -1.60217662e-19,
brem = False
output State:
[[ 0.00101664]
 [ 0.00100094]
 [ 0.03687951]
 [-0.11050697]
 [-0.0095253 ]]
Data added to pickle list for particle: 59
Particle 60:
eta 4.558348188079372, phi 2.7342673992562805,
p 32.0, q 1.60217662e-19,
brem = False
input State:
[[ 0.001     ]
 [ 0.001     ]
 [ 0.00830381]
 [-0.01924606]
 [ 0.00936902]]

Simulating particle
Initiating Kalman filtering for particle: 60
Particle 60:
eta 4.557009233792874, phi 2.7325264726941754,
p 31.640897885732755, q 1.60217662e-19,
brem = False
output State:
[[ 0.00100245]
 [ 0.00101524]
 [ 0.00834847]
 [-0.01925735]
 [ 0.00947535]]
Data added to pickle list for particle: 60
Particle 61:
eta 4.441130076093968, phi -2.615391604790123,
p 32.0, q -1.60217662e-19,
brem = False
input State:
[[ 0.001     ]
 [ 0.001     ]
 [-0.01183733]
 [-0.02038019]
 [-0.00936902]]

Simulating particle
Initiating Kalman filtering for particle: 61
Particle 61:
eta 4.44482958028406, phi -2.6068330775734396,
p 31.872450150140207, q -1.60217662e-19,
brem = False
output State:
[[ 0.00100848]
 [ 0.00099139]
 [-0.01196695]
 [-0.02020323]
 [-0.00940651]]
Data added to pickle list for particle: 61
Particle 62:
eta 2.009113816468564, phi -1.2986743963828524,
p 33.0, q 1.60217662e-19,
brem = False
input State:
[[ 0.001     ]
 [ 0.001     ]
 [-0.26307674]
 [ 0.07340997]
 [ 0.00908511]]

Simulating particle
Initiating Kalman filtering for particle: 62
Particle 62:
eta 2.009537224063047, phi -1.2980105191287823,
p 32.52963454975856, q 1.60217662e-19,
brem = False
output State:
[[ 0.00099307]
 [ 0.00099505]
 [-0.26291253]
 [ 0.07355232]
 [ 0.00921647]]
Data added to pickle list for particle: 62
Particle 63:
eta 4.59116837355075, phi -3.0708872364041264,
p 33.0, q -1.60217662e-19,
brem = False
input State:
[[ 0.001     ]
 [ 0.001     ]
 [-0.001433  ]
 [-0.02023341]
 [-0.00908511]]

Simulating particle
Initiating Kalman filtering for particle: 63
Particle 63:
eta 4.603465904683089, phi -3.069023083935959,
p 33.27143739053078, q -1.60217662e-19,
brem = False
output State:
[[ 0.00101383]
 [ 0.00097715]
 [-0.00145274]
 [-0.01998339]
 [-0.00901099]]
Data added to pickle list for particle: 63
Particle 64:
eta 3.5572307690246774, phi 0.21782511164520124,
p 34.0, q 1.60217662e-19,
brem = False
input State:
[[0.001     ]
 [0.001     ]
 [0.01233576]
 [0.05573294]
 [0.0088179 ]]

Simulating particle
Initiating Kalman filtering for particle: 64
Particle 64:
eta 3.5588644743686855, phi 0.21863389382243442,
p 34.023094145095804, q 1.60217662e-19,
brem = False
output State:
[[0.00100227]
 [0.00099458]
 [0.01236058]
 [0.05563184]
 [0.00881191]]
Data added to pickle list for particle: 64
Particle 65:
eta 2.308771923652947, phi 1.8248636761155583,
p 34.0, q -1.60217662e-19,
brem = False
input State:
[[ 0.001     ]
 [ 0.001     ]
 [ 0.19430483]
 [-0.05045688]
 [-0.0088179 ]]

Simulating particle
Initiating Kalman filtering for particle: 65
Particle 65:
eta 2.3084408952264712, phi 1.8246305145222896,
p 35.09296182516309, q -1.60217662e-19,
brem = False
output State:
[[ 0.00100296]
 [ 0.00099561]
 [ 0.19438221]
 [-0.0504286 ]
 [-0.00854327]]
Data added to pickle list for particle: 65
Particle 66:
eta 4.700831087401682, phi -0.1806706322315423,
p 35.0, q 1.60217662e-19,
brem = False
input State:
[[ 0.001     ]
 [ 0.001     ]
 [-0.0032662 ]
 [ 0.01788109]
 [ 0.00856596]]

Simulating particle
Initiating Kalman filtering for particle: 66
Particle 66:
eta 4.698102589992562, phi -0.1785017154474327,
p 35.18926412880597, q 1.60217662e-19,
brem = False
output State:
[[ 0.00099199]
 [ 0.00098655]
 [-0.00323623]
 [ 0.01793701]
 [ 0.00851989]]
Data added to pickle list for particle: 66
Particle 67:
eta 4.540141194866904, phi 2.1373929284757525,
p 35.0, q -1.60217662e-19,
brem = False
input State:
[[ 0.001     ]
 [ 0.001     ]
 [ 0.01801051]
 [-0.01145788]
 [-0.00856596]]

Simulating particle
Initiating Kalman filtering for particle: 67
Particle 67:
eta 4.538362071719046, phi 2.132275359256586,
p 34.8202939427536, q -1.60217662e-19,
brem = False
output State:
[[ 0.00097793]
 [ 0.0009821 ]
 [ 0.0181011 ]
 [-0.0113858 ]
 [-0.00861017]]
Data added to pickle list for particle: 67
Particle 68:
eta 4.729551524547913, phi -2.737028332862173,
p 36.0, q 1.60217662e-19,
brem = False
input State:
[[ 0.001     ]
 [ 0.001     ]
 [-0.00695218]
 [-0.01623644]
 [ 0.00832801]]

Simulating particle
Initiating Kalman filtering for particle: 68
Particle 68:
eta 4.71353849862216, phi -2.7377736518687255,
p 35.79299823536761, q 1.60217662e-19,
brem = False
output State:
[[ 0.0010109 ]
 [ 0.00102545]
 [-0.00705212]
 [-0.01650383]
 [ 0.00837618]]
Data added to pickle list for particle: 68
Particle 69:
eta 4.2041585621741975, phi 1.0542988745601232,
p 36.0, q -1.60217662e-19,
brem = False
input State:
[[ 0.001     ]
 [ 0.001     ]
 [ 0.0259765 ]
 [ 0.01475258]
 [-0.00832801]]

Simulating particle
Initiating Kalman filtering for particle: 69
Particle 69:
eta 4.2049486128533005, phi 1.0583614697689812,
p 36.18332362033466, q -1.60217662e-19,
brem = False
output State:
[[ 0.00097831]
 [ 0.00101389]
 [ 0.02601565]
 [ 0.01463536]
 [-0.00828582]]
Data added to pickle list for particle: 69
Particle 70:
eta 3.3005349397945247, phi 2.2054280217490447,
p 36.99999999999999, q 1.60217662e-19,
brem = False
input State:
[[ 0.001     ]
 [ 0.001     ]
 [ 0.05945232]
 [-0.04377075]
 [ 0.00810293]]

Simulating particle
Initiating Kalman filtering for particle: 70
Particle 70:
eta 3.2979453071538116, phi 2.20276149763575,
p 37.329527429927374, q 1.60217662e-19,
brem = False
output State:
[[ 0.00097838]
 [ 0.00101424]
 [ 0.05972371]
 [-0.04372546]
 [ 0.0080314 ]]
Data added to pickle list for particle: 70
Particle 71:
eta 2.7760544544931673, phi -0.1598577020132071,
p 36.99999999999999, q -1.60217662e-19,
brem = False
input State:
[[ 0.001     ]
 [ 0.001     ]
 [-0.0199056 ]
 [ 0.12345822]
 [-0.00810293]]

Simulating particle
Initiating Kalman filtering for particle: 71
Particle 71:
eta 2.7765051738924296, phi -0.16040288553454923,
p 36.63748916680803, q -1.60217662e-19,
brem = False
output State:
[[ 0.00098371]
 [ 0.00101732]
 [-0.01996383]
 [ 0.12339129]
 [-0.00818311]]
Data added to pickle list for particle: 71
Particle 72:
eta 3.281166542215679, phi 2.085662242087983,
p 38.0, q 1.60217662e-19,
brem = False
input State:
[[ 0.001     ]
 [ 0.001     ]
 [ 0.06551635]
 [-0.03706683]
 [ 0.0078897 ]]

Simulating particle
Initiating Kalman filtering for particle: 72
Particle 72:
eta 3.2814971765427385, phi 2.0870768254814553,
p 38.38953214442486, q 1.60217662e-19,
brem = False
output State:
[[ 0.00099668]
 [ 0.00098922]
 [ 0.06544215]
 [-0.03714715]
 [ 0.00780964]]
Data added to pickle list for particle: 72
Particle 73:
eta 4.693021425880033, phi -2.014038894624152,
p 38.0, q -1.60217662e-19,
brem = False
input State:
[[ 0.001     ]
 [ 0.001     ]
 [-0.01654919]
 [-0.00785669]
 [-0.0078897 ]]

Simulating particle
Initiating Kalman filtering for particle: 73
Particle 73:
eta 4.676773275138941, phi -2.0223523083022474,
p 39.012599641086425, q -1.60217662e-19,
brem = False
output State:
[[ 0.0010064 ]
 [ 0.00103769]
 [-0.01675336]
 [-0.00812497]
 [-0.00768491]]
Data added to pickle list for particle: 73
Particle 74:
eta 2.052223797953248, phi 1.820852489633359,
p 39.0, q 1.60217662e-19,
brem = False
input State:
[[ 0.001     ]
 [ 0.001     ]
 [ 0.25308364]
 [-0.064638  ]
 [ 0.0076874 ]]

Simulating particle
Initiating Kalman filtering for particle: 74
Particle 74:
eta 2.0519886178025706, phi 1.8203148018339401,
p 39.88590573209361, q 1.60217662e-19,
brem = False
output State:
[[ 0.00098979]
 [ 0.0009961 ]
 [ 0.25317989]
 [-0.06451759]
 [ 0.00751665]]
Data added to pickle list for particle: 74
Particle 75:
eta 3.8871721453415358, phi 0.10711776270475798,
p 39.0, q -1.60217662e-19,
brem = False
input State:
[[ 0.001     ]
 [ 0.001     ]
 [ 0.00438597]
 [ 0.0407886 ]
 [-0.0076874 ]]

Simulating particle
Initiating Kalman filtering for particle: 75
Particle 75:
eta 3.8913658823692487, phi 0.11005029275694048,
p 39.1493868810241, q -1.60217662e-19,
brem = False
output State:
[[ 0.00099564]
 [ 0.0009967 ]
 [ 0.0044867 ]
 [ 0.04060478]
 [-0.00765806]]
Data added to pickle list for particle: 75
Particle 76:
eta 4.240177612465952, phi 0.45092131930297014,
p 40.0, q 1.60217662e-19,
brem = False
input State:
[[0.001     ]
 [0.001     ]
 [0.01255789]
 [0.02593577]
 [0.00749521]]

Simulating particle
Initiating Kalman filtering for particle: 76
Particle 76:
eta 4.233933701759319, phi 0.4651076956239039,
p 39.49822371006218, q 1.60217662e-19,
brem = False
output State:
[[0.00097127]
 [0.00099525]
 [0.01300553]
 [0.02591639]
 [0.00759043]]
Data added to pickle list for particle: 76
Particle 77:
eta 4.9157541437131185, phi -0.5815171060199116,
p 40.0, q -1.60217662e-19,
brem = False
input State:
[[ 0.001     ]
 [ 0.001     ]
 [-0.00805326]
 [ 0.01225131]
 [-0.00749521]]

Simulating particle
Initiating Kalman filtering for particle: 77
Particle 77:
eta 4.934447771842138, phi -0.5957346340447593,
p 40.044170286851866, q -1.60217662e-19,
brem = False
output State:
[[ 0.00100677]
 [ 0.00105903]
 [-0.00807425]
 [ 0.01191081]
 [-0.00748694]]
Data added to pickle list for particle: 77
Particle 78:
eta 2.513028002044924, phi -2.123067679279871,
p 41.0, q 1.60217662e-19,
brem = False
input State:
[[ 0.001     ]
 [ 0.001     ]
 [-0.13886626]
 [-0.08557421]
 [ 0.0073124 ]]

Simulating particle
Initiating Kalman filtering for particle: 78
Particle 78:
eta 2.5123366401813776, phi -2.1227167496405412,
p 40.8190065672432, q 1.60217662e-19,
brem = False
output State:
[[ 0.00099299]
 [ 0.00099902]
 [-0.13899361]
 [-0.08558541]
 [ 0.00734483]]
Data added to pickle list for particle: 78
Particle 79:
eta 4.54390966901826, phi 2.8158728808460323,
p 41.0, q -1.60217662e-19,
brem = False
input State:
[[ 0.001     ]
 [ 0.001     ]
 [ 0.0068049 ]
 [-0.02014777]
 [-0.0073124 ]]

Simulating particle
Initiating Kalman filtering for particle: 79
Particle 79:
eta 4.571385716473768, phi 2.8100510524172746,
p 40.427748624549324, q -1.60217662e-19,
brem = False
output State:
[[ 0.00099168]
 [ 0.00095895]
 [ 0.00673444]
 [-0.01956273]
 [-0.00741591]]
Data added to pickle list for particle: 79
Particle 80:
eta 3.5272622537950595, phi 0.7773750932326412,
p 42.0, q 1.60217662e-19,
brem = False
input State:
[[0.001    ]
 [0.001    ]
 [0.0412579]
 [0.0419253]
 [0.0071383]]

Simulating particle
Initiating Kalman filtering for particle: 80
Particle 80:
eta 3.5253278097673797, phi 0.7814217573462275,
p 41.57800535664898, q 1.60217662e-19,
brem = False
output State:
[[0.00097676]
 [0.00100588]
 [0.04150758]
 [0.041839  ]
 [0.00721075]]
Data added to pickle list for particle: 80
Particle 81:
eta 4.825376684124061, phi 0.4503074783242252,
p 42.0, q -1.60217662e-19,
brem = False
input State:
[[ 0.001     ]
 [ 0.001     ]
 [ 0.00698481]
 [ 0.01444831]
 [-0.0071383 ]]

Simulating particle
Initiating Kalman filtering for particle: 81
Particle 81:
eta 4.834132979010314, phi 0.46020765339352754,
p 41.56658570934246, q -1.60217662e-19,
brem = False
output State:
[[ 0.0010043 ]
 [ 0.00100768]
 [ 0.00706536]
 [ 0.01425309]
 [-0.00721273]]
Data added to pickle list for particle: 81
Particle 82:
eta 3.5951034595417797, phi -0.6241800220407449,
p 43.0, q 1.60217662e-19,
brem = False
input State:
[[ 0.001     ]
 [ 0.001     ]
 [-0.0321187 ]
 [ 0.04459455]
 [ 0.00697229]]

Simulating particle
Initiating Kalman filtering for particle: 82
Particle 82:
eta 3.59101205894177, phi -0.6251005467807713,
p 42.81920803385677, q 1.60217662e-19,
brem = False
output State:
[[ 0.00101753]
 [ 0.00097407]
 [-0.03229179]
 [ 0.04474795]
 [ 0.00700173]]
Data added to pickle list for particle: 82
Particle 83:
eta 3.4885000063320977, phi -0.11132531674500953,
p 43.0, q -1.60217662e-19,
brem = False
input State:
[[ 0.001     ]
 [ 0.001     ]
 [-0.00679353]
 [ 0.06077184]
 [-0.00697229]]

Simulating particle
Initiating Kalman filtering for particle: 83
Particle 83:
eta 3.4896515580995957, phi -0.11147417065796235,
p 43.70204320323965, q -1.60217662e-19,
brem = False
output State:
[[ 0.00099286]
 [ 0.00102978]
 [-0.00679473]
 [ 0.06070075]
 [-0.00686029]]
Data added to pickle list for particle: 83
Particle 84:
eta 2.142937247280796, phi 1.951149594374386,
p 44.0, q 1.60217662e-19,
brem = False
input State:
[[ 0.001     ]
 [ 0.001     ]
 [ 0.22089193]
 [-0.08831754]
 [ 0.00681383]]

Simulating particle
Initiating Kalman filtering for particle: 84
Particle 84:
eta 2.143211421425567, phi 1.9517152468442613,
p 43.82068590527173, q 1.60217662e-19,
brem = False
output State:
[[ 0.00101337]
 [ 0.00101572]
 [ 0.22077971]
 [-0.08841756]
 [ 0.00684171]]
Data added to pickle list for particle: 84
Particle 85:
eta 2.1195982890069356, phi -2.7954386022934563,
p 44.0, q -1.60217662e-19,
brem = False
input State:
[[ 0.001     ]
 [ 0.001     ]
 [-0.08267408]
 [-0.22921968]
 [-0.00681383]]

Simulating particle
Initiating Kalman filtering for particle: 85
Particle 85:
eta 2.119237322821533, phi -2.796271768438758,
p 44.83732597779356, q -1.60217662e-19,
brem = False
output State:
[[ 0.00097897]
 [ 0.00100196]
 [-0.08251372]
 [-0.22937369]
 [-0.00668658]]
Data added to pickle list for particle: 85
Particle 86:
eta 4.209527939982793, phi -1.610988210748374,
p 45.0, q 1.60217662e-19,
brem = False
input State:
[[ 0.001     ]
 [ 0.001     ]
 [-0.02968932]
 [-0.00119391]
 [ 0.00666241]]

Simulating particle
Initiating Kalman filtering for particle: 86
Particle 86:
eta 4.210712983481177, phi -1.6210978648117889,
p 44.967213789928, q 1.60217662e-19,
brem = False
output State:
[[ 0.00099964]
 [ 0.001029  ]
 [-0.02964057]
 [-0.00149222]
 [ 0.00666727]]
Data added to pickle list for particle: 86
Particle 87:
eta 4.342472641850624, phi -0.035566177874159326,
p 45.0, q -1.60217662e-19,
brem = False
input State:
[[ 0.001     ]
 [ 0.001     ]
 [-0.00092499]
 [ 0.02599661]
 [-0.00666241]]

Simulating particle
Initiating Kalman filtering for particle: 87
Particle 87:
eta 4.345303874251909, phi -0.032206252020549955,
p 45.60756833042341, q -1.60217662e-19,
brem = False
output State:
[[ 0.00099671]
 [ 0.00101127]
 [-0.00083527]
 [ 0.02592604]
 [-0.00657366]]
Data added to pickle list for particle: 87
Particle 88:
eta 4.559919878081473, phi -1.8661332082400266,
p 46.0, q 1.60217662e-19,
brem = False
input State:
[[ 0.001     ]
 [ 0.001     ]
 [-0.02002199]
 [-0.00609137]
 [ 0.00651758]]

Simulating particle
Initiating Kalman filtering for particle: 88
Particle 88:
eta 4.567110903001786, phi -1.8680624563964656,
p 46.31861954655368, q 1.60217662e-19,
brem = False
output State:
[[ 0.00099633]
 [ 0.00100252]
 [-0.01986679]
 [-0.00608606]
 [ 0.00647274]]
Data added to pickle list for particle: 88
Particle 89:
eta 2.136741020843911, phi 1.1903030459470432,
p 46.0, q -1.60217662e-19,
brem = False
input State:
[[ 0.001     ]
 [ 0.001     ]
 [ 0.22229111]
 [ 0.08891307]
 [-0.00651758]]

Simulating particle
Initiating Kalman filtering for particle: 89
Particle 89:
eta 2.1374694451309204, phi 1.1900218047028728,
p 46.00619934871305, q -1.60217662e-19,
brem = False
output State:
[[ 0.0010337 ]
 [ 0.00099392]
 [ 0.22209968]
 [ 0.08890896]
 [-0.0065167 ]]
Data added to pickle list for particle: 89
Particle 90:
eta 3.226127366700179, phi 1.7781060209311197,
p 47.0, q 1.60217662e-19,
brem = False
input State:
[[ 0.001     ]
 [ 0.001     ]
 [ 0.07784416]
 [-0.01637308]
 [ 0.0063789 ]]

Simulating particle
Initiating Kalman filtering for particle: 90
Particle 90:
eta 3.2272926657422176, phi 1.7812569898781059,
p 46.33241393460596, q 1.60217662e-19,
brem = False
output State:
[[ 0.00101882]
 [ 0.00103056]
 [ 0.0777013 ]
 [-0.01659887]
 [ 0.00647082]]
Data added to pickle list for particle: 90
Particle 91:
eta 3.926285331403123, phi -1.72157851620544,
p 47.0, q -1.60217662e-19,
brem = False
input State:
[[ 0.001     ]
 [ 0.001     ]
 [-0.0390013 ]
 [-0.00592568]
 [-0.0063789 ]]

Simulating particle
Initiating Kalman filtering for particle: 91
Particle 91:
eta 3.9249277211499476, phi -1.7205130546953988,
p 46.17155880733447, q -1.60217662e-19,
brem = False
output State:
[[ 0.0010224 ]
 [ 0.00098475]
 [-0.03906063]
 [-0.00589212]
 [-0.00649336]]
Data added to pickle list for particle: 91
Particle 92:
eta 3.8299280989370588, phi -1.156275040162523,
p 48.0, q 1.60217662e-19,
brem = False
input State:
[[ 0.001     ]
 [ 0.001     ]
 [-0.03976362]
 [ 0.01749668]
 [ 0.00624601]]

Simulating particle
Initiating Kalman filtering for particle: 92
Particle 92:
eta 3.829572450387911, phi -1.1587548485091983,
p 48.38798779334142, q 1.60217662e-19,
brem = False
output State:
[[ 0.00102245]
 [ 0.00098903]
 [-0.03982106]
 [ 0.01740421]
 [ 0.00619593]]
Data added to pickle list for particle: 92
Particle 93:
eta 2.9780253377814496, phi -0.03439343928371451,
p 48.0, q -1.60217662e-19,
brem = False
input State:
[[ 0.001     ]
 [ 0.001     ]
 [-0.00350919]
 [ 0.10199043]
 [-0.00624601]]

Simulating particle
Initiating Kalman filtering for particle: 93
Particle 93:
eta 2.978913752997004, phi -0.0331361653608837,
p 48.20554321449468, q -1.60217662e-19,
brem = False
output State:
[[ 0.00098755]
 [ 0.00100138]
 [-0.00337794]
 [ 0.10190372]
 [-0.00621938]]
Data added to pickle list for particle: 93
Particle 94:
eta 4.916062995357134, phi -2.1996368306054634,
p 49.0, q 1.60217662e-19,
brem = False
input State:
[[ 0.001     ]
 [ 0.001     ]
 [-0.01185297]
 [-0.00862114]
 [ 0.00611854]]

Simulating particle
Initiating Kalman filtering for particle: 94
Particle 94:
eta 4.9096522030571474, phi -2.1798149628323436,
p 48.33300927855937, q 1.60217662e-19,
brem = False
output State:
[[ 0.00101   ]
 [ 0.00099257]
 [-0.01209884]
 [-0.00843845]
 [ 0.00620298]]
Data added to pickle list for particle: 94
Particle 95:
eta 3.435804527277663, phi 2.519192043092906,
p 49.0, q -1.60217662e-19,
brem = False
input State:
[[ 0.001     ]
 [ 0.001     ]
 [ 0.03758276]
 [-0.05237728]
 [-0.00611854]]

Simulating particle
Initiating Kalman filtering for particle: 95
Particle 95:
eta 3.4351204255042354, phi 2.5209084378991466,
p 50.72281366898778, q -1.60217662e-19,
brem = False
output State:
[[ 0.00100614]
 [ 0.00101547]
 [ 0.03751851]
 [-0.05247767]
 [-0.00591072]]
Data added to pickle list for particle: 95
Particle 96:
eta 2.310395720388142, phi 2.5151064641867076,
p 50.0, q 1.60217662e-19,
brem = False
input State:
[[ 0.001     ]
 [ 0.001     ]
 [ 0.1175049 ]
 [-0.16235639]
 [ 0.00599617]]

Simulating particle
Initiating Kalman filtering for particle: 96
Particle 96:
eta 2.3109799062695005, phi 2.515225579256456,
p 50.380128983954855, q 1.60217662e-19,
brem = False
output State:
[[ 0.00101692]
 [ 0.00097508]
 [ 0.11741558]
 [-0.16227368]
 [ 0.00595093]]
Data added to pickle list for particle: 96
Particle 97:
eta 4.9135527310897205, phi 2.3679069878942944,
p 50.0, q -1.60217662e-19,
brem = False
input State:
[[ 0.001     ]
 [ 0.001     ]
 [ 0.01026746]
 [-0.01051083]
 [-0.00599617]]

Simulating particle
Initiating Kalman filtering for particle: 97
Particle 97:
eta 4.922189534472881, phi 2.3724260078534827,
p 49.71945418101983, q -1.60217662e-19,
brem = False
output State:
[[ 0.00102036]
 [ 0.00101424]
 [ 0.01013196]
 [-0.01046633]
 [-0.00603   ]]
Data added to pickle list for particle: 97
Particle 98:
eta 2.120477647023675, phi 2.1782056878977127,
p 51.0, q 1.60217662e-19,
brem = False
input State:
[[ 0.001     ]
 [ 0.001     ]
 [ 0.19990627]
 [-0.13894879]
 [ 0.0058786 ]]

Simulating particle
Initiating Kalman filtering for particle: 98
Particle 98:
eta 2.119499788776594, phi 2.179047976401479,
p 51.878906412531364, q 1.60217662e-19,
brem = False
output State:
[[ 0.00099902]
 [ 0.00102035]
 [ 0.19999035]
 [-0.13925721]
 [ 0.00577901]]
Data added to pickle list for particle: 98
Particle 99:
eta 4.595092703502872, phi -0.863725931338523,
p 51.0, q -1.60217662e-19,
brem = False
input State:
[[ 0.001     ]
 [ 0.001     ]
 [-0.01536094]
 [ 0.01312512]
 [-0.0058786 ]]

Simulating particle
Initiating Kalman filtering for particle: 99
Particle 99:
eta 4.614932235914147, phi -0.8848765856178876,
p 51.41578905328856, q -1.60217662e-19,
brem = False
output State:
[[ 0.00100028]
 [ 0.0010683 ]
 [-0.01532789]
 [ 0.01254587]
 [-0.00583106]]
Data added to pickle list for particle: 99
Particle 100:
eta 2.565349549531029, phi 0.042697557923905345,
p 51.99999999999999, q 1.60217662e-19,
brem = False
input State:
[[0.001     ]
 [0.001     ]
 [0.00660327]
 [0.15455825]
 [0.00576555]]

Simulating particle
Initiating Kalman filtering for particle: 100
Particle 100:
eta 2.566080767405083, phi 0.04209854702271201,
p 51.841559243100704, q 1.60217662e-19,
brem = False
output State:
[[0.00101578]
 [0.00098241]
 [0.00650587]
 [0.15444786]
 [0.00578317]]
Data added to pickle list for particle: 100
Particle 101:
eta 2.440960699168302, phi -0.3154406010098949,
p 51.99999999999999, q -1.60217662e-19,
brem = False
input State:
[[ 0.001     ]
 [ 0.001     ]
 [-0.05444163]
 [ 0.16682645]
 [-0.00576555]]

Simulating particle
Initiating Kalman filtering for particle: 101
Particle 101:
eta 2.4398730731241374, phi -0.31441759029445343,
p 52.15597531900392, q -1.60217662e-19,
brem = False
output State:
[[ 0.000985  ]
 [ 0.00097592]
 [-0.0543309 ]
 [ 0.16706644]
 [-0.00574831]]
Data added to pickle list for particle: 101
Particle 102:
eta 4.437813469860149, phi 0.2453030234967732,
p 53.0, q 1.60217662e-19,
brem = False
input State:
[[0.001     ]
 [0.001     ]
 [0.00574264]
 [0.02293893]
 [0.00565676]]

Simulating particle
Initiating Kalman filtering for particle: 102
Particle 102:
eta 4.439832192083979, phi 0.24456704739706953,
p 52.93907242154904, q 1.60217662e-19,
brem = False
output State:
[[0.00098956]
 [0.00098942]
 [0.0057142 ]
 [0.02289686]
 [0.00566327]]
Data added to pickle list for particle: 102
Particle 103:
eta 4.290786495121974, phi -2.2334965458644818,
p 53.0, q -1.60217662e-19,
brem = False
input State:
[[ 0.001     ]
 [ 0.001     ]
 [-0.02159517]
 [-0.01685375]
 [-0.00565676]]

Simulating particle
Initiating Kalman filtering for particle: 103
Skip particle 103 because:too many refits
Data added to pickle list for particle: 103
Particle 104:
eta 3.965397524806687, phi 2.2495817817697645,
p 54.0, q 1.60217662e-19,
brem = False
input State:
[[ 0.001     ]
 [ 0.001     ]
 [ 0.02952588]
 [-0.02381719]
 [ 0.00555201]]

Simulating particle
Initiating Kalman filtering for particle: 104
Particle 104:
eta 3.9648157297202604, phi 2.2451167800433107,
p 54.65397542735619, q 1.60217662e-19,
brem = False
output State:
[[ 0.00099362]
 [ 0.00100354]
 [ 0.02964919]
 [-0.02369891]
 [ 0.00548558]]
Data added to pickle list for particle: 104
Particle 105:
eta 4.889110229497314, phi -2.4291235383439425,
p 54.0, q -1.60217662e-19,
brem = False
input State:
[[ 0.001     ]
 [ 0.001     ]
 [-0.00984288]
 [-0.01139445]
 [-0.00555201]]

Simulating particle
Initiating Kalman filtering for particle: 105
Particle 105:
eta 4.891411292299512, phi -2.425248578708136,
p 54.1855972741424, q -1.60217662e-19,
brem = False
output State:
[[ 0.00103067]
 [ 0.00099227]
 [-0.00986424]
 [-0.01133012]
 [-0.00553299]]
Data added to pickle list for particle: 105
Particle 106:
eta 4.48492771530967, phi -0.8791906019621472,
p 54.99999999999999, q 1.60217662e-19,
brem = False
input State:
[[ 0.001     ]
 [ 0.001     ]
 [-0.0173749 ]
 [ 0.0143871 ]
 [ 0.00545106]]

Simulating particle
Initiating Kalman filtering for particle: 106
Particle 106:
eta 4.484959492655591, phi -0.885674543317907,
p 55.08094758904522, q 1.60217662e-19,
brem = False
output State:
[[ 0.00101316]
 [ 0.00100794]
 [-0.01746726]
 [ 0.01427369]
 [ 0.00544305]]
Data added to pickle list for particle: 106
Particle 107:
eta 3.154535731645024, phi -2.710598334413376,
p 54.99999999999999, q -1.60217662e-19,
brem = False
input State:
[[ 0.001     ]
 [ 0.001     ]
 [-0.03570799]
 [-0.0776556 ]
 [-0.00545106]]

Simulating particle
Initiating Kalman filtering for particle: 107
Particle 107:
eta 3.1556928998267524, phi -2.7115530786599975,
p 55.80927993412882, q -1.60217662e-19,
brem = False
output State:
[[ 0.00098156]
 [ 0.00099168]
 [-0.03559247]
 [-0.07759948]
 [-0.00537202]]
Data added to pickle list for particle: 107
Particle 108:
eta 4.302883821480664, phi -2.9179992651701854,
p 56.0, q 1.60217662e-19,
brem = False
input State:
[[ 0.001     ]
 [ 0.001     ]
 [-0.00600102]
 [-0.02639022]
 [ 0.00535372]]

Simulating particle
Initiating Kalman filtering for particle: 108
Particle 108:
eta 4.2957240286198335, phi -2.925205362274234,
p 56.545680800221525, q 1.60217662e-19,
brem = False
output State:
[[ 0.00098594]
 [ 0.00102258]
 [-0.00585246]
 [-0.02662278]
 [ 0.00530206]]
Data added to pickle list for particle: 108
Particle 109:
eta 2.5879094723496223, phi -0.9012817381293009,
p 56.0, q -1.60217662e-19,
brem = False
input State:
[[ 0.001     ]
 [ 0.001     ]
 [-0.11856617]
 [ 0.0938409 ]
 [-0.00535372]]

Simulating particle
Initiating Kalman filtering for particle: 109
Particle 109:
eta 2.5868527454768713, phi -0.9015270460528738,
p 56.436987096801246, q -1.60217662e-19,
brem = False
output State:
[[ 0.0010027 ]
 [ 0.00098843]
 [-0.118716  ]
 [ 0.09391213]
 [-0.00531227]]
Data added to pickle list for particle: 109
Particle 110:
eta 2.7338562347457294, phi 0.7121497844548286,
p 57.00000000000001, q 1.60217662e-19,
brem = False
input State:
[[0.001     ]
 [0.001     ]
 [0.08526858]
 [0.09877353]
 [0.0052598 ]]

Simulating particle
Initiating Kalman filtering for particle: 110
Particle 110:
eta 2.7351719901925313, phi 0.7146196476179443,
p 56.020851819157166, q 1.60217662e-19,
brem = False
output State:
[[0.00097685]
 [0.00105081]
 [0.08539888]
 [0.09843193]
 [0.00535173]]
Data added to pickle list for particle: 110
Particle 111:
eta 3.00463485419641, phi 2.1246198202221627,
p 57.00000000000001, q -1.60217662e-19,
brem = False
input State:
[[ 0.001     ]
 [ 0.001     ]
 [ 0.08450569]
 [-0.05225649]
 [-0.0052598 ]]

Simulating particle
Initiating Kalman filtering for particle: 111
Particle 111:
eta 3.005806433684147, phi 2.125835194313649,
p 58.06419043530258, q -1.60217662e-19,
brem = False
output State:
[[ 0.00101252]
 [ 0.00100087]
 [ 0.08434276]
 [-0.05229755]
 [-0.0051634 ]]
Data added to pickle list for particle: 111
Particle 112:
eta 4.169951052898776, phi -1.9513689205104865,
p 58.0, q 1.60217662e-19,
brem = False
input State:
[[ 0.001     ]
 [ 0.001     ]
 [-0.02870162]
 [-0.01148285]
 [ 0.00516911]]

Simulating particle
Initiating Kalman filtering for particle: 112
Particle 112:
eta 4.1815788364460635, phi -1.9494769353957853,
p 57.65071530377151, q 1.60217662e-19,
brem = False
output State:
[[ 0.00097029]
 [ 0.00098219]
 [-0.02839109]
 [-0.01129635]
 [ 0.00520043]]
Data added to pickle list for particle: 112
Particle 113:
eta 2.945772798836307, phi -1.9761021581339124,
p 58.0, q -1.60217662e-19,
brem = False
input State:
[[ 0.001     ]
 [ 0.001     ]
 [-0.09687362]
 [-0.04156475]
 [-0.00516911]]

Simulating particle
Initiating Kalman filtering for particle: 113
Particle 113:
eta 2.946668588558334, phi -1.9747800088874436,
p 58.51261574960878, q -1.60217662e-19,
brem = False
output State:
[[ 0.00100357]
 [ 0.00097138]
 [-0.09684123]
 [-0.04139933]
 [-0.00512383]]
Data added to pickle list for particle: 113
Particle 114:
eta 4.759806098557855, phi -1.5192394302346977,
p 59.0, q 1.60217662e-19,
brem = False
input State:
[[ 0.001     ]
 [ 0.001     ]
 [-0.01711303]
 [ 0.00088308]
 [ 0.0050815 ]]

Simulating particle
Initiating Kalman filtering for particle: 114
Particle 114:
eta 4.771392010474376, phi -1.509811187508514,
p 58.277134812918725, q 1.60217662e-19,
brem = False
output State:
[[ 0.00098868]
 [ 0.00098852]
 [-0.01690689]
 [ 0.00103235]
 [ 0.00514453]]
Data added to pickle list for particle: 114
Particle 115:
eta 3.9001750931347656, phi -1.0183299653385451,
p 59.0, q -1.60217662e-19,
brem = False
input State:
[[ 0.001     ]
 [ 0.001     ]
 [-0.03446924]
 [ 0.02125042]
 [-0.0050815 ]]

Simulating particle
Initiating Kalman filtering for particle: 115
Particle 115:
eta 3.898856149169347, phi -1.0197529973081307,
p 58.01687058801957, q -1.60217662e-19,
brem = False
output State:
[[ 0.00100174]
 [ 0.00099416]
 [-0.03454502]
 [ 0.02122935]
 [-0.00516761]]
Data added to pickle list for particle: 115
Particle 116:
eta 3.390550091086351, phi 2.2640704532020157,
p 60.00000000000001, q 1.60217662e-19,
brem = False
input State:
[[ 0.001     ]
 [ 0.001     ]
 [ 0.05188496]
 [-0.0431089 ]
 [ 0.00499681]]

Simulating particle
Initiating Kalman filtering for particle: 116
Particle 116:
eta 3.38456578133343, phi 2.2650307506092147,
p 60.54823996149787, q 1.60217662e-19,
brem = False
output State:
[[ 0.00097196]
 [ 0.00101687]
 [ 0.05215543]
 [-0.04341835]
 [ 0.00495156]]
Data added to pickle list for particle: 116
Particle 117:
eta 2.343451225142431, phi 0.2867958117300571,
p 60.00000000000001, q -1.60217662e-19,
brem = False
input State:
[[ 0.001     ]
 [ 0.001     ]
 [ 0.05481577]
 [ 0.18586243]
 [-0.00499681]]

Simulating particle
Initiating Kalman filtering for particle: 117
Particle 117:
eta 2.3449776954894275, phi 0.2866969270392849,
p 60.18163532507195, q -1.60217662e-19,
brem = False
output State:
[[ 0.00100104]
 [ 0.00105553]
 [ 0.05471226]
 [ 0.18557908]
 [-0.00498173]]
Data added to pickle list for particle: 117
Particle 118:
eta 4.049134189414573, phi -3.048753646999724,
p 61.0, q 1.60217662e-19,
brem = False
input State:
[[ 0.001     ]
 [ 0.001     ]
 [-0.00323409]
 [-0.03473531]
 [ 0.00491489]]

Simulating particle
Initiating Kalman filtering for particle: 118
Particle 118:
eta 4.06087029751295, phi -3.0443310377829036,
p 61.630375443203356, q 1.60217662e-19,
brem = False
output State:
[[ 0.00100392]
 [ 0.00095722]
 [-0.00334813]
 [-0.03431532]
 [ 0.00486462]]
Data added to pickle list for particle: 118
Particle 119:
eta 3.7332374191253814, phi 1.498194594351085,
p 61.0, q -1.60217662e-19,
brem = False
input State:
[[ 0.001     ]
 [ 0.001     ]
 [ 0.04773187]
 [ 0.00347152]
 [-0.00491489]]

Simulating particle
Initiating Kalman filtering for particle: 119
Particle 119:
eta 3.7340946482633224, phi 1.4989328776023414,
p 60.66559776180617, q -1.60217662e-19,
brem = False
output State:
[[ 0.00100214]
 [ 0.00099147]
 [ 0.04769347]
 [ 0.00343333]
 [-0.00494199]]
Data added to pickle list for particle: 119
Particle 120:
eta 3.244976028704987, phi -2.0346773322199185,
p 62.0, q 1.60217662e-19,
brem = False
input State:
[[ 0.001     ]
 [ 0.001     ]
 [-0.06980863]
 [-0.03492469]
 [ 0.00483562]]

Simulating particle
Initiating Kalman filtering for particle: 120
Particle 120:
eta 3.250342427386908, phi -2.029281087299587,
p 60.84882886611041, q 1.60217662e-19,
brem = False
output State:
[[ 0.00098663]
 [ 0.00094427]
 [-0.06962033]
 [-0.03436202]
 [ 0.0049271 ]]
Data added to pickle list for particle: 120
Particle 121:
eta 3.8601249876979407, phi 1.0071806939769667,
p 62.0, q -1.60217662e-19,
brem = False
input State:
[[ 0.001     ]
 [ 0.001     ]
 [ 0.03563014]
 [ 0.02251817]
 [-0.00483562]]

Simulating particle
Initiating Kalman filtering for particle: 121
Particle 121:
eta 3.8665556039094997, phi 1.0070161898888228,
p 61.922905932480894, q -1.60217662e-19,
brem = False
output State:
[[ 0.00102396]
 [ 0.00101711]
 [ 0.03539787]
 [ 0.02237953]
 [-0.00484164]]
Data added to pickle list for particle: 121
Particle 122:
eta 3.458612120445688, phi 0.9468420618466111,
p 62.99999999999999, q 1.60217662e-19,
brem = False
input State:
[[0.001     ]
 [0.001     ]
 [0.0511367 ]
 [0.03681308]
 [0.00475887]]

Simulating particle
Initiating Kalman filtering for particle: 122
Particle 122:
eta 3.4562478696258387, phi 0.9475196652424569,
p 63.5947460487394, q 1.60217662e-19,
brem = False
output State:
[[0.0009768 ]
 [0.00099057]
 [0.05128297]
 [0.03686565]
 [0.00471436]]
Data added to pickle list for particle: 122
Particle 123:
eta 4.552316208096731, phi -2.1105684700945897,
p 62.99999999999999, q -1.60217662e-19,
brem = False
input State:
[[ 0.001     ]
 [ 0.001     ]
 [-0.01808971]
 [-0.01083791]
 [-0.00475887]]

Simulating particle
Initiating Kalman filtering for particle: 123
Particle 123:
eta 4.556197253931188, phi -2.107045869016091,
p 63.86480025116205, q -1.60217662e-19,
brem = False
output State:
[[ 0.00099268]
 [ 0.00098432]
 [-0.01805754]
 [-0.01073237]
 [-0.00469442]]
Data added to pickle list for particle: 123
Particle 124:
eta 4.658115364455137, phi 1.1525984932940614,
p 64.0, q 1.60217662e-19,
brem = False
input State:
[[0.001     ]
 [0.001     ]
 [0.01733553]
 [0.00770413]
 [0.00468451]]

Simulating particle
Initiating Kalman filtering for particle: 124
Particle 124:
eta 4.6615542102119845, phi 1.1397718082576676,
p 63.256724616763, q 1.60217662e-19,
brem = False
output State:
[[0.00100979]
 [0.00098171]
 [0.01717611]
 [0.00789863]
 [0.00473955]]
Data added to pickle list for particle: 124
Particle 125:
eta 4.402743800339658, phi 0.34563394137297354,
p 64.0, q -1.60217662e-19,
brem = False
input State:
[[ 0.001     ]
 [ 0.001     ]
 [ 0.00829741]
 [ 0.02304269]
 [-0.00468451]]

Simulating particle
Initiating Kalman filtering for particle: 125
Particle 125:
eta 4.401992377526971, phi 0.34399731498523495,
p 63.27681352747138, q -1.60217662e-19,
brem = False
output State:
[[ 0.0009966 ]
 [ 0.00102553]
 [ 0.0082659 ]
 [ 0.02307358]
 [-0.00473805]]
Data added to pickle list for particle: 125
Particle 126:
eta 4.766259901690305, phi -2.8395073619878475,
p 65.0, q 1.60217662e-19,
brem = False
input State:
[[ 0.001     ]
 [ 0.001     ]
 [-0.0050653 ]
 [-0.0162546 ]
 [ 0.00461244]]

Simulating particle
Initiating Kalman filtering for particle: 126
Particle 126:
eta 4.766414612133812, phi -2.85052527783068,
p 65.25274772526022, q 1.60217662e-19,
brem = False
output State:
[[ 0.00097962]
 [ 0.00100294]
 [-0.00488515]
 [-0.0163069 ]
 [ 0.00459457]]
Data added to pickle list for particle: 126
Particle 127:
eta 4.205099248591265, phi -1.9245642131980043,
p 65.0, q -1.60217662e-19,
brem = False
input State:
[[ 0.001     ]
 [ 0.001     ]
 [-0.02799706]
 [-0.01033943]
 [-0.00461244]]

Simulating particle
Initiating Kalman filtering for particle: 127
Particle 127:
eta 4.20109507244416, phi -1.9193176564815002,
p 65.40457889007727, q -1.60217662e-19,
brem = False
output State:
[[ 0.00101902]
 [ 0.0009886 ]
 [-0.02816352]
 [-0.01023332]
 [-0.00458391]]
Data added to pickle list for particle: 127
Particle 128:
eta 2.2741106304642797, phi -0.5670158715137452,
p 66.0, q 1.60217662e-19,
brem = False
input State:
[[ 0.001     ]
 [ 0.001     ]
 [-0.1117088 ]
 [ 0.17543136]
 [ 0.00454255]]

Simulating particle
Initiating Kalman filtering for particle: 128
Particle 128:
eta 2.2743775572247604, phi -0.5682711902962094,
p 67.54087772631618, q 1.60217662e-19,
brem = False
output State:
[[ 0.00101702]
 [ 0.00102973]
 [-0.11189843]
 [ 0.17524321]
 [ 0.00443892]]
Data added to pickle list for particle: 128
Particle 129:
eta 4.2459106014977674, phi 0.31401169191430145,
p 66.0, q -1.60217662e-19,
brem = False
input State:
[[ 0.001     ]
 [ 0.001     ]
 [ 0.0088497 ]
 [ 0.02725026]
 [-0.00454255]]

Simulating particle
Initiating Kalman filtering for particle: 129
Particle 129:
eta 4.249309629752254, phi 0.30880460025072126,
p 66.72203699159587, q -1.60217662e-19,
brem = False
output State:
[[ 0.00101581]
 [ 0.00100187]
 [ 0.00867813]
 [ 0.02720331]
 [-0.0044934 ]]
Data added to pickle list for particle: 129
Particle 130:
eta 4.42658338761824, phi -2.4134844751247995,
p 67.0, q 1.60217662e-19,
brem = False
input State:
[[ 0.001     ]
 [ 0.001     ]
 [-0.01591375]
 [-0.0178502 ]
 [ 0.00447475]]

Simulating particle
Initiating Kalman filtering for particle: 130
Particle 130:
eta 4.418687528779276, phi -2.4238111335196075,
p 67.39513411795234, q 1.60217662e-19,
brem = False
output State:
[[ 0.00099932]
 [ 0.00102948]
 [-0.01585329]
 [-0.01815642]
 [ 0.00444852]]
Data added to pickle list for particle: 130
Particle 131:
eta 3.8774894315691637, phi 1.7444988119216722,
p 67.0, q -1.60217662e-19,
brem = False
input State:
[[ 0.001     ]
 [ 0.001     ]
 [ 0.04079987]
 [-0.00715919]
 [-0.00447475]]

Simulating particle
Initiating Kalman filtering for particle: 131
Particle 131:
eta 3.8853144024093957, phi 1.7447188097085566,
p 67.80345965845704, q -1.60217662e-19,
brem = False
output State:
[[ 0.00103034]
 [ 0.00096337]
 [ 0.04048003]
 [-0.00711224]
 [-0.00442173]]
Data added to pickle list for particle: 131
Particle 132:
eta 4.484470752512596, phi 2.0148729436686206,
p 68.0, q 1.60217662e-19,
brem = False
input State:
[[ 0.001     ]
 [ 0.001     ]
 [ 0.02037961]
 [-0.00969601]
 [ 0.00440895]]

Simulating particle
Initiating Kalman filtering for particle: 132
Particle 132:
eta 4.485169686832938, phi 2.010200389693587,
p 66.46932901184577, q 1.60217662e-19,
brem = False
output State:
[[ 0.00098965]
 [ 0.00097057]
 [ 0.02041042]
 [-0.00959397]
 [ 0.00451048]]
Data added to pickle list for particle: 132
Particle 133:
eta 4.62691219522323, phi 2.7380349166603555,
p 68.0, q -1.60217662e-19,
brem = False
input State:
[[ 0.001     ]
 [ 0.001     ]
 [ 0.00768568]
 [-0.01799952]
 [-0.00440895]]

Simulating particle
Initiating Kalman filtering for particle: 133
Particle 133:
eta 4.633957205773497, phi 2.7344923833745916,
p 67.89323773976751, q -1.60217662e-19,
brem = False
output State:
[[ 0.00101261]
 [ 0.00097905]
 [ 0.00769498]
 [-0.01784599]
 [-0.00441588]]
Data added to pickle list for particle: 133
Particle 134:
eta 3.48692415555427, phi -2.804071360078409,
p 69.0, q 1.60217662e-19,
brem = False
input State:
[[ 0.001     ]
 [ 0.001     ]
 [-0.0202819 ]
 [-0.05779134]
 [ 0.00434505]]

Simulating particle
Initiating Kalman filtering for particle: 134
Particle 134:
eta 3.484655829347615, phi -2.8048024307166153,
p 71.02168435456892, q 1.60217662e-19,
brem = False
output State:
[[ 0.00100457]
 [ 0.00103192]
 [-0.02028569]
 [-0.05793767]
 [ 0.00422137]]
Data added to pickle list for particle: 134
Particle 135:
eta 4.938479595169235, phi -1.5727550751476784,
p 69.0, q -1.60217662e-19,
brem = False
input State:
[[ 1.00000000e-03]
 [ 1.00000000e-03]
 [-1.43316774e-02]
 [-2.80721854e-05]
 [-4.34505071e-03]]

Simulating particle
Initiating Kalman filtering for particle: 135
Particle 135:
eta 4.927796147581724, phi -1.547750973228811,
p 68.44824203474518, q -1.60217662e-19,
brem = False
output State:
[[ 0.00101064]
 [ 0.0009692 ]
 [-0.01448181]
 [ 0.0003338 ]
 [-0.00438008]]
Data added to pickle list for particle: 135
Particle 136:
eta 4.796970396683, phi -2.3539112711499897,
p 70.0, q 1.60217662e-19,
brem = False
input State:
[[ 0.001     ]
 [ 0.001     ]
 [-0.01170135]
 [-0.01164804]
 [ 0.00428298]]

Simulating particle
Initiating Kalman filtering for particle: 136
Particle 136:
eta 4.808407709243957, phi -2.3694452268640225,
p 72.14100037375418, q 1.60217662e-19,
brem = False
output State:
[[ 0.00096934]
 [ 0.00101561]
 [-0.011388  ]
 [-0.01169387]
 [ 0.00415587]]
Data added to pickle list for particle: 136
Particle 137:
eta 4.961525674055689, phi -2.6924313264263215,
p 70.0, q -1.60217662e-19,
brem = False
input State:
[[ 0.001     ]
 [ 0.001     ]
 [-0.00608118]
 [-0.01261601]
 [-0.00428298]]

Simulating particle
Initiating Kalman filtering for particle: 137
Particle 137:
eta 4.9626312325477615, phi -2.691933174648422,
p 69.93539095237612, q -1.60217662e-19,
brem = False
output State:
[[ 0.00098916]
 [ 0.00098623]
 [-0.00608074]
 [-0.01259904]
 [-0.00428694]]
Data added to pickle list for particle: 137
Particle 138:
eta 2.618797349794451, phi -0.6781884700654702,
p 71.0, q 1.60217662e-19,
brem = False
input State:
[[ 0.001     ]
 [ 0.001     ]
 [-0.09194907]
 [ 0.11412752]
 [ 0.00422265]]

Simulating particle
Initiating Kalman filtering for particle: 138
Particle 138:
eta 2.616543113205095, phi -0.6771311120243004,
p 71.07563430249091, q 1.60217662e-19,
brem = False
output State:
[[ 0.00100736]
 [ 0.00098211]
 [-0.0920378 ]
 [ 0.11448522]
 [ 0.00421816]]
Data added to pickle list for particle: 138
Particle 139:
eta 2.298222095419443, phi -1.9807953166638308,
p 71.0, q -1.60217662e-19,
brem = False
input State:
[[ 0.001     ]
 [ 0.001     ]
 [-0.18610362]
 [-0.08088622]
 [-0.00422265]]

Simulating particle
Initiating Kalman filtering for particle: 139
Particle 139:
eta 2.2980365046279014, phi -1.9801604010147553,
p 71.23941064534036, q -1.60217662e-19,
brem = False
output State:
[[ 0.00101201]
 [ 0.00099995]
 [-0.18619019]
 [-0.08078334]
 [-0.00420846]]
Data added to pickle list for particle: 139
Particle 140:
eta 2.3390344589083103, phi -1.2400069858566447,
p 72.0, q 1.60217662e-19,
brem = False
input State:
[[ 0.001     ]
 [ 0.001     ]
 [-0.18409828]
 [ 0.06322065]
 [ 0.00416401]]

Simulating particle
Initiating Kalman filtering for particle: 140
Particle 140:
eta 2.33942300003551, phi -1.2402903852283078,
p 71.50979872756243, q 1.60217662e-19,
brem = False
output State:
[[ 0.00099999]
 [ 0.0010192 ]
 [-0.18404333]
 [ 0.06314347]
 [ 0.00419255]]
Data added to pickle list for particle: 140
Particle 141:
eta 4.465502772269764, phi 2.6038964427842917,
p 72.0, q -1.60217662e-19,
brem = False
input State:
[[ 0.001     ]
 [ 0.001     ]
 [ 0.01178009]
 [-0.01975523]
 [-0.00416401]]

Simulating particle
Initiating Kalman filtering for particle: 141
Particle 141:
eta 4.467048187794433, phi 2.595586697976683,
p 70.51215296005483, q -1.60217662e-19,
brem = False
output State:
[[ 0.00098993]
 [ 0.00100646]
 [ 0.0119254 ]
 [-0.0196263 ]
 [-0.00425187]]
Data added to pickle list for particle: 141
Particle 142:
eta 3.3585080198720307, phi 1.7377780370091176,
p 73.0, q 1.60217662e-19,
brem = False
input State:
[[ 0.001     ]
 [ 0.001     ]
 [ 0.06868965]
 [-0.01157772]
 [ 0.00410697]]

Simulating particle
Initiating Kalman filtering for particle: 142
Particle 142:
eta 3.3578862491471866, phi 1.7431301015303025,
p 73.11189661875885, q 1.60217662e-19,
brem = False
output State:
[[ 0.00100574]
 [ 0.00103694]
 [ 0.06866949]
 [-0.01195263]
 [ 0.00410068]]
Data added to pickle list for particle: 142
Particle 143:
eta 4.358806262398157, phi 2.9101584866572683,
p 73.0, q -1.60217662e-19,
brem = False
input State:
[[ 0.001     ]
 [ 0.001     ]
 [ 0.00587001]
 [-0.02490918]
 [-0.00410697]]

Simulating particle
Initiating Kalman filtering for particle: 143
Skip particle 143 because:too many refits
Data added to pickle list for particle: 143
Particle 144:
eta 4.949232092408569, phi -2.040522565976561,
p 73.99999999999999, q 1.60217662e-19,
brem = False
input State:
[[ 0.001     ]
 [ 0.001     ]
 [-0.01264278]
 [-0.00641775]
 [ 0.00405147]]

Simulating particle
Initiating Kalman filtering for particle: 144
Particle 144:
eta 4.96326165138687, phi -2.0245832164524127,
p 75.43460775058423, q 1.60217662e-19,
brem = False
output State:
[[ 0.0009973 ]
 [ 0.00098597]
 [-0.01256591]
 [-0.00612882]
 [ 0.00397442]]
Data added to pickle list for particle: 144
Particle 145:
eta 3.792463024900862, phi 1.512687249009185,
p 73.99999999999999, q -1.60217662e-19,
brem = False
input State:
[[ 0.001     ]
 [ 0.001     ]
 [ 0.04502682]
 [ 0.00261942]
 [-0.00405147]]

Simulating particle
Initiating Kalman filtering for particle: 145
Skip particle 145 because:too many refits
Data added to pickle list for particle: 145
Particle 146:
eta 2.480339945024209, phi 0.3444444704051605,
p 75.0, q 1.60217662e-19,
brem = False
input State:
[[0.001     ]
 [0.001     ]
 [0.05693558]
 [0.1587075 ]
 [0.00399745]]

Simulating particle
Initiating Kalman filtering for particle: 146
Particle 146:
eta 2.480660512169228, phi 0.344770833290176,
p 74.70268524738789, q 1.60217662e-19,
brem = False
output State:
[[0.00099175]
 [0.00099522]
 [0.05696885]
 [0.15863733]
 [0.00401336]]
Data added to pickle list for particle: 146
Particle 147:
eta 3.3519906841691225, phi -1.3034445505033696,
p 75.0, q -1.60217662e-19,
brem = False
input State:
[[ 0.001     ]
 [ 0.001     ]
 [-0.06762421]
 [ 0.01852289]
 [-0.00399745]]

Simulating particle
Initiating Kalman filtering for particle: 147
Particle 147:
eta 3.352694483903738, phi -1.3037731366249783,
p 75.27884725280337, q -1.60217662e-19,
brem = False
output State:
[[ 0.00099015]
 [ 0.00099741]
 [-0.06758259]
 [ 0.01848762]
 [-0.00398264]]
Data added to pickle list for particle: 147
Particle 148:
eta 3.638825552454249, phi -1.0363903342251541,
p 76.0, q 1.60217662e-19,
brem = False
input State:
[[ 0.001     ]
 [ 0.001     ]
 [-0.0452684 ]
 [ 0.02679214]
 [ 0.00394485]]

Simulating particle
Initiating Kalman filtering for particle: 148
Particle 148:
eta 3.642730448249224, phi -1.039998821678276,
p 78.01028363269766, q 1.60217662e-19,
brem = False
output State:
[[ 0.00099329]
 [ 0.00101698]
 [-0.04518774]
 [ 0.0265247 ]
 [ 0.00384319]]
Data added to pickle list for particle: 148
Particle 149:
eta 2.795137550969759, phi 2.0083283288812317,
p 76.0, q -1.60217662e-19,
brem = False
input State:
[[ 0.001     ]
 [ 0.001     ]
 [ 0.1111154 ]
 [-0.05197634]
 [-0.00394485]]

Simulating particle
Initiating Kalman filtering for particle: 149
Particle 149:
eta 2.797369323494133, phi 2.009236807854241,
p 75.48841243332528, q -1.60217662e-19,
brem = False
output State:
[[ 0.00102833]
 [ 0.00100184]
 [ 0.11081868]
 [-0.0519603 ]
 [-0.00397158]]
Data added to pickle list for particle: 149
Particle 150:
eta 2.921907041248637, phi 2.694119913429028,
p 77.0, q 1.60217662e-19,
brem = False
input State:
[[ 0.001     ]
 [ 0.001     ]
 [ 0.04671943]
 [-0.09734393]
 [ 0.00389362]]

Simulating particle
Initiating Kalman filtering for particle: 150
Particle 150:
eta 2.9204233214124584, phi 2.693651335520259,
p 76.97079501730641, q 1.60217662e-19,
brem = False
output State:
[[ 0.00099406]
 [ 0.00100899]
 [ 0.04683488]
 [-0.09746738]
 [ 0.00389509]]
Data added to pickle list for particle: 150
Particle 151:
eta 2.3882171150278477, phi 2.0097210457367396,
p 77.0, q -1.60217662e-19,
brem = False
input State:
[[ 0.001     ]
 [ 0.001     ]
 [ 0.16759624]
 [-0.078681  ]
 [-0.00389362]]

Simulating particle
Initiating Kalman filtering for particle: 151
Particle 151:
eta 2.3880588008902444, phi 2.0080438812099852,
p 76.10760852924491, q -1.60217662e-19,
brem = False
output State:
[[ 0.00099014]
 [ 0.0009688 ]
 [ 0.16775498]
 [-0.07841243]
 [-0.00393927]]
Data added to pickle list for particle: 151
Particle 152:
eta 2.533391701570148, phi -0.08745688608142776,
p 78.0, q 1.60217662e-19,
brem = False
input State:
[[ 0.001     ]
 [ 0.001     ]
 [-0.01395655]
 [ 0.15917498]
 [ 0.0038437 ]]

Simulating particle
Initiating Kalman filtering for particle: 152
Particle 152:
eta 2.5336577845260284, phi -0.08786172088371577,
p 78.02837114806891, q 1.60217662e-19,
brem = False
output State:
[[ 0.00101098]
 [ 0.00100546]
 [-0.01401721]
 [ 0.15912644]
 [ 0.0038423 ]]
Data added to pickle list for particle: 152
Particle 153:
eta 2.5225256661737827, phi 0.7999631572281347,
p 78.0, q -1.60217662e-19,
brem = False
input State:
[[ 0.001     ]
 [ 0.001     ]
 [ 0.11588752]
 [ 0.11255995]
 [-0.0038437 ]]

Simulating particle
Initiating Kalman filtering for particle: 153
Particle 153:
eta 2.524657664042736, phi 0.8002894799359382,
p 78.43044062681987, q -1.60217662e-19,
brem = False
output State:
[[ 0.00101615]
 [ 0.00103374]
 [ 0.11567417]
 [ 0.11227939]
 [-0.0038226 ]]
Data added to pickle list for particle: 153
Particle 154:
eta 4.026571460943297, phi 0.8026614326014795,
p 79.0, q 1.60217662e-19,
brem = False
input State:
[[0.001     ]
 [0.001     ]
 [0.02566284]
 [0.02479175]
 [0.00379504]]

Simulating particle
Initiating Kalman filtering for particle: 154
Particle 154:
eta 4.028255874280602, phi 0.8012234634143707,
p 77.22300337279441, q 1.60217662e-19,
brem = False
output State:
[[0.00101414]
 [0.00098826]
 [0.02558401]
 [0.02478681]
 [0.00388237]]
Data added to pickle list for particle: 154
Particle 155:
eta 2.3950428330882105, phi 2.8568677746489226,
p 79.0, q -1.60217662e-19,
brem = False
input State:
[[ 0.001     ]
 [ 0.001     ]
 [ 0.05164669]
 [-0.17646317]
 [-0.00379504]]

Simulating particle
Initiating Kalman filtering for particle: 155
Particle 155:
eta 2.3949783653529457, phi 2.856834954167554,
p 79.47043205339794, q -1.60217662e-19,
brem = False
output State:
[[ 0.00099374]
 [ 0.00099098]
 [ 0.05165587]
 [-0.17647304]
 [-0.00377258]]
Data added to pickle list for particle: 155
Particle 156:
eta 3.467066319643072, phi 0.9191834880500911,
p 80.0, q 1.60217662e-19,
brem = False
input State:
[[0.001     ]
 [0.001     ]
 [0.04967648]
 [0.03789086]
 [0.00374761]]

Simulating particle
Initiating Kalman filtering for particle: 156
Particle 156:
eta 3.4675708863667074, phi 0.9131399004843256,
p 80.68607264779759, q 1.60217662e-19,
brem = False
output State:
[[0.00102227]
 [0.0009899 ]
 [0.04942159]
 [0.03817109]
 [0.00371574]]
Data added to pickle list for particle: 156
Particle 157:
eta 2.915004574397503, phi 1.468180242227902,
p 80.0, q -1.60217662e-19,
brem = False
input State:
[[ 0.001     ]
 [ 0.001     ]
 [ 0.10815506]
 [ 0.01113757]
 [-0.00374761]]

Simulating particle
Initiating Kalman filtering for particle: 157
Particle 157:
eta 2.91421825684603, phi 1.4699914334198763,
p 78.3635787847568, q -1.60217662e-19,
brem = False
output State:
[[ 0.00100754]
 [ 0.00100825]
 [ 0.10826065]
 [ 0.01095032]
 [-0.00382587]]
Data added to pickle list for particle: 157
Particle 158:
eta 2.869292003296135, phi 1.8561399485028514,
p 81.0, q 1.60217662e-19,
brem = False
input State:
[[ 0.001     ]
 [ 0.001     ]
 [ 0.10924136]
 [-0.03204582]
 [ 0.00370134]]

Simulating particle
Initiating Kalman filtering for particle: 158
Particle 158:
eta 2.866015339458939, phi 1.8551644625754087,
p 80.63608247814342, q 1.60217662e-19,
brem = False
output State:
[[ 0.00097867]
 [ 0.00101734]
 [ 0.10963353]
 [-0.03204474]
 [ 0.00371804]]
Data added to pickle list for particle: 158
Particle 159:
eta 2.2136322368765438, phi -0.11534198055930166,
p 81.0, q -1.60217662e-19,
brem = False
input State:
[[ 0.001     ]
 [ 0.001     ]
 [-0.02546277]
 [ 0.21977902]
 [-0.00370134]]

Simulating particle
Initiating Kalman filtering for particle: 159
Particle 159:
eta 2.213229536373463, phi -0.11516678969726502,
p 82.30304178419325, q -1.60217662e-19,
brem = False
output State:
[[ 0.00099517]
 [ 0.00099986]
 [-0.02543475]
 [ 0.21987415]
 [-0.00364274]]
Data added to pickle list for particle: 159
Particle 160:
eta 3.8547265632356584, phi 1.535683682968854,
p 82.0, q 1.60217662e-19,
brem = False
input State:
[[0.001     ]
 [0.001     ]
 [0.04235168]
 [0.00148769]
 [0.0036562 ]]

Simulating particle
Initiating Kalman filtering for particle: 160
Particle 160:
eta 3.8582316062887387, phi 1.540403025836273,
p 80.99653272568233, q 1.60217662e-19,
brem = False
output State:
[[0.00100929]
 [0.00102238]
 [0.04220989]
 [0.00128329]
 [0.0037015 ]]
Data added to pickle list for particle: 160
Particle 161:
eta 2.8243981955379724, phi -0.1062511500571451,
p 82.0, q -1.60217662e-19,
brem = False
input State:
[[ 0.001     ]
 [ 0.001     ]
 [-0.01263158]
 [ 0.1184365 ]
 [-0.0036562 ]]

Simulating particle
Initiating Kalman filtering for particle: 161
Particle 161:
eta 2.824553621775926, phi -0.10729765519293269,
p 82.70864583531896, q -1.60217662e-19,
brem = False
output State:
[[ 0.00100245]
 [ 0.00100329]
 [-0.01275352]
 [ 0.11840468]
 [-0.00362487]]
Data added to pickle list for particle: 161
Particle 162:
eta 3.450117434367003, phi -1.457221968223166,
p 83.0, q 1.60217662e-19,
brem = False
input State:
[[ 0.001     ]
 [ 0.001     ]
 [-0.06313843]
 [ 0.0072019 ]
 [ 0.00361215]]

Simulating particle
Initiating Kalman filtering for particle: 162
Particle 162:
eta 3.448560428485682, phi -1.4619952974776562,
p 83.79275271616069, q 1.60217662e-19,
brem = False
output State:
[[ 0.00100138]
 [ 0.0010327 ]
 [-0.06327072]
 [ 0.00691121]
 [ 0.00357798]]
Data added to pickle list for particle: 162
Particle 163:
eta 2.8063921604602684, phi 1.3084010290636452,
p 83.0, q -1.60217662e-19,
brem = False
input State:
[[ 0.001     ]
 [ 0.001     ]
 [ 0.11713648]
 [ 0.03146145]
 [-0.00361215]]

Simulating particle
Initiating Kalman filtering for particle: 163
Particle 163:
eta 2.8075385986236236, phi 1.307412702064996,
p 84.7944416351159, q -1.60217662e-19,
brem = False
output State:
[[ 0.00102508]
 [ 0.00097981]
 [ 0.11697017]
 [ 0.03154076]
 [-0.00353571]]
Data added to pickle list for particle: 163
Particle 164:
eta 4.793510054663997, phi -1.3713187276565557,
p 84.0, q 1.60217662e-19,
brem = False
input State:
[[ 0.001     ]
 [ 0.001     ]
 [-0.01623926]
 [ 0.00328303]
 [ 0.00356915]]

Simulating particle
Initiating Kalman filtering for particle: 164
Particle 164:
eta 4.792955949631637, phi -1.3688710202069336,
p 85.10199911817413, q 1.60217662e-19,
brem = False
output State:
[[ 0.00100548]
 [ 0.00101089]
 [-0.01624018]
 [ 0.00332461]
 [ 0.00352293]]
Data added to pickle list for particle: 164
Particle 165:
eta 3.7811148549037417, phi 1.8831045857703135,
p 84.0, q -1.60217662e-19,
brem = False
input State:
[[ 0.001     ]
 [ 0.001     ]
 [ 0.04341154]
 [-0.01401648]
 [-0.00356915]]

Simulating particle
Initiating Kalman filtering for particle: 165
Particle 165:
eta 3.7822601245835763, phi 1.8861197043053546,
p 85.42924552973106, q -1.60217662e-19,
brem = False
output State:
[[ 0.00100558]
 [ 0.00100412]
 [ 0.04331938]
 [-0.01413109]
 [-0.00350944]]
Data added to pickle list for particle: 165
Particle 166:
eta 3.395337567830636, phi -0.552711315378985,
p 85.0, q 1.60217662e-19,
brem = False
input State:
[[ 0.001     ]
 [ 0.001     ]
 [-0.0352451 ]
 [ 0.05713798]
 [ 0.00352716]]

Simulating particle
Initiating Kalman filtering for particle: 166
Particle 166:
eta 3.3928579094888813, phi -0.5520582451130533,
p 86.2195843957611, q 1.60217662e-19,
brem = False
output State:
[[ 0.00100507]
 [ 0.00099634]
 [-0.03529539]
 [ 0.05730322]
 [ 0.00347727]]
Data added to pickle list for particle: 166
Particle 167:
eta 2.7102567104881876, phi 2.168505694982816,
p 85.0, q -1.60217662e-19,
brem = False
input State:
[[ 0.001     ]
 [ 0.001     ]
 [ 0.11046277]
 [-0.07520077]
 [-0.00352716]]

Simulating particle
Initiating Kalman filtering for particle: 167
Particle 167:
eta 2.713011128083957, phi 2.1667501483703218,
p 85.49455161097502, q -1.60217662e-19,
brem = False
output State:
[[ 0.00101459]
 [ 0.00097465]
 [ 0.11028772]
 [-0.07479859]
 [-0.00350676]]
Data added to pickle list for particle: 167
Particle 168:
eta 3.442594699295778, phi 0.9701932148316256,
p 86.0, q 1.60217662e-19,
brem = False
input State:
[[0.001     ]
 [0.001     ]
 [0.05282334]
 [0.03618518]
 [0.00348615]]

Simulating particle
Initiating Kalman filtering for particle: 168
Particle 168:
eta 3.4428555274964543, phi 0.9672903041932295,
p 86.54323707010575, q 1.60217662e-19,
brem = False
output State:
[[0.00103164]
 [0.00099433]
 [0.05270429]
 [0.03632887]
 [0.00346426]]
Data added to pickle list for particle: 168
Particle 169:
eta 4.808196916009081, phi 0.5148358578826152,
p 86.0, q -1.60217662e-19,
brem = False
input State:
[[ 0.001     ]
 [ 0.001     ]
 [ 0.0080389 ]
 [ 0.01420991]
 [-0.00348615]]

Simulating particle
Initiating Kalman filtering for particle: 169
Particle 169:
eta 4.808694557579918, phi 0.5352560247987933,
p 85.96623367535192, q -1.60217662e-19,
brem = False
output State:
[[ 0.0009735 ]
 [ 0.00101874]
 [ 0.00832323]
 [ 0.01403581]
 [-0.00348751]]
Data added to pickle list for particle: 169
Particle 170:
eta 4.729735825609745, phi -0.1237311191705306,
p 87.0, q 1.60217662e-19,
brem = False
input State:
[[ 0.001     ]
 [ 0.001     ]
 [-0.00217939]
 [ 0.01752398]
 [ 0.00344607]]

Simulating particle
Initiating Kalman filtering for particle: 170
Particle 170:
eta 4.739385691268461, phi -0.13302186921131082,
p 87.80454129087366, q 1.60217662e-19,
brem = False
output State:
[[ 0.00102629]
 [ 0.00101908]
 [-0.00231961]
 [ 0.01733486]
 [ 0.0034145 ]]
Data added to pickle list for particle: 170
Particle 171:
eta 4.486323198209948, phi 2.656426915452721,
p 87.0, q -1.60217662e-19,
brem = False
input State:
[[ 0.001     ]
 [ 0.001     ]
 [ 0.01050549]
 [-0.01992716]
 [-0.00344607]]

Simulating particle
Initiating Kalman filtering for particle: 171
Particle 171:
eta 4.485037128397426, phi 2.6525826297683235,
p 87.94876926594307, q -1.60217662e-19,
brem = False
output State:
[[ 0.00099132]
 [ 0.00099699]
 [ 0.01059564]
 [-0.01991223]
 [-0.0034089 ]]
Data added to pickle list for particle: 171
Particle 172:
eta 2.119010002158667, phi 0.4039675123634546,
p 88.0, q 1.60217662e-19,
brem = False
input State:
[[0.001     ]
 [0.001     ]
 [0.09583857]
 [0.22419542]
 [0.00340691]]

Simulating particle
Initiating Kalman filtering for particle: 172
Particle 172:
eta 2.119683015320509, phi 0.40375844394257965,
p 87.13935014035143, q 1.60217662e-19,
brem = False
output State:
[[0.00102616]
 [0.00100513]
 [0.09572536]
 [0.22406019]
 [0.00344056]]
Data added to pickle list for particle: 172
Particle 173:
eta 4.000780823246264, phi 2.4014928936507074,
p 88.0, q -1.60217662e-19,
brem = False
input State:
[[ 0.001     ]
 [ 0.001     ]
 [ 0.02469172]
 [-0.02703653]
 [-0.00340691]]

Simulating particle
Initiating Kalman filtering for particle: 173
Particle 173:
eta 4.001545595345698, phi 2.4027586511326846,
p 90.29118842483116, q -1.60217662e-19,
brem = False
output State:
[[ 0.00100374]
 [ 0.00099069]
 [ 0.02463861]
 [-0.02704705]
 [-0.00332046]]
Data added to pickle list for particle: 173
Particle 174:
eta 2.5513618355643772, phi 1.8812624930360888,
p 89.0, q 1.60217662e-19,
brem = False
input State:
[[ 0.001     ]
 [ 0.001     ]
 [ 0.14940339]
 [-0.04793482]
 [ 0.00336863]]

Simulating particle
Initiating Kalman filtering for particle: 174
Particle 174:
eta 2.5517749393293103, phi 1.8807489834529634,
p 88.03250509957134, q 1.60217662e-19,
brem = False
output State:
[[ 0.00098934]
 [ 0.00098782]
 [ 0.14936552]
 [-0.04783809]
 [ 0.00340566]]
Data added to pickle list for particle: 174
Particle 175:
eta 2.0525154432925046, phi 1.5716639287261633,
p 89.0, q -1.60217662e-19,
brem = False
input State:
[[ 1.00000000e-03]
 [ 1.00000000e-03]
 [ 2.61128759e-01]
 [-2.26555872e-04]
 [-3.36863482e-03]]

Simulating particle
Initiating Kalman filtering for particle: 175
Particle 175:
eta 2.052721848329315, phi 1.5713207796499569,
p 74.18997098551623, q -1.60217662e-19,
brem = False
output State:
[[ 1.00450303e-03]
 [ 9.89763968e-04]
 [ 2.61073122e-01]
 [-1.36920557e-04]
 [-4.04109201e-03]]
Data added to pickle list for particle: 175
Particle 176:
eta 4.049242009876834, phi 2.9538339945071876,
p 90.0, q 1.60217662e-19,
brem = False
input State:
[[ 0.001     ]
 [ 0.001     ]
 [ 0.00651094]
 [-0.03426873]
 [ 0.00333121]]

Simulating particle
Initiating Kalman filtering for particle: 176
Particle 176:
eta 4.052293993073322, phi 2.9656762796169613,
p 88.22565693225967, q 1.60217662e-19,
brem = False
output State:
[[ 0.00102571]
 [ 0.00101311]
 [ 0.00608606]
 [-0.03423871]
 [ 0.0033982 ]]
Data added to pickle list for particle: 176
Particle 177:
eta 2.9078204845469693, phi -1.2776135804125797,
p 90.0, q -1.60217662e-19,
brem = False
input State:
[[ 0.001     ]
 [ 0.001     ]
 [-0.10484245]
 [ 0.03165008]
 [-0.00333121]]

Simulating particle
Initiating Kalman filtering for particle: 177
Particle 177:
eta 2.9078081845042036, phi -1.2764435316733453,
p 90.86451476845384, q -1.60217662e-19,
brem = False
output State:
[[ 0.00099944]
 [ 0.00099538]
 [-0.10480664]
 [ 0.03177312]
 [-0.00329951]]
Data added to pickle list for particle: 177
Particle 178:
eta 2.749481949083199, phi 0.6896540890950563,
p 91.0, q 1.60217662e-19,
brem = False
input State:
[[0.001     ]
 [0.001     ]
 [0.08172731]
 [0.09909286]
 [0.0032946 ]]

Simulating particle
Initiating Kalman filtering for particle: 178
Particle 178:
eta 2.7490067246481127, phi 0.6899859013490166,
p 87.93877544587933, q 1.60217662e-19,
brem = False
output State:
[[0.00098682]
 [0.00100611]
 [0.08179937]
 [0.09911322]
 [0.00340929]]
Data added to pickle list for particle: 178
Particle 179:
eta 2.2373556063165414, phi 0.8508475495822905,
p 91.0, q -1.60217662e-19,
brem = False
input State:
[[ 0.001     ]
 [ 0.001     ]
 [ 0.16235306]
 [ 0.14237995]
 [-0.0032946 ]]

Simulating particle
Initiating Kalman filtering for particle: 179
Particle 179:
eta 2.236553312648462, phi 0.850820885793287,
p 92.52868475507934, q -1.60217662e-19,
brem = False
output State:
[[ 0.00099626]
 [ 0.00098216]
 [ 0.16248258]
 [ 0.14250119]
 [-0.00324017]]
Data added to pickle list for particle: 179
Particle 180:
eta 4.139520566521839, phi -1.401634365372012,
p 92.0, q 1.60217662e-19,
brem = False
input State:
[[ 0.001     ]
 [ 0.001     ]
 [-0.03141417]
 [ 0.00536536]
 [ 0.00325879]]

Simulating particle
Initiating Kalman filtering for particle: 180
Particle 180:
eta 4.1423961528587006, phi -1.4100798406149537,
p 92.5514699663204, q 1.60217662e-19,
brem = False
output State:
[[ 0.00099804]
 [ 0.00102639]
 [-0.03136798]
 [ 0.00508521]
 [ 0.00323937]]
Data added to pickle list for particle: 180
Particle 181:
eta 4.08962283339014, phi -0.848405080516154,
p 92.0, q -1.60217662e-19,
brem = False
input State:
[[ 0.001     ]
 [ 0.001     ]
 [-0.02513297]
 [ 0.02214987]
 [-0.00325879]]

Simulating particle
Initiating Kalman filtering for particle: 181
Particle 181:
eta 4.092059617731825, phi -0.8525320588872087,
p 92.12915584244489, q -1.60217662e-19,
brem = False
output State:
[[ 0.00100708]
 [ 0.00102232]
 [-0.02516274]
 [ 0.02199227]
 [-0.00325422]]
Data added to pickle list for particle: 181
Particle 182:
eta 4.723133833532464, phi -2.5749162980144815,
p 93.0, q 1.60217662e-19,
brem = False
input State:
[[ 0.001     ]
 [ 0.001     ]
 [-0.00954269]
 [-0.01499741]
 [ 0.00322375]]

Simulating particle
Initiating Kalman filtering for particle: 182
Particle 182:
eta 4.718023400718716, phi -2.5788756448468964,
p 90.36948580848885, q 1.60217662e-19,
brem = False
output State:
[[ 0.00100023]
 [ 0.00101138]
 [-0.00953183]
 [-0.01511212]
 [ 0.00331759]]
Data added to pickle list for particle: 182
Particle 183:
eta 4.946824882384353, phi -2.223432714313775,
p 93.0, q -1.60217662e-19,
brem = False
input State:
[[ 0.001     ]
 [ 0.001     ]
 [-0.0112917 ]
 [-0.00863106]
 [-0.00322375]]

Simulating particle
Initiating Kalman filtering for particle: 183
Particle 183:
eta 4.950709330518188, phi -2.230732152045909,
p 90.54969460441292, q -1.60217662e-19,
brem = False
output State:
[[ 0.00098059]
 [ 0.00101499]
 [-0.01118486]
 [-0.00867947]
 [-0.00331098]]
Data added to pickle list for particle: 183
Particle 184:
eta 2.752466924004506, phi -0.1607836594911967,
p 94.0, q 1.60217662e-19,
brem = False
input State:
[[ 0.001     ]
 [ 0.001     ]
 [-0.02050159]
 [ 0.12640976]
 [ 0.00318945]]

Simulating particle
Initiating Kalman filtering for particle: 184
Particle 184:
eta 2.752668140917376, phi -0.1606694595341938,
p 93.4795211252048, q 1.60217662e-19,
brem = False
output State:
[[ 0.00099607]
 [ 0.00100779]
 [-0.020483  ]
 [ 0.12638646]
 [ 0.00320721]]
Data added to pickle list for particle: 184
Particle 185:
eta 2.7442509734147564, phi 1.601911245679897,
p 94.0, q -1.60217662e-19,
brem = False
input State:
[[ 0.001     ]
 [ 0.001     ]
 [ 0.1290642 ]
 [-0.00401712]
 [-0.00318945]]

Simulating particle
Initiating Kalman filtering for particle: 185
Particle 185:
eta 2.7451321181650297, phi 1.6013412537890326,
p 92.97812524816865, q -1.60217662e-19,
brem = False
output State:
[[ 0.00100667]
 [ 0.00100225]
 [ 0.12895185]
 [-0.00394005]
 [-0.00322451]]
Data added to pickle list for particle: 185
Particle 186:
eta 3.711943395260142, phi 1.0887646380797924,
p 95.0, q 1.60217662e-19,
brem = False
input State:
[[0.001     ]
 [0.001     ]
 [0.0433185 ]
 [0.02266406]
 [0.00315588]]

Simulating particle
Initiating Kalman filtering for particle: 186
Particle 186:
eta 3.7125832659524733, phi 1.0786205363539052,
p 94.43000910576099, q 1.60217662e-19,
brem = False
output State:
[[0.0010305 ]
 [0.00097575]
 [0.04305877]
 [0.02308752]
 [0.00317493]]
Data added to pickle list for particle: 186
Particle 187:
eta 4.566996213858662, phi 2.9577450613274228,
p 95.0, q -1.60217662e-19,
brem = False
input State:
[[ 0.001     ]
 [ 0.001     ]
 [ 0.00379896]
 [-0.02043028]
 [-0.00315588]]

Simulating particle
Initiating Kalman filtering for particle: 187
Particle 187:
eta 4.5647629772221725, phi 2.935870697728108,
p 93.9224353781397, q -1.60217662e-19,
brem = False
output State:
[[ 0.00095764]
 [ 0.00098325]
 [ 0.0042544 ]
 [-0.02038779]
 [-0.00319209]]
Data added to pickle list for particle: 187
Particle 188:
eta 3.562931052332965, phi 1.4907965641246994,
p 96.0, q 1.60217662e-19,
brem = False
input State:
[[0.001     ]
 [0.001     ]
 [0.05657529]
 [0.00453569]
 [0.00312301]]

Simulating particle
Initiating Kalman filtering for particle: 188
Particle 188:
eta 3.560498858548119, phi 1.494512670985433,
p 95.29337476501787, q 1.60217662e-19,
brem = False
output State:
[[0.00098894]
 [0.00102257]
 [0.05672979]
 [0.00433597]
 [0.00314616]]
Data added to pickle list for particle: 188
Particle 189:
eta 4.139455275919891, phi 0.6562500459626932,
p 96.0, q -1.60217662e-19,
brem = False
input State:
[[ 0.001     ]
 [ 0.001     ]
 [ 0.01944618]
 [ 0.02525106]
 [-0.00312301]]

Simulating particle
Initiating Kalman filtering for particle: 189
Particle 189:
eta 4.136445211745634, phi 0.6574860507079399,
p 96.18891722278298, q -1.60217662e-19,
brem = False
output State:
[[ 0.00101195]
 [ 0.00097964]
 [ 0.01953612]
 [ 0.02530309]
 [-0.00311687]]
Data added to pickle list for particle: 189
Particle 190:
eta 3.8624021928676826, phi 0.36989664508698467,
p 97.0, q 1.60217662e-19,
brem = False
input State:
[[0.001     ]
 [0.001     ]
 [0.01520313]
 [0.03920918]
 [0.00309081]]

Simulating particle
Initiating Kalman filtering for particle: 190
Particle 190:
eta 3.8584711539442695, phi 0.366970696732747,
p 98.3397056854545, q 1.60217662e-19,
brem = False
output State:
[[0.00100041]
 [0.00098184]
 [0.01514783]
 [0.03940824]
 [0.0030487 ]]
Data added to pickle list for particle: 190
Particle 191:
eta 4.6847458398350845, phi 2.113095151592094,
p 97.0, q -1.60217662e-19,
brem = False
input State:
[[ 0.001     ]
 [ 0.001     ]
 [ 0.0158215 ]
 [-0.00953338]
 [-0.00309081]]

Simulating particle
Initiating Kalman filtering for particle: 191
Particle 191:
eta 4.671522968611597, phi 2.13296019670819,
p 96.32469889463884, q -1.60217662e-19,
brem = False
output State:
[[ 0.00099404]
 [ 0.00103401]
 [ 0.01583708]
 [-0.00997685]
 [-0.00311248]]
Data added to pickle list for particle: 191
Particle 192:
eta 2.305392347995754, phi 1.2356833977939352,
p 98.0, q 1.60217662e-19,
brem = False
input State:
[[0.001     ]
 [0.001     ]
 [0.19023688]
 [0.06624956]
 [0.00305927]]

Simulating particle
Initiating Kalman filtering for particle: 192
Particle 192:
eta 2.305082895671699, phi 1.236228305016711,
p 99.14697774798245, q 1.60217662e-19,
brem = False
output State:
[[0.00098159]
 [0.00101469]
 [0.19033302]
 [0.06616677]
 [0.00302388]]
Data added to pickle list for particle: 192
Particle 193:
eta 2.124941214432077, phi 1.0925299629378429,
p 98.0, q -1.60217662e-19,
brem = False
input State:
[[ 0.001     ]
 [ 0.001     ]
 [ 0.21514549]
 [ 0.11153343]
 [-0.00305927]]

Simulating particle
Initiating Kalman filtering for particle: 193
Particle 193:
eta 2.124972434212002, phi 1.0918142946555336,
p 99.36716285449751, q -1.60217662e-19,
brem = False
output State:
[[ 0.00100907]
 [ 0.00099002]
 [ 0.21505871]
 [ 0.11168378]
 [-0.00301718]]
Data added to pickle list for particle: 193
Particle 194:
eta 3.8578960835084137, phi -2.472614871796786,
p 99.00000000000001, q 1.60217662e-19,
brem = False
input State:
[[ 0.001     ]
 [ 0.001     ]
 [-0.02619881]
 [-0.03313823]
 [ 0.00302837]]

Simulating particle
Initiating Kalman filtering for particle: 194
Particle 194:
eta 3.858605476146305, phi -2.4738921882637572,
p 99.64071202806421, q 1.60217662e-19,
brem = False
output State:
[[ 0.00098921]
 [ 0.00099454]
 [-0.02613789]
 [-0.03314812]
 [ 0.0030089 ]]
Data added to pickle list for particle: 194
Particle 195:
eta 2.451291037511009, phi -2.755841544096017,
p 99.00000000000001, q -1.60217662e-19,
brem = False
input State:
[[ 0.001     ]
 [ 0.001     ]
 [-0.06533832]
 [-0.1608935 ]
 [-0.00302837]]

Simulating particle
Initiating Kalman filtering for particle: 195
Particle 195:
eta 2.4509599696581885, phi -2.7558495610937452,
p 98.8691600799737, q -1.60217662e-19,
brem = False
output State:
[[ 0.00100635]
 [ 0.00099974]
 [-0.06535899]
 [-0.1609481 ]
 [-0.00303238]]
Data added to pickle list for particle: 195
7 particles skipped because: too many refits
2 particles skipped because: FloatingPointError