This is the start of the log file generated at 02_03_13h42m22s

magfield_ shape: cs, sim_stepsize: 0.001, detector_length: 11
15 VELO-type subdetectors added at z-locations: [20, 50, 80, 110, 140, 170, 200, 230, 260, 290, 450, 600, 650, 700, 750]
4 TT-type subdetectors added at z-locations: [2330, 2370, 2600, 2640]
24 OT-type subdetectors added at z-locations: [7860, 7870, 7910, 7920, 7980, 7990, 8030, 8040, 8540, 8550, 8590, 8600, 8660, 8670, 8710, 8720, 9230, 9240, 9280, 9290, 9350, 9360, 9400, 9410]
The detector is built.
Generating 196 particles, from 2 to 100 GeV. Brem = False, ms = True

Particle 0:
eta 4.7194398322499, phi -1.6411075665552546,
p 2.0, q 1.60217662e-19,
brem = False
input State:
[[ 0.001     ]
 [ 0.001     ]
 [-0.01779768]
 [-0.00125344]
 [ 0.14990425]]

Simulating particle
Initiating Kalman filtering for particle: 0
Particle 0:
eta 4.6783856990932104, phi -1.6711119523671392,
p 2.007361125772001, q 1.60217662e-19,
brem = False
output State:
[[ 0.00064473]
 [ 0.00097092]
 [-0.01849616]
 [-0.0018617 ]
 [ 0.14935454]]
Data added to pickle list for particle: 0
Particle 1:
eta 4.645111925867163, phi -0.06400152720505775,
p 2.0, q -1.60217662e-19,
brem = False
input State:
[[ 0.001     ]
 [ 0.001     ]
 [-0.00122919]
 [ 0.01917933]
 [-0.14990425]]

Simulating particle
Initiating Kalman filtering for particle: 1
Skip particle 1 because:('overflow encountered in double_scalars',)
Data added to pickle list for particle: 1
Particle 2:
eta 3.0259209015744273, phi -2.670518378878343,
p 3.0, q 1.60217662e-19,
brem = False
input State:
[[ 0.001     ]
 [ 0.001     ]
 [-0.04413864]
 [-0.08666223]
 [ 0.09993617]]

Simulating particle
Initiating Kalman filtering for particle: 2
Particle 2:
eta 3.0171293941356607, phi -2.6710106404092193,
p 3.00031275435313, q 1.60217662e-19,
brem = False
output State:
[[ 0.00011912]
 [-0.00072434]
 [-0.04448722]
 [-0.08745305]
 [ 0.09992575]]
Data added to pickle list for particle: 2
Particle 3:
eta 2.7866603309933704, phi 2.732642024217307,
p 3.0, q -1.60217662e-19,
brem = False
input State:
[[ 0.001     ]
 [ 0.001     ]
 [ 0.04919814]
 [-0.11352086]
 [-0.09993617]]

Simulating particle
Initiating Kalman filtering for particle: 3
Particle 3:
eta 2.7939512167441074, phi 2.725004070099486,
p 2.889246020587836, q -1.60217662e-19,
brem = False
output State:
[[ 0.00197201]
 [-0.00128924]
 [ 0.04969734]
 [-0.11231367]
 [-0.10376704]]
Data added to pickle list for particle: 3
Particle 4:
eta 2.064438236852101, phi -1.4298916623914628,
p 4.0, q 1.60217662e-19,
brem = False
input State:
[[ 0.001     ]
 [ 0.001     ]
 [-0.25537578]
 [ 0.03622369]
 [ 0.07495212]]

Simulating particle
Initiating Kalman filtering for particle: 4
Particle 4:
eta 2.0648670274073484, phi -1.419730653439372,
p 3.9860469625747603, q 1.60217662e-19,
brem = False
output State:
[[-0.00410375]
 [ 0.0016591 ]
 [-0.25488165]
 [ 0.03879946]
 [ 0.07521449]]
Data added to pickle list for particle: 4
Particle 5:
eta 4.454144327367941, phi -0.7106882527076204,
p 4.0, q -1.60217662e-19,
brem = False
input State:
[[ 0.001     ]
 [ 0.001     ]
 [-0.01517619]
 [ 0.01763185]
 [-0.07495212]]

Simulating particle
Initiating Kalman filtering for particle: 5
Particle 5:
eta 4.436989374449327, phi -0.7684536437317644,
p 3.998752747486245, q -1.60217662e-19,
brem = False
output State:
[[ 0.00070314]
 [ 0.00139958]
 [-0.01644867]
 [ 0.01701576]
 [-0.0749755 ]]
Data added to pickle list for particle: 5
Particle 6:
eta 3.409525664708894, phi -0.1330401426905748,
p 5.0, q 1.60217662e-19,
brem = False
input State:
[[ 0.001     ]
 [ 0.001     ]
 [-0.00877945]
 [ 0.06560121]
 [ 0.0599617 ]]

Simulating particle
Initiating Kalman filtering for particle: 6
Particle 6:
eta 3.4183607163414944, phi -0.13224388900296088,
p 5.036777933262225, q 1.60217662e-19,
brem = False
output State:
[[ 0.00083957]
 [ 0.0023104 ]
 [-0.00865028]
 [ 0.06502983]
 [ 0.05952387]]
Data added to pickle list for particle: 6
Particle 7:
eta 3.76617727513702, phi -1.7586564808390568,
p 5.0, q -1.60217662e-19,
brem = False
input State:
[[ 0.001     ]
 [ 0.001     ]
 [-0.04549081]
 [-0.00864788]
 [-0.0599617 ]]

Simulating particle
Initiating Kalman filtering for particle: 7
Particle 7:
eta 3.7631447993067377, phi -1.7519506433764198,
p 4.955292534390105, q -1.60217662e-19,
brem = False
output State:
[[ 7.05978881e-05]
 [ 8.17124348e-04]
 [-4.56862582e-02]
 [-8.36800102e-03]
 [-6.05026842e-02]]
Data added to pickle list for particle: 7
Particle 8:
eta 3.4196791962202258, phi 0.8471237000909486,
p 6.0, q 1.60217662e-19,
brem = False
input State:
[[0.001     ]
 [0.001     ]
 [0.04909633]
 [0.04338086]
 [0.04996808]]

Simulating particle
Initiating Kalman filtering for particle: 8
Particle 8:
eta 3.4226929893216336, phi 0.8413246274185932,
p 5.973999601185417, q 1.60217662e-19,
brem = False
output State:
[[0.00198019]
 [0.00186912]
 [0.04869664]
 [0.04353316]
 [0.05018556]]
Data added to pickle list for particle: 8
Particle 9:
eta 4.316716001099108, phi 2.9665966398583747,
p 6.0, q -1.60217662e-19,
brem = False
input State:
[[ 0.001     ]
 [ 0.001     ]
 [ 0.00464719]
 [-0.02628436]
 [-0.04996808]]

Simulating particle
Initiating Kalman filtering for particle: 9
Particle 9:
eta 4.339884578941349, phi 2.9730571670492085,
p 5.927385531362004, q -1.60217662e-19,
brem = False
output State:
[[ 0.00110956]
 [ 0.00049037]
 [ 0.00437471]
 [-0.02571098]
 [-0.05058023]]
Data added to pickle list for particle: 9
Particle 10:
eta 4.178244820235882, phi -0.49081392443143,
p 7.0, q 1.60217662e-19,
brem = False
input State:
[[ 0.001     ]
 [ 0.001     ]
 [-0.01445044]
 [ 0.02703878]
 [ 0.04282979]]

Simulating particle
Initiating Kalman filtering for particle: 10
Particle 10:
eta 4.178464633498973, phi -0.48160581621733334,
p 6.876734312945053, q 1.60217662e-19,
brem = False
output State:
[[ 0.00071584]
 [ 0.00154362]
 [-0.01419774]
 [ 0.02716472]
 [ 0.04359751]]
Data added to pickle list for particle: 10
Particle 11:
eta 3.974335689346144, phi 2.740789980642951,
p 7.0, q -1.60217662e-19,
brem = False
input State:
[[ 0.001     ]
 [ 0.001     ]
 [ 0.01466869]
 [-0.03461722]
 [-0.04282979]]

Simulating particle
Initiating Kalman filtering for particle: 11
Particle 11:
eta 3.9932384000576135, phi 2.7419851831555087,
p 6.859861983194616, q -1.60217662e-19,
brem = False
output State:
[[ 0.00128812]
 [ 0.00025321]
 [ 0.01435322]
 [-0.03398574]
 [-0.04370474]]
Data added to pickle list for particle: 11
Particle 12:
eta 4.409525933189244, phi 0.5756867186382044,
p 8.0, q 1.60217662e-19,
brem = False
input State:
[[0.001     ]
 [0.001     ]
 [0.01324306]
 [0.02040467]
 [0.03747606]]

Simulating particle
Initiating Kalman filtering for particle: 12
Particle 12:
eta 4.417933409468524, phi 0.5721491409811854,
p 7.956691205513618, q 1.60217662e-19,
brem = False
output State:
[[0.00128795]
 [0.00140747]
 [0.01306049]
 [0.02028011]
 [0.03768005]]
Data added to pickle list for particle: 12
Particle 13:
eta 4.2736251057214085, phi 1.9722929506338318,
p 8.0, q -1.60217662e-19,
brem = False
input State:
[[ 0.001     ]
 [ 0.001     ]
 [ 0.02565166]
 [-0.01089063]
 [-0.03747606]]

Simulating particle
Initiating Kalman filtering for particle: 13
Particle 13:
eta 4.258581218398713, phi 1.9400960014307558,
p 5.962221201481283, q -1.60217662e-19,
brem = False
output State:
[[ 0.0014895 ]
 [ 0.00077784]
 [ 0.02638304]
 [-0.01021176]
 [-0.0502847 ]]
Data added to pickle list for particle: 13
Particle 14:
eta 3.3974127136554575, phi 1.789341650437151,
p 9.0, q 1.60217662e-19,
brem = False
input State:
[[ 0.001     ]
 [ 0.001     ]
 [ 0.06540092]
 [-0.01452505]
 [ 0.03331206]]

Simulating particle
Initiating Kalman filtering for particle: 14
Particle 14:
eta 3.3926756892786303, phi 1.7859668828314048,
p 8.985488780128119, q 1.60217662e-19,
brem = False
output State:
[[ 0.00231147]
 [ 0.00071463]
 [ 0.06576104]
 [-0.01437233]
 [ 0.03336585]]
Data added to pickle list for particle: 14
Particle 15:
eta 4.98070783347867, phi 1.0375054274625164,
p 9.0, q -1.60217662e-19,
brem = False
input State:
[[ 0.001     ]
 [ 0.001     ]
 [ 0.01183122]
 [ 0.00698452]
 [-0.03331206]]

Simulating particle
Initiating Kalman filtering for particle: 15
Particle 15:
eta 4.963424365660898, phi 1.053027996872448,
p 9.009957181673474, q -1.60217662e-19,
brem = False
output State:
[[ 0.00120383]
 [ 0.00114935]
 [ 0.01214636]
 [ 0.00691859]
 [-0.03327524]]
Data added to pickle list for particle: 15
Particle 16:
eta 4.113368220787689, phi 2.0256301518886017,
p 10.0, q 1.60217662e-19,
brem = False
input State:
[[ 0.001     ]
 [ 0.001     ]
 [ 0.02938806]
 [-0.01437167]
 [ 0.02998085]]

Simulating particle
Initiating Kalman filtering for particle: 16
Particle 16:
eta 4.116591620284792, phi 2.051920613491032,
p 10.019855064947603, q 1.60217662e-19,
brem = False
output State:
[[ 0.00160625]
 [ 0.00073406]
 [ 0.02890673]
 [-0.01509049]
 [ 0.02992144]]
Data added to pickle list for particle: 16
Particle 17:
eta 4.012995391986849, phi -2.153702668221183,
p 10.0, q -1.60217662e-19,
brem = False
input State:
[[ 0.001     ]
 [ 0.001     ]
 [-0.03019724]
 [-0.01990995]
 [-0.02998085]]

Simulating particle
Initiating Kalman filtering for particle: 17
Particle 17:
eta 4.023333829456295, phi -2.1622405474171864,
p 10.014512750206013, q -1.60217662e-19,
brem = False
output State:
[[ 0.0003855 ]
 [ 0.00058769]
 [-0.02971713]
 [-0.01995949]
 [-0.0299374 ]]
Data added to pickle list for particle: 17
Particle 18:
eta 2.8129462984989675, phi -0.2739072759343306,
p 11.0, q 1.60217662e-19,
brem = False
input State:
[[ 0.001     ]
 [ 0.001     ]
 [-0.03259193]
 [ 0.11599821]
 [ 0.02725532]]

Simulating particle
Initiating Kalman filtering for particle: 18
Particle 18:
eta 2.81414985942465, phi -0.27373051363177786,
p 11.022634441745307, q 1.60217662e-19,
brem = False
output State:
[[ 0.00034235]
 [ 0.00332777]
 [-0.03253197]
 [ 0.11586343]
 [ 0.02719935]]
Data added to pickle list for particle: 18
Particle 19:
eta 2.233094266175721, phi -2.0149363654555867,
p 11.0, q -1.60217662e-19,
brem = False
input State:
[[ 0.001     ]
 [ 0.001     ]
 [-0.19584263]
 [-0.09319133]
 [-0.02725532]]

Simulating particle
Initiating Kalman filtering for particle: 19
Particle 19:
eta 2.2343852974221754, phi -2.0158421286856956,
p 11.065531880679355, q -1.60217662e-19,
brem = False
output State:
[[-0.00292488]
 [-0.00087312]
 [-0.19549972]
 [-0.09324542]
 [-0.02709391]]
Data added to pickle list for particle: 19
Particle 20:
eta 4.877085031703431, phi 1.1652047961168952,
p 12.0, q 1.60217662e-19,
brem = False
input State:
[[0.001     ]
 [0.001     ]
 [0.01400289]
 [0.00601284]
 [0.02498404]]

Simulating particle
Initiating Kalman filtering for particle: 20
Particle 20:
eta 4.896805833026708, phi 1.1517833044014165,
p 11.761251918902827, q 1.60217662e-19,
brem = False
output State:
[[0.00130051]
 [0.00112576]
 [0.01364906]
 [0.00607914]
 [0.02549121]]
Data added to pickle list for particle: 20
Particle 21:
eta 3.5353456436142503, phi 1.8303074758504307,
p 12.0, q -1.60217662e-19,
brem = False
input State:
[[ 0.001     ]
 [ 0.001     ]
 [ 0.05639322]
 [-0.0149723 ]
 [-0.02498404]]

Simulating particle
Initiating Kalman filtering for particle: 21
Particle 21:
eta 3.531731449554321, phi 1.841369762518624,
p 11.873623728247663, q -1.60217662e-19,
brem = False
output State:
[[ 0.00210613]
 [ 0.00074003]
 [ 0.05642806]
 [-0.01565177]
 [-0.02524996]]
Data added to pickle list for particle: 21
Particle 22:
eta 3.0636167081389267, phi 1.0506660387365878,
p 12.999999999999998, q 1.60217662e-19,
brem = False
input State:
[[0.001     ]
 [0.001     ]
 [0.08125759]
 [0.04653905]
 [0.02306219]]

Simulating particle
Initiating Kalman filtering for particle: 22
Particle 22:
eta 3.0636238075067403, phi 1.0484610596511106,
p 13.032040982322899, q 1.60217662e-19,
brem = False
output State:
[[0.00260416]
 [0.00193202]
 [0.0811542 ]
 [0.04671778]
 [0.02300549]]
Data added to pickle list for particle: 22
Particle 23:
eta 2.8580792473314527, phi -3.0608378260264577,
p 12.999999999999998, q -1.60217662e-19,
brem = False
input State:
[[ 0.001     ]
 [ 0.001     ]
 [-0.00928775]
 [-0.11476158]
 [-0.02306219]]

Simulating particle
Initiating Kalman filtering for particle: 23
Particle 23:
eta 2.8534010207034997, phi -3.063472949605499,
p 12.966979396762548, q -1.60217662e-19,
brem = False
output State:
[[ 0.00082106]
 [-0.00126232]
 [-0.00902772]
 [-0.11532749]
 [-0.02312092]]
Data added to pickle list for particle: 23
Particle 24:
eta 4.429579057031601, phi -1.9095355435340982,
p 14.0, q 1.60217662e-19,
brem = False
input State:
[[ 0.001     ]
 [ 0.001     ]
 [-0.02248754]
 [-0.00792279]
 [ 0.02141489]]

Simulating particle
Initiating Kalman filtering for particle: 24
Particle 24:
eta 4.44769769711821, phi -1.8972912668877593,
p 14.025365637203851, q 1.60217662e-19,
brem = False
output State:
[[ 0.0005214 ]
 [ 0.00082117]
 [-0.02217726]
 [-0.00750952]
 [ 0.02137616]]
Data added to pickle list for particle: 24
Particle 25:
eta 2.658885463527512, phi -0.50573133082045,
p 14.0, q -1.60217662e-19,
brem = False
input State:
[[ 0.001     ]
 [ 0.001     ]
 [-0.06818238]
 [ 0.12312451]
 [-0.02141489]]

Simulating particle
Initiating Kalman filtering for particle: 25
Particle 25:
eta 2.655835334059917, phi -0.5040404758739989,
p 13.878054817246221, q -1.60217662e-19,
brem = False
output State:
[[-0.00036023]
 [ 0.0034538 ]
 [-0.0681838 ]
 [ 0.12361981]
 [-0.02160306]]
Data added to pickle list for particle: 25
Particle 26:
eta 2.2817501262829922, phi -1.4860551167556058,
p 15.000000000000002, q 1.60217662e-19,
brem = False
input State:
[[ 0.001     ]
 [ 0.001     ]
 [-0.20562163]
 [ 0.01746645]
 [ 0.01998723]]

Simulating particle
Initiating Kalman filtering for particle: 26
Particle 26:
eta 2.2812621878399906, phi -1.4848671073234954,
p 14.998951341502051, q 1.60217662e-19,
brem = False
output State:
[[-0.00309276]
 [ 0.00135288]
 [-0.20570319]
 [ 0.01771955]
 [ 0.01998863]]
Data added to pickle list for particle: 26
Particle 27:
eta 4.691940625485971, phi -1.8949464586635056,
p 15.000000000000002, q -1.60217662e-19,
brem = False
input State:
[[ 0.001     ]
 [ 0.001     ]
 [-0.01738421]
 [-0.00584113]
 [-0.01998723]]

Simulating particle
Initiating Kalman filtering for particle: 27
Particle 27:
eta 4.697514695886319, phi -1.8849390127779064,
p 15.135485989436676, q -1.60217662e-19,
brem = False
output State:
[[ 0.00066474]
 [ 0.0008937 ]
 [-0.01734483]
 [-0.00563536]
 [-0.01980832]]
Data added to pickle list for particle: 27
Particle 28:
eta 3.911289495950175, phi -2.5871243293148334,
p 16.0, q 1.60217662e-19,
brem = False
input State:
[[ 0.001     ]
 [ 0.001     ]
 [-0.02108355]
 [-0.03404581]
 [ 0.01873803]]

Simulating particle
Initiating Kalman filtering for particle: 28
Particle 28:
eta 3.9044250464672516, phi -2.592368683679261,
p 15.896606872320094, q 1.60217662e-19,
brem = False
output State:
[[ 0.00057288]
 [ 0.00033429]
 [-0.02104883]
 [-0.03439137]
 [ 0.01885991]]
Data added to pickle list for particle: 28
Particle 29:
eta 4.78079399881974, phi 2.5342680614364634,
p 16.0, q -1.60217662e-19,
brem = False
input State:
[[ 0.001     ]
 [ 0.001     ]
 [ 0.0095758 ]
 [-0.01377924]
 [-0.01873803]]

Simulating particle
Initiating Kalman filtering for particle: 29
Particle 29:
eta 4.7716658438670425, phi 2.5129636814181526,
p 15.997022867354943, q -1.60217662e-19,
brem = False
output State:
[[ 0.00117573]
 [ 0.00071472]
 [ 0.00995766]
 [-0.0136966 ]
 [-0.01874152]]
Data added to pickle list for particle: 29
Particle 30:
eta 3.9412350952477464, phi 1.8172266249032198,
p 17.0, q 1.60217662e-19,
brem = False
input State:
[[ 0.001     ]
 [ 0.001     ]
 [ 0.037689  ]
 [-0.0094804 ]
 [ 0.01763579]]

Simulating particle
Initiating Kalman filtering for particle: 30
Particle 30:
eta 3.940005408813595, phi 1.821769413789128,
p 17.011468855495895, q 1.60217662e-19,
brem = False
output State:
[[ 0.00174936]
 [ 0.00081821]
 [ 0.0376919 ]
 [-0.0096634 ]
 [ 0.0176239 ]]
Data added to pickle list for particle: 30
Particle 31:
eta 3.166334504190574, phi 1.239556488020451,
p 17.0, q -1.60217662e-19,
brem = False
input State:
[[ 0.001     ]
 [ 0.001     ]
 [ 0.07987424]
 [ 0.02746961]
 [-0.01763579]]

Simulating particle
Initiating Kalman filtering for particle: 31
Particle 31:
eta 3.16466254627247, phi 1.2370960090958494,
p 16.840164619356088, q -1.60217662e-19,
brem = False
output State:
[[ 0.00259398]
 [ 0.00152569]
 [ 0.07994043]
 [ 0.02771251]
 [-0.01780318]]
Data added to pickle list for particle: 31
Particle 32:
eta 3.9531077534766763, phi 2.800823744866114,
p 18.0, q 1.60217662e-19,
brem = False
input State:
[[ 0.001     ]
 [ 0.001     ]
 [ 0.01283509]
 [-0.03619575]
 [ 0.01665603]]

Simulating particle
Initiating Kalman filtering for particle: 32
Particle 32:
eta 3.9568428862312377, phi 2.8025612094605505,
p 18.00567498439938, q 1.60217662e-19,
brem = False
output State:
[[ 0.0012549 ]
 [ 0.00028294]
 [ 0.01272453]
 [-0.03608287]
 [ 0.01665078]]
Data added to pickle list for particle: 32
Particle 33:
eta 2.7179400793869344, phi 2.4347666159585093,
p 18.0, q -1.60217662e-19,
brem = False
input State:
[[ 0.001     ]
 [ 0.001     ]
 [ 0.08611288]
 [-0.10083183]
 [-0.01665603]]

Simulating particle
Initiating Kalman filtering for particle: 33
Particle 33:
eta 2.717666322008781, phi 2.43292431188928,
p 17.880224530324945, q -1.60217662e-19,
brem = False
output State:
[[ 0.00271955]
 [-0.0010324 ]
 [ 0.08632234]
 [-0.10070082]
 [-0.0167676 ]]
Data added to pickle list for particle: 33
Particle 34:
eta 4.022624868801817, phi 2.7032314734752667,
p 19.0, q 1.60217662e-19,
brem = False
input State:
[[ 0.001     ]
 [ 0.001     ]
 [ 0.01520542]
 [-0.03243614]
 [ 0.01577939]]

Simulating particle
Initiating Kalman filtering for particle: 34
Particle 34:
eta 3.9986946042119547, phi 2.6924437686574496,
p 18.963120685415426, q 1.60217662e-19,
brem = False
output State:
[[ 0.00130625]
 [ 0.00040002]
 [ 0.0159314 ]
 [-0.0330523 ]
 [ 0.01581008]]
Data added to pickle list for particle: 34
Particle 35:
eta 2.792275543600735, phi 1.812190823112249,
p 19.0, q -1.60217662e-19,
brem = False
input State:
[[ 0.001     ]
 [ 0.001     ]
 [ 0.11945818]
 [-0.02941003]
 [-0.01577939]]

Simulating particle
Initiating Kalman filtering for particle: 35
Particle 35:
eta 2.792657694104469, phi 1.8102278985179425,
p 18.970954520721804, q -1.60217662e-19,
brem = False
output State:
[[ 0.00339117]
 [ 0.00040309]
 [ 0.11946967]
 [-0.02916426]
 [-0.01580355]]
Data added to pickle list for particle: 35
Particle 36:
eta 4.688503661146208, phi 2.654028797943593,
p 20.0, q 1.60217662e-19,
brem = False
input State:
[[ 0.001     ]
 [ 0.001     ]
 [ 0.00862108]
 [-0.01625813]
 [ 0.01499042]]

Simulating particle
Initiating Kalman filtering for particle: 36
Particle 36:
eta 4.685513284763725, phi 2.668581959736718,
p 20.21181963197885, q 1.60217662e-19,
brem = False
output State:
[[ 0.00117457]
 [ 0.00067301]
 [ 0.00840868]
 [-0.01643094]
 [ 0.01483333]]
Data added to pickle list for particle: 36
Particle 37:
eta 3.4362489371175315, phi -0.9185830754208977,
p 20.0, q -1.60217662e-19,
brem = False
input State:
[[ 0.001     ]
 [ 0.001     ]
 [-0.05121092]
 [ 0.03910991]
 [-0.01499042]]

Simulating particle
Initiating Kalman filtering for particle: 37
Particle 37:
eta 3.433711260187459, phi -0.9168285900407634,
p 20.069848055309535, q -1.60217662e-19,
brem = False
output State:
[[-2.47136577e-05]
 [ 1.76020766e-03]
 [-5.12724381e-02]
 [ 3.92995090e-02]
 [-1.49382546e-02]]
Data added to pickle list for particle: 37
Particle 38:
eta 2.8549607203564236, phi 1.9662166115151387,
p 21.0, q 1.60217662e-19,
brem = False
input State:
[[ 0.001     ]
 [ 0.001     ]
 [ 0.10658631]
 [-0.04448969]
 [ 0.0142766 ]]

Simulating particle
Initiating Kalman filtering for particle: 38
Particle 38:
eta 2.8565792977036284, phi 1.9671103054138541,
p 20.690189314726926, q 1.60217662e-19,
brem = False
output State:
[[ 0.00315491]
 [ 0.00012693]
 [ 0.10637305]
 [-0.04451234]
 [ 0.01449037]]
Data added to pickle list for particle: 38
Particle 39:
eta 4.853573417375302, phi 1.214988456219507,
p 21.0, q -1.60217662e-19,
brem = False
input State:
[[ 0.001     ]
 [ 0.001     ]
 [ 0.01462464]
 [ 0.00543487]
 [-0.0142766 ]]

Simulating particle
Initiating Kalman filtering for particle: 39
Particle 39:
eta 4.86070705674334, phi 1.215546980668967,
p 20.90151410677398, q -1.60217662e-19,
brem = False
output State:
[[ 0.00128168]
 [ 0.00112511]
 [ 0.01452368]
 [ 0.00538812]
 [-0.01434387]]
Data added to pickle list for particle: 39
Particle 40:
eta 3.304637882945338, phi -0.5210339305117108,
p 22.0, q 1.60217662e-19,
brem = False
input State:
[[ 0.001     ]
 [ 0.001     ]
 [-0.03659862]
 [ 0.06376782]
 [ 0.01362766]]

Simulating particle
Initiating Kalman filtering for particle: 40
Particle 40:
eta 3.304321497566294, phi -0.519985555739952,
p 21.89985651399197, q 1.60217662e-19,
brem = False
output State:
[[ 0.00026254]
 [ 0.00226666]
 [-0.03654334]
 [ 0.0638264 ]
 [ 0.01368998]]
Data added to pickle list for particle: 40
Particle 41:
eta 4.365769482708204, phi -0.8844056825013009,
p 22.0, q -1.60217662e-19,
brem = False
input State:
[[ 0.001     ]
 [ 0.001     ]
 [-0.01965859]
 [ 0.01610601]
 [-0.01362766]]

Simulating particle
Initiating Kalman filtering for particle: 41
Particle 41:
eta 4.377748268677689, phi -0.898175342136579,
p 21.827077441979327, q -1.60217662e-19,
brem = False
output State:
[[ 0.00060751]
 [ 0.00136093]
 [-0.01964172]
 [ 0.0156452 ]
 [-0.01373562]]
Data added to pickle list for particle: 41
Particle 42:
eta 2.2763742092996186, phi 0.9067441942958495,
p 23.0, q 1.60217662e-19,
brem = False
input State:
[[0.001     ]
 [0.001     ]
 [0.16340506]
 [0.12788379]
 [0.01303515]]

Simulating particle
Initiating Kalman filtering for particle: 42
Particle 42:
eta 2.275313652409185, phi 0.9060141948182392,
p 23.190106067572813, q 1.60217662e-19,
brem = False
output State:
[[0.00427492]
 [0.00354025]
 [0.16348865]
 [0.12814177]
 [0.01292829]]
Data added to pickle list for particle: 42
Particle 43:
eta 4.911125451494975, phi 0.02675509846878923,
p 23.0, q -1.60217662e-19,
brem = False
input State:
[[ 0.001     ]
 [ 0.001     ]
 [ 0.00039403]
 [ 0.01472392]
 [-0.01303515]]

Simulating particle
Initiating Kalman filtering for particle: 43
Particle 43:
eta 4.936033574396279, phi 0.03052058736976469,
p 23.029560189524144, q -1.60217662e-19,
brem = False
output State:
[[ 0.00099268]
 [ 0.00132219]
 [ 0.00043842]
 [ 0.01436012]
 [-0.01301842]]
Data added to pickle list for particle: 43
Particle 44:
eta 3.263541198414669, phi 1.5578158474195491,
p 24.0, q 1.60217662e-19,
brem = False
input State:
[[0.001     ]
 [0.001     ]
 [0.07661105]
 [0.0009945 ]
 [0.01249202]]

Simulating particle
Initiating Kalman filtering for particle: 44
Particle 44:
eta 3.262888971106201, phi 1.5585673936102158,
p 24.080944737096562, q 1.60217662e-19,
brem = False
output State:
[[0.00252187]
 [0.00103145]
 [0.07666191]
 [0.00093754]
 [0.01245003]]
Data added to pickle list for particle: 44
Particle 45:
eta 4.312034791847045, phi 2.7827962914722746,
p 24.0, q -1.60217662e-19,
brem = False
input State:
[[ 0.001     ]
 [ 0.001     ]
 [ 0.00941683]
 [-0.02510958]
 [-0.01249202]]

Simulating particle
Initiating Kalman filtering for particle: 45
Particle 45:
eta 4.323190377668762, phi 2.774015489119485,
p 23.790989270713876, q -1.60217662e-19,
brem = False
output State:
[[ 0.00117484]
 [ 0.00047544]
 [ 0.00953   ]
 [-0.0247482 ]
 [-0.01260177]]
Data added to pickle list for particle: 45
Particle 46:
eta 4.921474188589194, phi -3.0799173873030763,
p 25.0, q 1.60217662e-19,
brem = False
input State:
[[ 0.001     ]
 [ 0.001     ]
 [-0.0008985 ]
 [-0.01454981]
 [ 0.01199234]]

Simulating particle
Initiating Kalman filtering for particle: 46
Particle 46:
eta 4.9369913134637216, phi -3.0960264405181586,
p 25.093257280462524, q 1.60217662e-19,
brem = False
output State:
[[ 0.00097539]
 [ 0.00069936]
 [-0.00065379]
 [-0.01433815]
 [ 0.01194777]]
Data added to pickle list for particle: 46
Particle 47:
eta 4.603633860276215, phi 0.6309221623483016,
p 25.0, q -1.60217662e-19,
brem = False
input State:
[[ 0.001     ]
 [ 0.001     ]
 [ 0.01181712]
 [ 0.01617613]
 [-0.01199234]]

Simulating particle
Initiating Kalman filtering for particle: 47
Particle 47:
eta 4.596137616675726, phi 0.6210883607383736,
p 25.1238744562067, q -1.60217662e-19,
brem = False
output State:
[[ 0.00123075]
 [ 0.00130369]
 [ 0.01174521]
 [ 0.01641416]
 [-0.01193321]]
Data added to pickle list for particle: 47
Particle 48:
eta 2.212773527205119, phi -0.03149211641257582,
p 25.999999999999996, q 1.60217662e-19,
brem = False
input State:
[[ 0.001     ]
 [ 0.001     ]
 [-0.00697258]
 [ 0.22133399]
 [ 0.0115311 ]]

Simulating particle
Initiating Kalman filtering for particle: 48
Particle 48:
eta 2.2131761562657966, phi -0.030736889053750677,
p 25.7996449359573, q 1.60217662e-19,
brem = False
output State:
[[ 0.00083059]
 [ 0.00542521]
 [-0.00680262]
 [ 0.22124794]
 [ 0.01162064]]
Data added to pickle list for particle: 48
Particle 49:
eta 4.877951014378034, phi 1.8289909708219465,
p 25.999999999999996, q -1.60217662e-19,
brem = False
input State:
[[ 0.001     ]
 [ 0.001     ]
 [ 0.01472137]
 [-0.00388776]
 [-0.0115311 ]]

Simulating particle
Initiating Kalman filtering for particle: 49
Particle 49:
eta 4.885056569260491, phi 1.8299201032449524,
p 26.195062454862555, q -1.60217662e-19,
brem = False
output State:
[[ 0.0012959 ]
 [ 0.00091528]
 [ 0.01461353]
 [-0.00387381]
 [-0.01144523]]
Data added to pickle list for particle: 49
Particle 50:
eta 2.7365508203281923, phi 1.9358633889781502,
p 27.0, q 1.60217662e-19,
brem = False
input State:
[[ 0.001     ]
 [ 0.001     ]
 [ 0.12155741]
 [-0.04645911]
 [ 0.01110402]]

Simulating particle
Initiating Kalman filtering for particle: 50
Particle 50:
eta 2.736862844624389, phi 1.9354104257292075,
p 26.644815657641594, q 1.60217662e-19,
brem = False
output State:
[[ 3.44023267e-03]
 [ 8.53515311e-05]
 [ 1.21540197e-01]
 [-4.63894470e-02]
 [ 1.12520388e-02]]
Data added to pickle list for particle: 50
Particle 51:
eta 3.442825100598888, phi -2.0437150057365514,
p 27.0, q -1.60217662e-19,
brem = False
input State:
[[ 0.001     ]
 [ 0.001     ]
 [-0.0569879 ]
 [-0.02915747]
 [-0.01110402]]

Simulating particle
Initiating Kalman filtering for particle: 51
Particle 51:
eta 3.4402367789247084, phi -2.0447800671703056,
p 24.92054510701108, q -1.60217662e-19,
brem = False
output State:
[[-0.00012178]
 [ 0.00042561]
 [-0.05710473]
 [-0.02929403]
 [-0.01203058]]
Data added to pickle list for particle: 51
Particle 52:
eta 4.93620426593329, phi -3.1392931234845576,
p 28.0, q 1.60217662e-19,
brem = False
input State:
[[ 1.00000000e-03]
 [ 1.00000000e-03]
 [-3.30312371e-05]
 [-1.43643168e-02]
 [ 1.07074464e-02]]

Simulating particle
Initiating Kalman filtering for particle: 52
Particle 52:
eta 4.953751575467929, phi 3.13785483424413,
p 27.91475074294722, q 1.60217662e-19,
brem = False
output State:
[[ 9.99934215e-04]
 [ 6.97291616e-04]
 [ 5.27572253e-05]
 [-1.41143738e-02]
 [ 1.07401460e-02]]
Data added to pickle list for particle: 52
Particle 53:
eta 3.594475106992834, phi -3.0455097585632562,
p 28.0, q -1.60217662e-19,
brem = False
input State:
[[ 0.001     ]
 [ 0.001     ]
 [-0.00527564]
 [-0.05473807]
 [-0.01070745]]

Simulating particle
Initiating Kalman filtering for particle: 53
Particle 53:
eta 3.591977213444545, phi -3.045519804233514,
p 27.86360506397453, q -1.60217662e-19,
brem = False
output State:
[[ 8.79174094e-04]
 [-8.58219473e-05]
 [-5.28830015e-03]
 [-5.48752311e-02]
 [-1.07598603e-02]]
Data added to pickle list for particle: 53
Particle 54:
eta 2.0589406538531705, phi 1.2286188206948714,
p 29.0, q 1.60217662e-19,
brem = False
input State:
[[0.001     ]
 [0.001     ]
 [0.24436246]
 [0.08703916]
 [0.01033822]]

Simulating particle
Initiating Kalman filtering for particle: 54
Particle 54:
eta 2.0582899900986336, phi 1.2287946837302914,
p 29.144596209366426, q 1.60217662e-19,
brem = False
output State:
[[0.00589215]
 [0.00274791]
 [0.24454209]
 [0.08705468]
 [0.01028693]]
Data added to pickle list for particle: 54
Particle 55:
eta 4.016626635003467, phi 1.2400501706294031,
p 29.0, q -1.60217662e-19,
brem = False
input State:
[[ 0.001     ]
 [ 0.001     ]
 [ 0.03408565]
 [ 0.01170361]
 [-0.01033822]]

Simulating particle
Initiating Kalman filtering for particle: 55
Particle 55:
eta 4.0113038089325626, phi 1.2527860785885887,
p 28.649255516561755, q -1.60217662e-19,
brem = False
output State:
[[ 0.00167064]
 [ 0.00126959]
 [ 0.03441476]
 [ 0.01132874]
 [-0.01046479]]
Data added to pickle list for particle: 55
Particle 56:
eta 2.5874052938709227, phi -1.301861631146621,
p 30.000000000000004, q 1.60217662e-19,
brem = False
input State:
[[ 0.001     ]
 [ 0.001     ]
 [-0.14584772]
 [ 0.04019732]
 [ 0.00999362]]

Simulating particle
Initiating Kalman filtering for particle: 56
Particle 56:
eta 2.589041048119887, phi -1.3035890947031477,
p 30.39389506229826, q 1.60217662e-19,
brem = False
output State:
[[-0.00191997]
 [ 0.00181403]
 [-0.14567575]
 [ 0.03987928]
 [ 0.0098641 ]]
Data added to pickle list for particle: 56
Particle 57:
eta 2.761404779604899, phi -2.7944652204594678,
p 30.000000000000004, q -1.60217662e-19,
brem = False
input State:
[[ 0.001     ]
 [ 0.001     ]
 [-0.04317548]
 [-0.11934294]
 [-0.00999362]]

Simulating particle
Initiating Kalman filtering for particle: 57
Particle 57:
eta 2.7652825849656884, phi -2.7939378000761192,
p 30.240631652233976, q -1.60217662e-19,
brem = False
output State:
[[ 0.00013227]
 [-0.00142868]
 [-0.04306974]
 [-0.11885467]
 [-0.0099141 ]]
Data added to pickle list for particle: 57
Particle 58:
eta 3.453958709687627, phi 1.0234636933745664,
p 31.0, q 1.60217662e-19,
brem = False
input State:
[[0.001     ]
 [0.001     ]
 [0.05405604]
 [0.03294398]
 [0.00967124]]

Simulating particle
Initiating Kalman filtering for particle: 58
Particle 58:
eta 3.454356094771382, phi 1.0244326194575735,
p 31.308808702647504, q 1.60217662e-19,
brem = False
output State:
[[0.0020688 ]
 [0.00165408]
 [0.0540664 ]
 [0.03287849]
 [0.00957585]]
Data added to pickle list for particle: 58
Particle 59:
eta 3.227014787822982, phi 2.2112738399036367,
p 31.0, q -1.60217662e-19,
brem = False
input State:
[[ 0.001     ]
 [ 0.001     ]
 [ 0.0637252 ]
 [-0.04749352]
 [-0.00967124]]

Simulating particle
Initiating Kalman filtering for particle: 59
Particle 59:
eta 3.2281394945014146, phi 2.209407752748572,
p 31.18170713261439, q -1.60217662e-19,
brem = False
output State:
[[ 2.27179184e-03]
 [ 2.83269383e-05]
 [ 6.37417591e-02]
 [-4.73210996e-02]
 [-9.61488407e-03]]
Data added to pickle list for particle: 59
Particle 60:
eta 2.4437177734844755, phi 2.3307321653679045,
p 32.0, q 1.60217662e-19,
brem = False
input State:
[[ 0.001     ]
 [ 0.001     ]
 [ 0.12684998]
 [-0.12054926]
 [ 0.00936902]]

Simulating particle
Initiating Kalman filtering for particle: 60
Particle 60:
eta 2.441896521375112, phi 2.3323443461040805,
p 32.2873394198098, q 1.60217662e-19,
brem = False
output State:
[[ 0.00352548]
 [-0.00139383]
 [ 0.12688987]
 [-0.12097708]
 [ 0.00928564]]
Data added to pickle list for particle: 60
Particle 61:
eta 3.5639784702437534, phi 0.7353155341558398,
p 32.0, q -1.60217662e-19,
brem = False
input State:
[[ 0.001     ]
 [ 0.001     ]
 [ 0.03803375]
 [ 0.04204781]
 [-0.00936902]]

Simulating particle
Initiating Kalman filtering for particle: 61
Particle 61:
eta 3.5633304273149977, phi 0.7374151784868912,
p 31.928528517254893, q -1.60217662e-19,
brem = False
output State:
[[ 0.00175919]
 [ 0.00181584]
 [ 0.03814671]
 [ 0.0419951 ]
 [-0.00938999]]
Data added to pickle list for particle: 61
Particle 62:
eta 3.9887317219575817, phi 2.708396710365651,
p 33.0, q 1.60217662e-19,
brem = False
input State:
[[ 0.001     ]
 [ 0.001     ]
 [ 0.01555643]
 [-0.03363591]
 [ 0.00908511]]

Simulating particle
Initiating Kalman filtering for particle: 62
Particle 62:
eta 3.9877395269813904, phi 2.7101840467482154,
p 33.2562119949134, q 1.60217662e-19,
brem = False
output State:
[[ 0.00133724]
 [ 0.00032638]
 [ 0.01551168]
 [-0.0336971 ]
 [ 0.00901511]]
Data added to pickle list for particle: 62
Particle 63:
eta 4.990343637480888, phi -1.4880524908882988,
p 33.0, q -1.60217662e-19,
brem = False
input State:
[[ 0.001     ]
 [ 0.001     ]
 [-0.01356073]
 [ 0.00112463]
 [-0.00908511]]

Simulating particle
Initiating Kalman filtering for particle: 63
Particle 63:
eta 4.968054980151192, phi -1.446125160489612,
p 32.92083517480491, q -1.60217662e-19,
brem = False
output State:
[[ 0.00075154]
 [ 0.00097804]
 [-0.01380601]
 [ 0.00173019]
 [-0.00910695]]
Data added to pickle list for particle: 63
Particle 64:
eta 3.41586938942555, phi 2.752965769750558,
p 34.0, q 1.60217662e-19,
brem = False
input State:
[[ 0.001     ]
 [ 0.001     ]
 [ 0.02492016]
 [-0.06086243]
 [ 0.0088179 ]]

Simulating particle
Initiating Kalman filtering for particle: 64
Particle 64:
eta 3.417007203988798, phi 2.754397480460719,
p 34.48187317557948, q 1.60217662e-19,
brem = False
output State:
[[ 0.00152041]
 [-0.00020773]
 [ 0.0248047 ]
 [-0.06082865]
 [ 0.00869467]]
Data added to pickle list for particle: 64
Particle 65:
eta 2.1125854553853642, phi 0.8819640990034884,
p 34.0, q -1.60217662e-19,
brem = False
input State:
[[ 0.001     ]
 [ 0.001     ]
 [ 0.18947604]
 [ 0.15600979]
 [-0.0088179 ]]

Simulating particle
Initiating Kalman filtering for particle: 65
Particle 65:
eta 2.1123999469607186, phi 0.8819643723342748,
p 33.624187726326916, q -1.60217662e-19,
brem = False
output State:
[[ 0.00478143]
 [ 0.00411815]
 [ 0.18951228]
 [ 0.15603954]
 [-0.00891645]]
Data added to pickle list for particle: 65
Particle 66:
eta 2.6650702977927296, phi -2.766201546669273,
p 35.0, q 1.60217662e-19,
brem = False
input State:
[[ 0.001     ]
 [ 0.001     ]
 [-0.0512801 ]
 [-0.13012666]
 [ 0.00856596]]

Simulating particle
Initiating Kalman filtering for particle: 66
Particle 66:
eta 2.664324194662958, phi -2.765477515824792,
p 35.35626525740444, q 1.60217662e-19,
brem = False
output State:
[[-7.04245547e-06]
 [-1.59629645e-03]
 [-5.14130196e-02]
 [-1.30187538e-01]
 [ 8.47964278e-03]]
Data added to pickle list for particle: 66
Particle 67:
eta 3.145941651732074, phi -1.8573519651020103,
p 35.0, q -1.60217662e-19,
brem = False
input State:
[[ 0.001     ]
 [ 0.001     ]
 [-0.08269691]
 [-0.02436793]
 [-0.00856596]]

Simulating particle
Initiating Kalman filtering for particle: 67
Particle 67:
eta 3.1480971455065943, phi -1.8577433321522139,
p 35.266199945745306, q -1.60217662e-19,
brem = False
output State:
[[-0.0006751 ]
 [ 0.00050782]
 [-0.08250867]
 [-0.02434756]
 [-0.0085013 ]]
Data added to pickle list for particle: 67
Particle 68:
eta 3.2204219033857235, phi -2.9800836056032987,
p 36.0, q 1.60217662e-19,
brem = False
input State:
[[ 0.001     ]
 [ 0.001     ]
 [-0.01286527]
 [-0.07896283]
 [ 0.00832801]]

Simulating particle
Initiating Kalman filtering for particle: 68
Skip particle 68 because:('overflow encountered in double_scalars',)
Data added to pickle list for particle: 68
Particle 69:
eta 4.247606433950504, phi -2.8925251757790424,
p 36.0, q -1.60217662e-19,
brem = False
input State:
[[ 0.001     ]
 [ 0.001     ]
 [-0.00705057]
 [-0.02772008]
 [-0.00832801]]

Simulating particle
Initiating Kalman filtering for particle: 69
Particle 69:
eta 4.240258448261396, phi -2.873545092648021,
p 35.79685194961746, q -1.60217662e-19,
brem = False
output State:
[[ 0.00087592]
 [ 0.00045425]
 [-0.00763129]
 [-0.02778477]
 [-0.00837528]]
Data added to pickle list for particle: 69
Particle 70:
eta 2.70046610376135, phi 0.5286832096064348,
p 36.99999999999999, q 1.60217662e-19,
brem = False
input State:
[[0.001     ]
 [0.001     ]
 [0.06807206]
 [0.11653191]
 [0.00810293]]

Simulating particle
Initiating Kalman filtering for particle: 70
Particle 70:
eta 2.699093707011472, phi 0.5277062059987491,
p 37.26177123242504, q 1.60217662e-19,
brem = False
output State:
[[0.0023701 ]
 [0.00331837]
 [0.06805235]
 [0.11675994]
 [0.00804601]]
Data added to pickle list for particle: 70
Particle 71:
eta 4.209510892316819, phi -2.8742265040008057,
p 36.99999999999999, q -1.60217662e-19,
brem = False
input State:
[[ 0.001     ]
 [ 0.001     ]
 [-0.00785016]
 [-0.02865809]
 [-0.00810293]]

Simulating particle
Initiating Kalman filtering for particle: 71
Particle 71:
eta 4.204441510234758, phi -2.878841596918985,
p 37.83775177605048, q -1.60217662e-19,
brem = False
output State:
[[ 0.00082462]
 [ 0.00041739]
 [-0.00775705]
 [-0.02883991]
 [-0.00792353]]
Data added to pickle list for particle: 71
Particle 72:
eta 4.2329210830207, phi -2.709416720726705,
p 38.0, q 1.60217662e-19,
brem = False
input State:
[[ 0.001     ]
 [ 0.001     ]
 [-0.01215747]
 [-0.02635725]
 [ 0.0078897 ]]

Simulating particle
Initiating Kalman filtering for particle: 72
Particle 72:
eta 4.246145509957937, phi -2.7124804037520653,
p 38.38983058796156, q 1.60217662e-19,
brem = False
output State:
[[ 0.00075329]
 [ 0.00044689]
 [-0.01191794]
 [-0.02604747]
 [ 0.00780958]]
Data added to pickle list for particle: 72
Particle 73:
eta 3.5339270911130205, phi -2.970831351262406,
p 38.0, q -1.60217662e-19,
brem = False
input State:
[[ 0.001     ]
 [ 0.001     ]
 [-0.00992915]
 [-0.05758008]
 [-0.0078897 ]]

Simulating particle
Initiating Kalman filtering for particle: 73
Particle 73:
eta 3.533999943966238, phi -2.96663822425691,
p 37.661869712099794, q -1.60217662e-19,
brem = False
output State:
[[ 0.00081299]
 [-0.00015049]
 [-0.01016976]
 [-0.05753374]
 [-0.00796053]]
Data added to pickle list for particle: 73
Particle 74:
eta 4.3982527663144335, phi 1.1209135367231629,
p 39.0, q 1.60217662e-19,
brem = False
input State:
[[0.001     ]
 [0.001     ]
 [0.02215346]
 [0.01069814]
 [0.0076874 ]]

Simulating particle
Initiating Kalman filtering for particle: 74
Particle 74:
eta 4.4018842165513625, phi 1.1282010479516598,
p 37.420713127530206, q 1.60217662e-19,
brem = False
output State:
[[0.00143739]
 [0.00121525]
 [0.02215023]
 [0.01049821]
 [0.00801183]]
Data added to pickle list for particle: 74
Particle 75:
eta 3.2010870699411833, phi 2.988377014090692,
p 39.0, q -1.60217662e-19,
brem = False
input State:
[[ 0.001     ]
 [ 0.001     ]
 [ 0.01244912]
 [-0.0806155 ]
 [-0.0076874 ]]

Simulating particle
Initiating Kalman filtering for particle: 75
Particle 75:
eta 3.2012315923805277, phi 2.99156395870615,
p 38.57429610119702, q -1.60217662e-19,
brem = False
output State:
[[ 0.00125822]
 [-0.0006269 ]
 [ 0.01219038]
 [-0.08064307]
 [-0.00777224]]
Data added to pickle list for particle: 75
Particle 76:
eta 3.6750795382972457, phi -2.264029125756145,
p 40.0, q 1.60217662e-19,
brem = False
input State:
[[ 0.001     ]
 [ 0.001     ]
 [-0.03901869]
 [-0.03241617]
 [ 0.00749521]]

Simulating particle
Initiating Kalman filtering for particle: 76
Particle 76:
eta 3.668218697721728, phi -2.2691096545700247,
p 40.28683228352526, q 1.60217662e-19,
brem = False
output State:
[[ 0.00022845]
 [ 0.00038084]
 [-0.03912133]
 [-0.0328388 ]
 [ 0.00744185]]
Data added to pickle list for particle: 76
Particle 77:
eta 4.3749088485044245, phi 2.5673454606561594,
p 40.0, q -1.60217662e-19,
brem = False
input State:
[[ 0.001     ]
 [ 0.001     ]
 [ 0.01367925]
 [-0.02114332]
 [-0.00749521]]

Simulating particle
Initiating Kalman filtering for particle: 77
Particle 77:
eta 4.382638495950036, phi 2.5708233523809265,
p 39.51240963361158, q -1.60217662e-19,
brem = False
output State:
[[ 0.00127896]
 [ 0.00057601]
 [ 0.01350083]
 [-0.02102755]
 [-0.0075877 ]]
Data added to pickle list for particle: 77
Particle 78:
eta 2.6383015056918313, phi 0.7818991275755126,
p 41.0, q 1.60217662e-19,
brem = False
input State:
[[0.001     ]
 [0.001     ]
 [0.10125468]
 [0.10196576]
 [0.0073124 ]]

Simulating particle
Initiating Kalman filtering for particle: 78
Particle 78:
eta 2.64055856061456, phi 0.7813442456321895,
p 41.15770700782797, q 1.60217662e-19,
brem = False
output State:
[[0.00303643]
 [0.00305687]
 [0.1009676 ]
 [0.10178956]
 [0.00728438]]
Data added to pickle list for particle: 78
Particle 79:
eta 4.490295595998805, phi 0.5405630712818049,
p 41.0, q -1.60217662e-19,
brem = False
input State:
[[ 0.001     ]
 [ 0.001     ]
 [ 0.01154675]
 [ 0.01923832]
 [-0.0073124 ]]

Simulating particle
Initiating Kalman filtering for particle: 79
Particle 79:
eta 4.4726688532486625, phi 0.533912831430511,
p 41.736156752159204, q -1.60217662e-19,
brem = False
output State:
[[ 0.00124145]
 [ 0.00137679]
 [ 0.01162166]
 [ 0.01965825]
 [-0.00718342]]
Data added to pickle list for particle: 79
Particle 80:
eta 3.192737853897258, phi -0.4477631311018388,
p 42.0, q 1.60217662e-19,
brem = False
input State:
[[ 0.001     ]
 [ 0.001     ]
 [-0.03561331]
 [ 0.07414818]
 [ 0.0071383 ]]

Simulating particle
Initiating Kalman filtering for particle: 80
Particle 80:
eta 3.191209106820613, phi -0.44931217539195145,
p 42.32152035880992, q 1.60217662e-19,
brem = False
output State:
[[ 0.00031243]
 [ 0.00246811]
 [-0.03578297]
 [ 0.07420666]
 [ 0.00708407]]
Data added to pickle list for particle: 80
Particle 81:
eta 2.3503406714625026, phi -0.29594615006282277,
p 42.0, q -1.60217662e-19,
brem = False
input State:
[[ 0.001     ]
 [ 0.001     ]
 [-0.056119  ]
 [ 0.18405705]
 [-0.0071383 ]]

Simulating particle
Initiating Kalman filtering for particle: 81
Particle 81:
eta 2.349028245261664, phi -0.2960046873930479,
p 41.58425784802693, q -1.60217662e-19,
brem = False
output State:
[[-1.07011134e-04]
 [ 4.67453843e-03]
 [-5.62048446e-02]
 [ 1.84299926e-01]
 [-7.20966334e-03]]
Data added to pickle list for particle: 81
Particle 82:
eta 2.024109668683636, phi -0.8214000733643433,
p 43.0, q 1.60217662e-19,
brem = False
input State:
[[ 0.001     ]
 [ 0.001     ]
 [-0.19687372]
 [ 0.18318497]
 [ 0.00697229]]

Simulating particle
Initiating Kalman filtering for particle: 82
Particle 82:
eta 2.023091111117628, phi -0.8224603635680501,
p 42.241879186435625, q 1.60217662e-19,
brem = False
output State:
[[-0.0029184 ]
 [ 0.00464386]
 [-0.19727582]
 [ 0.18316923]
 [ 0.00709742]]
Data added to pickle list for particle: 82
Particle 83:
eta 3.005157747241116, phi 0.48686608511338586,
p 43.0, q -1.60217662e-19,
brem = False
input State:
[[ 0.001     ]
 [ 0.001     ]
 [ 0.04646092]
 [ 0.08776655]
 [-0.00697229]]

Simulating particle
Initiating Kalman filtering for particle: 83
Particle 83:
eta 3.0027622489593293, phi 0.4868242945509787,
p 43.268461330963135, q -1.60217662e-19,
brem = False
output State:
[[ 0.00190935]
 [ 0.00272784]
 [ 0.04656922]
 [ 0.08798003]
 [-0.00692903]]
Data added to pickle list for particle: 83
Particle 84:
eta 3.5037817320805544, phi -3.034676536672846,
p 44.0, q 1.60217662e-19,
brem = False
input State:
[[ 0.001     ]
 [ 0.001     ]
 [-0.00642637]
 [-0.05987743]
 [ 0.00681383]]

Simulating particle
Initiating Kalman filtering for particle: 84
Particle 84:
eta 3.5053568058368483, phi -3.0367547587078922,
p 44.73059665602784, q 1.60217662e-19,
brem = False
output State:
[[ 0.0008565 ]
 [-0.00021235]
 [-0.00629198]
 [-0.05979623]
 [ 0.00670254]]
Data added to pickle list for particle: 84
Particle 85:
eta 4.7306454964511975, phi 2.265218255271637,
p 44.0, q -1.60217662e-19,
brem = False
input State:
[[ 0.001     ]
 [ 0.001     ]
 [ 0.01355724]
 [-0.01129044]
 [-0.00681383]]

Simulating particle
Initiating Kalman filtering for particle: 85
Particle 85:
eta 4.742305836070877, phi 2.2548213183154266,
p 44.11396778614803, q -1.60217662e-19,
brem = False
output State:
[[ 0.00127404]
 [ 0.00075721]
 [ 0.01351535]
 [-0.01101961]
 [-0.00679623]]
Data added to pickle list for particle: 85
Particle 86:
eta 3.2511410236082936, phi -2.1167069640632565,
p 45.0, q 1.60217662e-19,
brem = False
input State:
[[ 0.001     ]
 [ 0.001     ]
 [-0.066301  ]
 [-0.04027737]
 [ 0.00666241]]

Simulating particle
Initiating Kalman filtering for particle: 86
Particle 86:
eta 3.251590869350241, phi -2.1162867309021296,
p 45.150203332160835, q 1.60217662e-19,
brem = False
output State:
[[-0.0003292 ]
 [ 0.00019062]
 [-0.06628801]
 [-0.04023135]
 [ 0.00664025]]
Data added to pickle list for particle: 86
Particle 87:
eta 2.8249091922759644, phi 2.229926036287553,
p 45.0, q -1.60217662e-19,
brem = False
input State:
[[ 0.001     ]
 [ 0.001     ]
 [ 0.09410962]
 [-0.07290779]
 [-0.00666241]]

Simulating particle
Initiating Kalman filtering for particle: 87
Particle 87:
eta 2.825583300005535, phi 2.229242351444459,
p 45.34679260566628, q -1.60217662e-19,
brem = False
output State:
[[ 0.00287316]
 [-0.00047012]
 [ 0.09409555]
 [-0.072794  ]
 [-0.00661146]]
Data added to pickle list for particle: 87
Particle 88:
eta 2.099685929682242, phi 1.7025048241731402,
p 46.0, q 1.60217662e-19,
brem = False
input State:
[[ 0.001     ]
 [ 0.001     ]
 [ 0.24656767]
 [-0.03266415]
 [ 0.00651758]]

Simulating particle
Initiating Kalman filtering for particle: 88
Particle 88:
eta 2.1006629763300086, phi 1.70129929553805,
p 45.76431583326718, q 1.60217662e-19,
brem = False
output State:
[[ 0.00594109]
 [ 0.00032596]
 [ 0.24635871]
 [-0.03233431]
 [ 0.00655114]]
Data added to pickle list for particle: 88
Particle 89:
eta 2.317416679314652, phi -1.1554284330494682,
p 46.0, q -1.60217662e-19,
brem = False
input State:
[[ 0.001     ]
 [ 0.001     ]
 [-0.18206698]
 [ 0.08029666]
 [-0.00651758]]

Simulating particle
Initiating Kalman filtering for particle: 89
Particle 89:
eta 2.3182607955700387, phi -1.1558496989778997,
p 45.61723759201376, q -1.60217662e-19,
brem = False
output State:
[[-0.00264108]
 [ 0.0026349 ]
 [-0.18194414]
 [ 0.08015094]
 [-0.00657226]]
Data added to pickle list for particle: 89
Particle 90:
eta 2.8445200546473575, phi -1.446348088708635,
p 47.0, q 1.60217662e-19,
brem = False
input State:
[[ 0.001     ]
 [ 0.001     ]
 [-0.11581652]
 [ 0.01448803]
 [ 0.0063789 ]]

Simulating particle
Initiating Kalman filtering for particle: 90
Particle 90:
eta 2.8444005327986988, phi -1.449550687023628,
p 46.381938353019514, q 1.60217662e-19,
brem = False
output State:
[[-0.00128865]
 [ 0.00130133]
 [-0.11587627]
 [ 0.01411874]
 [ 0.00646391]]
Data added to pickle list for particle: 90
Particle 91:
eta 2.990817767546542, phi -1.5434693241554491,
p 47.0, q -1.60217662e-19,
brem = False
input State:
[[ 0.001     ]
 [ 0.001     ]
 [-0.1007094 ]
 [ 0.00275277]
 [-0.0063789 ]]

Simulating particle
Initiating Kalman filtering for particle: 91
Particle 91:
eta 2.990847373352359, phi -1.5434459128561282,
p 47.07766786445593, q -1.60217662e-19,
brem = False
output State:
[[-0.00099946]
 [ 0.00105479]
 [-0.10070634]
 [ 0.00275505]
 [-0.00636838]]
Data added to pickle list for particle: 91
Particle 92:
eta 3.117049183412432, phi -2.1164851034236327,
p 48.0, q 1.60217662e-19,
brem = False
input State:
[[ 0.001     ]
 [ 0.001     ]
 [-0.07586032]
 [-0.04606155]
 [ 0.00624601]]

Simulating particle
Initiating Kalman filtering for particle: 92
Particle 92:
eta 3.1175195137806355, phi -2.118564928665912,
p 48.15346579894221, q 1.60217662e-19,
brem = False
output State:
[[-0.000513  ]
 [ 0.00010311]
 [-0.07572859]
 [-0.04619741]
 [ 0.0062261 ]]
Data added to pickle list for particle: 92
Particle 93:
eta 3.7077407090043835, phi 2.0248525242985407,
p 48.0, q -1.60217662e-19,
brem = False
input State:
[[ 0.001     ]
 [ 0.001     ]
 [ 0.04412076]
 [-0.02153391]
 [-0.00624601]]

Simulating particle
Initiating Kalman filtering for particle: 93
Particle 93:
eta 3.7091660097276518, phi 2.0209605949276477,
p 47.29356135930317, q -1.60217662e-19,
brem = False
output State:
[[ 0.00189044]
 [ 0.00054074]
 [ 0.0441412 ]
 [-0.02133157]
 [-0.00633931]]
Data added to pickle list for particle: 93
Particle 94:
eta 2.6101673682850195, phi -0.8196404808681678,
p 49.0, q 1.60217662e-19,
brem = False
input State:
[[ 0.001     ]
 [ 0.001     ]
 [-0.108059  ]
 [ 0.10090093]
 [ 0.00611854]]

Simulating particle
Initiating Kalman filtering for particle: 94
Particle 94:
eta 2.6094718010660705, phi -0.8189917458513475,
p 49.81618556796761, q 1.60217662e-19,
brem = False
output State:
[[-0.00116679]
 [ 0.00299927]
 [-0.10806948]
 [ 0.10104203]
 [ 0.00601829]]
Data added to pickle list for particle: 94
Particle 95:
eta 3.8857962171339944, phi -0.2174560853651106,
p 49.0, q -1.60217662e-19,
brem = False
input State:
[[ 0.001     ]
 [ 0.001     ]
 [-0.00886292]
 [ 0.0401128 ]
 [-0.00611854]]

Simulating particle
Initiating Kalman filtering for particle: 95
Particle 95:
eta 3.8868044926181087, phi -0.22486408136529448,
p 49.495633293436775, q -1.60217662e-19,
brem = False
output State:
[[ 0.00085036]
 [ 0.00182809]
 [-0.00915059]
 [ 0.04000566]
 [-0.00605727]]
Data added to pickle list for particle: 95
Particle 96:
eta 3.818425642675745, phi 2.28664968828367,
p 50.0, q 1.60217662e-19,
brem = False
input State:
[[ 0.001     ]
 [ 0.001     ]
 [ 0.03315865]
 [-0.02884   ]
 [ 0.00599617]]

Simulating particle
Initiating Kalman filtering for particle: 96
Particle 96:
eta 3.8154538484902667, phi 2.285754317805748,
p 49.477834291582354, q 1.60217662e-19,
brem = False
output State:
[[ 0.00164784]
 [ 0.00042939]
 [ 0.03328332]
 [-0.02889613]
 [ 0.00605945]]
Data added to pickle list for particle: 96
Particle 97:
eta 2.285272759540752, phi -0.3873669711347926,
p 50.0, q -1.60217662e-19,
brem = False
input State:
[[ 0.001     ]
 [ 0.001     ]
 [-0.0776738 ]
 [ 0.19038615]
 [-0.00599617]]

Simulating particle
Initiating Kalman filtering for particle: 97
Particle 97:
eta 2.2851408975635614, phi -0.38834553086804974,
p 49.676466292707445, q -1.60217662e-19,
brem = False
output State:
[[-0.00054051]
 [ 0.0047863 ]
 [-0.07787055]
 [ 0.19033567]
 [-0.00603522]]
Data added to pickle list for particle: 97
Particle 98:
eta 4.469145336910312, phi -0.08820850409174871,
p 51.0, q 1.60217662e-19,
brem = False
input State:
[[ 0.001     ]
 [ 0.001     ]
 [-0.00201887]
 [ 0.02282812]
 [ 0.0058786 ]]

Simulating particle
Initiating Kalman filtering for particle: 98
Particle 98:
eta 4.462042351115142, phi -0.08830583619055543,
p 50.94437604020644, q 1.60217662e-19,
brem = False
output State:
[[ 0.00096416]
 [ 0.00144574]
 [-0.00203551]
 [ 0.02299069]
 [ 0.00588502]]
Data added to pickle list for particle: 98
Particle 99:
eta 2.1024123246521103, phi 2.3726173641685473,
p 51.0, q -1.60217662e-19,
brem = False
input State:
[[ 0.001     ]
 [ 0.001     ]
 [ 0.17247578]
 [-0.178236  ]
 [-0.0058786 ]]

Simulating particle
Initiating Kalman filtering for particle: 99
Particle 99:
eta 2.1032154536681698, phi 2.3722043502434484,
p 51.13112711755926, q -1.60217662e-19,
brem = False
output State:
[[ 0.00445708]
 [-0.00257123]
 [ 0.17240667]
 [-0.17801739]
 [-0.00586352]]
Data added to pickle list for particle: 99
Particle 100:
eta 3.6014012757618037, phi 2.5480191441942,
p 51.99999999999999, q 1.60217662e-19,
brem = False
input State:
[[ 0.001     ]
 [ 0.001     ]
 [ 0.03054572]
 [-0.04527012]
 [ 0.00576555]]

Simulating particle
Initiating Kalman filtering for particle: 100
Particle 100:
eta 3.6032731368400728, phi 2.5481730326746863,
p 51.68164826765354, q 1.60217662e-19,
brem = False
output State:
[[ 1.61351473e-03]
 [ 9.12755988e-05]
 [ 3.04815601e-02]
 [-4.51900230e-02]
 [ 5.80106303e-03]]
Data added to pickle list for particle: 100
Particle 101:
eta 2.45699592024874, phi -1.5885983793248877,
p 51.99999999999999, q -1.60217662e-19,
brem = False
input State:
[[ 0.001     ]
 [ 0.001     ]
 [-0.17262443]
 [-0.00307339]
 [-0.00576555]]

Simulating particle
Initiating Kalman filtering for particle: 101
Particle 101:
eta 2.4581210531172735, phi -1.5903740507458637,
p 51.2175639468936, q -1.60217662e-19,
brem = False
output State:
[[-0.00246004]
 [ 0.00096491]
 [-0.17242172]
 [-0.00337606]
 [-0.00585363]]
Data added to pickle list for particle: 101
Particle 102:
eta 3.576041722103771, phi -2.217053905678959,
p 53.0, q 1.60217662e-19,
brem = False
input State:
[[ 0.001     ]
 [ 0.001     ]
 [-0.0447203 ]
 [-0.03373323]
 [ 0.00565676]]

Simulating particle
Initiating Kalman filtering for particle: 102
Particle 102:
eta 3.576636076221768, phi -2.219060984685574,
p 53.0204708750647, q 1.60217662e-19,
brem = False
output State:
[[ 9.51346988e-05]
 [ 3.22889664e-04]
 [-4.46259267e-02]
 [-3.38027913e-02]
 [ 5.65458010e-03]]
Data added to pickle list for particle: 102
Particle 103:
eta 3.598684517619928, phi -2.97683163227744,
p 53.0, q -1.60217662e-19,
brem = False
input State:
[[ 0.001     ]
 [ 0.001     ]
 [-0.00898161]
 [-0.05401878]
 [-0.00565676]]

Simulating particle
Initiating Kalman filtering for particle: 103
Particle 103:
eta 3.60256140437435, phi -2.981063232608864,
p 53.04496498289013, q -1.60217662e-19,
brem = False
output State:
[[ 7.96560490e-04]
 [-9.83454534e-05]
 [-8.71902494e-03]
 [-5.38468298e-02]
 [-5.65196903e-03]]
Data added to pickle list for particle: 103
Particle 104:
eta 4.244810753615361, phi 0.42245076317488034,
p 54.0, q 1.60217662e-19,
brem = False
input State:
[[0.001     ]
 [0.001     ]
 [0.01175986]
 [0.0261612 ]
 [0.00555201]]

Simulating particle
Initiating Kalman filtering for particle: 104
Particle 104:
eta 4.242276633673484, phi 0.42921202899472816,
p 54.52358969606526, q 1.60217662e-19,
brem = False
output State:
[[0.00121794]
 [0.00152949]
 [0.01196677]
 [0.02614729]
 [0.00549869]]
Data added to pickle list for particle: 104
Particle 105:
eta 4.841023386780123, phi 0.42938973636090544,
p 54.0, q -1.60217662e-19,
brem = False
input State:
[[ 0.001     ]
 [ 0.001     ]
 [ 0.00657734]
 [ 0.01436469]
 [-0.00555201]]

Simulating particle
Initiating Kalman filtering for particle: 105
Particle 105:
eta 4.839519654790652, phi 0.439106763732319,
p 52.5789056188475, q -1.60217662e-19,
brem = False
output State:
[[ 0.00112401]
 [ 0.00127827]
 [ 0.00672672]
 [ 0.01432163]
 [-0.00570207]]
Data added to pickle list for particle: 105
Particle 106:
eta 2.702829277885736, phi 1.640993851227927,
p 54.99999999999999, q 1.60217662e-19,
brem = False
input State:
[[ 0.001     ]
 [ 0.001     ]
 [ 0.13430435]
 [-0.00944335]
 [ 0.00545106]]

Simulating particle
Initiating Kalman filtering for particle: 106
Particle 106:
eta 2.7021732441743413, phi 1.6420662694759356,
p 54.715457715539856, q 1.60217662e-19,
brem = False
output State:
[[ 0.00366637]
 [ 0.00083924]
 [ 0.13438308]
 [-0.00959372]
 [ 0.00547941]]
Data added to pickle list for particle: 106
Particle 107:
eta 3.4922524605698073, phi -1.2002782042229034,
p 54.99999999999999, q -1.60217662e-19,
brem = False
input State:
[[ 0.001     ]
 [ 0.001     ]
 [-0.05678681]
 [ 0.02205937]
 [-0.00545106]]

Simulating particle
Initiating Kalman filtering for particle: 107
Particle 107:
eta 3.4882564827338087, phi -1.203553699129275,
p 55.78185535220203, q -1.60217662e-19,
brem = False
output State:
[[-0.00011096]
 [ 0.00146067]
 [-0.05708685]
 [ 0.02196099]
 [-0.00537466]]
Data added to pickle list for particle: 107
Particle 108:
eta 2.050606104666165, phi 1.6885166427998035,
p 56.0, q 1.60217662e-19,
brem = False
input State:
[[ 0.001     ]
 [ 0.001     ]
 [ 0.25983385]
 [-0.03072981]
 [ 0.00535372]]

Simulating particle
Initiating Kalman filtering for particle: 108
Particle 108:
eta 2.050219835924491, phi 1.6885129558184908,
p 57.13922729505097, q 1.60217662e-19,
brem = False
output State:
[[ 0.00619039]
 [ 0.00039286]
 [ 0.25993773]
 [-0.03074112]
 [ 0.00524698]]
Data added to pickle list for particle: 108
Particle 109:
eta 4.1393964124371365, phi 2.7289424911365208,
p 56.0, q -1.60217662e-19,
brem = False
input State:
[[ 0.001     ]
 [ 0.001     ]
 [ 0.01278231]
 [-0.02919764]
 [-0.00535372]]

Simulating particle
Initiating Kalman filtering for particle: 109
Particle 109:
eta 4.136140651423406, phi 2.730782557463585,
p 54.68975988989633, q -1.60217662e-19,
brem = False
output State:
[[ 0.00126163]
 [ 0.00039267]
 [ 0.01277009]
 [-0.02931645]
 [-0.00548199]]
Data added to pickle list for particle: 109
Particle 110:
eta 2.560150319241311, phi 2.773864825706141,
p 57.00000000000001, q 1.60217662e-19,
brem = False
input State:
[[ 0.001     ]
 [ 0.001     ]
 [ 0.05590715]
 [-0.1451186 ]
 [ 0.0052598 ]]

Simulating particle
Initiating Kalman filtering for particle: 110
Particle 110:
eta 2.5596046154104135, phi 2.77459910237816,
p 57.71391886965136, q 1.60217662e-19,
brem = False
output State:
[[ 0.00212043]
 [-0.00190105]
 [ 0.0558314 ]
 [-0.1452398 ]
 [ 0.00519473]]
Data added to pickle list for particle: 110
Particle 111:
eta 2.0772838122056916, phi -1.5508898052546107,
p 57.00000000000001, q -1.60217662e-19,
brem = False
input State:
[[ 0.001     ]
 [ 0.001     ]
 [-0.25448388]
 [ 0.00506656]
 [-0.0052598 ]]

Simulating particle
Initiating Kalman filtering for particle: 111
Particle 111:
eta 2.078602699088358, phi -1.5510885202250717,
p 57.13271261860303, q -1.60217662e-19,
brem = False
output State:
[[-0.00411844]
 [ 0.00111694]
 [-0.2541388 ]
 [ 0.00500917]
 [-0.00524758]]
Data added to pickle list for particle: 111
Particle 112:
eta 4.887693990975376, phi -0.1495470240309307,
p 58.0, q 1.60217662e-19,
brem = False
input State:
[[ 0.001     ]
 [ 0.001     ]
 [-0.00224654]
 [ 0.01491014]
 [ 0.00516911]]

Simulating particle
Initiating Kalman filtering for particle: 112
Particle 112:
eta 4.898076379290694, phi -0.14979133852193902,
p 58.52084444177885, q 1.60217662e-19,
brem = False
output State:
[[ 0.00095979]
 [ 0.00130729]
 [-0.00222694]
 [ 0.01475557]
 [ 0.00512311]]
Data added to pickle list for particle: 112
Particle 113:
eta 3.70337074760654, phi -2.082373551225565,
p 58.0, q -1.60217662e-19,
brem = False
input State:
[[ 0.001     ]
 [ 0.001     ]
 [-0.04299753]
 [-0.02414016]
 [-0.00516911]]

Simulating particle
Initiating Kalman filtering for particle: 113
Particle 113:
eta 3.705090223939344, phi -2.0900730863524184,
p 58.0847531269521, q -1.60217662e-19,
brem = False
output State:
[[ 0.00012091]
 [ 0.000531  ]
 [-0.04273676]
 [-0.02442841]
 [-0.00516157]]
Data added to pickle list for particle: 113
Particle 114:
eta 4.904285750382812, phi 1.3182600115279144,
p 59.0, q 1.60217662e-19,
brem = False
input State:
[[0.001     ]
 [0.001     ]
 [0.0143599 ]
 [0.00370551]
 [0.0050815 ]]

Simulating particle
Initiating Kalman filtering for particle: 114
Particle 114:
eta 4.89189358911889, phi 1.3141572424777865,
p 61.301943195618286, q 1.60217662e-19,
brem = False
output State:
[[0.0012773 ]
 [0.00106251]
 [0.01452346]
 [0.00381133]
 [0.00489069]]
Data added to pickle list for particle: 114
Particle 115:
eta 4.8491938050391985, phi -1.2033516572399674,
p 59.0, q -1.60217662e-19,
brem = False
input State:
[[ 0.001     ]
 [ 0.001     ]
 [-0.01462432]
 [ 0.00562929]
 [-0.0050815 ]]

Simulating particle
Initiating Kalman filtering for particle: 115
Particle 115:
eta 4.835019585958834, phi -1.1735757588579245,
p 59.142487379935105, q -1.60217662e-19,
brem = False
output State:
[[ 0.00070176]
 [ 0.00107501]
 [-0.01465655]
 [ 0.00614873]
 [-0.00506926]]
Data added to pickle list for particle: 115
Particle 116:
eta 3.418075590595334, phi 2.09958672990002,
p 60.00000000000001, q 1.60217662e-19,
brem = False
input State:
[[ 0.001     ]
 [ 0.001     ]
 [ 0.05665868]
 [-0.03310529]
 [ 0.00499681]]

Simulating particle
Initiating Kalman filtering for particle: 116
Particle 116:
eta 3.4187459273454635, phi 2.1024905047595275,
p 59.3710011621494, q 1.60217662e-19,
brem = False
output State:
[[ 0.00214882]
 [ 0.0003522 ]
 [ 0.05652433]
 [-0.03324733]
 [ 0.00504975]]
Data added to pickle list for particle: 116
Particle 117:
eta 4.808074743797634, phi -2.063666610874895,
p 60.00000000000001, q -1.60217662e-19,
brem = False
input State:
[[ 0.001     ]
 [ 0.001     ]
 [-0.0143848 ]
 [-0.0077258 ]
 [-0.00499681]]

Simulating particle
Initiating Kalman filtering for particle: 117
Particle 117:
eta 4.815545536531007, phi -2.054787555168823,
p 60.76911327711251, q -1.60217662e-19,
brem = False
output State:
[[ 0.0007073 ]
 [ 0.00083238]
 [-0.01434525]
 [-0.00754122]
 [-0.00493357]]
Data added to pickle list for particle: 117
Particle 118:
eta 3.346475315306534, phi 1.4451159257811677,
p 61.0, q 1.60217662e-19,
brem = False
input State:
[[0.001     ]
 [0.001     ]
 [0.06994777]
 [0.00883765]
 [0.00491489]]

Simulating particle
Initiating Kalman filtering for particle: 118
Particle 118:
eta 3.345450412041338, phi 1.4455242642947317,
p 59.403842600951315, q 1.60217662e-19,
brem = False
output State:
[[0.00240053]
 [0.00117063]
 [0.07002328]
 [0.00881814]
 [0.00504695]]
Data added to pickle list for particle: 118
Particle 119:
eta 3.933612219057005, phi -2.7184044987906573,
p 61.0, q -1.60217662e-19,
brem = False
input State:
[[ 0.001     ]
 [ 0.001     ]
 [-0.0160821 ]
 [-0.0357061 ]
 [-0.00491489]]

Simulating particle
Initiating Kalman filtering for particle: 119
Particle 119:
eta 3.9419567025666833, phi -2.7192486822006727,
p 61.40656052176165, q -1.60217662e-19,
brem = False
output State:
[[ 0.0006621 ]
 [ 0.00025773]
 [-0.01591846]
 [-0.03542262]
 [-0.00488235]]
Data added to pickle list for particle: 119
Particle 120:
eta 4.812410749780013, phi 1.5296033443262362,
p 62.0, q 1.60217662e-19,
brem = False
input State:
[[0.001     ]
 [0.001     ]
 [0.01624376]
 [0.00066951]
 [0.00483562]]

Simulating particle
Initiating Kalman filtering for particle: 120
Particle 120:
eta 4.8127592351026935, phi 1.5127529465770262,
p 63.92615399038197, q 1.60217662e-19,
brem = False
output State:
[[0.00132113]
 [0.00100571]
 [0.01622452]
 [0.00094279]
 [0.00468992]]
Data added to pickle list for particle: 120
Particle 121:
eta 3.3287328949955786, phi 0.5604009569914448,
p 62.0, q -1.60217662e-19,
brem = False
input State:
[[ 0.001     ]
 [ 0.001     ]
 [ 0.03814716]
 [ 0.06079149]
 [-0.00483562]]

Simulating particle
Initiating Kalman filtering for particle: 121
Particle 121:
eta 3.3251200812323503, phi 0.5579442301811377,
p 61.65355228308423, q -1.60217662e-19,
brem = False
output State:
[[ 0.00175813]
 [ 0.00221069]
 [ 0.03813558]
 [ 0.06110596]
 [-0.00486279]]
Data added to pickle list for particle: 121
Particle 122:
eta 4.417006886735872, phi -2.398969816690983,
p 62.99999999999999, q 1.60217662e-19,
brem = False
input State:
[[ 0.001     ]
 [ 0.001     ]
 [-0.0163268 ]
 [-0.01778692]
 [ 0.00475887]]

Simulating particle
Initiating Kalman filtering for particle: 122
Particle 122:
eta 4.427210990293105, phi -2.409619036614094,
p 62.79358144982701, q 1.60217662e-19,
brem = False
output State:
[[ 0.00065772]
 [ 0.00064565]
 [-0.0159726 ]
 [-0.01777739]
 [ 0.00477451]]
Data added to pickle list for particle: 122
Particle 123:
eta 2.5255638961526965, phi 0.9972075291867772,
p 62.99999999999999, q -1.60217662e-19,
brem = False
input State:
[[ 0.001     ]
 [ 0.001     ]
 [ 0.13528166]
 [ 0.08739783]
 [-0.00475887]]

Simulating particle
Initiating Kalman filtering for particle: 123
Particle 123:
eta 2.5246920072277885, phi 0.9960791943390052,
p 62.73357361239681, q -1.60217662e-19,
brem = False
output State:
[[ 0.00371067]
 [ 0.00272875]
 [ 0.1353024 ]
 [ 0.08762777]
 [-0.00477908]]
Data added to pickle list for particle: 123
Particle 124:
eta 3.309643539552837, phi 2.882996158228115,
p 64.0, q 1.60217662e-19,
brem = False
input State:
[[ 0.001     ]
 [ 0.001     ]
 [ 0.01870774]
 [-0.07072355]
 [ 0.00468451]]

Simulating particle
Initiating Kalman filtering for particle: 124
Particle 124:
eta 3.3073572634006054, phi 2.8815148643159008,
p 65.72306469599997, q 1.60217662e-19,
brem = False
output State:
[[ 0.00136654]
 [-0.00040547]
 [ 0.01885566]
 [-0.07085801]
 [ 0.00456169]]
Data added to pickle list for particle: 124
Particle 125:
eta 2.9288453945719555, phi -0.9832044925372897,
p 64.0, q -1.60217662e-19,
brem = False
input State:
[[ 0.001     ]
 [ 0.001     ]
 [-0.08924009]
 [ 0.05944046]
 [-0.00468451]]

Simulating particle
Initiating Kalman filtering for particle: 125
Particle 125:
eta 2.9281404965524485, phi -0.9798351264729904,
p 64.12350446299362, q -1.60217662e-19,
brem = False
output State:
[[-0.00079043]
 [ 0.00215437]
 [-0.08910245]
 [ 0.05978317]
 [-0.00467549]]
Data added to pickle list for particle: 125
Particle 126:
eta 4.963959351048516, phi 2.953306074044045,
p 65.0, q 1.60217662e-19,
brem = False
input State:
[[ 0.001     ]
 [ 0.001     ]
 [ 0.00261506]
 [-0.01372419]
 [ 0.00461244]]

Simulating particle
Initiating Kalman filtering for particle: 126
Particle 126:
eta 4.970273203449179, phi 2.96566516680955,
p 65.16284675369697, q 1.60217662e-19,
brem = False
output State:
[[ 0.00107198]
 [ 0.00074018]
 [ 0.00242985]
 [-0.01366888]
 [ 0.00460091]]
Data added to pickle list for particle: 126
Particle 127:
eta 3.6525462126660284, phi 0.056271134551451184,
p 65.0, q -1.60217662e-19,
brem = False
input State:
[[ 0.001     ]
 [ 0.001     ]
 [ 0.00291808]
 [ 0.05180282]
 [-0.00461244]]

Simulating particle
Initiating Kalman filtering for particle: 127
Particle 127:
eta 3.6487439232841647, phi 0.05904833871977862,
p 64.53232275381484, q -1.60217662e-19,
brem = False
output State:
[[ 0.00104886]
 [ 0.00201368]
 [ 0.00307362]
 [ 0.05199209]
 [-0.00464587]]
Data added to pickle list for particle: 127
Particle 128:
eta 3.474734575382172, phi 2.2540694538772006,
p 66.0, q 1.60217662e-19,
brem = False
input State:
[[ 0.001     ]
 [ 0.001     ]
 [ 0.04808132]
 [-0.03914248]
 [ 0.00454255]]

Simulating particle
Initiating Kalman filtering for particle: 128
Particle 128:
eta 3.474836299124881, phi 2.2524720919310424,
p 65.00096599649339, q 1.60217662e-19,
brem = False
output State:
[[ 0.00195423]
 [ 0.0002218 ]
 [ 0.04813887]
 [-0.03906165]
 [ 0.00461237]]
Data added to pickle list for particle: 128
Particle 129:
eta 4.1380786009057715, phi 1.7044461894121237,
p 66.0, q -1.60217662e-19,
brem = False
input State:
[[ 0.001     ]
 [ 0.001     ]
 [ 0.03163046]
 [-0.00425276]
 [-0.00454255]]

Simulating particle
Initiating Kalman filtering for particle: 129
Particle 129:
eta 4.129873802928044, phi 1.7128307201466366,
p 65.337922984569, q -1.60217662e-19,
brem = False
output State:
[[ 0.00163309]
 [ 0.00094351]
 [ 0.03185411]
 [-0.00455505]
 [-0.00458858]]
Data added to pickle list for particle: 129
Particle 130:
eta 4.308490505689451, phi -2.2012440488872027,
p 67.0, q 1.60217662e-19,
brem = False
input State:
[[ 0.001     ]
 [ 0.001     ]
 [-0.02173899]
 [-0.01586513]
 [ 0.00447475]]

Simulating particle
Initiating Kalman filtering for particle: 130
Particle 130:
eta 4.303848534712474, phi -2.196206386728003,
p 66.24788898449404, q 1.60217662e-19,
brem = False
output State:
[[ 0.00057795]
 [ 0.00066365]
 [-0.02192019]
 [-0.01582874]
 [ 0.00452556]]
Data added to pickle list for particle: 130
Particle 131:
eta 3.0068784190339155, phi 1.4179286377019775,
p 67.0, q -1.60217662e-19,
brem = False
input State:
[[ 0.001     ]
 [ 0.001     ]
 [ 0.09797789]
 [ 0.01509542]
 [-0.00447475]]

Simulating particle
Initiating Kalman filtering for particle: 131
Particle 131:
eta 3.0076193389970065, phi 1.417523961790981,
p 67.68785033390267, q -1.60217662e-19,
brem = False
output State:
[[ 0.0029585 ]
 [ 0.00129229]
 [ 0.09789886]
 [ 0.01512381]
 [-0.00442928]]
Data added to pickle list for particle: 131
Particle 132:
eta 2.4498060788973675, phi -2.6405818881952507,
p 68.0, q 1.60217662e-19,
brem = False
input State:
[[ 0.001     ]
 [ 0.001     ]
 [-0.08353411]
 [-0.15254149]
 [ 0.00440895]]

Simulating particle
Initiating Kalman filtering for particle: 132
Particle 132:
eta 2.44942936890757, phi -2.640978780015578,
p 68.55976469479553, q 1.60217662e-19,
brem = False
output State:
[[-0.00067301]
 [-0.0020445 ]
 [-0.08350548]
 [-0.15263299]
 [ 0.00437295]]
Data added to pickle list for particle: 132
Particle 133:
eta 2.33998850946843, phi 3.131213728552101,
p 68.0, q -1.60217662e-19,
brem = False
input State:
[[ 0.001     ]
 [ 0.001     ]
 [ 0.00201827]
 [-0.19445147]
 [-0.00440895]]

Simulating particle
Initiating Kalman filtering for particle: 133
Particle 133:
eta 2.338291098311444, phi 3.1308501583512958,
p 69.09235191108922, q -1.60217662e-19,
brem = False
output State:
[[ 0.00103167]
 [-0.00286682]
 [ 0.00209258]
 [-0.19478727]
 [-0.00433924]]
Data added to pickle list for particle: 133
Particle 134:
eta 2.9922842568738464, phi 1.3277511074590895,
p 69.0, q 1.60217662e-19,
brem = False
input State:
[[0.001     ]
 [0.001     ]
 [0.097642  ]
 [0.02421001]
 [0.00434505]]

Simulating particle
Initiating Kalman filtering for particle: 134
Skip particle 134 because:('overflow encountered in double_scalars',)
Data added to pickle list for particle: 134
Particle 135:
eta 2.3669932929755033, phi -3.053294202157372,
p 69.0, q -1.60217662e-19,
brem = False
input State:
[[ 0.001     ]
 [ 0.001     ]
 [-0.01668328]
 [-0.18845062]
 [-0.00434505]]

Simulating particle
Initiating Kalman filtering for particle: 135
Particle 135:
eta 2.367706589331335, phi -3.052584105081428,
p 67.29133391731652, q -1.60217662e-19,
brem = False
output State:
[[ 0.00067895]
 [-0.00278668]
 [-0.01680489]
 [-0.18830198]
 [-0.00445538]]
Data added to pickle list for particle: 135
Particle 136:
eta 2.494375281376056, phi 1.2981941802696784,
p 70.0, q 1.60217662e-19,
brem = False
input State:
[[0.001     ]
 [0.001     ]
 [0.16009049]
 [0.04475516]
 [0.00428298]]

Simulating particle
Initiating Kalman filtering for particle: 136
Particle 136:
eta 2.4940416623174557, phi 1.296220104229151,
p 69.5432829876942, q 1.60217662e-19,
brem = False
output State:
[[0.00420835]
 [0.00186942]
 [0.16005595]
 [0.04508634]
 [0.00431111]]
Data added to pickle list for particle: 136
Particle 137:
eta 4.199830572500421, phi -2.4305759808446665,
p 70.0, q -1.60217662e-19,
brem = False
input State:
[[ 0.001     ]
 [ 0.001     ]
 [-0.01958008]
 [-0.02273322]
 [-0.00428298]]

Simulating particle
Initiating Kalman filtering for particle: 137
Particle 137:
eta 4.19859137655066, phi -2.4339303167894073,
p 69.46776246399229, q -1.60217662e-19,
brem = False
output State:
[[ 0.00060905]
 [ 0.00055479]
 [-0.01952791]
 [-0.02282706]
 [-0.00431579]]
Data added to pickle list for particle: 137
Particle 138:
eta 3.749761164846597, phi 1.792738345157513,
p 71.0, q 1.60217662e-19,
brem = False
input State:
[[ 0.001     ]
 [ 0.001     ]
 [ 0.04591816]
 [-0.01036187]
 [ 0.00422265]]

Simulating particle
Initiating Kalman filtering for particle: 138
Particle 138:
eta 3.750870230235819, phi 1.7871561047768016,
p 19.830148205748166, q -1.60217662e-19,
brem = False
output State:
[[ 0.00192149]
 [ 0.00075567]
 [ 0.04592427]
 [-0.01009417]
 [-0.01511882]]
Data added to pickle list for particle: 138
Particle 139:
eta 4.9261263790445415, phi -1.7408670099652481,
p 71.0, q -1.60217662e-19,
brem = False
input State:
[[ 0.001     ]
 [ 0.001     ]
 [-0.01430053]
 [-0.00245582]
 [-0.00422265]]

Simulating particle
Initiating Kalman filtering for particle: 139
Particle 139:
eta 4.925159056569028, phi -1.7287543601741486,
p 71.08822878953129, q -1.60217662e-19,
brem = False
output State:
[[ 0.00071561]
 [ 0.00093739]
 [-0.01434309]
 [-0.00228464]
 [-0.00421741]]
Data added to pickle list for particle: 139
Particle 140:
eta 2.3482958972024983, phi -2.292958469837057,
p 72.0, q 1.60217662e-19,
brem = False
input State:
[[ 0.001     ]
 [ 0.001     ]
 [-0.1446905 ]
 [-0.12745794]
 [ 0.00416401]]

Simulating particle
Initiating Kalman filtering for particle: 140
Particle 140:
eta 2.347924253900677, phi -2.293023428542762,
p 70.59682240864107, q 1.60217662e-19,
brem = False
output State:
[[-0.00189863]
 [-0.00153615]
 [-0.14473699]
 [-0.12751559]
 [ 0.00424677]]
Data added to pickle list for particle: 140
Particle 141:
eta 4.33619593835078, phi 2.9009982379149704,
p 72.0, q -1.60217662e-19,
brem = False
input State:
[[ 0.001     ]
 [ 0.001     ]
 [ 0.00623743]
 [-0.02542293]
 [-0.00416401]]

Simulating particle
Initiating Kalman filtering for particle: 141
Particle 141:
eta 4.33008776295934, phi 2.8912861015700155,
p 73.66872477653028, q -1.60217662e-19,
brem = False
output State:
[[ 0.00108644]
 [ 0.00049219]
 [ 0.00652379]
 [-0.02551659]
 [-0.00406968]]
Data added to pickle list for particle: 141
Particle 142:
eta 3.8360646886350307, phi -2.2816783878265596,
p 73.0, q 1.60217662e-19,
brem = False
input State:
[[ 0.001     ]
 [ 0.001     ]
 [-0.03271881]
 [-0.02817297]
 [ 0.00410697]]

Simulating particle
Initiating Kalman filtering for particle: 142
Particle 142:
eta 3.831337600215902, phi -2.279710763086237,
p 72.03540076951924, q 1.60217662e-19,
brem = False
output State:
[[ 0.00036985]
 [ 0.00041687]
 [-0.03292962]
 [-0.02824185]
 [ 0.00416196]]
Data added to pickle list for particle: 142
Particle 143:
eta 3.31906230785383, phi 1.1840421856570527,
p 73.0, q -1.60217662e-19,
brem = False
input State:
[[ 0.001     ]
 [ 0.001     ]
 [ 0.06711575]
 [ 0.02733394]
 [-0.00410697]]

Simulating particle
Initiating Kalman filtering for particle: 143
Particle 143:
eta 3.3229692812857667, phi 1.1823631019563556,
p 72.4921153700552, q -1.60217662e-19,
brem = False
output State:
[[ 0.00237339]
 [ 0.00155155]
 [ 0.06680755]
 [ 0.02733929]
 [-0.00413574]]
Data added to pickle list for particle: 143
Particle 144:
eta 3.224211239401401, phi -0.7042363112994202,
p 73.99999999999999, q 1.60217662e-19,
brem = False
input State:
[[ 0.001     ]
 [ 0.001     ]
 [-0.05160223]
 [ 0.06074022]
 [ 0.00405147]]

Simulating particle
Initiating Kalman filtering for particle: 144
Particle 144:
eta 3.220690365004394, phi -0.7019770991378275,
p 74.87956831687605, q 1.60217662e-19,
brem = False
output State:
[[-1.52406042e-05]
 [ 2.18472834e-03]
 [-5.16469724e-02]
 [ 6.10719807e-02]
 [ 4.00387590e-03]]
Data added to pickle list for particle: 144
Particle 145:
eta 2.2895792666248846, phi 0.04960238471360867,
p 73.99999999999999, q -1.60217662e-19,
brem = False
input State:
[[ 0.001     ]
 [ 0.001     ]
 [ 0.0101504 ]
 [ 0.2044675 ]
 [-0.00405147]]

Simulating particle
Initiating Kalman filtering for particle: 145
Particle 145:
eta 2.288210916041642, phi 0.05010991182624247,
p 73.56433992221187, q -1.60217662e-19,
brem = False
output State:
[[ 0.00119715]
 [ 0.00507371]
 [ 0.01026851]
 [ 0.20474811]
 [-0.00407546]]
Data added to pickle list for particle: 145
Particle 146:
eta 3.2185127489752188, phi 2.442619465620417,
p 75.0, q 1.60217662e-19,
brem = False
input State:
[[ 0.001     ]
 [ 0.001     ]
 [ 0.05157583]
 [-0.06136075]
 [ 0.00399745]]

Simulating particle
Initiating Kalman filtering for particle: 146
Particle 146:
eta 3.2145353458035384, phi 2.446016931301179,
p 77.45117193392474, q 1.60217662e-19,
brem = False
output State:
[[ 0.00202166]
 [-0.00018077]
 [ 0.05157244]
 [-0.06178165]
 [ 0.00387094]]
Data added to pickle list for particle: 146
Particle 147:
eta 4.971648580068237, phi -1.7421338224188863,
p 75.0, q -1.60217662e-19,
brem = False
input State:
[[ 0.001     ]
 [ 0.001     ]
 [-0.01366108]
 [-0.00236383]
 [-0.00399745]]

Simulating particle
Initiating Kalman filtering for particle: 147
Particle 147:
eta 4.9863553287259075, phi -1.7334531154501336,
p 76.48842319007085, q -1.60217662e-19,
brem = False
output State:
[[ 0.00071017]
 [ 0.00095117]
 [-0.01348134]
 [-0.00221238]
 [-0.00391966]]
Data added to pickle list for particle: 147
Particle 148:
eta 3.6946304677976216, phi -0.33590386478935585,
p 76.0, q 1.60217662e-19,
brem = False
input State:
[[ 0.001     ]
 [ 0.001     ]
 [-0.01639675]
 [ 0.04696395]
 [ 0.00394485]]

Simulating particle
Initiating Kalman filtering for particle: 148
Particle 148:
eta 3.6932713567743027, phi -0.3380713812302925,
p 75.61410431130459, q 1.60217662e-19,
brem = False
output State:
[[ 0.00066304]
 [ 0.00193398]
 [-0.01652098]
 [ 0.04699221]
 [ 0.00396498]]
Data added to pickle list for particle: 148
Particle 149:
eta 2.6168457150747075, phi -1.3127769472462227,
p 76.0, q -1.60217662e-19,
brem = False
input State:
[[ 0.001     ]
 [ 0.001     ]
 [-0.14198789]
 [ 0.03747087]
 [-0.00394485]]

Simulating particle
Initiating Kalman filtering for particle: 149
Particle 149:
eta 2.618064578014544, phi -1.3132053025608854,
p 76.9821672002414, q -1.60217662e-19,
brem = False
output State:
[[-0.00183832]
 [ 0.00176957]
 [-0.1418291 ]
 [ 0.03736399]
 [-0.00389452]]
Data added to pickle list for particle: 149
Particle 150:
eta 3.720768734328106, phi -0.99827544763372,
p 77.0, q 1.60217662e-19,
brem = False
input State:
[[ 0.001     ]
 [ 0.001     ]
 [-0.04073172]
 [ 0.02625285]
 [ 0.00389362]]

Simulating particle
Initiating Kalman filtering for particle: 150
Particle 150:
eta 3.7272955937194925, phi -1.014059043956633,
p 77.11465298281806, q 1.60217662e-19,
brem = False
output State:
[[ 0.00020348]
 [ 0.00158713]
 [-0.04087303]
 [ 0.02543993]
 [ 0.00388783]]
Data added to pickle list for particle: 150
Particle 151:
eta 3.396878425283967, phi -1.7002437290301051,
p 77.0, q -1.60217662e-19,
brem = False
input State:
[[ 0.001     ]
 [ 0.001     ]
 [-0.06646953]
 [-0.00865269]
 [-0.00389362]]

Simulating particle
Initiating Kalman filtering for particle: 151
Particle 151:
eta 3.4011308416377006, phi -1.7052104672914679,
p 77.16107491421444, q -1.60217662e-19,
brem = False
output State:
[[-0.00034508]
 [ 0.00085076]
 [-0.06614323]
 [-0.00894452]
 [-0.00388549]]
Data added to pickle list for particle: 151
Particle 152:
eta 2.1502170855848255, phi -0.782041649183,
p 78.0, q 1.60217662e-19,
brem = False
input State:
[[ 0.001     ]
 [ 0.001     ]
 [-0.16640082]
 [ 0.16752164]
 [ 0.0038437 ]]

Simulating particle
Initiating Kalman filtering for particle: 152
Particle 152:
eta 2.149980639502917, phi -0.7821648293661067,
p 78.79625828605514, q 1.60217662e-19,
brem = False
output State:
[[-0.0023234 ]
 [ 0.00435238]
 [-0.16646189]
 [ 0.16754184]
 [ 0.00380486]]
Data added to pickle list for particle: 152
Particle 153:
eta 4.9877024666264465, phi -2.3008806634329515,
p 78.0, q -1.60217662e-19,
brem = False
input State:
[[ 0.001     ]
 [ 0.001     ]
 [-0.01016585]
 [-0.00909914]
 [-0.0038437 ]]

Simulating particle
Initiating Kalman filtering for particle: 153
Particle 153:
eta 4.98054375626992, phi -2.2786887870588006,
p 78.18679339514283, q -1.60217662e-19,
brem = False
output State:
[[ 0.00081391]
 [ 0.00079998]
 [-0.01043973]
 [-0.00893506]
 [-0.00383452]]
Data added to pickle list for particle: 153
Particle 154:
eta 3.307940271664253, phi 1.5933416742458837,
p 79.0, q 1.60217662e-19,
brem = False
input State:
[[ 0.001     ]
 [ 0.001     ]
 [ 0.07326242]
 [-0.00165201]
 [ 0.00379504]]

Simulating particle
Initiating Kalman filtering for particle: 154
Particle 154:
eta 3.3065849896188535, phi 1.591111789947302,
p 80.01520152116382, q 1.60217662e-19,
brem = False
output State:
[[ 0.00246018]
 [ 0.00096849]
 [ 0.07336556]
 [-0.00149066]
 [ 0.00374689]]
Data added to pickle list for particle: 154
Particle 155:
eta 4.276891122647944, phi 2.748240482179466,
p 79.0, q -1.60217662e-19,
brem = False
input State:
[[ 0.001     ]
 [ 0.001     ]
 [ 0.01064651]
 [-0.02565555]
 [-0.00379504]]

Simulating particle
Initiating Kalman filtering for particle: 155
Particle 155:
eta 4.278031220090013, phi 2.748111316242002,
p 77.34802535068081, q -1.60217662e-19,
brem = False
output State:
[[ 0.00122468]
 [ 0.0004839 ]
 [ 0.01063769]
 [-0.02562493]
 [-0.0038761 ]]
Data added to pickle list for particle: 155
Particle 156:
eta 3.840847851622121, phi 2.3447802293892015,
p 80.0, q 1.60217662e-19,
brem = False
input State:
[[ 0.001     ]
 [ 0.001     ]
 [ 0.03072963]
 [-0.030036  ]
 [ 0.00374761]]

Simulating particle
Initiating Kalman filtering for particle: 156
Particle 156:
eta 3.842433596643303, phi 2.350130230129118,
p 82.24962614964194, q 1.60217662e-19,
brem = False
output State:
[[ 0.00163161]
 [ 0.0004002 ]
 [ 0.03052002]
 [-0.03015208]
 [ 0.0036451 ]]
Data added to pickle list for particle: 156
Particle 157:
eta 2.035233798469971, phi 1.1213322220789232,
p 80.0, q -1.60217662e-19,
brem = False
input State:
[[ 0.001     ]
 [ 0.001     ]
 [ 0.23943459]
 [ 0.11550188]
 [-0.00374761]]

Simulating particle
Initiating Kalman filtering for particle: 157
Particle 157:
eta 2.0344347828176086, phi 1.1207116512574369,
p 79.2735354763884, q -1.60217662e-19,
brem = False
output State:
[[ 0.00579078]
 [ 0.00329841]
 [ 0.23956085]
 [ 0.1157461 ]
 [-0.00378195]]
Data added to pickle list for particle: 157
Particle 158:
eta 2.2751181783947327, phi -2.40529181955602,
p 81.0, q 1.60217662e-19,
brem = False
input State:
[[ 0.001     ]
 [ 0.001     ]
 [-0.13952457]
 [-0.15394472]
 [ 0.00370134]]

Simulating particle
Initiating Kalman filtering for particle: 158
Particle 158:
eta 2.2753519894486938, phi -2.404770503816918,
p 80.1731015818783, q 1.60217662e-19,
brem = False
output State:
[[-0.00178085]
 [-0.00209372]
 [-0.13957148]
 [-0.15383522]
 [ 0.00373951]]
Data added to pickle list for particle: 158
Particle 159:
eta 3.5892214941800566, phi -2.3954991028037322,
p 81.0, q -1.60217662e-19,
brem = False
input State:
[[ 0.001     ]
 [ 0.001     ]
 [-0.03752393]
 [-0.04059599]
 [-0.00370134]]

Simulating particle
Initiating Kalman filtering for particle: 159
Particle 159:
eta 3.588196470909562, phi -2.390674181295168,
p 81.9362555544988, q -1.60217662e-19,
brem = False
output State:
[[ 0.00027172]
 [ 0.00016789]
 [-0.03775811]
 [-0.04045598]
 [-0.00365905]]
Data added to pickle list for particle: 159
Particle 160:
eta 3.110706370904495, phi 2.505662277200339,
p 82.0, q 1.60217662e-19,
brem = False
input State:
[[ 0.001     ]
 [ 0.001     ]
 [ 0.05304732]
 [-0.07185674]
 [ 0.0036562 ]]

Simulating particle
Initiating Kalman filtering for particle: 160
Particle 160:
eta 3.1127690660665985, phi 2.504559593021863,
p 80.92744740614125, q 1.60217662e-19,
brem = False
output State:
[[ 0.00205639]
 [-0.00045095]
 [ 0.05301662]
 [-0.07164967]
 [ 0.00370466]]
Data added to pickle list for particle: 160
Particle 161:
eta 3.348270785894699, phi 0.768165510188069,
p 82.0, q -1.60217662e-19,
brem = False
input State:
[[ 0.001     ]
 [ 0.001     ]
 [ 0.04889919]
 [ 0.05061425]
 [-0.0036562 ]]

Simulating particle
Initiating Kalman filtering for particle: 161
Particle 161:
eta 3.347664253526496, phi 0.7667796744601671,
p 81.48987877972324, q -1.60217662e-19,
brem = False
output State:
[[ 0.00200351]
 [ 0.00199644]
 [ 0.0488587 ]
 [ 0.05071279]
 [-0.00367909]]
Data added to pickle list for particle: 161
Particle 162:
eta 4.564231809993938, phi -1.4240948782593368,
p 83.0, q 1.60217662e-19,
brem = False
input State:
[[ 0.001     ]
 [ 0.001     ]
 [-0.02061419]
 [ 0.00304601]
 [ 0.00361215]]

Simulating particle
Initiating Kalman filtering for particle: 162
Particle 162:
eta 4.567666853470772, phi -1.4209451519739154,
p 82.47839802858908, q 1.60217662e-19,
brem = False
output State:
[[ 0.00057658]
 [ 0.0010471 ]
 [-0.02053382]
 [ 0.00310026]
 [ 0.00363499]]
Data added to pickle list for particle: 162
Particle 163:
eta 4.051869450189931, phi 1.0935030569543878,
p 83.0, q -1.60217662e-19,
brem = False
input State:
[[ 0.001     ]
 [ 0.001     ]
 [ 0.03090209]
 [ 0.0159818 ]
 [-0.00361215]]

Simulating particle
Initiating Kalman filtering for particle: 163
Particle 163:
eta 4.0498384767770075, phi 1.098251394323896,
p 84.42850224042546, q -1.60217662e-19,
brem = False
output State:
[[ 0.00161228]
 [ 0.00132889]
 [ 0.03104065]
 [ 0.0158671 ]
 [-0.00355103]]
Data added to pickle list for particle: 163
Particle 164:
eta 3.629681299408785, phi 1.7313050455431613,
p 84.0, q 1.60217662e-19,
brem = False
input State:
[[ 0.001     ]
 [ 0.001     ]
 [ 0.05240425]
 [-0.00848433]
 [ 0.00356915]]

Simulating particle
Initiating Kalman filtering for particle: 164
Particle 164:
eta 3.6352068902926202, phi 1.7332718015624091,
p 84.04140962273854, q 1.60217662e-19,
brem = False
output State:
[[ 0.00207598]
 [ 0.00083793]
 [ 0.05209839]
 [-0.00853999]
 [ 0.00356739]]
Data added to pickle list for particle: 164
Particle 165:
eta 4.723066594576257, phi 0.9929110767562138,
p 84.0, q -1.60217662e-19,
brem = False
input State:
[[ 0.001     ]
 [ 0.001     ]
 [ 0.01489051]
 [ 0.00971084]
 [-0.00356915]]

Simulating particle
Initiating Kalman filtering for particle: 165
Particle 165:
eta 4.723572289552944, phi 0.9928473458523825,
p 85.16192603425985, q -1.60217662e-19,
brem = False
output State:
[[ 0.00129812]
 [ 0.00119559]
 [ 0.01488236]
 [ 0.00970688]
 [-0.00352045]]
Data added to pickle list for particle: 165
Particle 166:
eta 4.390575862732599, phi -1.6641453735386114,
p 85.0, q 1.60217662e-19,
brem = False
input State:
[[ 0.001     ]
 [ 0.001     ]
 [-0.02468305]
 [-0.00231086]
 [ 0.00352716]]

Simulating particle
Initiating Kalman filtering for particle: 166
Particle 166:
eta 4.392340734277336, phi -1.6675767014693637,
p 87.0520157758046, q 1.60217662e-19,
brem = False
output State:
[[ 0.00051377]
 [ 0.00098278]
 [-0.02463145]
 [-0.00239131]
 [ 0.00344402]]
Data added to pickle list for particle: 166
Particle 167:
eta 4.672495319810841, phi 0.7436504608613479,
p 85.0, q -1.60217662e-19,
brem = False
input State:
[[ 0.001     ]
 [ 0.001     ]
 [ 0.01265914]
 [ 0.01376284]
 [-0.00352716]]

Simulating particle
Initiating Kalman filtering for particle: 167
Particle 167:
eta 4.670985242769477, phi 0.750661359032751,
p 86.22106456521591, q -1.60217662e-19,
brem = False
output State:
[[ 0.00124721]
 [ 0.00127413]
 [ 0.0127746 ]
 [ 0.01369442]
 [-0.00347721]]
Data added to pickle list for particle: 167
Particle 168:
eta 3.919827689280238, phi 3.031002757837816,
p 86.0, q 1.60217662e-19,
brem = False
input State:
[[ 0.001     ]
 [ 0.001     ]
 [ 0.00438199]
 [-0.03946211]
 [ 0.00348615]]

Simulating particle
Initiating Kalman filtering for particle: 168
Particle 168:
eta 3.9152606984821956, phi 3.039142969739341,
p 84.73989019202278, q 1.60217662e-19,
brem = False
output State:
[[ 0.00110399]
 [ 0.00022328]
 [ 0.00407922]
 [-0.03967741]
 [ 0.00353799]]
Data added to pickle list for particle: 168
Particle 169:
eta 3.14948149928103, phi 1.4307885181318207,
p 86.0, q -1.60217662e-19,
brem = False
input State:
[[ 0.001     ]
 [ 0.001     ]
 [ 0.08506601]
 [ 0.01198834]
 [-0.00348615]]

Simulating particle
Initiating Kalman filtering for particle: 169
Particle 169:
eta 3.148977785148181, phi 1.4322885374781031,
p 86.38911703295808, q -1.60217662e-19,
brem = False
output State:
[[ 0.00270182]
 [ 0.00124535]
 [ 0.08512693]
 [ 0.01186673]
 [-0.00347044]]
Data added to pickle list for particle: 169
Particle 170:
eta 4.510021051523304, phi -0.017265143256208895,
p 87.0, q 1.60217662e-19,
brem = False
input State:
[[ 0.001     ]
 [ 0.001     ]
 [-0.0003798 ]
 [ 0.02199584]
 [ 0.00344607]]

Simulating particle
Initiating Kalman filtering for particle: 170
Particle 170:
eta 4.514346951662323, phi -0.006307600245010129,
p 86.89732623756143, q 1.60217662e-19,
brem = False
output State:
[[ 0.00097548]
 [ 0.00146501]
 [-0.00013816]
 [ 0.0219037 ]
 [ 0.00345015]]
Data added to pickle list for particle: 170
Particle 171:
eta 4.55661060811502, phi -2.718951568005546,
p 87.0, q -1.60217662e-19,
brem = False
input State:
[[ 0.001     ]
 [ 0.001     ]
 [-0.00861255]
 [-0.01914988]
 [-0.00344607]]

Simulating particle
Initiating Kalman filtering for particle: 171
Particle 171:
eta 4.560747271116035, phi -2.71866061626239,
p 87.14306793558372, q -1.60217662e-19,
brem = False
output State:
[[ 0.00083256]
 [ 0.00060336]
 [-0.00858253]
 [-0.01906831]
 [-0.00344042]]
Data added to pickle list for particle: 171
Particle 172:
eta 2.374103982646398, phi -2.980043199101466,
p 88.0, q 1.60217662e-19,
brem = False
input State:
[[ 0.001     ]
 [ 0.001     ]
 [-0.030211  ]
 [-0.18537804]
 [ 0.00340691]]

Simulating particle
Initiating Kalman filtering for particle: 172
Particle 172:
eta 2.3736043523091794, phi -2.980129938148093,
p 87.61985216203334, q 1.60217662e-19,
brem = False
output State:
[[ 0.00040037]
 [-0.00269775]
 [-0.03021027]
 [-0.18547493]
 [ 0.0034217 ]]
Data added to pickle list for particle: 172
Particle 173:
eta 4.5982815400607935, phi 0.8240654204958359,
p 88.0, q -1.60217662e-19,
brem = False
input State:
[[ 0.001     ]
 [ 0.001     ]
 [ 0.01478123]
 [ 0.01368015]
 [-0.00340691]]

Simulating particle
Initiating Kalman filtering for particle: 173
Particle 173:
eta 4.600048332717704, phi 0.8378942732944801,
p 87.59224346665636, q -1.60217662e-19,
brem = False
output State:
[[ 0.00128437]
 [ 0.00128863]
 [ 0.01494256]
 [ 0.01345066]
 [-0.00342277]]
Data added to pickle list for particle: 173
Particle 174:
eta 3.956005733546718, phi -0.9251534349616474,
p 89.0, q 1.60217662e-19,
brem = False
input State:
[[ 0.001     ]
 [ 0.001     ]
 [-0.030585  ]
 [ 0.02304127]
 [ 0.00336863]]

Simulating particle
Initiating Kalman filtering for particle: 174
Particle 174:
eta 3.953204560827848, phi -0.9216070372822263,
p 88.83451083568653, q 1.60217662e-19,
brem = False
output State:
[[ 0.00038107]
 [ 0.00144334]
 [-0.03058872]
 [ 0.02321457]
 [ 0.00337491]]
Data added to pickle list for particle: 174
Particle 175:
eta 4.314513560117785, phi -0.7227724292386777,
p 89.0, q -1.60217662e-19,
brem = False
input State:
[[ 0.001     ]
 [ 0.001     ]
 [-0.01769482]
 [ 0.02006249]
 [-0.00336863]]

Simulating particle
Initiating Kalman filtering for particle: 175
Particle 175:
eta 4.333025827943592, phi -0.7415166001601687,
p 86.9852748840925, q -1.60217662e-19,
brem = False
output State:
[[ 0.00065995]
 [ 0.00145821]
 [-0.01773623]
 [ 0.01936535]
 [-0.00344666]]
Data added to pickle list for particle: 175
Particle 176:
eta 3.2613914191653652, phi 0.8400131240028615,
p 90.0, q 1.60217662e-19,
brem = False
input State:
[[0.001     ]
 [0.001     ]
 [0.05717652]
 [0.05124897]
 [0.00333121]]

Simulating particle
Initiating Kalman filtering for particle: 176
Particle 176:
eta 3.257659214223232, phi 0.8383555420611936,
p 91.32492072685095, q 1.60217662e-19,
brem = False
output State:
[[0.00213599]
 [0.00199709]
 [0.05730559]
 [0.05153622]
 [0.00328288]]
Data added to pickle list for particle: 176
Particle 177:
eta 2.0275364906011277, phi 1.380892745866844,
p 90.0, q -1.60217662e-19,
brem = False
input State:
[[ 0.001     ]
 [ 0.001     ]
 [ 0.26314654]
 [ 0.05058199]
 [-0.00333121]]

Simulating particle
Initiating Kalman filtering for particle: 177
Particle 177:
eta 2.0278094784631615, phi 1.3816097457439147,
p 86.16562182795188, q -1.60217662e-19,
brem = False
output State:
[[ 0.00627163]
 [ 0.00204561]
 [ 0.26310837]
 [ 0.05037906]
 [-0.00347944]]
Data added to pickle list for particle: 177
Particle 178:
eta 3.7509505731298383, phi -1.8763340216585698,
p 91.0, q 1.60217662e-19,
brem = False
input State:
[[ 0.001     ]
 [ 0.001     ]
 [-0.04483919]
 [-0.01414292]
 [ 0.0032946 ]]

Simulating particle
Initiating Kalman filtering for particle: 178
Particle 178:
eta 3.752635264748971, phi -1.8768724344343077,
p 92.53889847452876, q 1.60217662e-19,
brem = False
output State:
[[ 0.00010196]
 [ 0.00070248]
 [-0.04475602]
 [-0.01414319]
 [ 0.00323981]]
Data added to pickle list for particle: 178
Particle 179:
eta 3.932196993329955, phi -2.833155748370768,
p 91.0, q -1.60217662e-19,
brem = False
input State:
[[ 0.001     ]
 [ 0.001     ]
 [-0.01190485]
 [-0.03736555]
 [-0.0032946 ]]

Simulating particle
Initiating Kalman filtering for particle: 179
Particle 179:
eta 3.9332481993368833, phi -2.828445576076919,
p 93.24081246490982, q -1.60217662e-19,
brem = False
output State:
[[ 0.00077227]
 [ 0.00024778]
 [-0.01206801]
 [-0.03726983]
 [-0.00321542]]
Data added to pickle list for particle: 179
Particle 180:
eta 3.065119003244516, phi -1.8073678669723754,
p 92.0, q 1.60217662e-19,
brem = False
input State:
[[ 0.001     ]
 [ 0.001     ]
 [-0.09089581]
 [-0.0219137 ]
 [ 0.00325879]]

Simulating particle
Initiating Kalman filtering for particle: 180
Particle 180:
eta 3.064897054833238, phi -1.8084817899812387,
p 92.67386030264117, q 1.60217662e-19,
brem = False
output State:
[[-0.00081989]
 [ 0.00056303]
 [-0.0908916 ]
 [-0.02201985]
 [ 0.00323509]]
Data added to pickle list for particle: 180
Particle 181:
eta 2.930094105539007, phi 2.0736134124435126,
p 92.0, q -1.60217662e-19,
brem = False
input State:
[[ 0.001     ]
 [ 0.001     ]
 [ 0.0938347 ]
 [-0.05160589]
 [-0.00325879]]

Simulating particle
Initiating Kalman filtering for particle: 181
Particle 181:
eta 2.9303190754026693, phi 2.0698263888925856,
p 93.13310169189721, q -1.60217662e-19,
brem = False
output State:
[[ 2.86688872e-03]
 [-5.03139251e-05]
 [ 9.40081899e-02]
 [-5.12385758e-02]
 [-3.21914007e-03]]
Data added to pickle list for particle: 181
Particle 182:
eta 4.584308549789078, phi 0.4773111626179384,
p 93.0, q 1.60217662e-19,
brem = False
input State:
[[0.001     ]
 [0.001     ]
 [0.00938252]
 [0.01814105]
 [0.00322375]]

Simulating particle
Initiating Kalman filtering for particle: 182
Particle 182:
eta 4.5947075360780865, phi 0.48692132610591266,
p 92.35604980550579, q 1.60217662e-19,
brem = False
output State:
[[0.00118822]
 [0.0013876 ]
 [0.00945754]
 [0.01786328]
 [0.00324622]]
Data added to pickle list for particle: 182
Particle 183:
eta 4.763957748844416, phi 1.3639287917412442,
p 93.0, q -1.60217662e-19,
brem = False
input State:
[[ 0.001     ]
 [ 0.001     ]
 [ 0.01670096]
 [ 0.00350503]
 [-0.00322375]]

Simulating particle
Initiating Kalman filtering for particle: 183
Particle 183:
eta 4.7578220853275965, phi 1.377460033543239,
p 93.56210602380305, q -1.60217662e-19,
brem = False
output State:
[[ 0.00132888]
 [ 0.00108586]
 [ 0.01684994]
 [ 0.00329891]
 [-0.00320438]]
Data added to pickle list for particle: 183
Particle 184:
eta 4.104962459903187, phi -1.1980630444580997,
p 94.0, q 1.60217662e-19,
brem = False
input State:
[[ 0.001     ]
 [ 0.001     ]
 [-0.03072499]
 [ 0.01201381]
 [ 0.00318945]]

Simulating particle
Initiating Kalman filtering for particle: 184
Particle 184:
eta 4.104111438037763, phi -1.2064766114853862,
p 95.35010561528468, q 1.60217662e-19,
brem = False
output State:
[[ 0.00039493]
 [ 0.0012549 ]
 [-0.03085124]
 [ 0.01176489]
 [ 0.00314429]]
Data added to pickle list for particle: 184
Particle 185:
eta 3.941959547147838, phi 1.46880981213945,
p 94.0, q -1.60217662e-19,
brem = False
input State:
[[ 0.001     ]
 [ 0.001     ]
 [ 0.03863313]
 [ 0.00395378]
 [-0.00318945]]

Simulating particle
Initiating Kalman filtering for particle: 185
Particle 185:
eta 3.9473811019408314, phi 1.4748510244406674,
p 96.41697516434296, q -1.60217662e-19,
brem = False
output State:
[[ 0.00178001]
 [ 0.00109377]
 [ 0.03844714]
 [ 0.00370018]
 [-0.0031095 ]]
Data added to pickle list for particle: 185
Particle 186:
eta 2.837620699979449, phi -1.5878094999288486,
p 95.0, q 1.60217662e-19,
brem = False
input State:
[[ 0.001     ]
 [ 0.001     ]
 [-0.1175158 ]
 [-0.00199951]
 [ 0.00315588]]

Simulating particle
Initiating Kalman filtering for particle: 186
Particle 186:
eta 2.8389063556901855, phi -1.584974264495906,
p 94.95331363074894, q 1.60217662e-19,
brem = False
output State:
[[-0.00136728]
 [ 0.0009336 ]
 [-0.11736896]
 [-0.00166416]
 [ 0.00315743]]
Data added to pickle list for particle: 186
Particle 187:
eta 4.154118206242205, phi -1.2842768489877465,
p 95.0, q -1.60217662e-19,
brem = False
input State:
[[ 0.001     ]
 [ 0.001     ]
 [-0.03012664]
 [ 0.0088761 ]
 [-0.00315588]]

Simulating particle
Initiating Kalman filtering for particle: 187
Particle 187:
eta 4.160367290539185, phi -1.2881971051740293,
p 94.34553192050487, q -1.60217662e-19,
brem = False
output State:
[[ 0.00036715]
 [ 0.00119689]
 [-0.02997322]
 [ 0.00870334]
 [-0.00317777]]
Data added to pickle list for particle: 187
Particle 188:
eta 4.81466324394293, phi -1.1820125558017562,
p 96.0, q 1.60217662e-19,
brem = False
input State:
[[ 0.001     ]
 [ 0.001     ]
 [-0.01501041]
 [ 0.00614877]
 [ 0.00312301]]

Simulating particle
Initiating Kalman filtering for particle: 188
Particle 188:
eta 4.81733869599772, phi -1.1655786815273976,
p 96.25355689904727, q 1.60217662e-19,
brem = False
output State:
[[ 0.00068161]
 [ 0.00110584]
 [-0.01486751]
 [ 0.00637752]
 [ 0.00311478]]
Data added to pickle list for particle: 188
Particle 189:
eta 3.752934685391012, phi 2.635608558682977,
p 96.0, q -1.60217662e-19,
brem = False
input State:
[[ 0.001     ]
 [ 0.001     ]
 [ 0.02274232]
 [-0.04104385]
 [-0.00312301]]

Simulating particle
Initiating Kalman filtering for particle: 189
Particle 189:
eta 3.747848920109342, phi 2.633985320649374,
p 95.66216079882625, q -1.60217662e-19,
brem = False
output State:
[[ 0.00143024]
 [ 0.00018841]
 [ 0.02292534]
 [-0.0412162 ]
 [-0.00313403]]
Data added to pickle list for particle: 189
Particle 190:
eta 4.850525302227958, phi 1.3389823311860702,
p 97.0, q 1.60217662e-19,
brem = False
input State:
[[0.001     ]
 [0.001     ]
 [0.01523089]
 [0.00359537]
 [0.00309081]]

Simulating particle
Initiating Kalman filtering for particle: 190
Particle 190:
eta 4.861915306098314, phi 1.319414362711522,
p 94.89232858254377, q 1.60217662e-19,
brem = False
output State:
[[0.00132476]
 [0.00107032]
 [0.01498593]
 [0.00384861]
 [0.00315946]]
Data added to pickle list for particle: 190
Particle 191:
eta 3.203090701731749, phi -1.6805757072313396,
p 97.0, q -1.60217662e-19,
brem = False
input State:
[[ 0.001     ]
 [ 0.001     ]
 [-0.08091721]
 [-0.0089189 ]
 [-0.00309081]]

Simulating particle
Initiating Kalman filtering for particle: 191
Particle 191:
eta 3.2010557725926763, phi -1.6793662761796844,
p 98.73164924353831, q -1.60217662e-19,
brem = False
output State:
[[-0.00060618]
 [ 0.00080416]
 [-0.08109334]
 [-0.00883906]
 [-0.0030366 ]]
Data added to pickle list for particle: 191
Particle 192:
eta 4.393226042830852, phi 0.6146921703959893,
p 98.0, q 1.60217662e-19,
brem = False
input State:
[[0.001     ]
 [0.001     ]
 [0.01425929]
 [0.0201994 ]
 [0.00305927]]

Simulating particle
Initiating Kalman filtering for particle: 192
Particle 192:
eta 4.392597033701843, phi 0.6128365376512507,
p 99.05226046612128, q 1.60217662e-19,
brem = False
output State:
[[0.00129727]
 [0.00139946]
 [0.01423073]
 [0.02023856]
 [0.00302677]]
Data added to pickle list for particle: 192
Particle 193:
eta 4.190068147172817, phi 1.4412662329428096,
p 98.0, q -1.60217662e-19,
brem = False
input State:
[[ 0.001     ]
 [ 0.001     ]
 [ 0.03004364]
 [ 0.00391347]
 [-0.00305927]]

Simulating particle
Initiating Kalman filtering for particle: 193
Particle 193:
eta 4.190551961508067, phi 1.446621078454654,
p 95.586231426673, q -1.60217662e-19,
brem = False
output State:
[[ 0.00160918]
 [ 0.00110556]
 [ 0.03004962]
 [ 0.00375072]
 [-0.00313652]]
Data added to pickle list for particle: 193
Particle 194:
eta 4.169254497108746, phi 3.0132300351248102,
p 99.00000000000001, q 1.60217662e-19,
brem = False
input State:
[[ 0.001     ]
 [ 0.001     ]
 [ 0.00396   ]
 [-0.03068046]
 [ 0.00302837]]

Simulating particle
Initiating Kalman filtering for particle: 194
Particle 194:
eta 4.165169449010254, phi 3.0187306408684162,
p 98.33706067279034, q 1.60217662e-19,
brem = False
output State:
[[ 0.00110157]
 [ 0.0004057 ]
 [ 0.0038067 ]
 [-0.03082751]
 [ 0.00304878]]
Data added to pickle list for particle: 194
Particle 195:
eta 3.113061794026632, phi -1.7321017485855186,
p 99.00000000000001, q -1.60217662e-19,
brem = False
input State:
[[ 0.001     ]
 [ 0.001     ]
 [-0.08794866]
 [-0.01431093]
 [-0.00302837]]

Simulating particle
Initiating Kalman filtering for particle: 195
Particle 195:
eta 3.1140076148421794, phi -1.7346664280240942,
p 101.8511660307393, q -1.60217662e-19,
brem = False
output State:
[[-0.0007805 ]
 [ 0.00073112]
 [-0.08782823]
 [-0.01452265]
 [-0.00294359]]
Data added to pickle list for particle: 195
3 particles skipped because: FloatingPointError